%YAML 1.1
%TAG !u! tag:unity3d.com,2011:
--- !u!213 &21300000
Sprite:
  m_ObjectHideFlags: 0
  m_PrefabParentObject: {fileID: 0}
  m_PrefabInternal: {fileID: 0}
  m_Name: STARSpetalC
  m_Rect:
    serializedVersion: 2
    x: 10.07612
    y: 13.026751
    width: 31.897127
    height: 26.930342
  m_Offset: {x: -0.0246835, y: -0.49192145}
  m_Border: {x: 0, y: 0, z: 0, w: 0}
  m_PixelsToUnits: 100
  m_Extrude: 1
  m_AtlasName:
  m_PackingTag:
  m_RD:
    texture: {fileID: 2800000, guid: d9d597eaf9085f947ab394951237fe83, type: 3}
    alphaTexture: {fileID: 0}
    vertices:
    - serializedVersion: 2
      pos: {x: 0.15, y: 0.14, z: 0}
    - serializedVersion: 2
      pos: {x: 0.16, y: 0, z: 0}
    - serializedVersion: 2
      pos: {x: 0.16, y: 0.11, z: 0}
    - serializedVersion: 2
      pos: {x: 0.07, y: -0.13, z: 0}
    - serializedVersion: 2
      pos: {x: -0.02, y: 0.14, z: 0}
    - serializedVersion: 2
      pos: {x: -0.08, y: -0.13, z: 0}
    - serializedVersion: 2
      pos: {x: -0.1, y: 0.12, z: 0}
    - serializedVersion: 2
      pos: {x: -0.16, y: 0.03, z: 0}
    - serializedVersion: 2
      pos: {x: -0.16, y: -0.06, z: 0}
    indices:
    - 8
    - 7
    - 5
    - 6
    - 5
    - 7
    - 4
    - 5
    - 6
    - 3
    - 5
    - 4
    - 0
    - 3
    - 4
    - 1
    - 3
    - 0
    - 2
    - 1
    - 0
    textureRect:
      serializedVersion: 2
      x: 10.07612
      y: 13.026751
      width: 31.897127
      height: 26.930342
    textureRectOffset: {x: 0, y: 0}
    settingsRaw: 64
    uvTransform: {x: 100, y: 26, z: 100, w: 26}
