%YAML 1.1
%TAG !u! tag:unity3d.com,2011:
--- !u!213 &21300000
Sprite:
  m_ObjectHideFlags: 0
  m_PrefabParentObject: {fileID: 0}
  m_PrefabInternal: {fileID: 0}
  m_Name: water
  m_Rect:
    serializedVersion: 2
    x: 0
    y: 0
    width: 36
    height: 36
  m_Offset: {x: 0, y: 0}
  m_Border: {x: 0, y: 0, z: 0, w: 0}
  m_PixelsToUnits: 100
  m_Extrude: 1
  m_AtlasName:
  m_PackingTag:
  m_RD:
    texture: {fileID: 2800000, guid: d9ac124de229ac64eb2c98f1c1c9c6c7, type: 3}
    alphaTexture: {fileID: 0}
    vertices:
    - serializedVersion: 2
      pos: {x: 0.17, y: 0.17, z: 0}
    - serializedVersion: 2
      pos: {x: 0.18, y: -0.18, z: 0}
    - serializedVersion: 2
      pos: {x: 0.18, y: 0.15, z: 0}
    - serializedVersion: 2
      pos: {x: 0.14, y: 0.18, z: 0}
    - serializedVersion: 2
      pos: {x: -0.13, y: 0.18, z: 0}
    - serializedVersion: 2
      pos: {x: -0.18, y: 0.14, z: 0}
    - serializedVersion: 2
      pos: {x: -0.18, y: -0.18, z: 0}
    indices:
    - 6
    - 5
    - 1
    - 4
    - 1
    - 5
    - 3
    - 1
    - 4
    - 0
    - 1
    - 3
    - 2
    - 1
    - 0
    textureRect:
      serializedVersion: 2
      x: 0
      y: 0
      width: 36
      height: 36
    textureRectOffset: {x: 0, y: 0}
    settingsRaw: 64
    uvTransform: {x: 100, y: 18, z: 100, w: 18}
