%YAML 1.1
%TAG !u! tag:unity3d.com,2011:
--- !u!114 &11400000
MonoBehaviour:
  m_ObjectHideFlags: 0
  m_PrefabParentObject: {fileID: 0}
  m_PrefabInternal: {fileID: 0}
  m_GameObject: {fileID: 0}
  m_Enabled: 1
  m_EditorHideFlags: 0
  m_Script: {fileID: 11500000, guid: 0ae895f3348548989f1b4caf6cca149f, type: 3}
  m_Name: obj_stars_anim_ssa
  m_EditorClassIdentifier:
  OriginalPath: Assets/Resources/Atlas/F_Map02/obj_stars_anim.ssax
  UseScaleFactor: 0
  ScaleFactor: 1
  FPS: 30
  EndFrame: 60
  hvFlipForImageOnly: 1
  ImageList:
  - path: Assets/Resources/Atlas/F_Map02/F_Map02.png
    texture: {fileID: 2800000, guid: 28463add4e7f25e49bbe533f025ef91e, type: 3}
    materials:
    - {fileID: 0}
    - {fileID: 0}
    - {fileID: 0}
    - {fileID: 0}
    - {fileID: 0}
    - {fileID: 2100000, guid: a9dbb924e3808524cbe3174a6b4cdb4a, type: 2}
    - {fileID: 0}
    - {fileID: 0}
    - {fileID: 0}
    - {fileID: 0}
    - {fileID: 0}
    - {fileID: 0}
    - {fileID: 0}
    - {fileID: 0}
    - {fileID: 0}
    - {fileID: 0}
    - {fileID: 0}
    - {fileID: 0}
    - {fileID: 0}
    - {fileID: 0}
    - {fileID: 0}
    - {fileID: 0}
    - {fileID: 0}
    - {fileID: 0}
    - {fileID: 0}
    - {fileID: 0}
    - {fileID: 0}
    - {fileID: 0}
    - {fileID: 0}
    - {fileID: 0}
    - {fileID: 0}
    - {fileID: 0}
    - {fileID: 0}
    - {fileID: 0}
    - {fileID: 0}
    - {fileID: 0}
    - {fileID: 0}
    - {fileID: 0}
    - {fileID: 0}
    - {fileID: 0}
    - {fileID: 0}
    - {fileID: 0}
    - {fileID: 0}
    - {fileID: 0}
    - {fileID: 0}
    - {fileID: 0}
    - {fileID: 0}
    - {fileID: 0}
    - {fileID: 0}
    - {fileID: 0}
    width: 2048
    height: 2048
    bpp: 0
  PartList:
  - AnimeRes: {fileID: 11400000}
    Name: root
    Type: 1
    PicArea:
      Left: 0
      Top: 0
      Right: 0
      Bottom: 0
    OriginX: 0
    OriginY: 0
    MyId: 0
    ParentId: -1
    ChildNum: 0
    SrcObjId: 0
    SrcObjType: 0
    AlphaBlendType: 0
    InheritState:
      Type: 0
      Values:
      - Use: 1
        Rate: 1
      - Use: 1
        Rate: 1
      - Use: 1
        Rate: 1
      - Use: 1
        Rate: 1
      - Use: 1
        Rate: 1
      - Use: 1
        Rate: 1
      - Use: 1
        Rate: 1
      - Use: 0
        Rate: 0
      - Use: 0
        Rate: 0
      - Use: 0
        Rate: 0
      - Use: 1
        Rate: 1
      - Use: 1
        Rate: 1
      - Use: 1
        Rate: 1
      - Use: 1
        Rate: 1
      - Use: 1
        Rate: 1
      - Use: 1
        Rate: 1
      - Use: 1
        Rate: 1
      - Use: 1
        Rate: 1
      - Use: 1
        Rate: 1
      - Use: 1
        Rate: 1
      - Use: 1
        Rate: 1
    PosXKeys: []
    PosYKeys: []
    AngleKeys: []
    ScaleXKeys: []
    ScaleYKeys: []
    TransKeys: []
    PrioKeys: []
    FlipHKeys: []
    FlipVKeys: []
    HideKeys:
    - Value: 0
      _Time: 0
      _ValueType: 1
      _Curve:
        Type: 0
        StartT: 0
        StartV: 0
        EndT: 0
        EndV: 0
    PartsColKeys: []
    PartsPalKeys: []
    VertexKeys: []
    UserKeys: []
    SoundKeys: []
    ImageOffsetXKeys: []
    ImageOffsetYKeys: []
    ImageOffsetWKeys: []
    ImageOffsetHKeys: []
    OriginOffsetXKeys: []
    OriginOffsetYKeys: []
    PosXValues: []
    PosYValues: []
    AngleValues: []
    ScaleXValues: []
    ScaleYValues: []
    TransValues: []
    PrioValues: []
    FlipHValues: []
    FlipVValues: []
    HideValues:
    - _RefKeyIndex: 0
      _Value: 0
    - _RefKeyIndex: 0
      _Value: 0
    - _RefKeyIndex: 0
      _Value: 0
    - _RefKeyIndex: 0
      _Value: 0
    - _RefKeyIndex: 0
      _Value: 0
    - _RefKeyIndex: 0
      _Value: 0
    - _RefKeyIndex: 0
      _Value: 0
    - _RefKeyIndex: 0
      _Value: 0
    - _RefKeyIndex: 0
      _Value: 0
    - _RefKeyIndex: 0
      _Value: 0
    - _RefKeyIndex: 0
      _Value: 0
    - _RefKeyIndex: 0
      _Value: 0
    - _RefKeyIndex: 0
      _Value: 0
    - _RefKeyIndex: 0
      _Value: 0
    - _RefKeyIndex: 0
      _Value: 0
    - _RefKeyIndex: 0
      _Value: 0
    - _RefKeyIndex: 0
      _Value: 0
    - _RefKeyIndex: 0
      _Value: 0
    - _RefKeyIndex: 0
      _Value: 0
    - _RefKeyIndex: 0
      _Value: 0
    - _RefKeyIndex: 0
      _Value: 0
    - _RefKeyIndex: 0
      _Value: 0
    - _RefKeyIndex: 0
      _Value: 0
    - _RefKeyIndex: 0
      _Value: 0
    - _RefKeyIndex: 0
      _Value: 0
    - _RefKeyIndex: 0
      _Value: 0
    - _RefKeyIndex: 0
      _Value: 0
    - _RefKeyIndex: 0
      _Value: 0
    - _RefKeyIndex: 0
      _Value: 0
    - _RefKeyIndex: 0
      _Value: 0
    - _RefKeyIndex: 0
      _Value: 0
    - _RefKeyIndex: 0
      _Value: 0
    - _RefKeyIndex: 0
      _Value: 0
    - _RefKeyIndex: 0
      _Value: 0
    - _RefKeyIndex: 0
      _Value: 0
    - _RefKeyIndex: 0
      _Value: 0
    - _RefKeyIndex: 0
      _Value: 0
    - _RefKeyIndex: 0
      _Value: 0
    - _RefKeyIndex: 0
      _Value: 0
    - _RefKeyIndex: 0
      _Value: 0
    - _RefKeyIndex: 0
      _Value: 0
    - _RefKeyIndex: 0
      _Value: 0
    - _RefKeyIndex: 0
      _Value: 0
    - _RefKeyIndex: 0
      _Value: 0
    - _RefKeyIndex: 0
      _Value: 0
    - _RefKeyIndex: 0
      _Value: 0
    - _RefKeyIndex: 0
      _Value: 0
    - _RefKeyIndex: 0
      _Value: 0
    - _RefKeyIndex: 0
      _Value: 0
    - _RefKeyIndex: 0
      _Value: 0
    - _RefKeyIndex: 0
      _Value: 0
    - _RefKeyIndex: 0
      _Value: 0
    - _RefKeyIndex: 0
      _Value: 0
    - _RefKeyIndex: 0
      _Value: 0
    - _RefKeyIndex: 0
      _Value: 0
    - _RefKeyIndex: 0
      _Value: 0
    - _RefKeyIndex: 0
      _Value: 0
    - _RefKeyIndex: 0
      _Value: 0
    - _RefKeyIndex: 0
      _Value: 0
    - _RefKeyIndex: 0
      _Value: 0
    - _RefKeyIndex: 0
      _Value: 0
    PartsColValues: []
    PartsPalValues: []
    VertexValues: []
    UserValues: []
    SoundValues: []
    ImageOffsetXValues: []
    ImageOffsetYValues: []
    ImageOffsetWValues: []
    ImageOffsetHValues: []
    OriginOffsetXValues: []
    OriginOffsetYValues: []
    _hasAttrFlags: 512
    HasTrancparency: 0
    FrameNum: 61
    imageFile:
      path:
      texture: {fileID: 0}
      materials: []
      width: 0
      height: 0
      bpp: 0
    UVs: []
    OrgVertices:
    - {x: -0, y: 0, z: 0}
    - {x: 0, y: 0, z: 0}
    - {x: 0, y: -0, z: 0}
    - {x: -0, y: -0, z: 0}
  - AnimeRes: {fileID: 11400000}
    Name: shine00
    Type: 0
    PicArea:
      Left: 1467
      Top: 1854
      Right: 1523
      Bottom: 1924
    OriginX: 28
    OriginY: 35
    MyId: 1
    ParentId: 0
    ChildNum: 0
    SrcObjId: 0
    SrcObjType: 0
    AlphaBlendType: 1
    InheritState:
      Type: 0
      Values:
      - Use: 1
        Rate: 1
      - Use: 1
        Rate: 1
      - Use: 1
        Rate: 1
      - Use: 1
        Rate: 1
      - Use: 1
        Rate: 1
      - Use: 1
        Rate: 1
      - Use: 1
        Rate: 1
      - Use: 0
        Rate: 0
      - Use: 0
        Rate: 0
      - Use: 0
        Rate: 0
      - Use: 1
        Rate: 1
      - Use: 1
        Rate: 1
      - Use: 1
        Rate: 1
      - Use: 1
        Rate: 1
      - Use: 1
        Rate: 1
      - Use: 1
        Rate: 1
      - Use: 1
        Rate: 1
      - Use: 1
        Rate: 1
      - Use: 1
        Rate: 1
      - Use: 1
        Rate: 1
      - Use: 1
        Rate: 1
    PosXKeys:
    - Value: -93
      _Time: 0
      _ValueType: 0
      _Curve:
        Type: 1
        StartT: 0
        StartV: 0
        EndT: 0
        EndV: 0
    - Value: -93
      _Time: 10
      _ValueType: 0
      _Curve:
        Type: 1
        StartT: 0
        StartV: 0
        EndT: 0
        EndV: 0
    - Value: -93
      _Time: 30
      _ValueType: 0
      _Curve:
        Type: 1
        StartT: 0
        StartV: 0
        EndT: 0
        EndV: 0
    - Value: 225
      _Time: 39
      _ValueType: 0
      _Curve:
        Type: 1
        StartT: 0
        StartV: 0
        EndT: 0
        EndV: 0
    PosYKeys:
    - Value: -152
      _Time: 0
      _ValueType: 0
      _Curve:
        Type: 1
        StartT: 0
        StartV: 0
        EndT: 0
        EndV: 0
    - Value: -152
      _Time: 10
      _ValueType: 0
      _Curve:
        Type: 1
        StartT: 0
        StartV: 0
        EndT: 0
        EndV: 0
    - Value: -152
      _Time: 30
      _ValueType: 0
      _Curve:
        Type: 1
        StartT: 0
        StartV: 0
        EndT: 0
        EndV: 0
    - Value: 254
      _Time: 39
      _ValueType: 0
      _Curve:
        Type: 1
        StartT: 0
        StartV: 0
        EndT: 0
        EndV: 0
    AngleKeys:
    - Value: 0
      _Time: 0
      _ValueType: 0
      _Curve:
        Type: 1
        StartT: 0
        StartV: 0
        EndT: 0
        EndV: 0
    - Value: 0
      _Time: 10
      _ValueType: 0
      _Curve:
        Type: 1
        StartT: 0
        StartV: 0
        EndT: 0
        EndV: 0
    - Value: 180
      _Time: 30
      _ValueType: 0
      _Curve:
        Type: 1
        StartT: 0
        StartV: 0
        EndT: 0
        EndV: 0
    - Value: 0
      _Time: 39
      _ValueType: 0
      _Curve:
        Type: 1
        StartT: 0
        StartV: 0
        EndT: 0
        EndV: 0
    - Value: 180
      _Time: 59
      _ValueType: 0
      _Curve:
        Type: 1
        StartT: 0
        StartV: 0
        EndT: 0
        EndV: 0
    ScaleXKeys:
    - Value: 1
      _Time: 0
      _ValueType: 0
      _Curve:
        Type: 1
        StartT: 0
        StartV: 0
        EndT: 0
        EndV: 0
    - Value: 0
      _Time: 10
      _ValueType: 0
      _Curve:
        Type: 1
        StartT: 0
        StartV: 0
        EndT: 0
        EndV: 0
    - Value: 0.5
      _Time: 17
      _ValueType: 0
      _Curve:
        Type: 1
        StartT: 0
        StartV: 0
        EndT: 0
        EndV: 0
    - Value: 2
      _Time: 30
      _ValueType: 0
      _Curve:
        Type: 1
        StartT: 0
        StartV: 0
        EndT: 0
        EndV: 0
    - Value: 0
      _Time: 39
      _ValueType: 0
      _Curve:
        Type: 1
        StartT: 0
        StartV: 0
        EndT: 0
        EndV: 0
    - Value: 1
      _Time: 46
      _ValueType: 0
      _Curve:
        Type: 1
        StartT: 0
        StartV: 0
        EndT: 0
        EndV: 0
    - Value: 3
      _Time: 59
      _ValueType: 0
      _Curve:
        Type: 1
        StartT: 0
        StartV: 0
        EndT: 0
        EndV: 0
    ScaleYKeys:
    - Value: 1
      _Time: 0
      _ValueType: 0
      _Curve:
        Type: 1
        StartT: 0
        StartV: 0
        EndT: 0
        EndV: 0
    - Value: 0
      _Time: 10
      _ValueType: 0
      _Curve:
        Type: 1
        StartT: 0
        StartV: 0
        EndT: 0
        EndV: 0
    - Value: 0.5
      _Time: 17
      _ValueType: 0
      _Curve:
        Type: 1
        StartT: 0
        StartV: 0
        EndT: 0
        EndV: 0
    - Value: 2
      _Time: 30
      _ValueType: 0
      _Curve:
        Type: 1
        StartT: 0
        StartV: 0
        EndT: 0
        EndV: 0
    - Value: 0
      _Time: 39
      _ValueType: 0
      _Curve:
        Type: 1
        StartT: 0
        StartV: 0
        EndT: 0
        EndV: 0
    - Value: 1
      _Time: 46
      _ValueType: 0
      _Curve:
        Type: 1
        StartT: 0
        StartV: 0
        EndT: 0
        EndV: 0
    - Value: 3
      _Time: 59
      _ValueType: 0
      _Curve:
        Type: 1
        StartT: 0
        StartV: 0
        EndT: 0
        EndV: 0
    TransKeys:
    - Value: 0
      _Time: 0
      _ValueType: 0
      _Curve:
        Type: 1
        StartT: 0
        StartV: 0
        EndT: 0
        EndV: 0
    - Value: 0
      _Time: 9
      _ValueType: 0
      _Curve:
        Type: 1
        StartT: 0
        StartV: 0
        EndT: 0
        EndV: 0
    - Value: 1
      _Time: 10
      _ValueType: 0
      _Curve:
        Type: 1
        StartT: 0
        StartV: 0
        EndT: 0
        EndV: 0
    - Value: 1
      _Time: 17
      _ValueType: 0
      _Curve:
        Type: 1
        StartT: 0
        StartV: 0
        EndT: 0
        EndV: 0
    - Value: 0
      _Time: 30
      _ValueType: 0
      _Curve:
        Type: 1
        StartT: 0
        StartV: 0
        EndT: 0
        EndV: 0
    - Value: 0
      _Time: 38
      _ValueType: 0
      _Curve:
        Type: 1
        StartT: 0
        StartV: 0
        EndT: 0
        EndV: 0
    - Value: 1
      _Time: 39
      _ValueType: 0
      _Curve:
        Type: 1
        StartT: 0
        StartV: 0
        EndT: 0
        EndV: 0
    - Value: 1
      _Time: 46
      _ValueType: 0
      _Curve:
        Type: 1
        StartT: 0
        StartV: 0
        EndT: 0
        EndV: 0
    - Value: 0
      _Time: 59
      _ValueType: 0
      _Curve:
        Type: 1
        StartT: 0
        StartV: 0
        EndT: 0
        EndV: 0
    PrioKeys: []
    FlipHKeys: []
    FlipVKeys: []
    HideKeys:
    - Value: 0
      _Time: 0
      _ValueType: 1
      _Curve:
        Type: 0
        StartT: 0
        StartV: 0
        EndT: 0
        EndV: 0
    - Value: 0
      _Time: 10
      _ValueType: 1
      _Curve:
        Type: 0
        StartT: 0
        StartV: 0
        EndT: 0
        EndV: 0
    - Value: 0
      _Time: 39
      _ValueType: 1
      _Curve:
        Type: 0
        StartT: 0
        StartV: 0
        EndT: 0
        EndV: 0
    PartsColKeys: []
    PartsPalKeys: []
    VertexKeys: []
    UserKeys: []
    SoundKeys: []
    ImageOffsetXKeys: []
    ImageOffsetYKeys: []
    ImageOffsetWKeys: []
    ImageOffsetHKeys: []
    OriginOffsetXKeys: []
    OriginOffsetYKeys: []
    PosXValues:
    - _RefKeyIndex: -1
      _Value: -93
    - _RefKeyIndex: -1
      _Value: -93
    - _RefKeyIndex: -1
      _Value: -93
    - _RefKeyIndex: -1
      _Value: -93
    - _RefKeyIndex: -1
      _Value: -93
    - _RefKeyIndex: -1
      _Value: -93
    - _RefKeyIndex: -1
      _Value: -93
    - _RefKeyIndex: -1
      _Value: -93
    - _RefKeyIndex: -1
      _Value: -93
    - _RefKeyIndex: -1
      _Value: -93
    - _RefKeyIndex: -1
      _Value: -93
    - _RefKeyIndex: -1
      _Value: -93
    - _RefKeyIndex: -1
      _Value: -93
    - _RefKeyIndex: -1
      _Value: -93
    - _RefKeyIndex: -1
      _Value: -93
    - _RefKeyIndex: -1
      _Value: -93
    - _RefKeyIndex: -1
      _Value: -93
    - _RefKeyIndex: -1
      _Value: -93
    - _RefKeyIndex: -1
      _Value: -93
    - _RefKeyIndex: -1
      _Value: -93
    - _RefKeyIndex: -1
      _Value: -93
    - _RefKeyIndex: -1
      _Value: -93
    - _RefKeyIndex: -1
      _Value: -93
    - _RefKeyIndex: -1
      _Value: -93
    - _RefKeyIndex: -1
      _Value: -93
    - _RefKeyIndex: -1
      _Value: -93
    - _RefKeyIndex: -1
      _Value: -93
    - _RefKeyIndex: -1
      _Value: -93
    - _RefKeyIndex: -1
      _Value: -93
    - _RefKeyIndex: -1
      _Value: -93
    - _RefKeyIndex: -1
      _Value: -93
    - _RefKeyIndex: -1
      _Value: -57.666668
    - _RefKeyIndex: -1
      _Value: -22.333332
    - _RefKeyIndex: -1
      _Value: 13.000003
    - _RefKeyIndex: -1
      _Value: 48.333336
    - _RefKeyIndex: -1
      _Value: 83.66667
    - _RefKeyIndex: -1
      _Value: 119.00001
    - _RefKeyIndex: -1
      _Value: 154.33334
    - _RefKeyIndex: -1
      _Value: 189.66667
    - _RefKeyIndex: 3
      _Value: 0
    - _RefKeyIndex: 3
      _Value: 0
    - _RefKeyIndex: 3
      _Value: 0
    - _RefKeyIndex: 3
      _Value: 0
    - _RefKeyIndex: 3
      _Value: 0
    - _RefKeyIndex: 3
      _Value: 0
    - _RefKeyIndex: 3
      _Value: 0
    - _RefKeyIndex: 3
      _Value: 0
    - _RefKeyIndex: 3
      _Value: 0
    - _RefKeyIndex: 3
      _Value: 0
    - _RefKeyIndex: 3
      _Value: 0
    - _RefKeyIndex: 3
      _Value: 0
    - _RefKeyIndex: 3
      _Value: 0
    - _RefKeyIndex: 3
      _Value: 0
    - _RefKeyIndex: 3
      _Value: 0
    - _RefKeyIndex: 3
      _Value: 0
    - _RefKeyIndex: 3
      _Value: 0
    - _RefKeyIndex: 3
      _Value: 0
    - _RefKeyIndex: 3
      _Value: 0
    - _RefKeyIndex: 3
      _Value: 0
    - _RefKeyIndex: 3
      _Value: 0
    - _RefKeyIndex: 3
      _Value: 0
    PosYValues:
    - _RefKeyIndex: -1
      _Value: -152
    - _RefKeyIndex: -1
      _Value: -152
    - _RefKeyIndex: -1
      _Value: -152
    - _RefKeyIndex: -1
      _Value: -152
    - _RefKeyIndex: -1
      _Value: -152
    - _RefKeyIndex: -1
      _Value: -152
    - _RefKeyIndex: -1
      _Value: -152
    - _RefKeyIndex: -1
      _Value: -152
    - _RefKeyIndex: -1
      _Value: -152
    - _RefKeyIndex: -1
      _Value: -152
    - _RefKeyIndex: -1
      _Value: -152
    - _RefKeyIndex: -1
      _Value: -152
    - _RefKeyIndex: -1
      _Value: -152
    - _RefKeyIndex: -1
      _Value: -152
    - _RefKeyIndex: -1
      _Value: -152
    - _RefKeyIndex: -1
      _Value: -152
    - _RefKeyIndex: -1
      _Value: -152
    - _RefKeyIndex: -1
      _Value: -152
    - _RefKeyIndex: -1
      _Value: -152
    - _RefKeyIndex: -1
      _Value: -152
    - _RefKeyIndex: -1
      _Value: -152
    - _RefKeyIndex: -1
      _Value: -152
    - _RefKeyIndex: -1
      _Value: -152
    - _RefKeyIndex: -1
      _Value: -152
    - _RefKeyIndex: -1
      _Value: -152
    - _RefKeyIndex: -1
      _Value: -152
    - _RefKeyIndex: -1
      _Value: -152
    - _RefKeyIndex: -1
      _Value: -152
    - _RefKeyIndex: -1
      _Value: -152
    - _RefKeyIndex: -1
      _Value: -152
    - _RefKeyIndex: -1
      _Value: -152
    - _RefKeyIndex: -1
      _Value: -106.888885
    - _RefKeyIndex: -1
      _Value: -61.77778
    - _RefKeyIndex: -1
      _Value: -16.666662
    - _RefKeyIndex: -1
      _Value: 28.444447
    - _RefKeyIndex: -1
      _Value: 73.555565
    - _RefKeyIndex: -1
      _Value: 118.66667
    - _RefKeyIndex: -1
      _Value: 163.77779
    - _RefKeyIndex: -1
      _Value: 208.88889
    - _RefKeyIndex: 3
      _Value: 0
    - _RefKeyIndex: 3
      _Value: 0
    - _RefKeyIndex: 3
      _Value: 0
    - _RefKeyIndex: 3
      _Value: 0
    - _RefKeyIndex: 3
      _Value: 0
    - _RefKeyIndex: 3
      _Value: 0
    - _RefKeyIndex: 3
      _Value: 0
    - _RefKeyIndex: 3
      _Value: 0
    - _RefKeyIndex: 3
      _Value: 0
    - _RefKeyIndex: 3
      _Value: 0
    - _RefKeyIndex: 3
      _Value: 0
    - _RefKeyIndex: 3
      _Value: 0
    - _RefKeyIndex: 3
      _Value: 0
    - _RefKeyIndex: 3
      _Value: 0
    - _RefKeyIndex: 3
      _Value: 0
    - _RefKeyIndex: 3
      _Value: 0
    - _RefKeyIndex: 3
      _Value: 0
    - _RefKeyIndex: 3
      _Value: 0
    - _RefKeyIndex: 3
      _Value: 0
    - _RefKeyIndex: 3
      _Value: 0
    - _RefKeyIndex: 3
      _Value: 0
    - _RefKeyIndex: 3
      _Value: 0
    AngleValues:
    - _RefKeyIndex: -1
      _Value: 0
    - _RefKeyIndex: -1
      _Value: 0
    - _RefKeyIndex: -1
      _Value: 0
    - _RefKeyIndex: -1
      _Value: 0
    - _RefKeyIndex: -1
      _Value: 0
    - _RefKeyIndex: -1
      _Value: 0
    - _RefKeyIndex: -1
      _Value: 0
    - _RefKeyIndex: -1
      _Value: 0
    - _RefKeyIndex: -1
      _Value: 0
    - _RefKeyIndex: -1
      _Value: 0
    - _RefKeyIndex: -1
      _Value: 0
    - _RefKeyIndex: -1
      _Value: 9
    - _RefKeyIndex: -1
      _Value: 18
    - _RefKeyIndex: -1
      _Value: 27.000002
    - _RefKeyIndex: -1
      _Value: 36
    - _RefKeyIndex: -1
      _Value: 45
    - _RefKeyIndex: -1
      _Value: 54.000004
    - _RefKeyIndex: -1
      _Value: 63
    - _RefKeyIndex: -1
      _Value: 72
    - _RefKeyIndex: -1
      _Value: 81
    - _RefKeyIndex: -1
      _Value: 90
    - _RefKeyIndex: -1
      _Value: 99
    - _RefKeyIndex: -1
      _Value: 108.00001
    - _RefKeyIndex: -1
      _Value: 116.99999
    - _RefKeyIndex: -1
      _Value: 126
    - _RefKeyIndex: -1
      _Value: 135
    - _RefKeyIndex: -1
      _Value: 144
    - _RefKeyIndex: -1
      _Value: 153
    - _RefKeyIndex: -1
      _Value: 162
    - _RefKeyIndex: -1
      _Value: 171
    - _RefKeyIndex: -1
      _Value: 180
    - _RefKeyIndex: -1
      _Value: 160
    - _RefKeyIndex: -1
      _Value: 140
    - _RefKeyIndex: -1
      _Value: 120
    - _RefKeyIndex: -1
      _Value: 100
    - _RefKeyIndex: -1
      _Value: 79.99999
    - _RefKeyIndex: -1
      _Value: 59.999996
    - _RefKeyIndex: -1
      _Value: 39.999996
    - _RefKeyIndex: -1
      _Value: 19.999998
    - _RefKeyIndex: -1
      _Value: 0
    - _RefKeyIndex: -1
      _Value: 9
    - _RefKeyIndex: -1
      _Value: 18
    - _RefKeyIndex: -1
      _Value: 27.000002
    - _RefKeyIndex: -1
      _Value: 36
    - _RefKeyIndex: -1
      _Value: 45
    - _RefKeyIndex: -1
      _Value: 54.000004
    - _RefKeyIndex: -1
      _Value: 63
    - _RefKeyIndex: -1
      _Value: 72
    - _RefKeyIndex: -1
      _Value: 81
    - _RefKeyIndex: -1
      _Value: 90
    - _RefKeyIndex: -1
      _Value: 99
    - _RefKeyIndex: -1
      _Value: 108.00001
    - _RefKeyIndex: -1
      _Value: 116.99999
    - _RefKeyIndex: -1
      _Value: 126
    - _RefKeyIndex: -1
      _Value: 135
    - _RefKeyIndex: -1
      _Value: 144
    - _RefKeyIndex: -1
      _Value: 153
    - _RefKeyIndex: -1
      _Value: 162
    - _RefKeyIndex: -1
      _Value: 171
    - _RefKeyIndex: 4
      _Value: 0
    - _RefKeyIndex: 4
      _Value: 0
    ScaleXValues:
    - _RefKeyIndex: -1
      _Value: 1
    - _RefKeyIndex: -1
      _Value: 0.9
    - _RefKeyIndex: -1
      _Value: 0.8
    - _RefKeyIndex: -1
      _Value: 0.7
    - _RefKeyIndex: -1
      _Value: 0.6
    - _RefKeyIndex: -1
      _Value: 0.5
    - _RefKeyIndex: -1
      _Value: 0.39999998
    - _RefKeyIndex: -1
      _Value: 0.3
    - _RefKeyIndex: -1
      _Value: 0.19999999
    - _RefKeyIndex: -1
      _Value: 0.100000024
    - _RefKeyIndex: -1
      _Value: 0
    - _RefKeyIndex: -1
      _Value: 0.071428575
    - _RefKeyIndex: -1
      _Value: 0.14285715
    - _RefKeyIndex: -1
      _Value: 0.21428572
    - _RefKeyIndex: -1
      _Value: 0.2857143
    - _RefKeyIndex: -1
      _Value: 0.35714287
    - _RefKeyIndex: -1
      _Value: 0.42857143
    - _RefKeyIndex: -1
      _Value: 0.5
    - _RefKeyIndex: -1
      _Value: 0.61538464
    - _RefKeyIndex: -1
      _Value: 0.7307692
    - _RefKeyIndex: -1
      _Value: 0.84615386
    - _RefKeyIndex: -1
      _Value: 0.9615385
    - _RefKeyIndex: -1
      _Value: 1.0769231
    - _RefKeyIndex: -1
      _Value: 1.1923077
    - _RefKeyIndex: -1
      _Value: 1.3076923
    - _RefKeyIndex: -1
      _Value: 1.423077
    - _RefKeyIndex: -1
      _Value: 1.5384616
    - _RefKeyIndex: -1
      _Value: 1.6538461
    - _RefKeyIndex: -1
      _Value: 1.7692308
    - _RefKeyIndex: -1
      _Value: 1.8846154
    - _RefKeyIndex: -1
      _Value: 2
    - _RefKeyIndex: -1
      _Value: 1.7777778
    - _RefKeyIndex: -1
      _Value: 1.5555556
    - _RefKeyIndex: -1
      _Value: 1.3333333
    - _RefKeyIndex: -1
      _Value: 1.1111112
    - _RefKeyIndex: -1
      _Value: 0.88888884
    - _RefKeyIndex: -1
      _Value: 0.6666666
    - _RefKeyIndex: -1
      _Value: 0.44444442
    - _RefKeyIndex: -1
      _Value: 0.22222221
    - _RefKeyIndex: -1
      _Value: 0
    - _RefKeyIndex: -1
      _Value: 0.14285715
    - _RefKeyIndex: -1
      _Value: 0.2857143
    - _RefKeyIndex: -1
      _Value: 0.42857143
    - _RefKeyIndex: -1
      _Value: 0.5714286
    - _RefKeyIndex: -1
      _Value: 0.71428573
    - _RefKeyIndex: -1
      _Value: 0.85714287
    - _RefKeyIndex: -1
      _Value: 1
    - _RefKeyIndex: -1
      _Value: 1.1538461
    - _RefKeyIndex: -1
      _Value: 1.3076923
    - _RefKeyIndex: -1
      _Value: 1.4615384
    - _RefKeyIndex: -1
      _Value: 1.6153846
    - _RefKeyIndex: -1
      _Value: 1.7692308
    - _RefKeyIndex: -1
      _Value: 1.9230769
    - _RefKeyIndex: -1
      _Value: 2.0769231
    - _RefKeyIndex: -1
      _Value: 2.2307692
    - _RefKeyIndex: -1
      _Value: 2.3846154
    - _RefKeyIndex: -1
      _Value: 2.5384617
    - _RefKeyIndex: -1
      _Value: 2.6923077
    - _RefKeyIndex: -1
      _Value: 2.8461537
    - _RefKeyIndex: 6
      _Value: 0
    - _RefKeyIndex: 6
      _Value: 0
    ScaleYValues:
    - _RefKeyIndex: -1
      _Value: 1
    - _RefKeyIndex: -1
      _Value: 0.9
    - _RefKeyIndex: -1
      _Value: 0.8
    - _RefKeyIndex: -1
      _Value: 0.7
    - _RefKeyIndex: -1
      _Value: 0.6
    - _RefKeyIndex: -1
      _Value: 0.5
    - _RefKeyIndex: -1
      _Value: 0.39999998
    - _RefKeyIndex: -1
      _Value: 0.3
    - _RefKeyIndex: -1
      _Value: 0.19999999
    - _RefKeyIndex: -1
      _Value: 0.100000024
    - _RefKeyIndex: -1
      _Value: 0
    - _RefKeyIndex: -1
      _Value: 0.071428575
    - _RefKeyIndex: -1
      _Value: 0.14285715
    - _RefKeyIndex: -1
      _Value: 0.21428572
    - _RefKeyIndex: -1
      _Value: 0.2857143
    - _RefKeyIndex: -1
      _Value: 0.35714287
    - _RefKeyIndex: -1
      _Value: 0.42857143
    - _RefKeyIndex: -1
      _Value: 0.5
    - _RefKeyIndex: -1
      _Value: 0.61538464
    - _RefKeyIndex: -1
      _Value: 0.7307692
    - _RefKeyIndex: -1
      _Value: 0.84615386
    - _RefKeyIndex: -1
      _Value: 0.9615385
    - _RefKeyIndex: -1
      _Value: 1.0769231
    - _RefKeyIndex: -1
      _Value: 1.1923077
    - _RefKeyIndex: -1
      _Value: 1.3076923
    - _RefKeyIndex: -1
      _Value: 1.423077
    - _RefKeyIndex: -1
      _Value: 1.5384616
    - _RefKeyIndex: -1
      _Value: 1.6538461
    - _RefKeyIndex: -1
      _Value: 1.7692308
    - _RefKeyIndex: -1
      _Value: 1.8846154
    - _RefKeyIndex: -1
      _Value: 2
    - _RefKeyIndex: -1
      _Value: 1.7777778
    - _RefKeyIndex: -1
      _Value: 1.5555556
    - _RefKeyIndex: -1
      _Value: 1.3333333
    - _RefKeyIndex: -1
      _Value: 1.1111112
    - _RefKeyIndex: -1
      _Value: 0.88888884
    - _RefKeyIndex: -1
      _Value: 0.6666666
    - _RefKeyIndex: -1
      _Value: 0.44444442
    - _RefKeyIndex: -1
      _Value: 0.22222221
    - _RefKeyIndex: -1
      _Value: 0
    - _RefKeyIndex: -1
      _Value: 0.14285715
    - _RefKeyIndex: -1
      _Value: 0.2857143
    - _RefKeyIndex: -1
      _Value: 0.42857143
    - _RefKeyIndex: -1
      _Value: 0.5714286
    - _RefKeyIndex: -1
      _Value: 0.71428573
    - _RefKeyIndex: -1
      _Value: 0.85714287
    - _RefKeyIndex: -1
      _Value: 1
    - _RefKeyIndex: -1
      _Value: 1.1538461
    - _RefKeyIndex: -1
      _Value: 1.3076923
    - _RefKeyIndex: -1
      _Value: 1.4615384
    - _RefKeyIndex: -1
      _Value: 1.6153846
    - _RefKeyIndex: -1
      _Value: 1.7692308
    - _RefKeyIndex: -1
      _Value: 1.9230769
    - _RefKeyIndex: -1
      _Value: 2.0769231
    - _RefKeyIndex: -1
      _Value: 2.2307692
    - _RefKeyIndex: -1
      _Value: 2.3846154
    - _RefKeyIndex: -1
      _Value: 2.5384617
    - _RefKeyIndex: -1
      _Value: 2.6923077
    - _RefKeyIndex: -1
      _Value: 2.8461537
    - _RefKeyIndex: 6
      _Value: 0
    - _RefKeyIndex: 6
      _Value: 0
    TransValues:
    - _RefKeyIndex: -1
      _Value: 0
    - _RefKeyIndex: -1
      _Value: 0
    - _RefKeyIndex: -1
      _Value: 0
    - _RefKeyIndex: -1
      _Value: 0
    - _RefKeyIndex: -1
      _Value: 0
    - _RefKeyIndex: -1
      _Value: 0
    - _RefKeyIndex: -1
      _Value: 0
    - _RefKeyIndex: -1
      _Value: 0
    - _RefKeyIndex: -1
      _Value: 0
    - _RefKeyIndex: -1
      _Value: 0
    - _RefKeyIndex: -1
      _Value: 1
    - _RefKeyIndex: -1
      _Value: 1
    - _RefKeyIndex: -1
      _Value: 1
    - _RefKeyIndex: -1
      _Value: 1
    - _RefKeyIndex: -1
      _Value: 1
    - _RefKeyIndex: -1
      _Value: 1
    - _RefKeyIndex: -1
      _Value: 1
    - _RefKeyIndex: -1
      _Value: 1
    - _RefKeyIndex: -1
      _Value: 0.9230769
    - _RefKeyIndex: -1
      _Value: 0.84615386
    - _RefKeyIndex: -1
      _Value: 0.7692308
    - _RefKeyIndex: -1
      _Value: 0.6923077
    - _RefKeyIndex: -1
      _Value: 0.6153846
    - _RefKeyIndex: -1
      _Value: 0.53846157
    - _RefKeyIndex: -1
      _Value: 0.46153843
    - _RefKeyIndex: -1
      _Value: 0.38461536
    - _RefKeyIndex: -1
      _Value: 0.3076923
    - _RefKeyIndex: -1
      _Value: 0.23076922
    - _RefKeyIndex: -1
      _Value: 0.15384614
    - _RefKeyIndex: -1
      _Value: 0.07692307
    - _RefKeyIndex: -1
      _Value: 0
    - _RefKeyIndex: -1
      _Value: 0
    - _RefKeyIndex: -1
      _Value: 0
    - _RefKeyIndex: -1
      _Value: 0
    - _RefKeyIndex: -1
      _Value: 0
    - _RefKeyIndex: -1
      _Value: 0
    - _RefKeyIndex: -1
      _Value: 0
    - _RefKeyIndex: -1
      _Value: 0
    - _RefKeyIndex: -1
      _Value: 0
    - _RefKeyIndex: -1
      _Value: 1
    - _RefKeyIndex: -1
      _Value: 1
    - _RefKeyIndex: -1
      _Value: 1
    - _RefKeyIndex: -1
      _Value: 1
    - _RefKeyIndex: -1
      _Value: 1
    - _RefKeyIndex: -1
      _Value: 1
    - _RefKeyIndex: -1
      _Value: 1
    - _RefKeyIndex: -1
      _Value: 1
    - _RefKeyIndex: -1
      _Value: 0.9230769
    - _RefKeyIndex: -1
      _Value: 0.84615386
    - _RefKeyIndex: -1
      _Value: 0.7692308
    - _RefKeyIndex: -1
      _Value: 0.6923077
    - _RefKeyIndex: -1
      _Value: 0.6153846
    - _RefKeyIndex: -1
      _Value: 0.53846157
    - _RefKeyIndex: -1
      _Value: 0.46153843
    - _RefKeyIndex: -1
      _Value: 0.38461536
    - _RefKeyIndex: -1
      _Value: 0.3076923
    - _RefKeyIndex: -1
      _Value: 0.23076922
    - _RefKeyIndex: -1
      _Value: 0.15384614
    - _RefKeyIndex: -1
      _Value: 0.07692307
    - _RefKeyIndex: 8
      _Value: 0
    - _RefKeyIndex: 8
      _Value: 0
    PrioValues: []
    FlipHValues: []
    FlipVValues: []
    HideValues:
    - _RefKeyIndex: 0
      _Value: 0
    PartsColValues: []
    PartsPalValues: []
    VertexValues: []
    UserValues: []
    SoundValues: []
    ImageOffsetXValues: []
    ImageOffsetYValues: []
    ImageOffsetWValues: []
    ImageOffsetHValues: []
    OriginOffsetXValues: []
    OriginOffsetYValues: []
    _hasAttrFlags: 575
    HasTrancparency: 1
    FrameNum: 61
    imageFile:
      path: Assets/Resources/Atlas/F_Map02/F_Map02.png
      texture: {fileID: 2800000, guid: 28463add4e7f25e49bbe533f025ef91e, type: 3}
      materials:
      - {fileID: 0}
      - {fileID: 0}
      - {fileID: 0}
      - {fileID: 0}
      - {fileID: 0}
      - {fileID: 2100000, guid: a9dbb924e3808524cbe3174a6b4cdb4a, type: 2}
      - {fileID: 0}
      - {fileID: 0}
      - {fileID: 0}
      - {fileID: 0}
      - {fileID: 0}
      - {fileID: 0}
      - {fileID: 0}
      - {fileID: 0}
      - {fileID: 0}
      - {fileID: 0}
      - {fileID: 0}
      - {fileID: 0}
      - {fileID: 0}
      - {fileID: 0}
      - {fileID: 0}
      - {fileID: 0}
      - {fileID: 0}
      - {fileID: 0}
      - {fileID: 0}
      - {fileID: 0}
      - {fileID: 0}
      - {fileID: 0}
      - {fileID: 0}
      - {fileID: 0}
      - {fileID: 0}
      - {fileID: 0}
      - {fileID: 0}
      - {fileID: 0}
      - {fileID: 0}
      - {fileID: 0}
      - {fileID: 0}
      - {fileID: 0}
      - {fileID: 0}
      - {fileID: 0}
      - {fileID: 0}
      - {fileID: 0}
      - {fileID: 0}
      - {fileID: 0}
      - {fileID: 0}
      - {fileID: 0}
      - {fileID: 0}
      - {fileID: 0}
      - {fileID: 0}
      - {fileID: 0}
      width: 2048
      height: 2048
      bpp: 0
    UVs:
    - {x: 0.7163086, y: 0.09472656}
    - {x: 0.74365234, y: 0.09472656}
    - {x: 0.74365234, y: 0.060546875}
    - {x: 0.7163086, y: 0.060546875}
    OrgVertices:
    - {x: -28, y: 35, z: 0}
    - {x: 28, y: 35, z: 0}
    - {x: 28, y: -35, z: 0}
    - {x: -28, y: -35, z: 0}
  - AnimeRes: {fileID: 11400000}
    Name: shine01
    Type: 0
    PicArea:
      Left: 1467
      Top: 1854
      Right: 1523
      Bottom: 1924
    OriginX: 28
    OriginY: 35
    MyId: 2
    ParentId: 0
    ChildNum: 0
    SrcObjId: 0
    SrcObjType: 0
    AlphaBlendType: 1
    InheritState:
      Type: 0
      Values:
      - Use: 1
        Rate: 1
      - Use: 1
        Rate: 1
      - Use: 1
        Rate: 1
      - Use: 1
        Rate: 1
      - Use: 1
        Rate: 1
      - Use: 1
        Rate: 1
      - Use: 1
        Rate: 1
      - Use: 0
        Rate: 0
      - Use: 0
        Rate: 0
      - Use: 0
        Rate: 0
      - Use: 1
        Rate: 1
      - Use: 1
        Rate: 1
      - Use: 1
        Rate: 1
      - Use: 1
        Rate: 1
      - Use: 1
        Rate: 1
      - Use: 1
        Rate: 1
      - Use: 1
        Rate: 1
      - Use: 1
        Rate: 1
      - Use: 1
        Rate: 1
      - Use: 1
        Rate: 1
      - Use: 1
        Rate: 1
    PosXKeys:
    - Value: -93
      _Time: 0
      _ValueType: 0
      _Curve:
        Type: 1
        StartT: 0
        StartV: 0
        EndT: 0
        EndV: 0
    - Value: 191
      _Time: 3
      _ValueType: 0
      _Curve:
        Type: 1
        StartT: 0
        StartV: 0
        EndT: 0
        EndV: 0
    - Value: 191
      _Time: 23
      _ValueType: 0
      _Curve:
        Type: 1
        StartT: 0
        StartV: 0
        EndT: 0
        EndV: 0
    - Value: -133
      _Time: 32
      _ValueType: 0
      _Curve:
        Type: 1
        StartT: 0
        StartV: 0
        EndT: 0
        EndV: 0
    PosYKeys:
    - Value: -152
      _Time: 0
      _ValueType: 0
      _Curve:
        Type: 1
        StartT: 0
        StartV: 0
        EndT: 0
        EndV: 0
    - Value: -416
      _Time: 3
      _ValueType: 0
      _Curve:
        Type: 1
        StartT: 0
        StartV: 0
        EndT: 0
        EndV: 0
    - Value: -416
      _Time: 23
      _ValueType: 0
      _Curve:
        Type: 1
        StartT: 0
        StartV: 0
        EndT: 0
        EndV: 0
    - Value: 416
      _Time: 32
      _ValueType: 0
      _Curve:
        Type: 1
        StartT: 0
        StartV: 0
        EndT: 0
        EndV: 0
    AngleKeys:
    - Value: 0
      _Time: 0
      _ValueType: 0
      _Curve:
        Type: 1
        StartT: 0
        StartV: 0
        EndT: 0
        EndV: 0
    - Value: 0
      _Time: 3
      _ValueType: 0
      _Curve:
        Type: 1
        StartT: 0
        StartV: 0
        EndT: 0
        EndV: 0
    - Value: 180
      _Time: 23
      _ValueType: 0
      _Curve:
        Type: 1
        StartT: 0
        StartV: 0
        EndT: 0
        EndV: 0
    - Value: 0
      _Time: 32
      _ValueType: 0
      _Curve:
        Type: 1
        StartT: 0
        StartV: 0
        EndT: 0
        EndV: 0
    - Value: 180
      _Time: 55
      _ValueType: 0
      _Curve:
        Type: 1
        StartT: 0
        StartV: 0
        EndT: 0
        EndV: 0
    ScaleXKeys:
    - Value: 1
      _Time: 0
      _ValueType: 0
      _Curve:
        Type: 1
        StartT: 0
        StartV: 0
        EndT: 0
        EndV: 0
    - Value: 0
      _Time: 3
      _ValueType: 0
      _Curve:
        Type: 1
        StartT: 0
        StartV: 0
        EndT: 0
        EndV: 0
    - Value: 0.5
      _Time: 10
      _ValueType: 0
      _Curve:
        Type: 1
        StartT: 0
        StartV: 0
        EndT: 0
        EndV: 0
    - Value: 2.4
      _Time: 23
      _ValueType: 0
      _Curve:
        Type: 1
        StartT: 0
        StartV: 0
        EndT: 0
        EndV: 0
    - Value: 0
      _Time: 32
      _ValueType: 0
      _Curve:
        Type: 1
        StartT: 0
        StartV: 0
        EndT: 0
        EndV: 0
    - Value: 1
      _Time: 39
      _ValueType: 0
      _Curve:
        Type: 1
        StartT: 0
        StartV: 0
        EndT: 0
        EndV: 0
    - Value: 3
      _Time: 55
      _ValueType: 0
      _Curve:
        Type: 1
        StartT: 0
        StartV: 0
        EndT: 0
        EndV: 0
    ScaleYKeys:
    - Value: 1
      _Time: 0
      _ValueType: 0
      _Curve:
        Type: 1
        StartT: 0
        StartV: 0
        EndT: 0
        EndV: 0
    - Value: 0
      _Time: 3
      _ValueType: 0
      _Curve:
        Type: 1
        StartT: 0
        StartV: 0
        EndT: 0
        EndV: 0
    - Value: 0.5
      _Time: 10
      _ValueType: 0
      _Curve:
        Type: 1
        StartT: 0
        StartV: 0
        EndT: 0
        EndV: 0
    - Value: 2.4
      _Time: 23
      _ValueType: 0
      _Curve:
        Type: 1
        StartT: 0
        StartV: 0
        EndT: 0
        EndV: 0
    - Value: 0
      _Time: 32
      _ValueType: 0
      _Curve:
        Type: 1
        StartT: 0
        StartV: 0
        EndT: 0
        EndV: 0
    - Value: 1
      _Time: 39
      _ValueType: 0
      _Curve:
        Type: 1
        StartT: 0
        StartV: 0
        EndT: 0
        EndV: 0
    - Value: 3
      _Time: 55
      _ValueType: 0
      _Curve:
        Type: 1
        StartT: 0
        StartV: 0
        EndT: 0
        EndV: 0
    TransKeys:
    - Value: 0
      _Time: 0
      _ValueType: 0
      _Curve:
        Type: 1
        StartT: 0
        StartV: 0
        EndT: 0
        EndV: 0
    - Value: 0
      _Time: 2
      _ValueType: 0
      _Curve:
        Type: 1
        StartT: 0
        StartV: 0
        EndT: 0
        EndV: 0
    - Value: 1
      _Time: 3
      _ValueType: 0
      _Curve:
        Type: 1
        StartT: 0
        StartV: 0
        EndT: 0
        EndV: 0
    - Value: 1
      _Time: 10
      _ValueType: 0
      _Curve:
        Type: 1
        StartT: 0
        StartV: 0
        EndT: 0
        EndV: 0
    - Value: 0
      _Time: 23
      _ValueType: 0
      _Curve:
        Type: 1
        StartT: 0
        StartV: 0
        EndT: 0
        EndV: 0
    - Value: 0
      _Time: 31
      _ValueType: 0
      _Curve:
        Type: 1
        StartT: 0
        StartV: 0
        EndT: 0
        EndV: 0
    - Value: 1
      _Time: 32
      _ValueType: 0
      _Curve:
        Type: 1
        StartT: 0
        StartV: 0
        EndT: 0
        EndV: 0
    - Value: 1
      _Time: 39
      _ValueType: 0
      _Curve:
        Type: 1
        StartT: 0
        StartV: 0
        EndT: 0
        EndV: 0
    - Value: 0
      _Time: 55
      _ValueType: 0
      _Curve:
        Type: 1
        StartT: 0
        StartV: 0
        EndT: 0
        EndV: 0
    PrioKeys: []
    FlipHKeys: []
    FlipVKeys: []
    HideKeys:
    - Value: 0
      _Time: 0
      _ValueType: 1
      _Curve:
        Type: 0
        StartT: 0
        StartV: 0
        EndT: 0
        EndV: 0
    - Value: 0
      _Time: 3
      _ValueType: 1
      _Curve:
        Type: 0
        StartT: 0
        StartV: 0
        EndT: 0
        EndV: 0
    - Value: 0
      _Time: 32
      _ValueType: 1
      _Curve:
        Type: 0
        StartT: 0
        StartV: 0
        EndT: 0
        EndV: 0
    PartsColKeys: []
    PartsPalKeys: []
    VertexKeys: []
    UserKeys: []
    SoundKeys: []
    ImageOffsetXKeys: []
    ImageOffsetYKeys: []
    ImageOffsetWKeys: []
    ImageOffsetHKeys: []
    OriginOffsetXKeys: []
    OriginOffsetYKeys: []
    PosXValues:
    - _RefKeyIndex: -1
      _Value: -93
    - _RefKeyIndex: -1
      _Value: 1.6666695
    - _RefKeyIndex: -1
      _Value: 96.333336
    - _RefKeyIndex: -1
      _Value: 191
    - _RefKeyIndex: -1
      _Value: 191
    - _RefKeyIndex: -1
      _Value: 191
    - _RefKeyIndex: -1
      _Value: 191
    - _RefKeyIndex: -1
      _Value: 191
    - _RefKeyIndex: -1
      _Value: 191
    - _RefKeyIndex: -1
      _Value: 191
    - _RefKeyIndex: -1
      _Value: 191
    - _RefKeyIndex: -1
      _Value: 191
    - _RefKeyIndex: -1
      _Value: 191
    - _RefKeyIndex: -1
      _Value: 191
    - _RefKeyIndex: -1
      _Value: 191
    - _RefKeyIndex: -1
      _Value: 191
    - _RefKeyIndex: -1
      _Value: 191
    - _RefKeyIndex: -1
      _Value: 191
    - _RefKeyIndex: -1
      _Value: 191
    - _RefKeyIndex: -1
      _Value: 191
    - _RefKeyIndex: -1
      _Value: 191
    - _RefKeyIndex: -1
      _Value: 191
    - _RefKeyIndex: -1
      _Value: 191
    - _RefKeyIndex: -1
      _Value: 191
    - _RefKeyIndex: -1
      _Value: 155
    - _RefKeyIndex: -1
      _Value: 119
    - _RefKeyIndex: -1
      _Value: 83
    - _RefKeyIndex: -1
      _Value: 47
    - _RefKeyIndex: -1
      _Value: 10.999991
    - _RefKeyIndex: -1
      _Value: -25.000006
    - _RefKeyIndex: -1
      _Value: -61.000004
    - _RefKeyIndex: -1
      _Value: -97
    - _RefKeyIndex: 3
      _Value: 0
    - _RefKeyIndex: 3
      _Value: 0
    - _RefKeyIndex: 3
      _Value: 0
    - _RefKeyIndex: 3
      _Value: 0
    - _RefKeyIndex: 3
      _Value: 0
    - _RefKeyIndex: 3
      _Value: 0
    - _RefKeyIndex: 3
      _Value: 0
    - _RefKeyIndex: 3
      _Value: 0
    - _RefKeyIndex: 3
      _Value: 0
    - _RefKeyIndex: 3
      _Value: 0
    - _RefKeyIndex: 3
      _Value: 0
    - _RefKeyIndex: 3
      _Value: 0
    - _RefKeyIndex: 3
      _Value: 0
    - _RefKeyIndex: 3
      _Value: 0
    - _RefKeyIndex: 3
      _Value: 0
    - _RefKeyIndex: 3
      _Value: 0
    - _RefKeyIndex: 3
      _Value: 0
    - _RefKeyIndex: 3
      _Value: 0
    - _RefKeyIndex: 3
      _Value: 0
    - _RefKeyIndex: 3
      _Value: 0
    - _RefKeyIndex: 3
      _Value: 0
    - _RefKeyIndex: 3
      _Value: 0
    - _RefKeyIndex: 3
      _Value: 0
    - _RefKeyIndex: 3
      _Value: 0
    - _RefKeyIndex: 3
      _Value: 0
    - _RefKeyIndex: 3
      _Value: 0
    - _RefKeyIndex: 3
      _Value: 0
    - _RefKeyIndex: 3
      _Value: 0
    - _RefKeyIndex: 3
      _Value: 0
    PosYValues:
    - _RefKeyIndex: -1
      _Value: -152
    - _RefKeyIndex: -1
      _Value: -240
    - _RefKeyIndex: -1
      _Value: -328
    - _RefKeyIndex: -1
      _Value: -416
    - _RefKeyIndex: -1
      _Value: -416
    - _RefKeyIndex: -1
      _Value: -416
    - _RefKeyIndex: -1
      _Value: -416
    - _RefKeyIndex: -1
      _Value: -416
    - _RefKeyIndex: -1
      _Value: -416
    - _RefKeyIndex: -1
      _Value: -416
    - _RefKeyIndex: -1
      _Value: -416
    - _RefKeyIndex: -1
      _Value: -416
    - _RefKeyIndex: -1
      _Value: -416
    - _RefKeyIndex: -1
      _Value: -416
    - _RefKeyIndex: -1
      _Value: -416
    - _RefKeyIndex: -1
      _Value: -416
    - _RefKeyIndex: -1
      _Value: -416
    - _RefKeyIndex: -1
      _Value: -416
    - _RefKeyIndex: -1
      _Value: -416
    - _RefKeyIndex: -1
      _Value: -416
    - _RefKeyIndex: -1
      _Value: -416
    - _RefKeyIndex: -1
      _Value: -416
    - _RefKeyIndex: -1
      _Value: -416
    - _RefKeyIndex: -1
      _Value: -416
    - _RefKeyIndex: -1
      _Value: -323.55554
    - _RefKeyIndex: -1
      _Value: -231.11111
    - _RefKeyIndex: -1
      _Value: -138.66666
    - _RefKeyIndex: -1
      _Value: -46.22222
    - _RefKeyIndex: -1
      _Value: 46.222244
    - _RefKeyIndex: -1
      _Value: 138.66669
    - _RefKeyIndex: -1
      _Value: 231.11111
    - _RefKeyIndex: -1
      _Value: 323.55557
    - _RefKeyIndex: 3
      _Value: 0
    - _RefKeyIndex: 3
      _Value: 0
    - _RefKeyIndex: 3
      _Value: 0
    - _RefKeyIndex: 3
      _Value: 0
    - _RefKeyIndex: 3
      _Value: 0
    - _RefKeyIndex: 3
      _Value: 0
    - _RefKeyIndex: 3
      _Value: 0
    - _RefKeyIndex: 3
      _Value: 0
    - _RefKeyIndex: 3
      _Value: 0
    - _RefKeyIndex: 3
      _Value: 0
    - _RefKeyIndex: 3
      _Value: 0
    - _RefKeyIndex: 3
      _Value: 0
    - _RefKeyIndex: 3
      _Value: 0
    - _RefKeyIndex: 3
      _Value: 0
    - _RefKeyIndex: 3
      _Value: 0
    - _RefKeyIndex: 3
      _Value: 0
    - _RefKeyIndex: 3
      _Value: 0
    - _RefKeyIndex: 3
      _Value: 0
    - _RefKeyIndex: 3
      _Value: 0
    - _RefKeyIndex: 3
      _Value: 0
    - _RefKeyIndex: 3
      _Value: 0
    - _RefKeyIndex: 3
      _Value: 0
    - _RefKeyIndex: 3
      _Value: 0
    - _RefKeyIndex: 3
      _Value: 0
    - _RefKeyIndex: 3
      _Value: 0
    - _RefKeyIndex: 3
      _Value: 0
    - _RefKeyIndex: 3
      _Value: 0
    - _RefKeyIndex: 3
      _Value: 0
    - _RefKeyIndex: 3
      _Value: 0
    AngleValues:
    - _RefKeyIndex: -1
      _Value: 0
    - _RefKeyIndex: -1
      _Value: 0
    - _RefKeyIndex: -1
      _Value: 0
    - _RefKeyIndex: -1
      _Value: 0
    - _RefKeyIndex: -1
      _Value: 9
    - _RefKeyIndex: -1
      _Value: 18
    - _RefKeyIndex: -1
      _Value: 27.000002
    - _RefKeyIndex: -1
      _Value: 36
    - _RefKeyIndex: -1
      _Value: 45
    - _RefKeyIndex: -1
      _Value: 54.000004
    - _RefKeyIndex: -1
      _Value: 63
    - _RefKeyIndex: -1
      _Value: 72
    - _RefKeyIndex: -1
      _Value: 81
    - _RefKeyIndex: -1
      _Value: 90
    - _RefKeyIndex: -1
      _Value: 99
    - _RefKeyIndex: -1
      _Value: 108.00001
    - _RefKeyIndex: -1
      _Value: 116.99999
    - _RefKeyIndex: -1
      _Value: 126
    - _RefKeyIndex: -1
      _Value: 135
    - _RefKeyIndex: -1
      _Value: 144
    - _RefKeyIndex: -1
      _Value: 153
    - _RefKeyIndex: -1
      _Value: 162
    - _RefKeyIndex: -1
      _Value: 171
    - _RefKeyIndex: -1
      _Value: 180
    - _RefKeyIndex: -1
      _Value: 160
    - _RefKeyIndex: -1
      _Value: 140
    - _RefKeyIndex: -1
      _Value: 120
    - _RefKeyIndex: -1
      _Value: 100
    - _RefKeyIndex: -1
      _Value: 79.99999
    - _RefKeyIndex: -1
      _Value: 59.999996
    - _RefKeyIndex: -1
      _Value: 39.999996
    - _RefKeyIndex: -1
      _Value: 19.999998
    - _RefKeyIndex: -1
      _Value: 0
    - _RefKeyIndex: -1
      _Value: 7.826087
    - _RefKeyIndex: -1
      _Value: 15.652174
    - _RefKeyIndex: -1
      _Value: 23.47826
    - _RefKeyIndex: -1
      _Value: 31.304348
    - _RefKeyIndex: -1
      _Value: 39.130432
    - _RefKeyIndex: -1
      _Value: 46.95652
    - _RefKeyIndex: -1
      _Value: 54.782608
    - _RefKeyIndex: -1
      _Value: 62.608696
    - _RefKeyIndex: -1
      _Value: 70.434784
    - _RefKeyIndex: -1
      _Value: 78.260864
    - _RefKeyIndex: -1
      _Value: 86.08696
    - _RefKeyIndex: -1
      _Value: 93.91304
    - _RefKeyIndex: -1
      _Value: 101.73913
    - _RefKeyIndex: -1
      _Value: 109.565216
    - _RefKeyIndex: -1
      _Value: 117.39131
    - _RefKeyIndex: -1
      _Value: 125.21739
    - _RefKeyIndex: -1
      _Value: 133.04347
    - _RefKeyIndex: -1
      _Value: 140.86957
    - _RefKeyIndex: -1
      _Value: 148.69565
    - _RefKeyIndex: -1
      _Value: 156.52173
    - _RefKeyIndex: -1
      _Value: 164.34782
    - _RefKeyIndex: -1
      _Value: 172.17392
    - _RefKeyIndex: 4
      _Value: 0
    - _RefKeyIndex: 4
      _Value: 0
    - _RefKeyIndex: 4
      _Value: 0
    - _RefKeyIndex: 4
      _Value: 0
    - _RefKeyIndex: 4
      _Value: 0
    - _RefKeyIndex: 4
      _Value: 0
    ScaleXValues:
    - _RefKeyIndex: -1
      _Value: 1
    - _RefKeyIndex: -1
      _Value: 0.6666666
    - _RefKeyIndex: -1
      _Value: 0.3333333
    - _RefKeyIndex: -1
      _Value: 0
    - _RefKeyIndex: -1
      _Value: 0.071428575
    - _RefKeyIndex: -1
      _Value: 0.14285715
    - _RefKeyIndex: -1
      _Value: 0.21428572
    - _RefKeyIndex: -1
      _Value: 0.2857143
    - _RefKeyIndex: -1
      _Value: 0.35714287
    - _RefKeyIndex: -1
      _Value: 0.42857143
    - _RefKeyIndex: -1
      _Value: 0.5
    - _RefKeyIndex: -1
      _Value: 0.64615387
    - _RefKeyIndex: -1
      _Value: 0.79230773
    - _RefKeyIndex: -1
      _Value: 0.93846154
    - _RefKeyIndex: -1
      _Value: 1.0846155
    - _RefKeyIndex: -1
      _Value: 1.2307693
    - _RefKeyIndex: -1
      _Value: 1.3769231
    - _RefKeyIndex: -1
      _Value: 1.523077
    - _RefKeyIndex: -1
      _Value: 1.6692308
    - _RefKeyIndex: -1
      _Value: 1.8153847
    - _RefKeyIndex: -1
      _Value: 1.9615386
    - _RefKeyIndex: -1
      _Value: 2.1076925
    - _RefKeyIndex: -1
      _Value: 2.2538462
    - _RefKeyIndex: -1
      _Value: 2.4
    - _RefKeyIndex: -1
      _Value: 2.1333334
    - _RefKeyIndex: -1
      _Value: 1.8666668
    - _RefKeyIndex: -1
      _Value: 1.6
    - _RefKeyIndex: -1
      _Value: 1.3333334
    - _RefKeyIndex: -1
      _Value: 1.0666666
    - _RefKeyIndex: -1
      _Value: 0.8
    - _RefKeyIndex: -1
      _Value: 0.5333333
    - _RefKeyIndex: -1
      _Value: 0.26666665
    - _RefKeyIndex: -1
      _Value: 0
    - _RefKeyIndex: -1
      _Value: 0.14285715
    - _RefKeyIndex: -1
      _Value: 0.2857143
    - _RefKeyIndex: -1
      _Value: 0.42857143
    - _RefKeyIndex: -1
      _Value: 0.5714286
    - _RefKeyIndex: -1
      _Value: 0.71428573
    - _RefKeyIndex: -1
      _Value: 0.85714287
    - _RefKeyIndex: -1
      _Value: 1
    - _RefKeyIndex: -1
      _Value: 1.125
    - _RefKeyIndex: -1
      _Value: 1.25
    - _RefKeyIndex: -1
      _Value: 1.375
    - _RefKeyIndex: -1
      _Value: 1.5
    - _RefKeyIndex: -1
      _Value: 1.625
    - _RefKeyIndex: -1
      _Value: 1.75
    - _RefKeyIndex: -1
      _Value: 1.875
    - _RefKeyIndex: -1
      _Value: 2
    - _RefKeyIndex: -1
      _Value: 2.125
    - _RefKeyIndex: -1
      _Value: 2.25
    - _RefKeyIndex: -1
      _Value: 2.375
    - _RefKeyIndex: -1
      _Value: 2.5
    - _RefKeyIndex: -1
      _Value: 2.625
    - _RefKeyIndex: -1
      _Value: 2.75
    - _RefKeyIndex: -1
      _Value: 2.875
    - _RefKeyIndex: 6
      _Value: 0
    - _RefKeyIndex: 6
      _Value: 0
    - _RefKeyIndex: 6
      _Value: 0
    - _RefKeyIndex: 6
      _Value: 0
    - _RefKeyIndex: 6
      _Value: 0
    - _RefKeyIndex: 6
      _Value: 0
    ScaleYValues:
    - _RefKeyIndex: -1
      _Value: 1
    - _RefKeyIndex: -1
      _Value: 0.6666666
    - _RefKeyIndex: -1
      _Value: 0.3333333
    - _RefKeyIndex: -1
      _Value: 0
    - _RefKeyIndex: -1
      _Value: 0.071428575
    - _RefKeyIndex: -1
      _Value: 0.14285715
    - _RefKeyIndex: -1
      _Value: 0.21428572
    - _RefKeyIndex: -1
      _Value: 0.2857143
    - _RefKeyIndex: -1
      _Value: 0.35714287
    - _RefKeyIndex: -1
      _Value: 0.42857143
    - _RefKeyIndex: -1
      _Value: 0.5
    - _RefKeyIndex: -1
      _Value: 0.64615387
    - _RefKeyIndex: -1
      _Value: 0.79230773
    - _RefKeyIndex: -1
      _Value: 0.93846154
    - _RefKeyIndex: -1
      _Value: 1.0846155
    - _RefKeyIndex: -1
      _Value: 1.2307693
    - _RefKeyIndex: -1
      _Value: 1.3769231
    - _RefKeyIndex: -1
      _Value: 1.523077
    - _RefKeyIndex: -1
      _Value: 1.6692308
    - _RefKeyIndex: -1
      _Value: 1.8153847
    - _RefKeyIndex: -1
      _Value: 1.9615386
    - _RefKeyIndex: -1
      _Value: 2.1076925
    - _RefKeyIndex: -1
      _Value: 2.2538462
    - _RefKeyIndex: -1
      _Value: 2.4
    - _RefKeyIndex: -1
      _Value: 2.1333334
    - _RefKeyIndex: -1
      _Value: 1.8666668
    - _RefKeyIndex: -1
      _Value: 1.6
    - _RefKeyIndex: -1
      _Value: 1.3333334
    - _RefKeyIndex: -1
      _Value: 1.0666666
    - _RefKeyIndex: -1
      _Value: 0.8
    - _RefKeyIndex: -1
      _Value: 0.5333333
    - _RefKeyIndex: -1
      _Value: 0.26666665
    - _RefKeyIndex: -1
      _Value: 0
    - _RefKeyIndex: -1
      _Value: 0.14285715
    - _RefKeyIndex: -1
      _Value: 0.2857143
    - _RefKeyIndex: -1
      _Value: 0.42857143
    - _RefKeyIndex: -1
      _Value: 0.5714286
    - _RefKeyIndex: -1
      _Value: 0.71428573
    - _RefKeyIndex: -1
      _Value: 0.85714287
    - _RefKeyIndex: -1
      _Value: 1
    - _RefKeyIndex: -1
      _Value: 1.125
    - _RefKeyIndex: -1
      _Value: 1.25
    - _RefKeyIndex: -1
      _Value: 1.375
    - _RefKeyIndex: -1
      _Value: 1.5
    - _RefKeyIndex: -1
      _Value: 1.625
    - _RefKeyIndex: -1
      _Value: 1.75
    - _RefKeyIndex: -1
      _Value: 1.875
    - _RefKeyIndex: -1
      _Value: 2
    - _RefKeyIndex: -1
      _Value: 2.125
    - _RefKeyIndex: -1
      _Value: 2.25
    - _RefKeyIndex: -1
      _Value: 2.375
    - _RefKeyIndex: -1
      _Value: 2.5
    - _RefKeyIndex: -1
      _Value: 2.625
    - _RefKeyIndex: -1
      _Value: 2.75
    - _RefKeyIndex: -1
      _Value: 2.875
    - _RefKeyIndex: 6
      _Value: 0
    - _RefKeyIndex: 6
      _Value: 0
    - _RefKeyIndex: 6
      _Value: 0
    - _RefKeyIndex: 6
      _Value: 0
    - _RefKeyIndex: 6
      _Value: 0
    - _RefKeyIndex: 6
      _Value: 0
    TransValues:
    - _RefKeyIndex: -1
      _Value: 0
    - _RefKeyIndex: -1
      _Value: 0
    - _RefKeyIndex: -1
      _Value: 0
    - _RefKeyIndex: -1
      _Value: 1
    - _RefKeyIndex: -1
      _Value: 1
    - _RefKeyIndex: -1
      _Value: 1
    - _RefKeyIndex: -1
      _Value: 1
    - _RefKeyIndex: -1
      _Value: 1
    - _RefKeyIndex: -1
      _Value: 1
    - _RefKeyIndex: -1
      _Value: 1
    - _RefKeyIndex: -1
      _Value: 1
    - _RefKeyIndex: -1
      _Value: 0.9230769
    - _RefKeyIndex: -1
      _Value: 0.84615386
    - _RefKeyIndex: -1
      _Value: 0.7692308
    - _RefKeyIndex: -1
      _Value: 0.6923077
    - _RefKeyIndex: -1
      _Value: 0.6153846
    - _RefKeyIndex: -1
      _Value: 0.53846157
    - _RefKeyIndex: -1
      _Value: 0.46153843
    - _RefKeyIndex: -1
      _Value: 0.38461536
    - _RefKeyIndex: -1
      _Value: 0.3076923
    - _RefKeyIndex: -1
      _Value: 0.23076922
    - _RefKeyIndex: -1
      _Value: 0.15384614
    - _RefKeyIndex: -1
      _Value: 0.07692307
    - _RefKeyIndex: -1
      _Value: 0
    - _RefKeyIndex: -1
      _Value: 0
    - _RefKeyIndex: -1
      _Value: 0
    - _RefKeyIndex: -1
      _Value: 0
    - _RefKeyIndex: -1
      _Value: 0
    - _RefKeyIndex: -1
      _Value: 0
    - _RefKeyIndex: -1
      _Value: 0
    - _RefKeyIndex: -1
      _Value: 0
    - _RefKeyIndex: -1
      _Value: 0
    - _RefKeyIndex: -1
      _Value: 1
    - _RefKeyIndex: -1
      _Value: 1
    - _RefKeyIndex: -1
      _Value: 1
    - _RefKeyIndex: -1
      _Value: 1
    - _RefKeyIndex: -1
      _Value: 1
    - _RefKeyIndex: -1
      _Value: 1
    - _RefKeyIndex: -1
      _Value: 1
    - _RefKeyIndex: -1
      _Value: 1
    - _RefKeyIndex: -1
      _Value: 0.9375
    - _RefKeyIndex: -1
      _Value: 0.875
    - _RefKeyIndex: -1
      _Value: 0.8125
    - _RefKeyIndex: -1
      _Value: 0.75
    - _RefKeyIndex: -1
      _Value: 0.6875
    - _RefKeyIndex: -1
      _Value: 0.625
    - _RefKeyIndex: -1
      _Value: 0.5625
    - _RefKeyIndex: -1
      _Value: 0.5
    - _RefKeyIndex: -1
      _Value: 0.4375
    - _RefKeyIndex: -1
      _Value: 0.375
    - _RefKeyIndex: -1
      _Value: 0.3125
    - _RefKeyIndex: -1
      _Value: 0.25
    - _RefKeyIndex: -1
      _Value: 0.1875
    - _RefKeyIndex: -1
      _Value: 0.125
    - _RefKeyIndex: -1
      _Value: 0.0625
    - _RefKeyIndex: 8
      _Value: 0
    - _RefKeyIndex: 8
      _Value: 0
    - _RefKeyIndex: 8
      _Value: 0
    - _RefKeyIndex: 8
      _Value: 0
    - _RefKeyIndex: 8
      _Value: 0
    - _RefKeyIndex: 8
      _Value: 0
    PrioValues: []
    FlipHValues: []
    FlipVValues: []
    HideValues:
    - _RefKeyIndex: 0
      _Value: 0
    PartsColValues: []
    PartsPalValues: []
    VertexValues: []
    UserValues: []
    SoundValues: []
    ImageOffsetXValues: []
    ImageOffsetYValues: []
    ImageOffsetWValues: []
    ImageOffsetHValues: []
    OriginOffsetXValues: []
    OriginOffsetYValues: []
    _hasAttrFlags: 575
    HasTrancparency: 1
    FrameNum: 61
    imageFile:
      path: Assets/Resources/Atlas/F_Map02/F_Map02.png
      texture: {fileID: 2800000, guid: 28463add4e7f25e49bbe533f025ef91e, type: 3}
      materials:
      - {fileID: 0}
      - {fileID: 0}
      - {fileID: 0}
      - {fileID: 0}
      - {fileID: 0}
      - {fileID: 2100000, guid: a9dbb924e3808524cbe3174a6b4cdb4a, type: 2}
      - {fileID: 0}
      - {fileID: 0}
      - {fileID: 0}
      - {fileID: 0}
      - {fileID: 0}
      - {fileID: 0}
      - {fileID: 0}
      - {fileID: 0}
      - {fileID: 0}
      - {fileID: 0}
      - {fileID: 0}
      - {fileID: 0}
      - {fileID: 0}
      - {fileID: 0}
      - {fileID: 0}
      - {fileID: 0}
      - {fileID: 0}
      - {fileID: 0}
      - {fileID: 0}
      - {fileID: 0}
      - {fileID: 0}
      - {fileID: 0}
      - {fileID: 0}
      - {fileID: 0}
      - {fileID: 0}
      - {fileID: 0}
      - {fileID: 0}
      - {fileID: 0}
      - {fileID: 0}
      - {fileID: 0}
      - {fileID: 0}
      - {fileID: 0}
      - {fileID: 0}
      - {fileID: 0}
      - {fileID: 0}
      - {fileID: 0}
      - {fileID: 0}
      - {fileID: 0}
      - {fileID: 0}
      - {fileID: 0}
      - {fileID: 0}
      - {fileID: 0}
      - {fileID: 0}
      - {fileID: 0}
      width: 2048
      height: 2048
      bpp: 0
    UVs:
    - {x: 0.7163086, y: 0.09472656}
    - {x: 0.74365234, y: 0.09472656}
    - {x: 0.74365234, y: 0.060546875}
    - {x: 0.7163086, y: 0.060546875}
    OrgVertices:
    - {x: -28, y: 35, z: 0}
    - {x: 28, y: 35, z: 0}
    - {x: 28, y: -35, z: 0}
    - {x: -28, y: -35, z: 0}
  - AnimeRes: {fileID: 11400000}
    Name: shine01_1
    Type: 0
    PicArea:
      Left: 1467
      Top: 1854
      Right: 1523
      Bottom: 1924
    OriginX: 28
    OriginY: 35
    MyId: 3
    ParentId: 0
    ChildNum: 0
    SrcObjId: 0
    SrcObjType: 0
    AlphaBlendType: 1
    InheritState:
      Type: 0
      Values:
      - Use: 1
        Rate: 1
      - Use: 1
        Rate: 1
      - Use: 1
        Rate: 1
      - Use: 1
        Rate: 1
      - Use: 1
        Rate: 1
      - Use: 1
        Rate: 1
      - Use: 1
        Rate: 1
      - Use: 0
        Rate: 0
      - Use: 0
        Rate: 0
      - Use: 0
        Rate: 0
      - Use: 1
        Rate: 1
      - Use: 1
        Rate: 1
      - Use: 1
        Rate: 1
      - Use: 1
        Rate: 1
      - Use: 1
        Rate: 1
      - Use: 1
        Rate: 1
      - Use: 1
        Rate: 1
      - Use: 1
        Rate: 1
      - Use: 1
        Rate: 1
      - Use: 1
        Rate: 1
      - Use: 1
        Rate: 1
    PosXKeys:
    - Value: -93
      _Time: 0
      _ValueType: 0
      _Curve:
        Type: 1
        StartT: 0
        StartV: 0
        EndT: 0
        EndV: 0
    - Value: -189
      _Time: 3
      _ValueType: 0
      _Curve:
        Type: 1
        StartT: 0
        StartV: 0
        EndT: 0
        EndV: 0
    - Value: -189
      _Time: 15
      _ValueType: 0
      _Curve:
        Type: 1
        StartT: 0
        StartV: 0
        EndT: 0
        EndV: 0
    - Value: -11
      _Time: 18
      _ValueType: 0
      _Curve:
        Type: 1
        StartT: 0
        StartV: 0
        EndT: 0
        EndV: 0
    - Value: -11
      _Time: 30
      _ValueType: 0
      _Curve:
        Type: 1
        StartT: 0
        StartV: 0
        EndT: 0
        EndV: 0
    - Value: 41
      _Time: 34
      _ValueType: 0
      _Curve:
        Type: 1
        StartT: 0
        StartV: 0
        EndT: 0
        EndV: 0
    - Value: 41
      _Time: 46
      _ValueType: 0
      _Curve:
        Type: 1
        StartT: 0
        StartV: 0
        EndT: 0
        EndV: 0
    PosYKeys:
    - Value: -152
      _Time: 0
      _ValueType: 0
      _Curve:
        Type: 1
        StartT: 0
        StartV: 0
        EndT: 0
        EndV: 0
    - Value: -460
      _Time: 3
      _ValueType: 0
      _Curve:
        Type: 1
        StartT: 0
        StartV: 0
        EndT: 0
        EndV: 0
    - Value: -460
      _Time: 15
      _ValueType: 0
      _Curve:
        Type: 1
        StartT: 0
        StartV: 0
        EndT: 0
        EndV: 0
    - Value: -78
      _Time: 18
      _ValueType: 0
      _Curve:
        Type: 1
        StartT: 0
        StartV: 0
        EndT: 0
        EndV: 0
    - Value: -78
      _Time: 30
      _ValueType: 0
      _Curve:
        Type: 1
        StartT: 0
        StartV: 0
        EndT: 0
        EndV: 0
    - Value: -302
      _Time: 34
      _ValueType: 0
      _Curve:
        Type: 1
        StartT: 0
        StartV: 0
        EndT: 0
        EndV: 0
    - Value: -302
      _Time: 46
      _ValueType: 0
      _Curve:
        Type: 1
        StartT: 0
        StartV: 0
        EndT: 0
        EndV: 0
    AngleKeys:
    - Value: 0
      _Time: 0
      _ValueType: 0
      _Curve:
        Type: 1
        StartT: 0
        StartV: 0
        EndT: 0
        EndV: 0
    - Value: 0
      _Time: 3
      _ValueType: 0
      _Curve:
        Type: 1
        StartT: 0
        StartV: 0
        EndT: 0
        EndV: 0
    - Value: 180
      _Time: 15
      _ValueType: 0
      _Curve:
        Type: 1
        StartT: 0
        StartV: 0
        EndT: 0
        EndV: 0
    - Value: 0
      _Time: 18
      _ValueType: 0
      _Curve:
        Type: 1
        StartT: 0
        StartV: 0
        EndT: 0
        EndV: 0
    - Value: 180
      _Time: 30
      _ValueType: 0
      _Curve:
        Type: 1
        StartT: 0
        StartV: 0
        EndT: 0
        EndV: 0
    - Value: 0
      _Time: 34
      _ValueType: 0
      _Curve:
        Type: 1
        StartT: 0
        StartV: 0
        EndT: 0
        EndV: 0
    - Value: 180
      _Time: 46
      _ValueType: 0
      _Curve:
        Type: 1
        StartT: 0
        StartV: 0
        EndT: 0
        EndV: 0
    ScaleXKeys:
    - Value: 1
      _Time: 0
      _ValueType: 0
      _Curve:
        Type: 1
        StartT: 0
        StartV: 0
        EndT: 0
        EndV: 0
    - Value: 0
      _Time: 3
      _ValueType: 0
      _Curve:
        Type: 1
        StartT: 0
        StartV: 0
        EndT: 0
        EndV: 0
    - Value: 0.5
      _Time: 7
      _ValueType: 0
      _Curve:
        Type: 1
        StartT: 0
        StartV: 0
        EndT: 0
        EndV: 0
    - Value: 1.6
      _Time: 15
      _ValueType: 0
      _Curve:
        Type: 1
        StartT: 0
        StartV: 0
        EndT: 0
        EndV: 0
    - Value: 0
      _Time: 18
      _ValueType: 0
      _Curve:
        Type: 1
        StartT: 0
        StartV: 0
        EndT: 0
        EndV: 0
    - Value: 0.5
      _Time: 22
      _ValueType: 0
      _Curve:
        Type: 1
        StartT: 0
        StartV: 0
        EndT: 0
        EndV: 0
    - Value: 1.6
      _Time: 30
      _ValueType: 0
      _Curve:
        Type: 1
        StartT: 0
        StartV: 0
        EndT: 0
        EndV: 0
    - Value: 0
      _Time: 34
      _ValueType: 0
      _Curve:
        Type: 1
        StartT: 0
        StartV: 0
        EndT: 0
        EndV: 0
    - Value: 0.5
      _Time: 38
      _ValueType: 0
      _Curve:
        Type: 1
        StartT: 0
        StartV: 0
        EndT: 0
        EndV: 0
    - Value: 1.6
      _Time: 46
      _ValueType: 0
      _Curve:
        Type: 1
        StartT: 0
        StartV: 0
        EndT: 0
        EndV: 0
    ScaleYKeys:
    - Value: 1
      _Time: 0
      _ValueType: 0
      _Curve:
        Type: 1
        StartT: 0
        StartV: 0
        EndT: 0
        EndV: 0
    - Value: 0
      _Time: 3
      _ValueType: 0
      _Curve:
        Type: 1
        StartT: 0
        StartV: 0
        EndT: 0
        EndV: 0
    - Value: 0.5
      _Time: 7
      _ValueType: 0
      _Curve:
        Type: 1
        StartT: 0
        StartV: 0
        EndT: 0
        EndV: 0
    - Value: 1.6
      _Time: 15
      _ValueType: 0
      _Curve:
        Type: 1
        StartT: 0
        StartV: 0
        EndT: 0
        EndV: 0
    - Value: 0
      _Time: 18
      _ValueType: 0
      _Curve:
        Type: 1
        StartT: 0
        StartV: 0
        EndT: 0
        EndV: 0
    - Value: 0.5
      _Time: 22
      _ValueType: 0
      _Curve:
        Type: 1
        StartT: 0
        StartV: 0
        EndT: 0
        EndV: 0
    - Value: 1.6
      _Time: 30
      _ValueType: 0
      _Curve:
        Type: 1
        StartT: 0
        StartV: 0
        EndT: 0
        EndV: 0
    - Value: 0
      _Time: 34
      _ValueType: 0
      _Curve:
        Type: 1
        StartT: 0
        StartV: 0
        EndT: 0
        EndV: 0
    - Value: 0.5
      _Time: 38
      _ValueType: 0
      _Curve:
        Type: 1
        StartT: 0
        StartV: 0
        EndT: 0
        EndV: 0
    - Value: 1.6
      _Time: 46
      _ValueType: 0
      _Curve:
        Type: 1
        StartT: 0
        StartV: 0
        EndT: 0
        EndV: 0
    TransKeys:
    - Value: 0
      _Time: 0
      _ValueType: 0
      _Curve:
        Type: 1
        StartT: 0
        StartV: 0
        EndT: 0
        EndV: 0
    - Value: 0
      _Time: 2
      _ValueType: 0
      _Curve:
        Type: 1
        StartT: 0
        StartV: 0
        EndT: 0
        EndV: 0
    - Value: 1
      _Time: 3
      _ValueType: 0
      _Curve:
        Type: 1
        StartT: 0
        StartV: 0
        EndT: 0
        EndV: 0
    - Value: 1
      _Time: 7
      _ValueType: 0
      _Curve:
        Type: 1
        StartT: 0
        StartV: 0
        EndT: 0
        EndV: 0
    - Value: 0
      _Time: 15
      _ValueType: 0
      _Curve:
        Type: 1
        StartT: 0
        StartV: 0
        EndT: 0
        EndV: 0
    - Value: 0
      _Time: 17
      _ValueType: 0
      _Curve:
        Type: 1
        StartT: 0
        StartV: 0
        EndT: 0
        EndV: 0
    - Value: 1
      _Time: 18
      _ValueType: 0
      _Curve:
        Type: 1
        StartT: 0
        StartV: 0
        EndT: 0
        EndV: 0
    - Value: 1
      _Time: 22
      _ValueType: 0
      _Curve:
        Type: 1
        StartT: 0
        StartV: 0
        EndT: 0
        EndV: 0
    - Value: 0
      _Time: 30
      _ValueType: 0
      _Curve:
        Type: 1
        StartT: 0
        StartV: 0
        EndT: 0
        EndV: 0
    - Value: 0
      _Time: 33
      _ValueType: 0
      _Curve:
        Type: 1
        StartT: 0
        StartV: 0
        EndT: 0
        EndV: 0
    - Value: 1
      _Time: 34
      _ValueType: 0
      _Curve:
        Type: 1
        StartT: 0
        StartV: 0
        EndT: 0
        EndV: 0
    - Value: 1
      _Time: 38
      _ValueType: 0
      _Curve:
        Type: 1
        StartT: 0
        StartV: 0
        EndT: 0
        EndV: 0
    - Value: 0
      _Time: 46
      _ValueType: 0
      _Curve:
        Type: 1
        StartT: 0
        StartV: 0
        EndT: 0
        EndV: 0
    PrioKeys: []
    FlipHKeys: []
    FlipVKeys: []
    HideKeys:
    - Value: 0
      _Time: 0
      _ValueType: 1
      _Curve:
        Type: 0
        StartT: 0
        StartV: 0
        EndT: 0
        EndV: 0
    - Value: 0
      _Time: 3
      _ValueType: 1
      _Curve:
        Type: 0
        StartT: 0
        StartV: 0
        EndT: 0
        EndV: 0
    - Value: 0
      _Time: 18
      _ValueType: 1
      _Curve:
        Type: 0
        StartT: 0
        StartV: 0
        EndT: 0
        EndV: 0
    - Value: 0
      _Time: 34
      _ValueType: 1
      _Curve:
        Type: 0
        StartT: 0
        StartV: 0
        EndT: 0
        EndV: 0
    PartsColKeys: []
    PartsPalKeys: []
    VertexKeys: []
    UserKeys: []
    SoundKeys: []
    ImageOffsetXKeys: []
    ImageOffsetYKeys: []
    ImageOffsetWKeys: []
    ImageOffsetHKeys: []
    OriginOffsetXKeys: []
    OriginOffsetYKeys: []
    PosXValues:
    - _RefKeyIndex: -1
      _Value: -93
    - _RefKeyIndex: -1
      _Value: -125
    - _RefKeyIndex: -1
      _Value: -157
    - _RefKeyIndex: -1
      _Value: -189
    - _RefKeyIndex: -1
      _Value: -189
    - _RefKeyIndex: -1
      _Value: -189
    - _RefKeyIndex: -1
      _Value: -189
    - _RefKeyIndex: -1
      _Value: -189
    - _RefKeyIndex: -1
      _Value: -189
    - _RefKeyIndex: -1
      _Value: -189
    - _RefKeyIndex: -1
      _Value: -189
    - _RefKeyIndex: -1
      _Value: -189
    - _RefKeyIndex: -1
      _Value: -189
    - _RefKeyIndex: -1
      _Value: -189
    - _RefKeyIndex: -1
      _Value: -189
    - _RefKeyIndex: -1
      _Value: -189
    - _RefKeyIndex: -1
      _Value: -129.66667
    - _RefKeyIndex: -1
      _Value: -70.33333
    - _RefKeyIndex: -1
      _Value: -11
    - _RefKeyIndex: -1
      _Value: -11
    - _RefKeyIndex: -1
      _Value: -11
    - _RefKeyIndex: -1
      _Value: -11
    - _RefKeyIndex: -1
      _Value: -11
    - _RefKeyIndex: -1
      _Value: -11
    - _RefKeyIndex: -1
      _Value: -11
    - _RefKeyIndex: -1
      _Value: -11
    - _RefKeyIndex: -1
      _Value: -11
    - _RefKeyIndex: -1
      _Value: -11
    - _RefKeyIndex: -1
      _Value: -11
    - _RefKeyIndex: -1
      _Value: -11
    - _RefKeyIndex: -1
      _Value: -11
    - _RefKeyIndex: -1
      _Value: 2
    - _RefKeyIndex: -1
      _Value: 15
    - _RefKeyIndex: -1
      _Value: 28
    - _RefKeyIndex: -1
      _Value: 41
    - _RefKeyIndex: -1
      _Value: 41
    - _RefKeyIndex: -1
      _Value: 41
    - _RefKeyIndex: -1
      _Value: 41
    - _RefKeyIndex: -1
      _Value: 41
    - _RefKeyIndex: -1
      _Value: 41
    - _RefKeyIndex: -1
      _Value: 41
    - _RefKeyIndex: -1
      _Value: 41
    - _RefKeyIndex: -1
      _Value: 41
    - _RefKeyIndex: -1
      _Value: 41
    - _RefKeyIndex: -1
      _Value: 41
    - _RefKeyIndex: -1
      _Value: 41
    - _RefKeyIndex: 6
      _Value: 0
    - _RefKeyIndex: 6
      _Value: 0
    - _RefKeyIndex: 6
      _Value: 0
    - _RefKeyIndex: 6
      _Value: 0
    - _RefKeyIndex: 6
      _Value: 0
    - _RefKeyIndex: 6
      _Value: 0
    - _RefKeyIndex: 6
      _Value: 0
    - _RefKeyIndex: 6
      _Value: 0
    - _RefKeyIndex: 6
      _Value: 0
    - _RefKeyIndex: 6
      _Value: 0
    - _RefKeyIndex: 6
      _Value: 0
    - _RefKeyIndex: 6
      _Value: 0
    - _RefKeyIndex: 6
      _Value: 0
    - _RefKeyIndex: 6
      _Value: 0
    - _RefKeyIndex: 6
      _Value: 0
    PosYValues:
    - _RefKeyIndex: -1
      _Value: -152
    - _RefKeyIndex: -1
      _Value: -254.66667
    - _RefKeyIndex: -1
      _Value: -357.33334
    - _RefKeyIndex: -1
      _Value: -460
    - _RefKeyIndex: -1
      _Value: -460
    - _RefKeyIndex: -1
      _Value: -460
    - _RefKeyIndex: -1
      _Value: -460
    - _RefKeyIndex: -1
      _Value: -460
    - _RefKeyIndex: -1
      _Value: -460
    - _RefKeyIndex: -1
      _Value: -460
    - _RefKeyIndex: -1
      _Value: -460
    - _RefKeyIndex: -1
      _Value: -460
    - _RefKeyIndex: -1
      _Value: -460
    - _RefKeyIndex: -1
      _Value: -460
    - _RefKeyIndex: -1
      _Value: -460
    - _RefKeyIndex: -1
      _Value: -460
    - _RefKeyIndex: -1
      _Value: -332.66666
    - _RefKeyIndex: -1
      _Value: -205.33333
    - _RefKeyIndex: -1
      _Value: -78
    - _RefKeyIndex: -1
      _Value: -78
    - _RefKeyIndex: -1
      _Value: -78
    - _RefKeyIndex: -1
      _Value: -78
    - _RefKeyIndex: -1
      _Value: -78
    - _RefKeyIndex: -1
      _Value: -78
    - _RefKeyIndex: -1
      _Value: -78
    - _RefKeyIndex: -1
      _Value: -78
    - _RefKeyIndex: -1
      _Value: -78
    - _RefKeyIndex: -1
      _Value: -78
    - _RefKeyIndex: -1
      _Value: -78
    - _RefKeyIndex: -1
      _Value: -78
    - _RefKeyIndex: -1
      _Value: -78
    - _RefKeyIndex: -1
      _Value: -134
    - _RefKeyIndex: -1
      _Value: -190
    - _RefKeyIndex: -1
      _Value: -246
    - _RefKeyIndex: -1
      _Value: -302
    - _RefKeyIndex: -1
      _Value: -302
    - _RefKeyIndex: -1
      _Value: -302
    - _RefKeyIndex: -1
      _Value: -302
    - _RefKeyIndex: -1
      _Value: -302
    - _RefKeyIndex: -1
      _Value: -302
    - _RefKeyIndex: -1
      _Value: -302
    - _RefKeyIndex: -1
      _Value: -302
    - _RefKeyIndex: -1
      _Value: -302
    - _RefKeyIndex: -1
      _Value: -302
    - _RefKeyIndex: -1
      _Value: -302
    - _RefKeyIndex: -1
      _Value: -302
    - _RefKeyIndex: 6
      _Value: 0
    - _RefKeyIndex: 6
      _Value: 0
    - _RefKeyIndex: 6
      _Value: 0
    - _RefKeyIndex: 6
      _Value: 0
    - _RefKeyIndex: 6
      _Value: 0
    - _RefKeyIndex: 6
      _Value: 0
    - _RefKeyIndex: 6
      _Value: 0
    - _RefKeyIndex: 6
      _Value: 0
    - _RefKeyIndex: 6
      _Value: 0
    - _RefKeyIndex: 6
      _Value: 0
    - _RefKeyIndex: 6
      _Value: 0
    - _RefKeyIndex: 6
      _Value: 0
    - _RefKeyIndex: 6
      _Value: 0
    - _RefKeyIndex: 6
      _Value: 0
    - _RefKeyIndex: 6
      _Value: 0
    AngleValues:
    - _RefKeyIndex: -1
      _Value: 0
    - _RefKeyIndex: -1
      _Value: 0
    - _RefKeyIndex: -1
      _Value: 0
    - _RefKeyIndex: -1
      _Value: 0
    - _RefKeyIndex: -1
      _Value: 15
    - _RefKeyIndex: -1
      _Value: 30
    - _RefKeyIndex: -1
      _Value: 45
    - _RefKeyIndex: -1
      _Value: 60
    - _RefKeyIndex: -1
      _Value: 75
    - _RefKeyIndex: -1
      _Value: 90
    - _RefKeyIndex: -1
      _Value: 105
    - _RefKeyIndex: -1
      _Value: 120
    - _RefKeyIndex: -1
      _Value: 135
    - _RefKeyIndex: -1
      _Value: 150
    - _RefKeyIndex: -1
      _Value: 165
    - _RefKeyIndex: -1
      _Value: 180
    - _RefKeyIndex: -1
      _Value: 120
    - _RefKeyIndex: -1
      _Value: 59.999996
    - _RefKeyIndex: -1
      _Value: 0
    - _RefKeyIndex: -1
      _Value: 15
    - _RefKeyIndex: -1
      _Value: 30
    - _RefKeyIndex: -1
      _Value: 45
    - _RefKeyIndex: -1
      _Value: 60
    - _RefKeyIndex: -1
      _Value: 75
    - _RefKeyIndex: -1
      _Value: 90
    - _RefKeyIndex: -1
      _Value: 105
    - _RefKeyIndex: -1
      _Value: 120
    - _RefKeyIndex: -1
      _Value: 135
    - _RefKeyIndex: -1
      _Value: 150
    - _RefKeyIndex: -1
      _Value: 165
    - _RefKeyIndex: -1
      _Value: 180
    - _RefKeyIndex: -1
      _Value: 135
    - _RefKeyIndex: -1
      _Value: 90
    - _RefKeyIndex: -1
      _Value: 45
    - _RefKeyIndex: -1
      _Value: 0
    - _RefKeyIndex: -1
      _Value: 15
    - _RefKeyIndex: -1
      _Value: 30
    - _RefKeyIndex: -1
      _Value: 45
    - _RefKeyIndex: -1
      _Value: 60
    - _RefKeyIndex: -1
      _Value: 75
    - _RefKeyIndex: -1
      _Value: 90
    - _RefKeyIndex: -1
      _Value: 105
    - _RefKeyIndex: -1
      _Value: 120
    - _RefKeyIndex: -1
      _Value: 135
    - _RefKeyIndex: -1
      _Value: 150
    - _RefKeyIndex: -1
      _Value: 165
    - _RefKeyIndex: 6
      _Value: 0
    - _RefKeyIndex: 6
      _Value: 0
    - _RefKeyIndex: 6
      _Value: 0
    - _RefKeyIndex: 6
      _Value: 0
    - _RefKeyIndex: 6
      _Value: 0
    - _RefKeyIndex: 6
      _Value: 0
    - _RefKeyIndex: 6
      _Value: 0
    - _RefKeyIndex: 6
      _Value: 0
    - _RefKeyIndex: 6
      _Value: 0
    - _RefKeyIndex: 6
      _Value: 0
    - _RefKeyIndex: 6
      _Value: 0
    - _RefKeyIndex: 6
      _Value: 0
    - _RefKeyIndex: 6
      _Value: 0
    - _RefKeyIndex: 6
      _Value: 0
    - _RefKeyIndex: 6
      _Value: 0
    ScaleXValues:
    - _RefKeyIndex: -1
      _Value: 1
    - _RefKeyIndex: -1
      _Value: 0.6666666
    - _RefKeyIndex: -1
      _Value: 0.3333333
    - _RefKeyIndex: -1
      _Value: 0
    - _RefKeyIndex: -1
      _Value: 0.125
    - _RefKeyIndex: -1
      _Value: 0.25
    - _RefKeyIndex: -1
      _Value: 0.375
    - _RefKeyIndex: -1
      _Value: 0.5
    - _RefKeyIndex: -1
      _Value: 0.6375
    - _RefKeyIndex: -1
      _Value: 0.775
    - _RefKeyIndex: -1
      _Value: 0.9125
    - _RefKeyIndex: -1
      _Value: 1.05
    - _RefKeyIndex: -1
      _Value: 1.1875
    - _RefKeyIndex: -1
      _Value: 1.325
    - _RefKeyIndex: -1
      _Value: 1.4625
    - _RefKeyIndex: -1
      _Value: 1.6
    - _RefKeyIndex: -1
      _Value: 1.0666667
    - _RefKeyIndex: -1
      _Value: 0.5333333
    - _RefKeyIndex: -1
      _Value: 0
    - _RefKeyIndex: -1
      _Value: 0.125
    - _RefKeyIndex: -1
      _Value: 0.25
    - _RefKeyIndex: -1
      _Value: 0.375
    - _RefKeyIndex: -1
      _Value: 0.5
    - _RefKeyIndex: -1
      _Value: 0.6375
    - _RefKeyIndex: -1
      _Value: 0.775
    - _RefKeyIndex: -1
      _Value: 0.9125
    - _RefKeyIndex: -1
      _Value: 1.05
    - _RefKeyIndex: -1
      _Value: 1.1875
    - _RefKeyIndex: -1
      _Value: 1.325
    - _RefKeyIndex: -1
      _Value: 1.4625
    - _RefKeyIndex: -1
      _Value: 1.6
    - _RefKeyIndex: -1
      _Value: 1.2
    - _RefKeyIndex: -1
      _Value: 0.8
    - _RefKeyIndex: -1
      _Value: 0.4
    - _RefKeyIndex: -1
      _Value: 0
    - _RefKeyIndex: -1
      _Value: 0.125
    - _RefKeyIndex: -1
      _Value: 0.25
    - _RefKeyIndex: -1
      _Value: 0.375
    - _RefKeyIndex: -1
      _Value: 0.5
    - _RefKeyIndex: -1
      _Value: 0.6375
    - _RefKeyIndex: -1
      _Value: 0.775
    - _RefKeyIndex: -1
      _Value: 0.9125
    - _RefKeyIndex: -1
      _Value: 1.05
    - _RefKeyIndex: -1
      _Value: 1.1875
    - _RefKeyIndex: -1
      _Value: 1.325
    - _RefKeyIndex: -1
      _Value: 1.4625
    - _RefKeyIndex: 9
      _Value: 0
    - _RefKeyIndex: 9
      _Value: 0
    - _RefKeyIndex: 9
      _Value: 0
    - _RefKeyIndex: 9
      _Value: 0
    - _RefKeyIndex: 9
      _Value: 0
    - _RefKeyIndex: 9
      _Value: 0
    - _RefKeyIndex: 9
      _Value: 0
    - _RefKeyIndex: 9
      _Value: 0
    - _RefKeyIndex: 9
      _Value: 0
    - _RefKeyIndex: 9
      _Value: 0
    - _RefKeyIndex: 9
      _Value: 0
    - _RefKeyIndex: 9
      _Value: 0
    - _RefKeyIndex: 9
      _Value: 0
    - _RefKeyIndex: 9
      _Value: 0
    - _RefKeyIndex: 9
      _Value: 0
    ScaleYValues:
    - _RefKeyIndex: -1
      _Value: 1
    - _RefKeyIndex: -1
      _Value: 0.6666666
    - _RefKeyIndex: -1
      _Value: 0.3333333
    - _RefKeyIndex: -1
      _Value: 0
    - _RefKeyIndex: -1
      _Value: 0.125
    - _RefKeyIndex: -1
      _Value: 0.25
    - _RefKeyIndex: -1
      _Value: 0.375
    - _RefKeyIndex: -1
      _Value: 0.5
    - _RefKeyIndex: -1
      _Value: 0.6375
    - _RefKeyIndex: -1
      _Value: 0.775
    - _RefKeyIndex: -1
      _Value: 0.9125
    - _RefKeyIndex: -1
      _Value: 1.05
    - _RefKeyIndex: -1
      _Value: 1.1875
    - _RefKeyIndex: -1
      _Value: 1.325
    - _RefKeyIndex: -1
      _Value: 1.4625
    - _RefKeyIndex: -1
      _Value: 1.6
    - _RefKeyIndex: -1
      _Value: 1.0666667
    - _RefKeyIndex: -1
      _Value: 0.5333333
    - _RefKeyIndex: -1
      _Value: 0
    - _RefKeyIndex: -1
      _Value: 0.125
    - _RefKeyIndex: -1
      _Value: 0.25
    - _RefKeyIndex: -1
      _Value: 0.375
    - _RefKeyIndex: -1
      _Value: 0.5
    - _RefKeyIndex: -1
      _Value: 0.6375
    - _RefKeyIndex: -1
      _Value: 0.775
    - _RefKeyIndex: -1
      _Value: 0.9125
    - _RefKeyIndex: -1
      _Value: 1.05
    - _RefKeyIndex: -1
      _Value: 1.1875
    - _RefKeyIndex: -1
      _Value: 1.325
    - _RefKeyIndex: -1
      _Value: 1.4625
    - _RefKeyIndex: -1
      _Value: 1.6
    - _RefKeyIndex: -1
      _Value: 1.2
    - _RefKeyIndex: -1
      _Value: 0.8
    - _RefKeyIndex: -1
      _Value: 0.4
    - _RefKeyIndex: -1
      _Value: 0
    - _RefKeyIndex: -1
      _Value: 0.125
    - _RefKeyIndex: -1
      _Value: 0.25
    - _RefKeyIndex: -1
      _Value: 0.375
    - _RefKeyIndex: -1
      _Value: 0.5
    - _RefKeyIndex: -1
      _Value: 0.6375
    - _RefKeyIndex: -1
      _Value: 0.775
    - _RefKeyIndex: -1
      _Value: 0.9125
    - _RefKeyIndex: -1
      _Value: 1.05
    - _RefKeyIndex: -1
      _Value: 1.1875
    - _RefKeyIndex: -1
      _Value: 1.325
    - _RefKeyIndex: -1
      _Value: 1.4625
    - _RefKeyIndex: 9
      _Value: 0
    - _RefKeyIndex: 9
      _Value: 0
    - _RefKeyIndex: 9
      _Value: 0
    - _RefKeyIndex: 9
      _Value: 0
    - _RefKeyIndex: 9
      _Value: 0
    - _RefKeyIndex: 9
      _Value: 0
    - _RefKeyIndex: 9
      _Value: 0
    - _RefKeyIndex: 9
      _Value: 0
    - _RefKeyIndex: 9
      _Value: 0
    - _RefKeyIndex: 9
      _Value: 0
    - _RefKeyIndex: 9
      _Value: 0
    - _RefKeyIndex: 9
      _Value: 0
    - _RefKeyIndex: 9
      _Value: 0
    - _RefKeyIndex: 9
      _Value: 0
    - _RefKeyIndex: 9
      _Value: 0
    TransValues:
    - _RefKeyIndex: -1
      _Value: 0
    - _RefKeyIndex: -1
      _Value: 0
    - _RefKeyIndex: -1
      _Value: 0
    - _RefKeyIndex: -1
      _Value: 1
    - _RefKeyIndex: -1
      _Value: 1
    - _RefKeyIndex: -1
      _Value: 1
    - _RefKeyIndex: -1
      _Value: 1
    - _RefKeyIndex: -1
      _Value: 1
    - _RefKeyIndex: -1
      _Value: 0.875
    - _RefKeyIndex: -1
      _Value: 0.75
    - _RefKeyIndex: -1
      _Value: 0.625
    - _RefKeyIndex: -1
      _Value: 0.5
    - _RefKeyIndex: -1
      _Value: 0.375
    - _RefKeyIndex: -1
      _Value: 0.25
    - _RefKeyIndex: -1
      _Value: 0.125
    - _RefKeyIndex: -1
      _Value: 0
    - _RefKeyIndex: -1
      _Value: 0
    - _RefKeyIndex: -1
      _Value: 0
    - _RefKeyIndex: -1
      _Value: 1
    - _RefKeyIndex: -1
      _Value: 1
    - _RefKeyIndex: -1
      _Value: 1
    - _RefKeyIndex: -1
      _Value: 1
    - _RefKeyIndex: -1
      _Value: 1
    - _RefKeyIndex: -1
      _Value: 0.875
    - _RefKeyIndex: -1
      _Value: 0.75
    - _RefKeyIndex: -1
      _Value: 0.625
    - _RefKeyIndex: -1
      _Value: 0.5
    - _RefKeyIndex: -1
      _Value: 0.375
    - _RefKeyIndex: -1
      _Value: 0.25
    - _RefKeyIndex: -1
      _Value: 0.125
    - _RefKeyIndex: -1
      _Value: 0
    - _RefKeyIndex: -1
      _Value: 0
    - _RefKeyIndex: -1
      _Value: 0
    - _RefKeyIndex: -1
      _Value: 0
    - _RefKeyIndex: -1
      _Value: 1
    - _RefKeyIndex: -1
      _Value: 1
    - _RefKeyIndex: -1
      _Value: 1
    - _RefKeyIndex: -1
      _Value: 1
    - _RefKeyIndex: -1
      _Value: 1
    - _RefKeyIndex: -1
      _Value: 0.875
    - _RefKeyIndex: -1
      _Value: 0.75
    - _RefKeyIndex: -1
      _Value: 0.625
    - _RefKeyIndex: -1
      _Value: 0.5
    - _RefKeyIndex: -1
      _Value: 0.375
    - _RefKeyIndex: -1
      _Value: 0.25
    - _RefKeyIndex: -1
      _Value: 0.125
    - _RefKeyIndex: 12
      _Value: 0
    - _RefKeyIndex: 12
      _Value: 0
    - _RefKeyIndex: 12
      _Value: 0
    - _RefKeyIndex: 12
      _Value: 0
    - _RefKeyIndex: 12
      _Value: 0
    - _RefKeyIndex: 12
      _Value: 0
    - _RefKeyIndex: 12
      _Value: 0
    - _RefKeyIndex: 12
      _Value: 0
    - _RefKeyIndex: 12
      _Value: 0
    - _RefKeyIndex: 12
      _Value: 0
    - _RefKeyIndex: 12
      _Value: 0
    - _RefKeyIndex: 12
      _Value: 0
    - _RefKeyIndex: 12
      _Value: 0
    - _RefKeyIndex: 12
      _Value: 0
    - _RefKeyIndex: 12
      _Value: 0
    PrioValues: []
    FlipHValues: []
    FlipVValues: []
    HideValues:
    - _RefKeyIndex: 0
      _Value: 0
    PartsColValues: []
    PartsPalValues: []
    VertexValues: []
    UserValues: []
    SoundValues: []
    ImageOffsetXValues: []
    ImageOffsetYValues: []
    ImageOffsetWValues: []
    ImageOffsetHValues: []
    OriginOffsetXValues: []
    OriginOffsetYValues: []
    _hasAttrFlags: 575
    HasTrancparency: 1
    FrameNum: 61
    imageFile:
      path: Assets/Resources/Atlas/F_Map02/F_Map02.png
      texture: {fileID: 2800000, guid: 28463add4e7f25e49bbe533f025ef91e, type: 3}
      materials:
      - {fileID: 0}
      - {fileID: 0}
      - {fileID: 0}
      - {fileID: 0}
      - {fileID: 0}
      - {fileID: 2100000, guid: a9dbb924e3808524cbe3174a6b4cdb4a, type: 2}
      - {fileID: 0}
      - {fileID: 0}
      - {fileID: 0}
      - {fileID: 0}
      - {fileID: 0}
      - {fileID: 0}
      - {fileID: 0}
      - {fileID: 0}
      - {fileID: 0}
      - {fileID: 0}
      - {fileID: 0}
      - {fileID: 0}
      - {fileID: 0}
      - {fileID: 0}
      - {fileID: 0}
      - {fileID: 0}
      - {fileID: 0}
      - {fileID: 0}
      - {fileID: 0}
      - {fileID: 0}
      - {fileID: 0}
      - {fileID: 0}
      - {fileID: 0}
      - {fileID: 0}
      - {fileID: 0}
      - {fileID: 0}
      - {fileID: 0}
      - {fileID: 0}
      - {fileID: 0}
      - {fileID: 0}
      - {fileID: 0}
      - {fileID: 0}
      - {fileID: 0}
      - {fileID: 0}
      - {fileID: 0}
      - {fileID: 0}
      - {fileID: 0}
      - {fileID: 0}
      - {fileID: 0}
      - {fileID: 0}
      - {fileID: 0}
      - {fileID: 0}
      - {fileID: 0}
      - {fileID: 0}
      width: 2048
      height: 2048
      bpp: 0
    UVs:
    - {x: 0.7163086, y: 0.09472656}
    - {x: 0.74365234, y: 0.09472656}
    - {x: 0.74365234, y: 0.060546875}
    - {x: 0.7163086, y: 0.060546875}
    OrgVertices:
    - {x: -28, y: 35, z: 0}
    - {x: 28, y: 35, z: 0}
    - {x: 28, y: -35, z: 0}
    - {x: -28, y: -35, z: 0}
  ImportedTime: -1492548828
  ImportedTimeHigh: -1999323430
