%YAML 1.1
%TAG !u! tag:unity3d.com,2011:
--- !u!114 &11400000
MonoBehaviour:
  m_ObjectHideFlags: 0
  m_PrefabParentObject: {fileID: 0}
  m_PrefabInternal: {fileID: 0}
  m_GameObject: {fileID: 0}
  m_Enabled: 1
  m_EditorHideFlags: 0
  m_Script: {fileID: 11500000, guid: 695170e0a27eda09ead6845eb5052618, type: 3}
  m_Name: DailyChallengeStage0000
  m_EditorClassIdentifier:
  mData:
  - mID: 1
    mSeries: 0
    mMainNo: 35
    mAccessoryID: 5143
  - mID: 2
    mSeries: 0
    mMainNo: 85
    mAccessoryID: 5143
  - mID: 3
    mSeries: 0
    mMainNo: 43
    mAccessoryID: 5143
  - mID: 4
    mSeries: 0
    mMainNo: 63
    mAccessoryID: 5143
  - mID: 5
    mSeries: 0
    mMainNo: 25
    mAccessoryID: 5143
  mAccessoryID: 5144
  mListSetting: {fileID: 11400000, guid: 4f5a8700ef35add46a4e273329043125, type: 2}
