{
  "frames":   {
    "LC_daily_button02.png":     {
      "frame":       {
        "x": 399,
        "y": 703,
        "w": 72,
        "h": 21
      },
      "rotated": false,
      "trimmed": false,
      "spriteSourceSize":       {
        "x": 0,
        "y": 0,
        "w": 72,
        "h": 21
      },
      "sourceSize":       {
        "w": 72,
        "h": 21
      }
    },
    "LC_daily_title.png":     {
      "frame":       {
        "x": 1,
        "y": 227,
        "w": 312,
        "h": 54
      },
      "rotated": false,
      "trimmed": false,
      "spriteSourceSize":       {
        "x": 0,
        "y": 0,
        "w": 312,
        "h": 54
      },
      "sourceSize":       {
        "w": 312,
        "h": 54
      }
    },
    "adv_itembox_flash1.png":     {
      "frame":       {
        "x": 408,
        "y": 602,
        "w": 100,
        "h": 100
      },
      "rotated": false,
      "trimmed": false,
      "spriteSourceSize":       {
        "x": 0,
        "y": 0,
        "w": 100,
        "h": 100
      },
      "sourceSize":       {
        "w": 100,
        "h": 100
      }
    },
    "adv_itembox_flash2.png":     {
      "frame":       {
        "x": 458,
        "y": 333,
        "w": 50,
        "h": 50
      },
      "rotated": false,
      "trimmed": false,
      "spriteSourceSize":       {
        "x": 0,
        "y": 0,
        "w": 50,
        "h": 50
      },
      "sourceSize":       {
        "w": 50,
        "h": 50
      }
    },
    "btn_banner02.png":     {
      "frame":       {
        "x": 458,
        "y": 384,
        "w": 49,
        "h": 60
      },
      "rotated": false,
      "trimmed": false,
      "spriteSourceSize":       {
        "x": 0,
        "y": 0,
        "w": 49,
        "h": 60
      },
      "sourceSize":       {
        "w": 49,
        "h": 60
      }
    },
    "daily_button00.png":     {
      "frame":       {
        "x": 131,
        "y": 637,
        "w": 121,
        "h": 136
      },
      "rotated": false,
      "trimmed": false,
      "spriteSourceSize":       {
        "x": 0,
        "y": 0,
        "w": 121,
        "h": 136
      },
      "sourceSize":       {
        "w": 121,
        "h": 136
      }
    },
    "daily_button01.png":     {
      "frame":       {
        "x": 1,
        "y": 702,
        "w": 121,
        "h": 136
      },
      "rotated": false,
      "trimmed": false,
      "spriteSourceSize":       {
        "x": 0,
        "y": 0,
        "w": 121,
        "h": 136
      },
      "sourceSize":       {
        "w": 121,
        "h": 136
      }
    },
    "daily_button_icon00.png":     {
      "frame":       {
        "x": 458,
        "y": 445,
        "w": 48,
        "h": 47
      },
      "rotated": false,
      "trimmed": false,
      "spriteSourceSize":       {
        "x": 0,
        "y": 0,
        "w": 48,
        "h": 47
      },
      "sourceSize":       {
        "w": 48,
        "h": 47
      }
    },
    "daily_button_icon01.png":     {
      "frame":       {
        "x": 457,
        "y": 493,
        "w": 48,
        "h": 47
      },
      "rotated": false,
      "trimmed": false,
      "spriteSourceSize":       {
        "x": 0,
        "y": 0,
        "w": 48,
        "h": 47
      },
      "sourceSize":       {
        "w": 48,
        "h": 47
      }
    },
    "daily_chara00.png":     {
      "frame":       {
        "x": 148,
        "y": 459,
        "w": 129,
        "h": 177
      },
      "rotated": false,
      "trimmed": false,
      "spriteSourceSize":       {
        "x": 0,
        "y": 0,
        "w": 129,
        "h": 177
      },
      "sourceSize":       {
        "w": 129,
        "h": 177
      }
    },
    "daily_howto00.png":     {
      "frame":       {
        "x": 1,
        "y": 1,
        "w": 500,
        "h": 112
      },
      "rotated": false,
      "trimmed": false,
      "spriteSourceSize":       {
        "x": 0,
        "y": 0,
        "w": 500,
        "h": 112
      },
      "sourceSize":       {
        "w": 500,
        "h": 112
      }
    },
    "daily_howto01.png":     {
      "frame":       {
        "x": 1,
        "y": 114,
        "w": 500,
        "h": 112
      },
      "rotated": false,
      "trimmed": false,
      "spriteSourceSize":       {
        "x": 0,
        "y": 0,
        "w": 500,
        "h": 112
      },
      "sourceSize":       {
        "w": 500,
        "h": 112
      }
    },
    "daily_lock.png":     {
      "frame":       {
        "x": 421,
        "y": 428,
        "w": 36,
        "h": 42
      },
      "rotated": false,
      "trimmed": false,
      "spriteSourceSize":       {
        "x": 0,
        "y": 0,
        "w": 36,
        "h": 42
      },
      "sourceSize":       {
        "w": 36,
        "h": 42
      }
    },
    "daily_no.png":     {
      "frame":       {
        "x": 314,
        "y": 227,
        "w": 153,
        "h": 55
      },
      "rotated": false,
      "trimmed": false,
      "spriteSourceSize":       {
        "x": 0,
        "y": 0,
        "w": 153,
        "h": 55
      },
      "sourceSize":       {
        "w": 153,
        "h": 55
      }
    },
    "daily_num1.png":     {
      "frame":       {
        "x": 468,
        "y": 227,
        "w": 40,
        "h": 52
      },
      "rotated": false,
      "trimmed": false,
      "spriteSourceSize":       {
        "x": 0,
        "y": 0,
        "w": 40,
        "h": 52
      },
      "sourceSize":       {
        "w": 40,
        "h": 52
      }
    },
    "daily_num2.png":     {
      "frame":       {
        "x": 468,
        "y": 280,
        "w": 40,
        "h": 52
      },
      "rotated": false,
      "trimmed": false,
      "spriteSourceSize":       {
        "x": 0,
        "y": 0,
        "w": 40,
        "h": 52
      },
      "sourceSize":       {
        "w": 40,
        "h": 52
      }
    },
    "daily_num3.png":     {
      "frame":       {
        "x": 358,
        "y": 699,
        "w": 40,
        "h": 52
      },
      "rotated": false,
      "trimmed": false,
      "spriteSourceSize":       {
        "x": 0,
        "y": 0,
        "w": 40,
        "h": 52
      },
      "sourceSize":       {
        "w": 40,
        "h": 52
      }
    },
    "daily_num4.png":     {
      "frame":       {
        "x": 399,
        "y": 725,
        "w": 40,
        "h": 52
      },
      "rotated": false,
      "trimmed": false,
      "spriteSourceSize":       {
        "x": 0,
        "y": 0,
        "w": 40,
        "h": 52
      },
      "sourceSize":       {
        "w": 40,
        "h": 52
      }
    },
    "daily_num5.png":     {
      "frame":       {
        "x": 358,
        "y": 752,
        "w": 40,
        "h": 52
      },
      "rotated": false,
      "trimmed": false,
      "spriteSourceSize":       {
        "x": 0,
        "y": 0,
        "w": 40,
        "h": 52
      },
      "sourceSize":       {
        "w": 40,
        "h": 52
      }
    },
    "daily_panel00.png":     {
      "frame":       {
        "x": 149,
        "y": 282,
        "w": 146,
        "h": 144
      },
      "rotated": false,
      "trimmed": false,
      "spriteSourceSize":       {
        "x": 0,
        "y": 0,
        "w": 146,
        "h": 144
      },
      "sourceSize":       {
        "w": 146,
        "h": 144
      }
    },
    "daily_panel01.png":     {
      "frame":       {
        "x": 311,
        "y": 283,
        "w": 146,
        "h": 144
      },
      "rotated": false,
      "trimmed": false,
      "spriteSourceSize":       {
        "x": 0,
        "y": 0,
        "w": 146,
        "h": 144
      },
      "sourceSize":       {
        "w": 146,
        "h": 144
      }
    },
    "daily_panel02.png":     {
      "frame":       {
        "x": 1,
        "y": 427,
        "w": 146,
        "h": 144
      },
      "rotated": false,
      "trimmed": false,
      "spriteSourceSize":       {
        "x": 0,
        "y": 0,
        "w": 146,
        "h": 144
      },
      "sourceSize":       {
        "w": 146,
        "h": 144
      }
    },
    "daily_remove_panel00.png":     {
      "frame":       {
        "x": 253,
        "y": 653,
        "w": 117,
        "h": 45
      },
      "rotated": false,
      "trimmed": false,
      "spriteSourceSize":       {
        "x": 0,
        "y": 0,
        "w": 117,
        "h": 45
      },
      "sourceSize":       {
        "w": 117,
        "h": 45
      }
    },
    "daily_remove_panel01.png":     {
      "frame":       {
        "x": 1,
        "y": 282,
        "w": 147,
        "h": 144
      },
      "rotated": false,
      "trimmed": false,
      "spriteSourceSize":       {
        "x": 0,
        "y": 0,
        "w": 147,
        "h": 144
      },
      "sourceSize":       {
        "w": 147,
        "h": 144
      }
    },
    "daily_remove_presentbox00.png":     {
      "frame":       {
        "x": 278,
        "y": 523,
        "w": 129,
        "h": 129
      },
      "rotated": false,
      "trimmed": false,
      "spriteSourceSize":       {
        "x": 0,
        "y": 0,
        "w": 129,
        "h": 129
      },
      "sourceSize":       {
        "w": 129,
        "h": 129
      }
    },
    "daily_remove_presentbox01.png":     {
      "frame":       {
        "x": 1,
        "y": 572,
        "w": 129,
        "h": 129
      },
      "rotated": false,
      "trimmed": false,
      "spriteSourceSize":       {
        "x": 0,
        "y": 0,
        "w": 129,
        "h": 129
      },
      "sourceSize":       {
        "w": 129,
        "h": 129
      }
    },
    "daily_route.png":     {
      "frame":       {
        "x": 296,
        "y": 297,
        "w": 10,
        "h": 10
      },
      "rotated": false,
      "trimmed": false,
      "spriteSourceSize":       {
        "x": 0,
        "y": 0,
        "w": 10,
        "h": 10
      },
      "sourceSize":       {
        "w": 10,
        "h": 10
      }
    },
    "daily_total.png":     {
      "frame":       {
        "x": 148,
        "y": 427,
        "w": 141,
        "h": 31
      },
      "rotated": false,
      "trimmed": false,
      "spriteSourceSize":       {
        "x": 0,
        "y": 0,
        "w": 141,
        "h": 31
      },
      "sourceSize":       {
        "w": 141,
        "h": 31
      }
    },
    "efc_ribbon_shine00.png":     {
      "frame":       {
        "x": 408,
        "y": 541,
        "w": 103,
        "h": 60
      },
      "rotated": false,
      "trimmed": false,
      "spriteSourceSize":       {
        "x": 0,
        "y": 0,
        "w": 103,
        "h": 60
      },
      "sourceSize":       {
        "w": 103,
        "h": 60
      }
    },
    "event_load_dot.png":     {
      "frame":       {
        "x": 296,
        "y": 282,
        "w": 14,
        "h": 14
      },
      "rotated": false,
      "trimmed": false,
      "spriteSourceSize":       {
        "x": 0,
        "y": 0,
        "w": 14,
        "h": 14
      },
      "sourceSize":       {
        "w": 14,
        "h": 14
      }
    },
    "lock00.png":     {
      "frame":       {
        "x": 421,
        "y": 501,
        "w": 22,
        "h": 30
      },
      "rotated": false,
      "trimmed": false,
      "spriteSourceSize":       {
        "x": 0,
        "y": 0,
        "w": 22,
        "h": 30
      },
      "sourceSize":       {
        "w": 22,
        "h": 30
      }
    },
    "lock01.png":     {
      "frame":       {
        "x": 421,
        "y": 471,
        "w": 35,
        "h": 29
      },
      "rotated": false,
      "trimmed": false,
      "spriteSourceSize":       {
        "x": 0,
        "y": 0,
        "w": 35,
        "h": 29
      },
      "sourceSize":       {
        "w": 35,
        "h": 29
      }
    },
    "login_clearstamp.png":     {
      "frame":       {
        "x": 253,
        "y": 699,
        "w": 104,
        "h": 103
      },
      "rotated": false,
      "trimmed": false,
      "spriteSourceSize":       {
        "x": 0,
        "y": 0,
        "w": 104,
        "h": 103
      },
      "sourceSize":       {
        "w": 104,
        "h": 103
      }
    },
    "null.png":     {
      "frame":       {
        "x": 502,
        "y": 1,
        "w": 1,
        "h": 1
      },
      "rotated": false,
      "trimmed": false,
      "spriteSourceSize":       {
        "x": 0,
        "y": 0,
        "w": 1,
        "h": 1
      },
      "sourceSize":       {
        "w": 1,
        "h": 1
      }
    },
    "stage_remove.png":     {
      "frame":       {
        "x": 290,
        "y": 428,
        "w": 130,
        "h": 94
      },
      "rotated": false,
      "trimmed": false,
      "spriteSourceSize":       {
        "x": 0,
        "y": 0,
        "w": 130,
        "h": 94
      },
      "sourceSize":       {
        "w": 130,
        "h": 94
      }
    }
  },
  "meta":   {
    "app": "http://www.codeandweb.com/texturepacker",
    "version": "1.0",
    "image": "DailyChallenge.png",
    "format": "RGBA8888",
    "size":     {
      "w": 512,
      "h": 1024
    },
    "scale": "1",
    "smartupdate": "$TexturePacker:SmartUpdate:e393a5213633deda6690b893984f058d:4c43e2ddef77c6184347038afa8c9daa:de6ca52605e558dab3a7112b9193503a$"
  }
}