%YAML 1.1
%TAG !u! tag:unity3d.com,2011:
--- !u!114 &11400000
MonoBehaviour:
  m_ObjectHideFlags: 0
  m_PrefabParentObject: {fileID: 0}
  m_PrefabInternal: {fileID: 0}
  m_GameObject: {fileID: 0}
  m_Enabled: 1
  m_EditorHideFlags: 0
  m_Script: {fileID: 11500000, guid: 0ae895f3348548989f1b4caf6cca149f, type: 3}
  m_Name: change_map_idle_locked_ssa
  m_EditorClassIdentifier:
  OriginalPath: Assets/Resources/Atlas/MapCommon/change_map_idle_locked.ssax
  UseScaleFactor: 0
  ScaleFactor: 1
  FPS: 30
  EndFrame: 30
  hvFlipForImageOnly: 1
  ImageList:
  - path: Assets/Resources/Atlas/MapCommon/MapCommon.png
    texture: {fileID: 2800000, guid: a2673114ed9dca14499974f3ff081366, type: 3}
    materials:
    - {fileID: 0}
    - {fileID: 0}
    - {fileID: 0}
    - {fileID: 0}
    - {fileID: 0}
    - {fileID: 2100000, guid: 9070925b9cd3cb845956199f732e2e98, type: 2}
    - {fileID: 0}
    - {fileID: 0}
    - {fileID: 0}
    - {fileID: 0}
    - {fileID: 0}
    - {fileID: 0}
    - {fileID: 0}
    - {fileID: 0}
    - {fileID: 0}
    - {fileID: 0}
    - {fileID: 0}
    - {fileID: 0}
    - {fileID: 0}
    - {fileID: 0}
    - {fileID: 0}
    - {fileID: 0}
    - {fileID: 0}
    - {fileID: 0}
    - {fileID: 0}
    - {fileID: 0}
    - {fileID: 0}
    - {fileID: 0}
    - {fileID: 0}
    - {fileID: 0}
    - {fileID: 0}
    - {fileID: 0}
    - {fileID: 0}
    - {fileID: 0}
    - {fileID: 0}
    - {fileID: 0}
    - {fileID: 0}
    - {fileID: 0}
    - {fileID: 0}
    - {fileID: 0}
    - {fileID: 0}
    - {fileID: 0}
    - {fileID: 0}
    - {fileID: 0}
    - {fileID: 0}
    - {fileID: 0}
    - {fileID: 0}
    - {fileID: 0}
    - {fileID: 0}
    - {fileID: 0}
    width: 512
    height: 1024
    bpp: 0
  PartList:
  - AnimeRes: {fileID: 11400000}
    Name: root
    Type: 1
    PicArea:
      Left: 0
      Top: 0
      Right: 0
      Bottom: 0
    OriginX: 0
    OriginY: 0
    MyId: 0
    ParentId: -1
    ChildNum: 0
    SrcObjId: 0
    SrcObjType: 0
    AlphaBlendType: 0
    InheritState:
      Type: 0
      Values:
      - Use: 1
        Rate: 1
      - Use: 1
        Rate: 1
      - Use: 1
        Rate: 1
      - Use: 1
        Rate: 1
      - Use: 1
        Rate: 1
      - Use: 1
        Rate: 1
      - Use: 1
        Rate: 1
      - Use: 0
        Rate: 0
      - Use: 0
        Rate: 0
      - Use: 0
        Rate: 0
      - Use: 1
        Rate: 1
      - Use: 1
        Rate: 1
      - Use: 1
        Rate: 1
      - Use: 1
        Rate: 1
      - Use: 1
        Rate: 1
      - Use: 1
        Rate: 1
      - Use: 1
        Rate: 1
      - Use: 1
        Rate: 1
      - Use: 1
        Rate: 1
      - Use: 1
        Rate: 1
      - Use: 1
        Rate: 1
    PosXKeys: []
    PosYKeys: []
    AngleKeys: []
    ScaleXKeys: []
    ScaleYKeys: []
    TransKeys: []
    PrioKeys: []
    FlipHKeys: []
    FlipVKeys: []
    HideKeys:
    - Value: 0
      _Time: 0
      _ValueType: 1
      _Curve:
        Type: 0
        StartT: 0
        StartV: 0
        EndT: 0
        EndV: 0
    PartsColKeys: []
    PartsPalKeys: []
    VertexKeys: []
    UserKeys: []
    SoundKeys: []
    ImageOffsetXKeys: []
    ImageOffsetYKeys: []
    ImageOffsetWKeys: []
    ImageOffsetHKeys: []
    OriginOffsetXKeys: []
    OriginOffsetYKeys: []
    PosXValues: []
    PosYValues: []
    AngleValues: []
    ScaleXValues: []
    ScaleYValues: []
    TransValues: []
    PrioValues: []
    FlipHValues: []
    FlipVValues: []
    HideValues:
    - _RefKeyIndex: 0
      _Value: 0
    - _RefKeyIndex: 0
      _Value: 0
    - _RefKeyIndex: 0
      _Value: 0
    - _RefKeyIndex: 0
      _Value: 0
    - _RefKeyIndex: 0
      _Value: 0
    - _RefKeyIndex: 0
      _Value: 0
    - _RefKeyIndex: 0
      _Value: 0
    - _RefKeyIndex: 0
      _Value: 0
    - _RefKeyIndex: 0
      _Value: 0
    - _RefKeyIndex: 0
      _Value: 0
    - _RefKeyIndex: 0
      _Value: 0
    - _RefKeyIndex: 0
      _Value: 0
    - _RefKeyIndex: 0
      _Value: 0
    - _RefKeyIndex: 0
      _Value: 0
    - _RefKeyIndex: 0
      _Value: 0
    - _RefKeyIndex: 0
      _Value: 0
    - _RefKeyIndex: 0
      _Value: 0
    - _RefKeyIndex: 0
      _Value: 0
    - _RefKeyIndex: 0
      _Value: 0
    - _RefKeyIndex: 0
      _Value: 0
    - _RefKeyIndex: 0
      _Value: 0
    - _RefKeyIndex: 0
      _Value: 0
    - _RefKeyIndex: 0
      _Value: 0
    - _RefKeyIndex: 0
      _Value: 0
    - _RefKeyIndex: 0
      _Value: 0
    - _RefKeyIndex: 0
      _Value: 0
    - _RefKeyIndex: 0
      _Value: 0
    - _RefKeyIndex: 0
      _Value: 0
    - _RefKeyIndex: 0
      _Value: 0
    - _RefKeyIndex: 0
      _Value: 0
    - _RefKeyIndex: 0
      _Value: 0
    PartsColValues: []
    PartsPalValues: []
    VertexValues: []
    UserValues: []
    SoundValues: []
    ImageOffsetXValues: []
    ImageOffsetYValues: []
    ImageOffsetWValues: []
    ImageOffsetHValues: []
    OriginOffsetXValues: []
    OriginOffsetYValues: []
    _hasAttrFlags: 512
    HasTrancparency: 0
    FrameNum: 31
    imageFile:
      path:
      texture: {fileID: 0}
      materials: []
      width: 0
      height: 0
      bpp: 0
    UVs: []
    OrgVertices:
    - {x: -0, y: 0, z: 0}
    - {x: 0, y: 0, z: 0}
    - {x: 0, y: -0, z: 0}
    - {x: -0, y: -0, z: 0}
  - AnimeRes: {fileID: 11400000}
    Name: null
    Type: 3
    PicArea:
      Left: 244
      Top: 713
      Right: 245
      Bottom: 714
    OriginX: 0
    OriginY: 0
    MyId: 1
    ParentId: 0
    ChildNum: 0
    SrcObjId: 0
    SrcObjType: 0
    AlphaBlendType: 1
    InheritState:
      Type: 0
      Values:
      - Use: 1
        Rate: 1
      - Use: 1
        Rate: 1
      - Use: 1
        Rate: 1
      - Use: 1
        Rate: 1
      - Use: 1
        Rate: 1
      - Use: 1
        Rate: 1
      - Use: 1
        Rate: 1
      - Use: 0
        Rate: 0
      - Use: 0
        Rate: 0
      - Use: 0
        Rate: 0
      - Use: 1
        Rate: 1
      - Use: 1
        Rate: 1
      - Use: 1
        Rate: 1
      - Use: 1
        Rate: 1
      - Use: 1
        Rate: 1
      - Use: 1
        Rate: 1
      - Use: 1
        Rate: 1
      - Use: 1
        Rate: 1
      - Use: 1
        Rate: 1
      - Use: 1
        Rate: 1
      - Use: 1
        Rate: 1
    PosXKeys: []
    PosYKeys: []
    AngleKeys: []
    ScaleXKeys: []
    ScaleYKeys: []
    TransKeys: []
    PrioKeys: []
    FlipHKeys: []
    FlipVKeys: []
    HideKeys: []
    PartsColKeys: []
    PartsPalKeys: []
    VertexKeys: []
    UserKeys: []
    SoundKeys: []
    ImageOffsetXKeys: []
    ImageOffsetYKeys: []
    ImageOffsetWKeys: []
    ImageOffsetHKeys: []
    OriginOffsetXKeys: []
    OriginOffsetYKeys: []
    PosXValues: []
    PosYValues: []
    AngleValues: []
    ScaleXValues: []
    ScaleYValues: []
    TransValues: []
    PrioValues: []
    FlipHValues: []
    FlipVValues: []
    HideValues: []
    PartsColValues: []
    PartsPalValues: []
    VertexValues: []
    UserValues: []
    SoundValues: []
    ImageOffsetXValues: []
    ImageOffsetYValues: []
    ImageOffsetWValues: []
    ImageOffsetHValues: []
    OriginOffsetXValues: []
    OriginOffsetYValues: []
    _hasAttrFlags: 0
    HasTrancparency: 0
    FrameNum: 31
    imageFile:
      path: Assets/Resources/Atlas/MapCommon/MapCommon.png
      texture: {fileID: 2800000, guid: a2673114ed9dca14499974f3ff081366, type: 3}
      materials:
      - {fileID: 0}
      - {fileID: 0}
      - {fileID: 0}
      - {fileID: 0}
      - {fileID: 0}
      - {fileID: 2100000, guid: 9070925b9cd3cb845956199f732e2e98, type: 2}
      - {fileID: 0}
      - {fileID: 0}
      - {fileID: 0}
      - {fileID: 0}
      - {fileID: 0}
      - {fileID: 0}
      - {fileID: 0}
      - {fileID: 0}
      - {fileID: 0}
      - {fileID: 0}
      - {fileID: 0}
      - {fileID: 0}
      - {fileID: 0}
      - {fileID: 0}
      - {fileID: 0}
      - {fileID: 0}
      - {fileID: 0}
      - {fileID: 0}
      - {fileID: 0}
      - {fileID: 0}
      - {fileID: 0}
      - {fileID: 0}
      - {fileID: 0}
      - {fileID: 0}
      - {fileID: 0}
      - {fileID: 0}
      - {fileID: 0}
      - {fileID: 0}
      - {fileID: 0}
      - {fileID: 0}
      - {fileID: 0}
      - {fileID: 0}
      - {fileID: 0}
      - {fileID: 0}
      - {fileID: 0}
      - {fileID: 0}
      - {fileID: 0}
      - {fileID: 0}
      - {fileID: 0}
      - {fileID: 0}
      - {fileID: 0}
      - {fileID: 0}
      - {fileID: 0}
      - {fileID: 0}
      width: 512
      height: 1024
      bpp: 0
    UVs: []
    OrgVertices:
    - {x: -0, y: 0, z: 0}
    - {x: 1, y: 0, z: 0}
    - {x: 1, y: -1, z: 0}
    - {x: -0, y: -1, z: 0}
  - AnimeRes: {fileID: 11400000}
    Name: mess
    Type: 3
    PicArea:
      Left: 244
      Top: 713
      Right: 245
      Bottom: 714
    OriginX: 0
    OriginY: 0
    MyId: 2
    ParentId: 1
    ChildNum: 0
    SrcObjId: 0
    SrcObjType: 0
    AlphaBlendType: 1
    InheritState:
      Type: 0
      Values:
      - Use: 1
        Rate: 1
      - Use: 1
        Rate: 1
      - Use: 1
        Rate: 1
      - Use: 1
        Rate: 1
      - Use: 1
        Rate: 1
      - Use: 1
        Rate: 1
      - Use: 1
        Rate: 1
      - Use: 0
        Rate: 0
      - Use: 0
        Rate: 0
      - Use: 0
        Rate: 0
      - Use: 1
        Rate: 1
      - Use: 1
        Rate: 1
      - Use: 1
        Rate: 1
      - Use: 1
        Rate: 1
      - Use: 1
        Rate: 1
      - Use: 1
        Rate: 1
      - Use: 1
        Rate: 1
      - Use: 1
        Rate: 1
      - Use: 1
        Rate: 1
      - Use: 1
        Rate: 1
      - Use: 1
        Rate: 1
    PosXKeys: []
    PosYKeys: []
    AngleKeys: []
    ScaleXKeys: []
    ScaleYKeys: []
    TransKeys: []
    PrioKeys: []
    FlipHKeys: []
    FlipVKeys: []
    HideKeys: []
    PartsColKeys: []
    PartsPalKeys: []
    VertexKeys: []
    UserKeys: []
    SoundKeys: []
    ImageOffsetXKeys: []
    ImageOffsetYKeys: []
    ImageOffsetWKeys: []
    ImageOffsetHKeys: []
    OriginOffsetXKeys: []
    OriginOffsetYKeys: []
    PosXValues: []
    PosYValues: []
    AngleValues: []
    ScaleXValues: []
    ScaleYValues: []
    TransValues: []
    PrioValues: []
    FlipHValues: []
    FlipVValues: []
    HideValues: []
    PartsColValues: []
    PartsPalValues: []
    VertexValues: []
    UserValues: []
    SoundValues: []
    ImageOffsetXValues: []
    ImageOffsetYValues: []
    ImageOffsetWValues: []
    ImageOffsetHValues: []
    OriginOffsetXValues: []
    OriginOffsetYValues: []
    _hasAttrFlags: 0
    HasTrancparency: 0
    FrameNum: 31
    imageFile:
      path: Assets/Resources/Atlas/MapCommon/MapCommon.png
      texture: {fileID: 2800000, guid: a2673114ed9dca14499974f3ff081366, type: 3}
      materials:
      - {fileID: 0}
      - {fileID: 0}
      - {fileID: 0}
      - {fileID: 0}
      - {fileID: 0}
      - {fileID: 2100000, guid: 9070925b9cd3cb845956199f732e2e98, type: 2}
      - {fileID: 0}
      - {fileID: 0}
      - {fileID: 0}
      - {fileID: 0}
      - {fileID: 0}
      - {fileID: 0}
      - {fileID: 0}
      - {fileID: 0}
      - {fileID: 0}
      - {fileID: 0}
      - {fileID: 0}
      - {fileID: 0}
      - {fileID: 0}
      - {fileID: 0}
      - {fileID: 0}
      - {fileID: 0}
      - {fileID: 0}
      - {fileID: 0}
      - {fileID: 0}
      - {fileID: 0}
      - {fileID: 0}
      - {fileID: 0}
      - {fileID: 0}
      - {fileID: 0}
      - {fileID: 0}
      - {fileID: 0}
      - {fileID: 0}
      - {fileID: 0}
      - {fileID: 0}
      - {fileID: 0}
      - {fileID: 0}
      - {fileID: 0}
      - {fileID: 0}
      - {fileID: 0}
      - {fileID: 0}
      - {fileID: 0}
      - {fileID: 0}
      - {fileID: 0}
      - {fileID: 0}
      - {fileID: 0}
      - {fileID: 0}
      - {fileID: 0}
      - {fileID: 0}
      - {fileID: 0}
      width: 512
      height: 1024
      bpp: 0
    UVs: []
    OrgVertices:
    - {x: -0, y: 0, z: 0}
    - {x: 1, y: 0, z: 0}
    - {x: 1, y: -1, z: 0}
    - {x: -0, y: -1, z: 0}
  - AnimeRes: {fileID: 11400000}
    Name: race
    Type: 0
    PicArea:
      Left: 246
      Top: 412
      Right: 376
      Bottom: 506
    OriginX: 65
    OriginY: 47
    MyId: 3
    ParentId: 1
    ChildNum: 0
    SrcObjId: 0
    SrcObjType: 0
    AlphaBlendType: 1
    InheritState:
      Type: 0
      Values:
      - Use: 1
        Rate: 1
      - Use: 1
        Rate: 1
      - Use: 1
        Rate: 1
      - Use: 1
        Rate: 1
      - Use: 1
        Rate: 1
      - Use: 1
        Rate: 1
      - Use: 1
        Rate: 1
      - Use: 0
        Rate: 0
      - Use: 0
        Rate: 0
      - Use: 0
        Rate: 0
      - Use: 1
        Rate: 1
      - Use: 1
        Rate: 1
      - Use: 1
        Rate: 1
      - Use: 1
        Rate: 1
      - Use: 1
        Rate: 1
      - Use: 1
        Rate: 1
      - Use: 1
        Rate: 1
      - Use: 1
        Rate: 1
      - Use: 1
        Rate: 1
      - Use: 1
        Rate: 1
      - Use: 1
        Rate: 1
    PosXKeys:
    - Value: 0
      _Time: 0
      _ValueType: 0
      _Curve:
        Type: 1
        StartT: 0
        StartV: 0
        EndT: 0
        EndV: 0
    PosYKeys:
    - Value: 14
      _Time: 0
      _ValueType: 0
      _Curve:
        Type: 1
        StartT: 0
        StartV: 0
        EndT: 0
        EndV: 0
    AngleKeys:
    - Value: 0
      _Time: 0
      _ValueType: 0
      _Curve:
        Type: 1
        StartT: 0
        StartV: 0
        EndT: 0
        EndV: 0
    ScaleXKeys: []
    ScaleYKeys: []
    TransKeys: []
    PrioKeys: []
    FlipHKeys: []
    FlipVKeys: []
    HideKeys:
    - Value: 0
      _Time: 0
      _ValueType: 1
      _Curve:
        Type: 0
        StartT: 0
        StartV: 0
        EndT: 0
        EndV: 0
    PartsColKeys: []
    PartsPalKeys: []
    VertexKeys: []
    UserKeys: []
    SoundKeys: []
    ImageOffsetXKeys: []
    ImageOffsetYKeys: []
    ImageOffsetWKeys: []
    ImageOffsetHKeys: []
    OriginOffsetXKeys: []
    OriginOffsetYKeys: []
    PosXValues:
    - _RefKeyIndex: 0
      _Value: 0
    PosYValues:
    - _RefKeyIndex: 0
      _Value: 0
    AngleValues:
    - _RefKeyIndex: 0
      _Value: 0
    ScaleXValues: []
    ScaleYValues: []
    TransValues: []
    PrioValues: []
    FlipHValues: []
    FlipVValues: []
    HideValues:
    - _RefKeyIndex: 0
      _Value: 0
    - _RefKeyIndex: 0
      _Value: 0
    - _RefKeyIndex: 0
      _Value: 0
    - _RefKeyIndex: 0
      _Value: 0
    - _RefKeyIndex: 0
      _Value: 0
    - _RefKeyIndex: 0
      _Value: 0
    - _RefKeyIndex: 0
      _Value: 0
    - _RefKeyIndex: 0
      _Value: 0
    - _RefKeyIndex: 0
      _Value: 0
    - _RefKeyIndex: 0
      _Value: 0
    - _RefKeyIndex: 0
      _Value: 0
    - _RefKeyIndex: 0
      _Value: 0
    - _RefKeyIndex: 0
      _Value: 0
    - _RefKeyIndex: 0
      _Value: 0
    - _RefKeyIndex: 0
      _Value: 0
    - _RefKeyIndex: 0
      _Value: 0
    - _RefKeyIndex: 0
      _Value: 0
    - _RefKeyIndex: 0
      _Value: 0
    - _RefKeyIndex: 0
      _Value: 0
    - _RefKeyIndex: 0
      _Value: 0
    - _RefKeyIndex: 0
      _Value: 0
    - _RefKeyIndex: 0
      _Value: 0
    - _RefKeyIndex: 0
      _Value: 0
    - _RefKeyIndex: 0
      _Value: 0
    - _RefKeyIndex: 0
      _Value: 0
    - _RefKeyIndex: 0
      _Value: 0
    - _RefKeyIndex: 0
      _Value: 0
    - _RefKeyIndex: 0
      _Value: 0
    - _RefKeyIndex: 0
      _Value: 0
    - _RefKeyIndex: 0
      _Value: 0
    - _RefKeyIndex: 0
      _Value: 0
    PartsColValues: []
    PartsPalValues: []
    VertexValues: []
    UserValues: []
    SoundValues: []
    ImageOffsetXValues: []
    ImageOffsetYValues: []
    ImageOffsetWValues: []
    ImageOffsetHValues: []
    OriginOffsetXValues: []
    OriginOffsetYValues: []
    _hasAttrFlags: 519
    HasTrancparency: 0
    FrameNum: 31
    imageFile:
      path: Assets/Resources/Atlas/MapCommon/MapCommon.png
      texture: {fileID: 2800000, guid: a2673114ed9dca14499974f3ff081366, type: 3}
      materials:
      - {fileID: 0}
      - {fileID: 0}
      - {fileID: 0}
      - {fileID: 0}
      - {fileID: 0}
      - {fileID: 2100000, guid: 9070925b9cd3cb845956199f732e2e98, type: 2}
      - {fileID: 0}
      - {fileID: 0}
      - {fileID: 0}
      - {fileID: 0}
      - {fileID: 0}
      - {fileID: 0}
      - {fileID: 0}
      - {fileID: 0}
      - {fileID: 0}
      - {fileID: 0}
      - {fileID: 0}
      - {fileID: 0}
      - {fileID: 0}
      - {fileID: 0}
      - {fileID: 0}
      - {fileID: 0}
      - {fileID: 0}
      - {fileID: 0}
      - {fileID: 0}
      - {fileID: 0}
      - {fileID: 0}
      - {fileID: 0}
      - {fileID: 0}
      - {fileID: 0}
      - {fileID: 0}
      - {fileID: 0}
      - {fileID: 0}
      - {fileID: 0}
      - {fileID: 0}
      - {fileID: 0}
      - {fileID: 0}
      - {fileID: 0}
      - {fileID: 0}
      - {fileID: 0}
      - {fileID: 0}
      - {fileID: 0}
      - {fileID: 0}
      - {fileID: 0}
      - {fileID: 0}
      - {fileID: 0}
      - {fileID: 0}
      - {fileID: 0}
      - {fileID: 0}
      - {fileID: 0}
      width: 512
      height: 1024
      bpp: 0
    UVs:
    - {x: 0.48046875, y: 0.59765625}
    - {x: 0.734375, y: 0.59765625}
    - {x: 0.734375, y: 0.5058594}
    - {x: 0.48046875, y: 0.5058594}
    OrgVertices:
    - {x: -65, y: 47, z: 0}
    - {x: 65, y: 47, z: 0}
    - {x: 65, y: -47, z: 0}
    - {x: -65, y: -47, z: 0}
  - AnimeRes: {fileID: 11400000}
    Name: item
    Type: 0
    PicArea:
      Left: 504
      Top: 125
      Right: 505
      Bottom: 126
    OriginX: 0
    OriginY: 0
    MyId: 4
    ParentId: 1
    ChildNum: 0
    SrcObjId: 0
    SrcObjType: 0
    AlphaBlendType: 1
    InheritState:
      Type: 0
      Values:
      - Use: 1
        Rate: 1
      - Use: 1
        Rate: 1
      - Use: 1
        Rate: 1
      - Use: 1
        Rate: 1
      - Use: 1
        Rate: 1
      - Use: 1
        Rate: 1
      - Use: 1
        Rate: 1
      - Use: 0
        Rate: 0
      - Use: 0
        Rate: 0
      - Use: 0
        Rate: 0
      - Use: 1
        Rate: 1
      - Use: 1
        Rate: 1
      - Use: 1
        Rate: 1
      - Use: 1
        Rate: 1
      - Use: 1
        Rate: 1
      - Use: 1
        Rate: 1
      - Use: 1
        Rate: 1
      - Use: 1
        Rate: 1
      - Use: 1
        Rate: 1
      - Use: 1
        Rate: 1
      - Use: 1
        Rate: 1
    PosXKeys:
    - Value: 0
      _Time: 0
      _ValueType: 0
      _Curve:
        Type: 1
        StartT: 0
        StartV: 0
        EndT: 0
        EndV: 0
    PosYKeys:
    - Value: -15
      _Time: 0
      _ValueType: 0
      _Curve:
        Type: 1
        StartT: 0
        StartV: 0
        EndT: 0
        EndV: 0
    AngleKeys:
    - Value: 0
      _Time: 0
      _ValueType: 0
      _Curve:
        Type: 1
        StartT: 0
        StartV: 0
        EndT: 0
        EndV: 0
    ScaleXKeys:
    - Value: 1
      _Time: 0
      _ValueType: 0
      _Curve:
        Type: 1
        StartT: 0
        StartV: 0
        EndT: 0
        EndV: 0
    ScaleYKeys:
    - Value: 1
      _Time: 0
      _ValueType: 0
      _Curve:
        Type: 1
        StartT: 0
        StartV: 0
        EndT: 0
        EndV: 0
    TransKeys:
    - Value: 1
      _Time: 0
      _ValueType: 0
      _Curve:
        Type: 1
        StartT: 0
        StartV: 0
        EndT: 0
        EndV: 0
    PrioKeys: []
    FlipHKeys: []
    FlipVKeys: []
    HideKeys:
    - Value: 0
      _Time: 0
      _ValueType: 1
      _Curve:
        Type: 0
        StartT: 0
        StartV: 0
        EndT: 0
        EndV: 0
    PartsColKeys: []
    PartsPalKeys: []
    VertexKeys: []
    UserKeys: []
    SoundKeys: []
    ImageOffsetXKeys: []
    ImageOffsetYKeys: []
    ImageOffsetWKeys: []
    ImageOffsetHKeys: []
    OriginOffsetXKeys: []
    OriginOffsetYKeys: []
    PosXValues:
    - _RefKeyIndex: 0
      _Value: 0
    PosYValues:
    - _RefKeyIndex: 0
      _Value: 0
    AngleValues:
    - _RefKeyIndex: 0
      _Value: 0
    ScaleXValues:
    - _RefKeyIndex: 0
      _Value: 0
    ScaleYValues:
    - _RefKeyIndex: 0
      _Value: 0
    TransValues:
    - _RefKeyIndex: 0
      _Value: 0
    PrioValues: []
    FlipHValues: []
    FlipVValues: []
    HideValues:
    - _RefKeyIndex: 0
      _Value: 0
    - _RefKeyIndex: 0
      _Value: 0
    - _RefKeyIndex: 0
      _Value: 0
    - _RefKeyIndex: 0
      _Value: 0
    - _RefKeyIndex: 0
      _Value: 0
    - _RefKeyIndex: 0
      _Value: 0
    - _RefKeyIndex: 0
      _Value: 0
    - _RefKeyIndex: 0
      _Value: 0
    - _RefKeyIndex: 0
      _Value: 0
    - _RefKeyIndex: 0
      _Value: 0
    - _RefKeyIndex: 0
      _Value: 0
    - _RefKeyIndex: 0
      _Value: 0
    - _RefKeyIndex: 0
      _Value: 0
    - _RefKeyIndex: 0
      _Value: 0
    - _RefKeyIndex: 0
      _Value: 0
    - _RefKeyIndex: 0
      _Value: 0
    - _RefKeyIndex: 0
      _Value: 0
    - _RefKeyIndex: 0
      _Value: 0
    - _RefKeyIndex: 0
      _Value: 0
    - _RefKeyIndex: 0
      _Value: 0
    - _RefKeyIndex: 0
      _Value: 0
    - _RefKeyIndex: 0
      _Value: 0
    - _RefKeyIndex: 0
      _Value: 0
    - _RefKeyIndex: 0
      _Value: 0
    - _RefKeyIndex: 0
      _Value: 0
    - _RefKeyIndex: 0
      _Value: 0
    - _RefKeyIndex: 0
      _Value: 0
    - _RefKeyIndex: 0
      _Value: 0
    - _RefKeyIndex: 0
      _Value: 0
    - _RefKeyIndex: 0
      _Value: 0
    - _RefKeyIndex: 0
      _Value: 0
    PartsColValues: []
    PartsPalValues: []
    VertexValues: []
    UserValues: []
    SoundValues: []
    ImageOffsetXValues: []
    ImageOffsetYValues: []
    ImageOffsetWValues: []
    ImageOffsetHValues: []
    OriginOffsetXValues: []
    OriginOffsetYValues: []
    _hasAttrFlags: 575
    HasTrancparency: 0
    FrameNum: 31
    imageFile:
      path: Assets/Resources/Atlas/MapCommon/MapCommon.png
      texture: {fileID: 2800000, guid: a2673114ed9dca14499974f3ff081366, type: 3}
      materials:
      - {fileID: 0}
      - {fileID: 0}
      - {fileID: 0}
      - {fileID: 0}
      - {fileID: 0}
      - {fileID: 2100000, guid: 9070925b9cd3cb845956199f732e2e98, type: 2}
      - {fileID: 0}
      - {fileID: 0}
      - {fileID: 0}
      - {fileID: 0}
      - {fileID: 0}
      - {fileID: 0}
      - {fileID: 0}
      - {fileID: 0}
      - {fileID: 0}
      - {fileID: 0}
      - {fileID: 0}
      - {fileID: 0}
      - {fileID: 0}
      - {fileID: 0}
      - {fileID: 0}
      - {fileID: 0}
      - {fileID: 0}
      - {fileID: 0}
      - {fileID: 0}
      - {fileID: 0}
      - {fileID: 0}
      - {fileID: 0}
      - {fileID: 0}
      - {fileID: 0}
      - {fileID: 0}
      - {fileID: 0}
      - {fileID: 0}
      - {fileID: 0}
      - {fileID: 0}
      - {fileID: 0}
      - {fileID: 0}
      - {fileID: 0}
      - {fileID: 0}
      - {fileID: 0}
      - {fileID: 0}
      - {fileID: 0}
      - {fileID: 0}
      - {fileID: 0}
      - {fileID: 0}
      - {fileID: 0}
      - {fileID: 0}
      - {fileID: 0}
      - {fileID: 0}
      - {fileID: 0}
      width: 512
      height: 1024
      bpp: 0
    UVs:
    - {x: 0.984375, y: 0.8779297}
    - {x: 0.9863281, y: 0.8779297}
    - {x: 0.9863281, y: 0.8769531}
    - {x: 0.984375, y: 0.8769531}
    OrgVertices:
    - {x: -0, y: 0, z: 0}
    - {x: 1, y: 0, z: 0}
    - {x: 1, y: -1, z: 0}
    - {x: -0, y: -1, z: 0}
  - AnimeRes: {fileID: 11400000}
    Name: lock
    Type: 0
    PicArea:
      Left: 244
      Top: 713
      Right: 294
      Bottom: 773
    OriginX: 25
    OriginY: 30
    MyId: 5
    ParentId: 1
    ChildNum: 0
    SrcObjId: 0
    SrcObjType: 0
    AlphaBlendType: 1
    InheritState:
      Type: 0
      Values:
      - Use: 1
        Rate: 1
      - Use: 1
        Rate: 1
      - Use: 1
        Rate: 1
      - Use: 1
        Rate: 1
      - Use: 1
        Rate: 1
      - Use: 1
        Rate: 1
      - Use: 1
        Rate: 1
      - Use: 0
        Rate: 0
      - Use: 0
        Rate: 0
      - Use: 0
        Rate: 0
      - Use: 1
        Rate: 1
      - Use: 1
        Rate: 1
      - Use: 1
        Rate: 1
      - Use: 1
        Rate: 1
      - Use: 1
        Rate: 1
      - Use: 1
        Rate: 1
      - Use: 1
        Rate: 1
      - Use: 1
        Rate: 1
      - Use: 1
        Rate: 1
      - Use: 1
        Rate: 1
      - Use: 1
        Rate: 1
    PosXKeys:
    - Value: 0
      _Time: 0
      _ValueType: 0
      _Curve:
        Type: 1
        StartT: 0
        StartV: 0
        EndT: 0
        EndV: 0
    PosYKeys:
    - Value: -24
      _Time: 0
      _ValueType: 0
      _Curve:
        Type: 1
        StartT: 0
        StartV: 0
        EndT: 0
        EndV: 0
    AngleKeys: []
    ScaleXKeys: []
    ScaleYKeys: []
    TransKeys: []
    PrioKeys: []
    FlipHKeys: []
    FlipVKeys: []
    HideKeys:
    - Value: 0
      _Time: 0
      _ValueType: 1
      _Curve:
        Type: 0
        StartT: 0
        StartV: 0
        EndT: 0
        EndV: 0
    PartsColKeys: []
    PartsPalKeys: []
    VertexKeys: []
    UserKeys: []
    SoundKeys: []
    ImageOffsetXKeys: []
    ImageOffsetYKeys: []
    ImageOffsetWKeys: []
    ImageOffsetHKeys: []
    OriginOffsetXKeys: []
    OriginOffsetYKeys: []
    PosXValues:
    - _RefKeyIndex: 0
      _Value: 0
    PosYValues:
    - _RefKeyIndex: 0
      _Value: 0
    AngleValues: []
    ScaleXValues: []
    ScaleYValues: []
    TransValues: []
    PrioValues: []
    FlipHValues: []
    FlipVValues: []
    HideValues:
    - _RefKeyIndex: 0
      _Value: 0
    - _RefKeyIndex: 0
      _Value: 0
    - _RefKeyIndex: 0
      _Value: 0
    - _RefKeyIndex: 0
      _Value: 0
    - _RefKeyIndex: 0
      _Value: 0
    - _RefKeyIndex: 0
      _Value: 0
    - _RefKeyIndex: 0
      _Value: 0
    - _RefKeyIndex: 0
      _Value: 0
    - _RefKeyIndex: 0
      _Value: 0
    - _RefKeyIndex: 0
      _Value: 0
    - _RefKeyIndex: 0
      _Value: 0
    - _RefKeyIndex: 0
      _Value: 0
    - _RefKeyIndex: 0
      _Value: 0
    - _RefKeyIndex: 0
      _Value: 0
    - _RefKeyIndex: 0
      _Value: 0
    - _RefKeyIndex: 0
      _Value: 0
    - _RefKeyIndex: 0
      _Value: 0
    - _RefKeyIndex: 0
      _Value: 0
    - _RefKeyIndex: 0
      _Value: 0
    - _RefKeyIndex: 0
      _Value: 0
    - _RefKeyIndex: 0
      _Value: 0
    - _RefKeyIndex: 0
      _Value: 0
    - _RefKeyIndex: 0
      _Value: 0
    - _RefKeyIndex: 0
      _Value: 0
    - _RefKeyIndex: 0
      _Value: 0
    - _RefKeyIndex: 0
      _Value: 0
    - _RefKeyIndex: 0
      _Value: 0
    - _RefKeyIndex: 0
      _Value: 0
    - _RefKeyIndex: 0
      _Value: 0
    - _RefKeyIndex: 0
      _Value: 0
    - _RefKeyIndex: 0
      _Value: 0
    PartsColValues: []
    PartsPalValues: []
    VertexValues: []
    UserValues: []
    SoundValues: []
    ImageOffsetXValues: []
    ImageOffsetYValues: []
    ImageOffsetWValues: []
    ImageOffsetHValues: []
    OriginOffsetXValues: []
    OriginOffsetYValues: []
    _hasAttrFlags: 515
    HasTrancparency: 0
    FrameNum: 31
    imageFile:
      path: Assets/Resources/Atlas/MapCommon/MapCommon.png
      texture: {fileID: 2800000, guid: a2673114ed9dca14499974f3ff081366, type: 3}
      materials:
      - {fileID: 0}
      - {fileID: 0}
      - {fileID: 0}
      - {fileID: 0}
      - {fileID: 0}
      - {fileID: 2100000, guid: 9070925b9cd3cb845956199f732e2e98, type: 2}
      - {fileID: 0}
      - {fileID: 0}
      - {fileID: 0}
      - {fileID: 0}
      - {fileID: 0}
      - {fileID: 0}
      - {fileID: 0}
      - {fileID: 0}
      - {fileID: 0}
      - {fileID: 0}
      - {fileID: 0}
      - {fileID: 0}
      - {fileID: 0}
      - {fileID: 0}
      - {fileID: 0}
      - {fileID: 0}
      - {fileID: 0}
      - {fileID: 0}
      - {fileID: 0}
      - {fileID: 0}
      - {fileID: 0}
      - {fileID: 0}
      - {fileID: 0}
      - {fileID: 0}
      - {fileID: 0}
      - {fileID: 0}
      - {fileID: 0}
      - {fileID: 0}
      - {fileID: 0}
      - {fileID: 0}
      - {fileID: 0}
      - {fileID: 0}
      - {fileID: 0}
      - {fileID: 0}
      - {fileID: 0}
      - {fileID: 0}
      - {fileID: 0}
      - {fileID: 0}
      - {fileID: 0}
      - {fileID: 0}
      - {fileID: 0}
      - {fileID: 0}
      - {fileID: 0}
      - {fileID: 0}
      width: 512
      height: 1024
      bpp: 0
    UVs:
    - {x: 0.4765625, y: 0.30371094}
    - {x: 0.57421875, y: 0.30371094}
    - {x: 0.57421875, y: 0.24511719}
    - {x: 0.4765625, y: 0.24511719}
    OrgVertices:
    - {x: -25, y: 30, z: 0}
    - {x: 25, y: 30, z: 0}
    - {x: 25, y: -30, z: 0}
    - {x: -25, y: -30, z: 0}
  - AnimeRes: {fileID: 11400000}
    Name: btn
    Type: 0
    PicArea:
      Left: 504
      Top: 125
      Right: 505
      Bottom: 126
    OriginX: 0
    OriginY: 0
    MyId: 6
    ParentId: 0
    ChildNum: 0
    SrcObjId: 0
    SrcObjType: 0
    AlphaBlendType: 1
    InheritState:
      Type: 0
      Values:
      - Use: 1
        Rate: 1
      - Use: 1
        Rate: 1
      - Use: 1
        Rate: 1
      - Use: 1
        Rate: 1
      - Use: 1
        Rate: 1
      - Use: 1
        Rate: 1
      - Use: 1
        Rate: 1
      - Use: 0
        Rate: 0
      - Use: 0
        Rate: 0
      - Use: 0
        Rate: 0
      - Use: 1
        Rate: 1
      - Use: 1
        Rate: 1
      - Use: 1
        Rate: 1
      - Use: 1
        Rate: 1
      - Use: 1
        Rate: 1
      - Use: 1
        Rate: 1
      - Use: 1
        Rate: 1
      - Use: 1
        Rate: 1
      - Use: 1
        Rate: 1
      - Use: 1
        Rate: 1
      - Use: 1
        Rate: 1
    PosXKeys:
    - Value: 28
      _Time: 0
      _ValueType: 0
      _Curve:
        Type: 1
        StartT: 0
        StartV: 0
        EndT: 0
        EndV: 0
    PosYKeys:
    - Value: 36
      _Time: 0
      _ValueType: 0
      _Curve:
        Type: 1
        StartT: 0
        StartV: 0
        EndT: 0
        EndV: 0
    AngleKeys:
    - Value: 0
      _Time: 0
      _ValueType: 0
      _Curve:
        Type: 1
        StartT: 0
        StartV: 0
        EndT: 0
        EndV: 0
    ScaleXKeys: []
    ScaleYKeys: []
    TransKeys: []
    PrioKeys: []
    FlipHKeys: []
    FlipVKeys: []
    HideKeys:
    - Value: 0
      _Time: 0
      _ValueType: 1
      _Curve:
        Type: 0
        StartT: 0
        StartV: 0
        EndT: 0
        EndV: 0
    PartsColKeys: []
    PartsPalKeys: []
    VertexKeys: []
    UserKeys: []
    SoundKeys: []
    ImageOffsetXKeys: []
    ImageOffsetYKeys: []
    ImageOffsetWKeys: []
    ImageOffsetHKeys: []
    OriginOffsetXKeys: []
    OriginOffsetYKeys: []
    PosXValues:
    - _RefKeyIndex: 0
      _Value: 0
    PosYValues:
    - _RefKeyIndex: 0
      _Value: 0
    AngleValues:
    - _RefKeyIndex: 0
      _Value: 0
    ScaleXValues: []
    ScaleYValues: []
    TransValues: []
    PrioValues: []
    FlipHValues: []
    FlipVValues: []
    HideValues:
    - _RefKeyIndex: 0
      _Value: 0
    - _RefKeyIndex: 0
      _Value: 0
    - _RefKeyIndex: 0
      _Value: 0
    - _RefKeyIndex: 0
      _Value: 0
    - _RefKeyIndex: 0
      _Value: 0
    - _RefKeyIndex: 0
      _Value: 0
    - _RefKeyIndex: 0
      _Value: 0
    - _RefKeyIndex: 0
      _Value: 0
    - _RefKeyIndex: 0
      _Value: 0
    - _RefKeyIndex: 0
      _Value: 0
    - _RefKeyIndex: 0
      _Value: 0
    - _RefKeyIndex: 0
      _Value: 0
    - _RefKeyIndex: 0
      _Value: 0
    - _RefKeyIndex: 0
      _Value: 0
    - _RefKeyIndex: 0
      _Value: 0
    - _RefKeyIndex: 0
      _Value: 0
    - _RefKeyIndex: 0
      _Value: 0
    - _RefKeyIndex: 0
      _Value: 0
    - _RefKeyIndex: 0
      _Value: 0
    - _RefKeyIndex: 0
      _Value: 0
    - _RefKeyIndex: 0
      _Value: 0
    - _RefKeyIndex: 0
      _Value: 0
    - _RefKeyIndex: 0
      _Value: 0
    - _RefKeyIndex: 0
      _Value: 0
    - _RefKeyIndex: 0
      _Value: 0
    - _RefKeyIndex: 0
      _Value: 0
    - _RefKeyIndex: 0
      _Value: 0
    - _RefKeyIndex: 0
      _Value: 0
    - _RefKeyIndex: 0
      _Value: 0
    - _RefKeyIndex: 0
      _Value: 0
    - _RefKeyIndex: 0
      _Value: 0
    PartsColValues: []
    PartsPalValues: []
    VertexValues: []
    UserValues: []
    SoundValues: []
    ImageOffsetXValues: []
    ImageOffsetYValues: []
    ImageOffsetWValues: []
    ImageOffsetHValues: []
    OriginOffsetXValues: []
    OriginOffsetYValues: []
    _hasAttrFlags: 519
    HasTrancparency: 0
    FrameNum: 31
    imageFile:
      path: Assets/Resources/Atlas/MapCommon/MapCommon.png
      texture: {fileID: 2800000, guid: a2673114ed9dca14499974f3ff081366, type: 3}
      materials:
      - {fileID: 0}
      - {fileID: 0}
      - {fileID: 0}
      - {fileID: 0}
      - {fileID: 0}
      - {fileID: 2100000, guid: 9070925b9cd3cb845956199f732e2e98, type: 2}
      - {fileID: 0}
      - {fileID: 0}
      - {fileID: 0}
      - {fileID: 0}
      - {fileID: 0}
      - {fileID: 0}
      - {fileID: 0}
      - {fileID: 0}
      - {fileID: 0}
      - {fileID: 0}
      - {fileID: 0}
      - {fileID: 0}
      - {fileID: 0}
      - {fileID: 0}
      - {fileID: 0}
      - {fileID: 0}
      - {fileID: 0}
      - {fileID: 0}
      - {fileID: 0}
      - {fileID: 0}
      - {fileID: 0}
      - {fileID: 0}
      - {fileID: 0}
      - {fileID: 0}
      - {fileID: 0}
      - {fileID: 0}
      - {fileID: 0}
      - {fileID: 0}
      - {fileID: 0}
      - {fileID: 0}
      - {fileID: 0}
      - {fileID: 0}
      - {fileID: 0}
      - {fileID: 0}
      - {fileID: 0}
      - {fileID: 0}
      - {fileID: 0}
      - {fileID: 0}
      - {fileID: 0}
      - {fileID: 0}
      - {fileID: 0}
      - {fileID: 0}
      - {fileID: 0}
      - {fileID: 0}
      width: 512
      height: 1024
      bpp: 0
    UVs:
    - {x: 0.984375, y: 0.8779297}
    - {x: 0.9863281, y: 0.8779297}
    - {x: 0.9863281, y: 0.8769531}
    - {x: 0.984375, y: 0.8769531}
    OrgVertices:
    - {x: -0, y: 0, z: 0}
    - {x: 1, y: 0, z: 0}
    - {x: 1, y: -1, z: 0}
    - {x: -0, y: -1, z: 0}
  ImportedTime: 1521796482
  ImportedTimeHigh: -1999222307
