%YAML 1.1
%TAG !u! tag:unity3d.com,2011:
--- !u!114 &11400000
MonoBehaviour:
  m_ObjectHideFlags: 0
  m_PrefabParentObject: {fileID: 0}
  m_PrefabInternal: {fileID: 0}
  m_GameObject: {fileID: 0}
  m_Enabled: 1
  m_EditorHideFlags: 0
  m_Script: {fileID: 11500000, guid: 0ae895f3348548989f1b4caf6cca149f, type: 3}
  m_Name: dailey_timer_anim_ssa
  m_EditorClassIdentifier:
  OriginalPath: Assets/Resources/Atlas/MapCommon/dailey_timer_anim.ssax
  UseScaleFactor: 0
  ScaleFactor: 1
  FPS: 30
  EndFrame: 0
  hvFlipForImageOnly: 1
  ImageList:
  - path: Assets/Resources/Atlas/MapCommon/MapCommon.png
    texture: {fileID: 2800000, guid: a2673114ed9dca14499974f3ff081366, type: 3}
    materials:
    - {fileID: 0}
    - {fileID: 0}
    - {fileID: 0}
    - {fileID: 0}
    - {fileID: 0}
    - {fileID: 2100000, guid: 9070925b9cd3cb845956199f732e2e98, type: 2}
    - {fileID: 0}
    - {fileID: 0}
    - {fileID: 0}
    - {fileID: 0}
    - {fileID: 0}
    - {fileID: 0}
    - {fileID: 0}
    - {fileID: 0}
    - {fileID: 0}
    - {fileID: 0}
    - {fileID: 0}
    - {fileID: 0}
    - {fileID: 0}
    - {fileID: 0}
    - {fileID: 0}
    - {fileID: 0}
    - {fileID: 0}
    - {fileID: 0}
    - {fileID: 0}
    - {fileID: 0}
    - {fileID: 0}
    - {fileID: 0}
    - {fileID: 0}
    - {fileID: 0}
    - {fileID: 0}
    - {fileID: 0}
    - {fileID: 0}
    - {fileID: 0}
    - {fileID: 0}
    - {fileID: 0}
    - {fileID: 0}
    - {fileID: 0}
    - {fileID: 0}
    - {fileID: 0}
    - {fileID: 0}
    - {fileID: 0}
    - {fileID: 0}
    - {fileID: 0}
    - {fileID: 0}
    - {fileID: 0}
    - {fileID: 0}
    - {fileID: 0}
    - {fileID: 0}
    - {fileID: 0}
    width: 512
    height: 1024
    bpp: 0
  PartList:
  - AnimeRes: {fileID: 11400000}
    Name: root
    Type: 1
    PicArea:
      Left: 0
      Top: 0
      Right: 0
      Bottom: 0
    OriginX: 0
    OriginY: 0
    MyId: 0
    ParentId: -1
    ChildNum: 0
    SrcObjId: 0
    SrcObjType: 0
    AlphaBlendType: 0
    InheritState:
      Type: 0
      Values:
      - Use: 1
        Rate: 1
      - Use: 1
        Rate: 1
      - Use: 1
        Rate: 1
      - Use: 1
        Rate: 1
      - Use: 1
        Rate: 1
      - Use: 1
        Rate: 1
      - Use: 1
        Rate: 1
      - Use: 0
        Rate: 0
      - Use: 0
        Rate: 0
      - Use: 0
        Rate: 0
      - Use: 1
        Rate: 1
      - Use: 1
        Rate: 1
      - Use: 1
        Rate: 1
      - Use: 1
        Rate: 1
      - Use: 1
        Rate: 1
      - Use: 1
        Rate: 1
      - Use: 1
        Rate: 1
      - Use: 1
        Rate: 1
      - Use: 1
        Rate: 1
      - Use: 1
        Rate: 1
      - Use: 1
        Rate: 1
    PosXKeys: []
    PosYKeys: []
    AngleKeys: []
    ScaleXKeys: []
    ScaleYKeys: []
    TransKeys: []
    PrioKeys: []
    FlipHKeys: []
    FlipVKeys: []
    HideKeys:
    - Value: 0
      _Time: 0
      _ValueType: 1
      _Curve:
        Type: 0
        StartT: 0
        StartV: 0
        EndT: 0
        EndV: 0
    PartsColKeys: []
    PartsPalKeys: []
    VertexKeys: []
    UserKeys: []
    SoundKeys: []
    ImageOffsetXKeys: []
    ImageOffsetYKeys: []
    ImageOffsetWKeys: []
    ImageOffsetHKeys: []
    OriginOffsetXKeys: []
    OriginOffsetYKeys: []
    PosXValues: []
    PosYValues: []
    AngleValues: []
    ScaleXValues: []
    ScaleYValues: []
    TransValues: []
    PrioValues: []
    FlipHValues: []
    FlipVValues: []
    HideValues:
    - _RefKeyIndex: 0
      _Value: 0
    PartsColValues: []
    PartsPalValues: []
    VertexValues: []
    UserValues: []
    SoundValues: []
    ImageOffsetXValues: []
    ImageOffsetYValues: []
    ImageOffsetWValues: []
    ImageOffsetHValues: []
    OriginOffsetXValues: []
    OriginOffsetYValues: []
    _hasAttrFlags: 512
    HasTrancparency: 0
    FrameNum: 1
    imageFile:
      path:
      texture: {fileID: 0}
      materials: []
      width: 0
      height: 0
      bpp: 0
    UVs: []
    OrgVertices:
    - {x: -0, y: 0, z: 0}
    - {x: 0, y: 0, z: 0}
    - {x: 0, y: -0, z: 0}
    - {x: -0, y: -0, z: 0}
  - AnimeRes: {fileID: 11400000}
    Name: frame
    Type: 0
    PicArea:
      Left: 397
      Top: 441
      Right: 475
      Bottom: 471
    OriginX: 39
    OriginY: 15
    MyId: 1
    ParentId: 0
    ChildNum: 0
    SrcObjId: 0
    SrcObjType: 0
    AlphaBlendType: 1
    InheritState:
      Type: 0
      Values:
      - Use: 1
        Rate: 1
      - Use: 1
        Rate: 1
      - Use: 1
        Rate: 1
      - Use: 1
        Rate: 1
      - Use: 1
        Rate: 1
      - Use: 1
        Rate: 1
      - Use: 1
        Rate: 1
      - Use: 0
        Rate: 0
      - Use: 0
        Rate: 0
      - Use: 0
        Rate: 0
      - Use: 1
        Rate: 1
      - Use: 1
        Rate: 1
      - Use: 1
        Rate: 1
      - Use: 1
        Rate: 1
      - Use: 1
        Rate: 1
      - Use: 1
        Rate: 1
      - Use: 1
        Rate: 1
      - Use: 1
        Rate: 1
      - Use: 1
        Rate: 1
      - Use: 1
        Rate: 1
      - Use: 1
        Rate: 1
    PosXKeys:
    - Value: 0
      _Time: 0
      _ValueType: 0
      _Curve:
        Type: 1
        StartT: 0
        StartV: 0
        EndT: 0
        EndV: 0
    PosYKeys:
    - Value: -70
      _Time: 0
      _ValueType: 0
      _Curve:
        Type: 1
        StartT: 0
        StartV: 0
        EndT: 0
        EndV: 0
    AngleKeys:
    - Value: 0
      _Time: 0
      _ValueType: 0
      _Curve:
        Type: 1
        StartT: 0
        StartV: 0
        EndT: 0
        EndV: 0
    ScaleXKeys: []
    ScaleYKeys: []
    TransKeys: []
    PrioKeys: []
    FlipHKeys: []
    FlipVKeys: []
    HideKeys:
    - Value: 0
      _Time: 0
      _ValueType: 1
      _Curve:
        Type: 0
        StartT: 0
        StartV: 0
        EndT: 0
        EndV: 0
    PartsColKeys: []
    PartsPalKeys: []
    VertexKeys: []
    UserKeys: []
    SoundKeys: []
    ImageOffsetXKeys: []
    ImageOffsetYKeys: []
    ImageOffsetWKeys: []
    ImageOffsetHKeys: []
    OriginOffsetXKeys: []
    OriginOffsetYKeys: []
    PosXValues:
    - _RefKeyIndex: 0
      _Value: 0
    PosYValues:
    - _RefKeyIndex: 0
      _Value: 0
    AngleValues:
    - _RefKeyIndex: 0
      _Value: 0
    ScaleXValues: []
    ScaleYValues: []
    TransValues: []
    PrioValues: []
    FlipHValues: []
    FlipVValues: []
    HideValues:
    - _RefKeyIndex: 0
      _Value: 0
    PartsColValues: []
    PartsPalValues: []
    VertexValues: []
    UserValues: []
    SoundValues: []
    ImageOffsetXValues: []
    ImageOffsetYValues: []
    ImageOffsetWValues: []
    ImageOffsetHValues: []
    OriginOffsetXValues: []
    OriginOffsetYValues: []
    _hasAttrFlags: 519
    HasTrancparency: 0
    FrameNum: 1
    imageFile:
      path: Assets/Resources/Atlas/MapCommon/MapCommon.png
      texture: {fileID: 2800000, guid: a2673114ed9dca14499974f3ff081366, type: 3}
      materials:
      - {fileID: 0}
      - {fileID: 0}
      - {fileID: 0}
      - {fileID: 0}
      - {fileID: 0}
      - {fileID: 2100000, guid: 9070925b9cd3cb845956199f732e2e98, type: 2}
      - {fileID: 0}
      - {fileID: 0}
      - {fileID: 0}
      - {fileID: 0}
      - {fileID: 0}
      - {fileID: 0}
      - {fileID: 0}
      - {fileID: 0}
      - {fileID: 0}
      - {fileID: 0}
      - {fileID: 0}
      - {fileID: 0}
      - {fileID: 0}
      - {fileID: 0}
      - {fileID: 0}
      - {fileID: 0}
      - {fileID: 0}
      - {fileID: 0}
      - {fileID: 0}
      - {fileID: 0}
      - {fileID: 0}
      - {fileID: 0}
      - {fileID: 0}
      - {fileID: 0}
      - {fileID: 0}
      - {fileID: 0}
      - {fileID: 0}
      - {fileID: 0}
      - {fileID: 0}
      - {fileID: 0}
      - {fileID: 0}
      - {fileID: 0}
      - {fileID: 0}
      - {fileID: 0}
      - {fileID: 0}
      - {fileID: 0}
      - {fileID: 0}
      - {fileID: 0}
      - {fileID: 0}
      - {fileID: 0}
      - {fileID: 0}
      - {fileID: 0}
      - {fileID: 0}
      - {fileID: 0}
      width: 512
      height: 1024
      bpp: 0
    UVs:
    - {x: 0.7753906, y: 0.56933594}
    - {x: 0.9277344, y: 0.56933594}
    - {x: 0.9277344, y: 0.54003906}
    - {x: 0.7753906, y: 0.54003906}
    OrgVertices:
    - {x: -39, y: 15, z: 0}
    - {x: 39, y: 15, z: 0}
    - {x: 39, y: -15, z: 0}
    - {x: -39, y: -15, z: 0}
  - AnimeRes: {fileID: 11400000}
    Name: change_000
    Type: 0
    PicArea:
      Left: 377
      Top: 412
      Right: 396
      Bottom: 436
    OriginX: 9
    OriginY: 12
    MyId: 2
    ParentId: 1
    ChildNum: 0
    SrcObjId: 0
    SrcObjType: 0
    AlphaBlendType: 1
    InheritState:
      Type: 0
      Values:
      - Use: 1
        Rate: 1
      - Use: 1
        Rate: 1
      - Use: 1
        Rate: 1
      - Use: 1
        Rate: 1
      - Use: 1
        Rate: 1
      - Use: 1
        Rate: 1
      - Use: 1
        Rate: 1
      - Use: 0
        Rate: 0
      - Use: 0
        Rate: 0
      - Use: 0
        Rate: 0
      - Use: 1
        Rate: 1
      - Use: 1
        Rate: 1
      - Use: 1
        Rate: 1
      - Use: 1
        Rate: 1
      - Use: 1
        Rate: 1
      - Use: 1
        Rate: 1
      - Use: 1
        Rate: 1
      - Use: 1
        Rate: 1
      - Use: 1
        Rate: 1
      - Use: 1
        Rate: 1
      - Use: 1
        Rate: 1
    PosXKeys:
    - Value: -25
      _Time: 0
      _ValueType: 0
      _Curve:
        Type: 1
        StartT: 0
        StartV: 0
        EndT: 0
        EndV: 0
    PosYKeys:
    - Value: 0
      _Time: 0
      _ValueType: 0
      _Curve:
        Type: 1
        StartT: 0
        StartV: 0
        EndT: 0
        EndV: 0
    AngleKeys:
    - Value: 0
      _Time: 0
      _ValueType: 0
      _Curve:
        Type: 1
        StartT: 0
        StartV: 0
        EndT: 0
        EndV: 0
    ScaleXKeys: []
    ScaleYKeys: []
    TransKeys: []
    PrioKeys: []
    FlipHKeys: []
    FlipVKeys: []
    HideKeys:
    - Value: 0
      _Time: 0
      _ValueType: 1
      _Curve:
        Type: 0
        StartT: 0
        StartV: 0
        EndT: 0
        EndV: 0
    PartsColKeys: []
    PartsPalKeys: []
    VertexKeys: []
    UserKeys: []
    SoundKeys: []
    ImageOffsetXKeys: []
    ImageOffsetYKeys: []
    ImageOffsetWKeys: []
    ImageOffsetHKeys: []
    OriginOffsetXKeys: []
    OriginOffsetYKeys: []
    PosXValues:
    - _RefKeyIndex: 0
      _Value: 0
    PosYValues:
    - _RefKeyIndex: 0
      _Value: 0
    AngleValues:
    - _RefKeyIndex: 0
      _Value: 0
    ScaleXValues: []
    ScaleYValues: []
    TransValues: []
    PrioValues: []
    FlipHValues: []
    FlipVValues: []
    HideValues:
    - _RefKeyIndex: 0
      _Value: 0
    PartsColValues: []
    PartsPalValues: []
    VertexValues: []
    UserValues: []
    SoundValues: []
    ImageOffsetXValues: []
    ImageOffsetYValues: []
    ImageOffsetWValues: []
    ImageOffsetHValues: []
    OriginOffsetXValues: []
    OriginOffsetYValues: []
    _hasAttrFlags: 519
    HasTrancparency: 0
    FrameNum: 1
    imageFile:
      path: Assets/Resources/Atlas/MapCommon/MapCommon.png
      texture: {fileID: 2800000, guid: a2673114ed9dca14499974f3ff081366, type: 3}
      materials:
      - {fileID: 0}
      - {fileID: 0}
      - {fileID: 0}
      - {fileID: 0}
      - {fileID: 0}
      - {fileID: 2100000, guid: 9070925b9cd3cb845956199f732e2e98, type: 2}
      - {fileID: 0}
      - {fileID: 0}
      - {fileID: 0}
      - {fileID: 0}
      - {fileID: 0}
      - {fileID: 0}
      - {fileID: 0}
      - {fileID: 0}
      - {fileID: 0}
      - {fileID: 0}
      - {fileID: 0}
      - {fileID: 0}
      - {fileID: 0}
      - {fileID: 0}
      - {fileID: 0}
      - {fileID: 0}
      - {fileID: 0}
      - {fileID: 0}
      - {fileID: 0}
      - {fileID: 0}
      - {fileID: 0}
      - {fileID: 0}
      - {fileID: 0}
      - {fileID: 0}
      - {fileID: 0}
      - {fileID: 0}
      - {fileID: 0}
      - {fileID: 0}
      - {fileID: 0}
      - {fileID: 0}
      - {fileID: 0}
      - {fileID: 0}
      - {fileID: 0}
      - {fileID: 0}
      - {fileID: 0}
      - {fileID: 0}
      - {fileID: 0}
      - {fileID: 0}
      - {fileID: 0}
      - {fileID: 0}
      - {fileID: 0}
      - {fileID: 0}
      - {fileID: 0}
      - {fileID: 0}
      width: 512
      height: 1024
      bpp: 0
    UVs:
    - {x: 0.7363281, y: 0.59765625}
    - {x: 0.7734375, y: 0.59765625}
    - {x: 0.7734375, y: 0.57421875}
    - {x: 0.7363281, y: 0.57421875}
    OrgVertices:
    - {x: -9, y: 12, z: 0}
    - {x: 10, y: 12, z: 0}
    - {x: 10, y: -12, z: 0}
    - {x: -9, y: -12, z: 0}
  - AnimeRes: {fileID: 11400000}
    Name: change_001
    Type: 0
    PicArea:
      Left: 377
      Top: 412
      Right: 396
      Bottom: 436
    OriginX: 9
    OriginY: 12
    MyId: 3
    ParentId: 1
    ChildNum: 0
    SrcObjId: 0
    SrcObjType: 0
    AlphaBlendType: 1
    InheritState:
      Type: 0
      Values:
      - Use: 1
        Rate: 1
      - Use: 1
        Rate: 1
      - Use: 1
        Rate: 1
      - Use: 1
        Rate: 1
      - Use: 1
        Rate: 1
      - Use: 1
        Rate: 1
      - Use: 1
        Rate: 1
      - Use: 0
        Rate: 0
      - Use: 0
        Rate: 0
      - Use: 0
        Rate: 0
      - Use: 1
        Rate: 1
      - Use: 1
        Rate: 1
      - Use: 1
        Rate: 1
      - Use: 1
        Rate: 1
      - Use: 1
        Rate: 1
      - Use: 1
        Rate: 1
      - Use: 1
        Rate: 1
      - Use: 1
        Rate: 1
      - Use: 1
        Rate: 1
      - Use: 1
        Rate: 1
      - Use: 1
        Rate: 1
    PosXKeys:
    - Value: -10
      _Time: 0
      _ValueType: 0
      _Curve:
        Type: 1
        StartT: 0
        StartV: 0
        EndT: 0
        EndV: 0
    PosYKeys:
    - Value: 0
      _Time: 0
      _ValueType: 0
      _Curve:
        Type: 1
        StartT: 0
        StartV: 0
        EndT: 0
        EndV: 0
    AngleKeys:
    - Value: 0
      _Time: 0
      _ValueType: 0
      _Curve:
        Type: 1
        StartT: 0
        StartV: 0
        EndT: 0
        EndV: 0
    ScaleXKeys: []
    ScaleYKeys: []
    TransKeys: []
    PrioKeys: []
    FlipHKeys: []
    FlipVKeys: []
    HideKeys:
    - Value: 0
      _Time: 0
      _ValueType: 1
      _Curve:
        Type: 0
        StartT: 0
        StartV: 0
        EndT: 0
        EndV: 0
    PartsColKeys: []
    PartsPalKeys: []
    VertexKeys: []
    UserKeys: []
    SoundKeys: []
    ImageOffsetXKeys: []
    ImageOffsetYKeys: []
    ImageOffsetWKeys: []
    ImageOffsetHKeys: []
    OriginOffsetXKeys: []
    OriginOffsetYKeys: []
    PosXValues:
    - _RefKeyIndex: 0
      _Value: 0
    PosYValues:
    - _RefKeyIndex: 0
      _Value: 0
    AngleValues:
    - _RefKeyIndex: 0
      _Value: 0
    ScaleXValues: []
    ScaleYValues: []
    TransValues: []
    PrioValues: []
    FlipHValues: []
    FlipVValues: []
    HideValues:
    - _RefKeyIndex: 0
      _Value: 0
    PartsColValues: []
    PartsPalValues: []
    VertexValues: []
    UserValues: []
    SoundValues: []
    ImageOffsetXValues: []
    ImageOffsetYValues: []
    ImageOffsetWValues: []
    ImageOffsetHValues: []
    OriginOffsetXValues: []
    OriginOffsetYValues: []
    _hasAttrFlags: 519
    HasTrancparency: 0
    FrameNum: 1
    imageFile:
      path: Assets/Resources/Atlas/MapCommon/MapCommon.png
      texture: {fileID: 2800000, guid: a2673114ed9dca14499974f3ff081366, type: 3}
      materials:
      - {fileID: 0}
      - {fileID: 0}
      - {fileID: 0}
      - {fileID: 0}
      - {fileID: 0}
      - {fileID: 2100000, guid: 9070925b9cd3cb845956199f732e2e98, type: 2}
      - {fileID: 0}
      - {fileID: 0}
      - {fileID: 0}
      - {fileID: 0}
      - {fileID: 0}
      - {fileID: 0}
      - {fileID: 0}
      - {fileID: 0}
      - {fileID: 0}
      - {fileID: 0}
      - {fileID: 0}
      - {fileID: 0}
      - {fileID: 0}
      - {fileID: 0}
      - {fileID: 0}
      - {fileID: 0}
      - {fileID: 0}
      - {fileID: 0}
      - {fileID: 0}
      - {fileID: 0}
      - {fileID: 0}
      - {fileID: 0}
      - {fileID: 0}
      - {fileID: 0}
      - {fileID: 0}
      - {fileID: 0}
      - {fileID: 0}
      - {fileID: 0}
      - {fileID: 0}
      - {fileID: 0}
      - {fileID: 0}
      - {fileID: 0}
      - {fileID: 0}
      - {fileID: 0}
      - {fileID: 0}
      - {fileID: 0}
      - {fileID: 0}
      - {fileID: 0}
      - {fileID: 0}
      - {fileID: 0}
      - {fileID: 0}
      - {fileID: 0}
      - {fileID: 0}
      - {fileID: 0}
      width: 512
      height: 1024
      bpp: 0
    UVs:
    - {x: 0.7363281, y: 0.59765625}
    - {x: 0.7734375, y: 0.59765625}
    - {x: 0.7734375, y: 0.57421875}
    - {x: 0.7363281, y: 0.57421875}
    OrgVertices:
    - {x: -9, y: 12, z: 0}
    - {x: 10, y: 12, z: 0}
    - {x: 10, y: -12, z: 0}
    - {x: -9, y: -12, z: 0}
  - AnimeRes: {fileID: 11400000}
    Name: change_002
    Type: 0
    PicArea:
      Left: 504
      Top: 112
      Right: 510
      Bottom: 124
    OriginX: 3
    OriginY: 6
    MyId: 4
    ParentId: 1
    ChildNum: 0
    SrcObjId: 0
    SrcObjType: 0
    AlphaBlendType: 1
    InheritState:
      Type: 0
      Values:
      - Use: 1
        Rate: 1
      - Use: 1
        Rate: 1
      - Use: 1
        Rate: 1
      - Use: 1
        Rate: 1
      - Use: 1
        Rate: 1
      - Use: 1
        Rate: 1
      - Use: 1
        Rate: 1
      - Use: 0
        Rate: 0
      - Use: 0
        Rate: 0
      - Use: 0
        Rate: 0
      - Use: 1
        Rate: 1
      - Use: 1
        Rate: 1
      - Use: 1
        Rate: 1
      - Use: 1
        Rate: 1
      - Use: 1
        Rate: 1
      - Use: 1
        Rate: 1
      - Use: 1
        Rate: 1
      - Use: 1
        Rate: 1
      - Use: 1
        Rate: 1
      - Use: 1
        Rate: 1
      - Use: 1
        Rate: 1
    PosXKeys:
    - Value: 0
      _Time: 0
      _ValueType: 0
      _Curve:
        Type: 1
        StartT: 0
        StartV: 0
        EndT: 0
        EndV: 0
    PosYKeys:
    - Value: 0
      _Time: 0
      _ValueType: 0
      _Curve:
        Type: 1
        StartT: 0
        StartV: 0
        EndT: 0
        EndV: 0
    AngleKeys:
    - Value: 0
      _Time: 0
      _ValueType: 0
      _Curve:
        Type: 1
        StartT: 0
        StartV: 0
        EndT: 0
        EndV: 0
    ScaleXKeys: []
    ScaleYKeys: []
    TransKeys: []
    PrioKeys: []
    FlipHKeys: []
    FlipVKeys: []
    HideKeys:
    - Value: 0
      _Time: 0
      _ValueType: 1
      _Curve:
        Type: 0
        StartT: 0
        StartV: 0
        EndT: 0
        EndV: 0
    PartsColKeys: []
    PartsPalKeys: []
    VertexKeys: []
    UserKeys: []
    SoundKeys: []
    ImageOffsetXKeys: []
    ImageOffsetYKeys: []
    ImageOffsetWKeys: []
    ImageOffsetHKeys: []
    OriginOffsetXKeys: []
    OriginOffsetYKeys: []
    PosXValues:
    - _RefKeyIndex: 0
      _Value: 0
    PosYValues:
    - _RefKeyIndex: 0
      _Value: 0
    AngleValues:
    - _RefKeyIndex: 0
      _Value: 0
    ScaleXValues: []
    ScaleYValues: []
    TransValues: []
    PrioValues: []
    FlipHValues: []
    FlipVValues: []
    HideValues:
    - _RefKeyIndex: 0
      _Value: 0
    PartsColValues: []
    PartsPalValues: []
    VertexValues: []
    UserValues: []
    SoundValues: []
    ImageOffsetXValues: []
    ImageOffsetYValues: []
    ImageOffsetWValues: []
    ImageOffsetHValues: []
    OriginOffsetXValues: []
    OriginOffsetYValues: []
    _hasAttrFlags: 519
    HasTrancparency: 0
    FrameNum: 1
    imageFile:
      path: Assets/Resources/Atlas/MapCommon/MapCommon.png
      texture: {fileID: 2800000, guid: a2673114ed9dca14499974f3ff081366, type: 3}
      materials:
      - {fileID: 0}
      - {fileID: 0}
      - {fileID: 0}
      - {fileID: 0}
      - {fileID: 0}
      - {fileID: 2100000, guid: 9070925b9cd3cb845956199f732e2e98, type: 2}
      - {fileID: 0}
      - {fileID: 0}
      - {fileID: 0}
      - {fileID: 0}
      - {fileID: 0}
      - {fileID: 0}
      - {fileID: 0}
      - {fileID: 0}
      - {fileID: 0}
      - {fileID: 0}
      - {fileID: 0}
      - {fileID: 0}
      - {fileID: 0}
      - {fileID: 0}
      - {fileID: 0}
      - {fileID: 0}
      - {fileID: 0}
      - {fileID: 0}
      - {fileID: 0}
      - {fileID: 0}
      - {fileID: 0}
      - {fileID: 0}
      - {fileID: 0}
      - {fileID: 0}
      - {fileID: 0}
      - {fileID: 0}
      - {fileID: 0}
      - {fileID: 0}
      - {fileID: 0}
      - {fileID: 0}
      - {fileID: 0}
      - {fileID: 0}
      - {fileID: 0}
      - {fileID: 0}
      - {fileID: 0}
      - {fileID: 0}
      - {fileID: 0}
      - {fileID: 0}
      - {fileID: 0}
      - {fileID: 0}
      - {fileID: 0}
      - {fileID: 0}
      - {fileID: 0}
      - {fileID: 0}
      width: 512
      height: 1024
      bpp: 0
    UVs:
    - {x: 0.984375, y: 0.890625}
    - {x: 0.99609375, y: 0.890625}
    - {x: 0.99609375, y: 0.87890625}
    - {x: 0.984375, y: 0.87890625}
    OrgVertices:
    - {x: -3, y: 6, z: 0}
    - {x: 3, y: 6, z: 0}
    - {x: 3, y: -6, z: 0}
    - {x: -3, y: -6, z: 0}
  - AnimeRes: {fileID: 11400000}
    Name: change_003
    Type: 0
    PicArea:
      Left: 377
      Top: 412
      Right: 396
      Bottom: 436
    OriginX: 9
    OriginY: 12
    MyId: 5
    ParentId: 1
    ChildNum: 0
    SrcObjId: 0
    SrcObjType: 0
    AlphaBlendType: 1
    InheritState:
      Type: 0
      Values:
      - Use: 1
        Rate: 1
      - Use: 1
        Rate: 1
      - Use: 1
        Rate: 1
      - Use: 1
        Rate: 1
      - Use: 1
        Rate: 1
      - Use: 1
        Rate: 1
      - Use: 1
        Rate: 1
      - Use: 0
        Rate: 0
      - Use: 0
        Rate: 0
      - Use: 0
        Rate: 0
      - Use: 1
        Rate: 1
      - Use: 1
        Rate: 1
      - Use: 1
        Rate: 1
      - Use: 1
        Rate: 1
      - Use: 1
        Rate: 1
      - Use: 1
        Rate: 1
      - Use: 1
        Rate: 1
      - Use: 1
        Rate: 1
      - Use: 1
        Rate: 1
      - Use: 1
        Rate: 1
      - Use: 1
        Rate: 1
    PosXKeys:
    - Value: 10
      _Time: 0
      _ValueType: 0
      _Curve:
        Type: 1
        StartT: 0
        StartV: 0
        EndT: 0
        EndV: 0
    PosYKeys:
    - Value: 0
      _Time: 0
      _ValueType: 0
      _Curve:
        Type: 1
        StartT: 0
        StartV: 0
        EndT: 0
        EndV: 0
    AngleKeys:
    - Value: 0
      _Time: 0
      _ValueType: 0
      _Curve:
        Type: 1
        StartT: 0
        StartV: 0
        EndT: 0
        EndV: 0
    ScaleXKeys: []
    ScaleYKeys: []
    TransKeys: []
    PrioKeys: []
    FlipHKeys: []
    FlipVKeys: []
    HideKeys:
    - Value: 0
      _Time: 0
      _ValueType: 1
      _Curve:
        Type: 0
        StartT: 0
        StartV: 0
        EndT: 0
        EndV: 0
    PartsColKeys: []
    PartsPalKeys: []
    VertexKeys: []
    UserKeys: []
    SoundKeys: []
    ImageOffsetXKeys: []
    ImageOffsetYKeys: []
    ImageOffsetWKeys: []
    ImageOffsetHKeys: []
    OriginOffsetXKeys: []
    OriginOffsetYKeys: []
    PosXValues:
    - _RefKeyIndex: 0
      _Value: 0
    PosYValues:
    - _RefKeyIndex: 0
      _Value: 0
    AngleValues:
    - _RefKeyIndex: 0
      _Value: 0
    ScaleXValues: []
    ScaleYValues: []
    TransValues: []
    PrioValues: []
    FlipHValues: []
    FlipVValues: []
    HideValues:
    - _RefKeyIndex: 0
      _Value: 0
    PartsColValues: []
    PartsPalValues: []
    VertexValues: []
    UserValues: []
    SoundValues: []
    ImageOffsetXValues: []
    ImageOffsetYValues: []
    ImageOffsetWValues: []
    ImageOffsetHValues: []
    OriginOffsetXValues: []
    OriginOffsetYValues: []
    _hasAttrFlags: 519
    HasTrancparency: 0
    FrameNum: 1
    imageFile:
      path: Assets/Resources/Atlas/MapCommon/MapCommon.png
      texture: {fileID: 2800000, guid: a2673114ed9dca14499974f3ff081366, type: 3}
      materials:
      - {fileID: 0}
      - {fileID: 0}
      - {fileID: 0}
      - {fileID: 0}
      - {fileID: 0}
      - {fileID: 2100000, guid: 9070925b9cd3cb845956199f732e2e98, type: 2}
      - {fileID: 0}
      - {fileID: 0}
      - {fileID: 0}
      - {fileID: 0}
      - {fileID: 0}
      - {fileID: 0}
      - {fileID: 0}
      - {fileID: 0}
      - {fileID: 0}
      - {fileID: 0}
      - {fileID: 0}
      - {fileID: 0}
      - {fileID: 0}
      - {fileID: 0}
      - {fileID: 0}
      - {fileID: 0}
      - {fileID: 0}
      - {fileID: 0}
      - {fileID: 0}
      - {fileID: 0}
      - {fileID: 0}
      - {fileID: 0}
      - {fileID: 0}
      - {fileID: 0}
      - {fileID: 0}
      - {fileID: 0}
      - {fileID: 0}
      - {fileID: 0}
      - {fileID: 0}
      - {fileID: 0}
      - {fileID: 0}
      - {fileID: 0}
      - {fileID: 0}
      - {fileID: 0}
      - {fileID: 0}
      - {fileID: 0}
      - {fileID: 0}
      - {fileID: 0}
      - {fileID: 0}
      - {fileID: 0}
      - {fileID: 0}
      - {fileID: 0}
      - {fileID: 0}
      - {fileID: 0}
      width: 512
      height: 1024
      bpp: 0
    UVs:
    - {x: 0.7363281, y: 0.59765625}
    - {x: 0.7734375, y: 0.59765625}
    - {x: 0.7734375, y: 0.57421875}
    - {x: 0.7363281, y: 0.57421875}
    OrgVertices:
    - {x: -9, y: 12, z: 0}
    - {x: 10, y: 12, z: 0}
    - {x: 10, y: -12, z: 0}
    - {x: -9, y: -12, z: 0}
  - AnimeRes: {fileID: 11400000}
    Name: change_004
    Type: 0
    PicArea:
      Left: 377
      Top: 412
      Right: 396
      Bottom: 436
    OriginX: 9
    OriginY: 12
    MyId: 6
    ParentId: 1
    ChildNum: 0
    SrcObjId: 0
    SrcObjType: 0
    AlphaBlendType: 1
    InheritState:
      Type: 0
      Values:
      - Use: 1
        Rate: 1
      - Use: 1
        Rate: 1
      - Use: 1
        Rate: 1
      - Use: 1
        Rate: 1
      - Use: 1
        Rate: 1
      - Use: 1
        Rate: 1
      - Use: 1
        Rate: 1
      - Use: 0
        Rate: 0
      - Use: 0
        Rate: 0
      - Use: 0
        Rate: 0
      - Use: 1
        Rate: 1
      - Use: 1
        Rate: 1
      - Use: 1
        Rate: 1
      - Use: 1
        Rate: 1
      - Use: 1
        Rate: 1
      - Use: 1
        Rate: 1
      - Use: 1
        Rate: 1
      - Use: 1
        Rate: 1
      - Use: 1
        Rate: 1
      - Use: 1
        Rate: 1
      - Use: 1
        Rate: 1
    PosXKeys:
    - Value: 25
      _Time: 0
      _ValueType: 0
      _Curve:
        Type: 1
        StartT: 0
        StartV: 0
        EndT: 0
        EndV: 0
    PosYKeys:
    - Value: 0
      _Time: 0
      _ValueType: 0
      _Curve:
        Type: 1
        StartT: 0
        StartV: 0
        EndT: 0
        EndV: 0
    AngleKeys:
    - Value: 0
      _Time: 0
      _ValueType: 0
      _Curve:
        Type: 1
        StartT: 0
        StartV: 0
        EndT: 0
        EndV: 0
    ScaleXKeys: []
    ScaleYKeys: []
    TransKeys: []
    PrioKeys: []
    FlipHKeys: []
    FlipVKeys: []
    HideKeys:
    - Value: 0
      _Time: 0
      _ValueType: 1
      _Curve:
        Type: 0
        StartT: 0
        StartV: 0
        EndT: 0
        EndV: 0
    PartsColKeys: []
    PartsPalKeys: []
    VertexKeys: []
    UserKeys: []
    SoundKeys: []
    ImageOffsetXKeys: []
    ImageOffsetYKeys: []
    ImageOffsetWKeys: []
    ImageOffsetHKeys: []
    OriginOffsetXKeys: []
    OriginOffsetYKeys: []
    PosXValues:
    - _RefKeyIndex: 0
      _Value: 0
    PosYValues:
    - _RefKeyIndex: 0
      _Value: 0
    AngleValues:
    - _RefKeyIndex: 0
      _Value: 0
    ScaleXValues: []
    ScaleYValues: []
    TransValues: []
    PrioValues: []
    FlipHValues: []
    FlipVValues: []
    HideValues:
    - _RefKeyIndex: 0
      _Value: 0
    PartsColValues: []
    PartsPalValues: []
    VertexValues: []
    UserValues: []
    SoundValues: []
    ImageOffsetXValues: []
    ImageOffsetYValues: []
    ImageOffsetWValues: []
    ImageOffsetHValues: []
    OriginOffsetXValues: []
    OriginOffsetYValues: []
    _hasAttrFlags: 519
    HasTrancparency: 0
    FrameNum: 1
    imageFile:
      path: Assets/Resources/Atlas/MapCommon/MapCommon.png
      texture: {fileID: 2800000, guid: a2673114ed9dca14499974f3ff081366, type: 3}
      materials:
      - {fileID: 0}
      - {fileID: 0}
      - {fileID: 0}
      - {fileID: 0}
      - {fileID: 0}
      - {fileID: 2100000, guid: 9070925b9cd3cb845956199f732e2e98, type: 2}
      - {fileID: 0}
      - {fileID: 0}
      - {fileID: 0}
      - {fileID: 0}
      - {fileID: 0}
      - {fileID: 0}
      - {fileID: 0}
      - {fileID: 0}
      - {fileID: 0}
      - {fileID: 0}
      - {fileID: 0}
      - {fileID: 0}
      - {fileID: 0}
      - {fileID: 0}
      - {fileID: 0}
      - {fileID: 0}
      - {fileID: 0}
      - {fileID: 0}
      - {fileID: 0}
      - {fileID: 0}
      - {fileID: 0}
      - {fileID: 0}
      - {fileID: 0}
      - {fileID: 0}
      - {fileID: 0}
      - {fileID: 0}
      - {fileID: 0}
      - {fileID: 0}
      - {fileID: 0}
      - {fileID: 0}
      - {fileID: 0}
      - {fileID: 0}
      - {fileID: 0}
      - {fileID: 0}
      - {fileID: 0}
      - {fileID: 0}
      - {fileID: 0}
      - {fileID: 0}
      - {fileID: 0}
      - {fileID: 0}
      - {fileID: 0}
      - {fileID: 0}
      - {fileID: 0}
      - {fileID: 0}
      width: 512
      height: 1024
      bpp: 0
    UVs:
    - {x: 0.7363281, y: 0.59765625}
    - {x: 0.7734375, y: 0.59765625}
    - {x: 0.7734375, y: 0.57421875}
    - {x: 0.7363281, y: 0.57421875}
    OrgVertices:
    - {x: -9, y: 12, z: 0}
    - {x: 10, y: 12, z: 0}
    - {x: 10, y: -12, z: 0}
    - {x: -9, y: -12, z: 0}
  ImportedTime: 1259950298
  ImportedTimeHigh: -1999222307
