%YAML 1.1
%TAG !u! tag:unity3d.com,2011:
--- !u!114 &11400000
MonoBehaviour:
  m_ObjectHideFlags: 0
  m_PrefabParentObject: {fileID: 0}
  m_PrefabInternal: {fileID: 0}
  m_GameObject: {fileID: 0}
  m_Enabled: 1
  m_EditorHideFlags: 0
  m_Script: {fileID: 11500000, guid: 0ae895f3348548989f1b4caf6cca149f, type: 3}
  m_Name: obj_tower_anim_ssa
  m_EditorClassIdentifier:
  OriginalPath: Assets/Resources/Atlas/F_Map01/obj_tower_anim.ssax
  UseScaleFactor: 0
  ScaleFactor: 1
  FPS: 30
  EndFrame: 40
  hvFlipForImageOnly: 1
  ImageList:
  - path: Assets/Resources/Atlas/F_Map01/F_Map01.png
    texture: {fileID: 2800000, guid: 9a4fd90e12f6c94478532a57b1db8072, type: 3}
    materials:
    - {fileID: 0}
    - {fileID: 0}
    - {fileID: 0}
    - {fileID: 0}
    - {fileID: 0}
    - {fileID: 2100000, guid: 0eb64c8f0ca87034c95863deeea6a2ac, type: 2}
    - {fileID: 0}
    - {fileID: 0}
    - {fileID: 0}
    - {fileID: 0}
    - {fileID: 0}
    - {fileID: 0}
    - {fileID: 0}
    - {fileID: 0}
    - {fileID: 0}
    - {fileID: 0}
    - {fileID: 0}
    - {fileID: 0}
    - {fileID: 0}
    - {fileID: 0}
    - {fileID: 0}
    - {fileID: 0}
    - {fileID: 0}
    - {fileID: 0}
    - {fileID: 0}
    - {fileID: 0}
    - {fileID: 0}
    - {fileID: 0}
    - {fileID: 0}
    - {fileID: 0}
    - {fileID: 0}
    - {fileID: 0}
    - {fileID: 0}
    - {fileID: 0}
    - {fileID: 0}
    - {fileID: 0}
    - {fileID: 0}
    - {fileID: 0}
    - {fileID: 0}
    - {fileID: 0}
    - {fileID: 0}
    - {fileID: 0}
    - {fileID: 0}
    - {fileID: 0}
    - {fileID: 0}
    - {fileID: 0}
    - {fileID: 0}
    - {fileID: 0}
    - {fileID: 0}
    - {fileID: 0}
    width: 2048
    height: 2048
    bpp: 0
  PartList:
  - AnimeRes: {fileID: 11400000}
    Name: root
    Type: 1
    PicArea:
      Left: 0
      Top: 0
      Right: 0
      Bottom: 0
    OriginX: 0
    OriginY: 0
    MyId: 0
    ParentId: -1
    ChildNum: 0
    SrcObjId: 0
    SrcObjType: 0
    AlphaBlendType: 0
    InheritState:
      Type: 0
      Values:
      - Use: 1
        Rate: 1
      - Use: 1
        Rate: 1
      - Use: 1
        Rate: 1
      - Use: 1
        Rate: 1
      - Use: 1
        Rate: 1
      - Use: 1
        Rate: 1
      - Use: 1
        Rate: 1
      - Use: 0
        Rate: 0
      - Use: 0
        Rate: 0
      - Use: 0
        Rate: 0
      - Use: 1
        Rate: 1
      - Use: 1
        Rate: 1
      - Use: 1
        Rate: 1
      - Use: 1
        Rate: 1
      - Use: 1
        Rate: 1
      - Use: 1
        Rate: 1
      - Use: 1
        Rate: 1
      - Use: 1
        Rate: 1
      - Use: 1
        Rate: 1
      - Use: 1
        Rate: 1
      - Use: 1
        Rate: 1
    PosXKeys: []
    PosYKeys: []
    AngleKeys: []
    ScaleXKeys: []
    ScaleYKeys: []
    TransKeys: []
    PrioKeys: []
    FlipHKeys: []
    FlipVKeys: []
    HideKeys:
    - Value: 0
      _Time: 0
      _ValueType: 1
      _Curve:
        Type: 0
        StartT: 0
        StartV: 0
        EndT: 0
        EndV: 0
    PartsColKeys: []
    PartsPalKeys: []
    VertexKeys: []
    UserKeys: []
    SoundKeys: []
    ImageOffsetXKeys: []
    ImageOffsetYKeys: []
    ImageOffsetWKeys: []
    ImageOffsetHKeys: []
    OriginOffsetXKeys: []
    OriginOffsetYKeys: []
    PosXValues: []
    PosYValues: []
    AngleValues: []
    ScaleXValues: []
    ScaleYValues: []
    TransValues: []
    PrioValues: []
    FlipHValues: []
    FlipVValues: []
    HideValues:
    - _RefKeyIndex: 0
      _Value: 0
    - _RefKeyIndex: 0
      _Value: 0
    - _RefKeyIndex: 0
      _Value: 0
    - _RefKeyIndex: 0
      _Value: 0
    - _RefKeyIndex: 0
      _Value: 0
    - _RefKeyIndex: 0
      _Value: 0
    - _RefKeyIndex: 0
      _Value: 0
    - _RefKeyIndex: 0
      _Value: 0
    - _RefKeyIndex: 0
      _Value: 0
    - _RefKeyIndex: 0
      _Value: 0
    - _RefKeyIndex: 0
      _Value: 0
    - _RefKeyIndex: 0
      _Value: 0
    - _RefKeyIndex: 0
      _Value: 0
    - _RefKeyIndex: 0
      _Value: 0
    - _RefKeyIndex: 0
      _Value: 0
    - _RefKeyIndex: 0
      _Value: 0
    - _RefKeyIndex: 0
      _Value: 0
    - _RefKeyIndex: 0
      _Value: 0
    - _RefKeyIndex: 0
      _Value: 0
    - _RefKeyIndex: 0
      _Value: 0
    - _RefKeyIndex: 0
      _Value: 0
    - _RefKeyIndex: 0
      _Value: 0
    - _RefKeyIndex: 0
      _Value: 0
    - _RefKeyIndex: 0
      _Value: 0
    - _RefKeyIndex: 0
      _Value: 0
    - _RefKeyIndex: 0
      _Value: 0
    - _RefKeyIndex: 0
      _Value: 0
    - _RefKeyIndex: 0
      _Value: 0
    - _RefKeyIndex: 0
      _Value: 0
    - _RefKeyIndex: 0
      _Value: 0
    - _RefKeyIndex: 0
      _Value: 0
    - _RefKeyIndex: 0
      _Value: 0
    - _RefKeyIndex: 0
      _Value: 0
    - _RefKeyIndex: 0
      _Value: 0
    - _RefKeyIndex: 0
      _Value: 0
    - _RefKeyIndex: 0
      _Value: 0
    - _RefKeyIndex: 0
      _Value: 0
    - _RefKeyIndex: 0
      _Value: 0
    - _RefKeyIndex: 0
      _Value: 0
    - _RefKeyIndex: 0
      _Value: 0
    - _RefKeyIndex: 0
      _Value: 0
    PartsColValues: []
    PartsPalValues: []
    VertexValues: []
    UserValues: []
    SoundValues: []
    ImageOffsetXValues: []
    ImageOffsetYValues: []
    ImageOffsetWValues: []
    ImageOffsetHValues: []
    OriginOffsetXValues: []
    OriginOffsetYValues: []
    _hasAttrFlags: 512
    HasTrancparency: 0
    FrameNum: 41
    imageFile:
      path:
      texture: {fileID: 0}
      materials: []
      width: 0
      height: 0
      bpp: 0
    UVs: []
    OrgVertices:
    - {x: -0, y: 0, z: 0}
    - {x: 0, y: 0, z: 0}
    - {x: 0, y: -0, z: 0}
    - {x: -0, y: -0, z: 0}
  - AnimeRes: {fileID: 11400000}
    Name: aura
    Type: 0
    PicArea:
      Left: 199
      Top: 1766
      Right: 367
      Bottom: 1996
    OriginX: 84
    OriginY: 115
    MyId: 1
    ParentId: 0
    ChildNum: 0
    SrcObjId: 0
    SrcObjType: 0
    AlphaBlendType: 1
    InheritState:
      Type: 0
      Values:
      - Use: 1
        Rate: 1
      - Use: 1
        Rate: 1
      - Use: 1
        Rate: 1
      - Use: 1
        Rate: 1
      - Use: 1
        Rate: 1
      - Use: 1
        Rate: 1
      - Use: 1
        Rate: 1
      - Use: 0
        Rate: 0
      - Use: 0
        Rate: 0
      - Use: 0
        Rate: 0
      - Use: 1
        Rate: 1
      - Use: 1
        Rate: 1
      - Use: 1
        Rate: 1
      - Use: 1
        Rate: 1
      - Use: 1
        Rate: 1
      - Use: 1
        Rate: 1
      - Use: 1
        Rate: 1
      - Use: 1
        Rate: 1
      - Use: 1
        Rate: 1
      - Use: 1
        Rate: 1
      - Use: 1
        Rate: 1
    PosXKeys:
    - Value: -192
      _Time: 0
      _ValueType: 0
      _Curve:
        Type: 1
        StartT: 0
        StartV: 0
        EndT: 0
        EndV: 0
    - Value: -192
      _Time: 20
      _ValueType: 0
      _Curve:
        Type: 1
        StartT: 0
        StartV: 0
        EndT: 0
        EndV: 0
    - Value: -192
      _Time: 40
      _ValueType: 0
      _Curve:
        Type: 1
        StartT: 0
        StartV: 0
        EndT: 0
        EndV: 0
    PosYKeys:
    - Value: -265
      _Time: 0
      _ValueType: 0
      _Curve:
        Type: 1
        StartT: 0
        StartV: 0
        EndT: 0
        EndV: 0
    - Value: -265
      _Time: 20
      _ValueType: 0
      _Curve:
        Type: 1
        StartT: 0
        StartV: 0
        EndT: 0
        EndV: 0
    - Value: -265
      _Time: 40
      _ValueType: 0
      _Curve:
        Type: 1
        StartT: 0
        StartV: 0
        EndT: 0
        EndV: 0
    AngleKeys:
    - Value: 0
      _Time: 0
      _ValueType: 0
      _Curve:
        Type: 1
        StartT: 0
        StartV: 0
        EndT: 0
        EndV: 0
    - Value: 0
      _Time: 20
      _ValueType: 0
      _Curve:
        Type: 1
        StartT: 0
        StartV: 0
        EndT: 0
        EndV: 0
    - Value: 0
      _Time: 40
      _ValueType: 0
      _Curve:
        Type: 1
        StartT: 0
        StartV: 0
        EndT: 0
        EndV: 0
    ScaleXKeys:
    - Value: 2
      _Time: 0
      _ValueType: 0
      _Curve:
        Type: 1
        StartT: 0
        StartV: 0
        EndT: 0
        EndV: 0
    - Value: 2
      _Time: 20
      _ValueType: 0
      _Curve:
        Type: 1
        StartT: 0
        StartV: 0
        EndT: 0
        EndV: 0
    - Value: 2
      _Time: 40
      _ValueType: 0
      _Curve:
        Type: 1
        StartT: 0
        StartV: 0
        EndT: 0
        EndV: 0
    ScaleYKeys:
    - Value: 2
      _Time: 0
      _ValueType: 0
      _Curve:
        Type: 1
        StartT: 0
        StartV: 0
        EndT: 0
        EndV: 0
    - Value: 2
      _Time: 20
      _ValueType: 0
      _Curve:
        Type: 1
        StartT: 0
        StartV: 0
        EndT: 0
        EndV: 0
    - Value: 2
      _Time: 40
      _ValueType: 0
      _Curve:
        Type: 1
        StartT: 0
        StartV: 0
        EndT: 0
        EndV: 0
    TransKeys:
    - Value: 0.25
      _Time: 0
      _ValueType: 0
      _Curve:
        Type: 1
        StartT: 0
        StartV: 0
        EndT: 0
        EndV: 0
    - Value: 1
      _Time: 20
      _ValueType: 0
      _Curve:
        Type: 1
        StartT: 0
        StartV: 0
        EndT: 0
        EndV: 0
    - Value: 0.25
      _Time: 40
      _ValueType: 0
      _Curve:
        Type: 1
        StartT: 0
        StartV: 0
        EndT: 0
        EndV: 0
    PrioKeys: []
    FlipHKeys: []
    FlipVKeys: []
    HideKeys:
    - Value: 0
      _Time: 0
      _ValueType: 1
      _Curve:
        Type: 0
        StartT: 0
        StartV: 0
        EndT: 0
        EndV: 0
    - Value: 0
      _Time: 20
      _ValueType: 1
      _Curve:
        Type: 0
        StartT: 0
        StartV: 0
        EndT: 0
        EndV: 0
    - Value: 0
      _Time: 40
      _ValueType: 1
      _Curve:
        Type: 0
        StartT: 0
        StartV: 0
        EndT: 0
        EndV: 0
    PartsColKeys: []
    PartsPalKeys: []
    VertexKeys: []
    UserKeys: []
    SoundKeys: []
    ImageOffsetXKeys: []
    ImageOffsetYKeys: []
    ImageOffsetWKeys: []
    ImageOffsetHKeys: []
    OriginOffsetXKeys: []
    OriginOffsetYKeys: []
    PosXValues:
    - _RefKeyIndex: -1
      _Value: -192
    PosYValues:
    - _RefKeyIndex: -1
      _Value: -265
    AngleValues:
    - _RefKeyIndex: -1
      _Value: 0
    ScaleXValues:
    - _RefKeyIndex: -1
      _Value: 2
    ScaleYValues:
    - _RefKeyIndex: -1
      _Value: 2
    TransValues:
    - _RefKeyIndex: -1
      _Value: 0.25
    - _RefKeyIndex: -1
      _Value: 0.2875
    - _RefKeyIndex: -1
      _Value: 0.325
    - _RefKeyIndex: -1
      _Value: 0.3625
    - _RefKeyIndex: -1
      _Value: 0.4
    - _RefKeyIndex: -1
      _Value: 0.4375
    - _RefKeyIndex: -1
      _Value: 0.47500002
    - _RefKeyIndex: -1
      _Value: 0.5125
    - _RefKeyIndex: -1
      _Value: 0.55
    - _RefKeyIndex: -1
      _Value: 0.5875
    - _RefKeyIndex: -1
      _Value: 0.625
    - _RefKeyIndex: -1
      _Value: 0.6625
    - _RefKeyIndex: -1
      _Value: 0.70000005
    - _RefKeyIndex: -1
      _Value: 0.73749995
    - _RefKeyIndex: -1
      _Value: 0.775
    - _RefKeyIndex: -1
      _Value: 0.8125
    - _RefKeyIndex: -1
      _Value: 0.85
    - _RefKeyIndex: -1
      _Value: 0.88750005
    - _RefKeyIndex: -1
      _Value: 0.92499995
    - _RefKeyIndex: -1
      _Value: 0.9625
    - _RefKeyIndex: -1
      _Value: 1
    - _RefKeyIndex: -1
      _Value: 0.9625
    - _RefKeyIndex: -1
      _Value: 0.925
    - _RefKeyIndex: -1
      _Value: 0.8875
    - _RefKeyIndex: -1
      _Value: 0.85
    - _RefKeyIndex: -1
      _Value: 0.8125
    - _RefKeyIndex: -1
      _Value: 0.775
    - _RefKeyIndex: -1
      _Value: 0.7375
    - _RefKeyIndex: -1
      _Value: 0.7
    - _RefKeyIndex: -1
      _Value: 0.6625
    - _RefKeyIndex: -1
      _Value: 0.625
    - _RefKeyIndex: -1
      _Value: 0.5875
    - _RefKeyIndex: -1
      _Value: 0.54999995
    - _RefKeyIndex: -1
      _Value: 0.51250005
    - _RefKeyIndex: -1
      _Value: 0.47500002
    - _RefKeyIndex: -1
      _Value: 0.4375
    - _RefKeyIndex: -1
      _Value: 0.39999998
    - _RefKeyIndex: -1
      _Value: 0.36249998
    - _RefKeyIndex: -1
      _Value: 0.32500002
    - _RefKeyIndex: -1
      _Value: 0.28750002
    - _RefKeyIndex: 2
      _Value: 0
    PrioValues: []
    FlipHValues: []
    FlipVValues: []
    HideValues:
    - _RefKeyIndex: 0
      _Value: 0
    PartsColValues: []
    PartsPalValues: []
    VertexValues: []
    UserValues: []
    SoundValues: []
    ImageOffsetXValues: []
    ImageOffsetYValues: []
    ImageOffsetWValues: []
    ImageOffsetHValues: []
    OriginOffsetXValues: []
    OriginOffsetYValues: []
    _hasAttrFlags: 575
    HasTrancparency: 1
    FrameNum: 41
    imageFile:
      path: Assets/Resources/Atlas/F_Map01/F_Map01.png
      texture: {fileID: 2800000, guid: 9a4fd90e12f6c94478532a57b1db8072, type: 3}
      materials:
      - {fileID: 0}
      - {fileID: 0}
      - {fileID: 0}
      - {fileID: 0}
      - {fileID: 0}
      - {fileID: 2100000, guid: 0eb64c8f0ca87034c95863deeea6a2ac, type: 2}
      - {fileID: 0}
      - {fileID: 0}
      - {fileID: 0}
      - {fileID: 0}
      - {fileID: 0}
      - {fileID: 0}
      - {fileID: 0}
      - {fileID: 0}
      - {fileID: 0}
      - {fileID: 0}
      - {fileID: 0}
      - {fileID: 0}
      - {fileID: 0}
      - {fileID: 0}
      - {fileID: 0}
      - {fileID: 0}
      - {fileID: 0}
      - {fileID: 0}
      - {fileID: 0}
      - {fileID: 0}
      - {fileID: 0}
      - {fileID: 0}
      - {fileID: 0}
      - {fileID: 0}
      - {fileID: 0}
      - {fileID: 0}
      - {fileID: 0}
      - {fileID: 0}
      - {fileID: 0}
      - {fileID: 0}
      - {fileID: 0}
      - {fileID: 0}
      - {fileID: 0}
      - {fileID: 0}
      - {fileID: 0}
      - {fileID: 0}
      - {fileID: 0}
      - {fileID: 0}
      - {fileID: 0}
      - {fileID: 0}
      - {fileID: 0}
      - {fileID: 0}
      - {fileID: 0}
      - {fileID: 0}
      width: 2048
      height: 2048
      bpp: 0
    UVs:
    - {x: 0.09716797, y: 0.13769531}
    - {x: 0.17919922, y: 0.13769531}
    - {x: 0.17919922, y: 0.025390625}
    - {x: 0.09716797, y: 0.025390625}
    OrgVertices:
    - {x: -84, y: 115, z: 0}
    - {x: 84, y: 115, z: 0}
    - {x: 84, y: -115, z: 0}
    - {x: -84, y: -115, z: 0}
  - AnimeRes: {fileID: 11400000}
    Name: red00
    Type: 0
    PicArea:
      Left: 1838
      Top: 1766
      Right: 1887
      Bottom: 1824
    OriginX: 24
    OriginY: 29
    MyId: 2
    ParentId: 0
    ChildNum: 0
    SrcObjId: 0
    SrcObjType: 0
    AlphaBlendType: 1
    InheritState:
      Type: 0
      Values:
      - Use: 1
        Rate: 1
      - Use: 1
        Rate: 1
      - Use: 1
        Rate: 1
      - Use: 1
        Rate: 1
      - Use: 1
        Rate: 1
      - Use: 1
        Rate: 1
      - Use: 1
        Rate: 1
      - Use: 0
        Rate: 0
      - Use: 0
        Rate: 0
      - Use: 0
        Rate: 0
      - Use: 1
        Rate: 1
      - Use: 1
        Rate: 1
      - Use: 1
        Rate: 1
      - Use: 1
        Rate: 1
      - Use: 1
        Rate: 1
      - Use: 1
        Rate: 1
      - Use: 1
        Rate: 1
      - Use: 1
        Rate: 1
      - Use: 1
        Rate: 1
      - Use: 1
        Rate: 1
      - Use: 1
        Rate: 1
    PosXKeys:
    - Value: -79
      _Time: 0
      _ValueType: 0
      _Curve:
        Type: 1
        StartT: 0
        StartV: 0
        EndT: 0
        EndV: 0
    - Value: -79
      _Time: 20
      _ValueType: 0
      _Curve:
        Type: 1
        StartT: 0
        StartV: 0
        EndT: 0
        EndV: 0
    - Value: -79
      _Time: 40
      _ValueType: 0
      _Curve:
        Type: 1
        StartT: 0
        StartV: 0
        EndT: 0
        EndV: 0
    PosYKeys:
    - Value: 127
      _Time: 0
      _ValueType: 0
      _Curve:
        Type: 1
        StartT: 0
        StartV: 0
        EndT: 0
        EndV: 0
    - Value: 127
      _Time: 20
      _ValueType: 0
      _Curve:
        Type: 1
        StartT: 0
        StartV: 0
        EndT: 0
        EndV: 0
    - Value: 127
      _Time: 40
      _ValueType: 0
      _Curve:
        Type: 1
        StartT: 0
        StartV: 0
        EndT: 0
        EndV: 0
    AngleKeys:
    - Value: 0
      _Time: 0
      _ValueType: 0
      _Curve:
        Type: 1
        StartT: 0
        StartV: 0
        EndT: 0
        EndV: 0
    - Value: 0
      _Time: 40
      _ValueType: 0
      _Curve:
        Type: 1
        StartT: 0
        StartV: 0
        EndT: 0
        EndV: 0
    ScaleXKeys: []
    ScaleYKeys: []
    TransKeys:
    - Value: 1
      _Time: 0
      _ValueType: 0
      _Curve:
        Type: 1
        StartT: 0
        StartV: 0
        EndT: 0
        EndV: 0
    - Value: 0.3
      _Time: 20
      _ValueType: 0
      _Curve:
        Type: 1
        StartT: 0
        StartV: 0
        EndT: 0
        EndV: 0
    - Value: 1
      _Time: 40
      _ValueType: 0
      _Curve:
        Type: 1
        StartT: 0
        StartV: 0
        EndT: 0
        EndV: 0
    PrioKeys: []
    FlipHKeys: []
    FlipVKeys: []
    HideKeys:
    - Value: 0
      _Time: 0
      _ValueType: 1
      _Curve:
        Type: 0
        StartT: 0
        StartV: 0
        EndT: 0
        EndV: 0
    - Value: 0
      _Time: 20
      _ValueType: 1
      _Curve:
        Type: 0
        StartT: 0
        StartV: 0
        EndT: 0
        EndV: 0
    - Value: 0
      _Time: 40
      _ValueType: 1
      _Curve:
        Type: 0
        StartT: 0
        StartV: 0
        EndT: 0
        EndV: 0
    PartsColKeys: []
    PartsPalKeys: []
    VertexKeys: []
    UserKeys: []
    SoundKeys: []
    ImageOffsetXKeys: []
    ImageOffsetYKeys: []
    ImageOffsetWKeys: []
    ImageOffsetHKeys: []
    OriginOffsetXKeys: []
    OriginOffsetYKeys: []
    PosXValues:
    - _RefKeyIndex: -1
      _Value: -79
    PosYValues:
    - _RefKeyIndex: -1
      _Value: 127
    AngleValues:
    - _RefKeyIndex: -1
      _Value: 0
    ScaleXValues: []
    ScaleYValues: []
    TransValues:
    - _RefKeyIndex: -1
      _Value: 1
    - _RefKeyIndex: -1
      _Value: 0.965
    - _RefKeyIndex: -1
      _Value: 0.93
    - _RefKeyIndex: -1
      _Value: 0.895
    - _RefKeyIndex: -1
      _Value: 0.86
    - _RefKeyIndex: -1
      _Value: 0.825
    - _RefKeyIndex: -1
      _Value: 0.79
    - _RefKeyIndex: -1
      _Value: 0.755
    - _RefKeyIndex: -1
      _Value: 0.72
    - _RefKeyIndex: -1
      _Value: 0.685
    - _RefKeyIndex: -1
      _Value: 0.65
    - _RefKeyIndex: -1
      _Value: 0.615
    - _RefKeyIndex: -1
      _Value: 0.58
    - _RefKeyIndex: -1
      _Value: 0.545
    - _RefKeyIndex: -1
      _Value: 0.51
    - _RefKeyIndex: -1
      _Value: 0.47500002
    - _RefKeyIndex: -1
      _Value: 0.44
    - _RefKeyIndex: -1
      _Value: 0.405
    - _RefKeyIndex: -1
      _Value: 0.37000003
    - _RefKeyIndex: -1
      _Value: 0.335
    - _RefKeyIndex: -1
      _Value: 0.3
    - _RefKeyIndex: -1
      _Value: 0.335
    - _RefKeyIndex: -1
      _Value: 0.37
    - _RefKeyIndex: -1
      _Value: 0.405
    - _RefKeyIndex: -1
      _Value: 0.44
    - _RefKeyIndex: -1
      _Value: 0.47500002
    - _RefKeyIndex: -1
      _Value: 0.51
    - _RefKeyIndex: -1
      _Value: 0.545
    - _RefKeyIndex: -1
      _Value: 0.58
    - _RefKeyIndex: -1
      _Value: 0.615
    - _RefKeyIndex: -1
      _Value: 0.65
    - _RefKeyIndex: -1
      _Value: 0.685
    - _RefKeyIndex: -1
      _Value: 0.72
    - _RefKeyIndex: -1
      _Value: 0.755
    - _RefKeyIndex: -1
      _Value: 0.79
    - _RefKeyIndex: -1
      _Value: 0.825
    - _RefKeyIndex: -1
      _Value: 0.86
    - _RefKeyIndex: -1
      _Value: 0.89500004
    - _RefKeyIndex: -1
      _Value: 0.93
    - _RefKeyIndex: -1
      _Value: 0.965
    - _RefKeyIndex: 2
      _Value: 0
    PrioValues: []
    FlipHValues: []
    FlipVValues: []
    HideValues:
    - _RefKeyIndex: 0
      _Value: 0
    PartsColValues: []
    PartsPalValues: []
    VertexValues: []
    UserValues: []
    SoundValues: []
    ImageOffsetXValues: []
    ImageOffsetYValues: []
    ImageOffsetWValues: []
    ImageOffsetHValues: []
    OriginOffsetXValues: []
    OriginOffsetYValues: []
    _hasAttrFlags: 551
    HasTrancparency: 1
    FrameNum: 41
    imageFile:
      path: Assets/Resources/Atlas/F_Map01/F_Map01.png
      texture: {fileID: 2800000, guid: 9a4fd90e12f6c94478532a57b1db8072, type: 3}
      materials:
      - {fileID: 0}
      - {fileID: 0}
      - {fileID: 0}
      - {fileID: 0}
      - {fileID: 0}
      - {fileID: 2100000, guid: 0eb64c8f0ca87034c95863deeea6a2ac, type: 2}
      - {fileID: 0}
      - {fileID: 0}
      - {fileID: 0}
      - {fileID: 0}
      - {fileID: 0}
      - {fileID: 0}
      - {fileID: 0}
      - {fileID: 0}
      - {fileID: 0}
      - {fileID: 0}
      - {fileID: 0}
      - {fileID: 0}
      - {fileID: 0}
      - {fileID: 0}
      - {fileID: 0}
      - {fileID: 0}
      - {fileID: 0}
      - {fileID: 0}
      - {fileID: 0}
      - {fileID: 0}
      - {fileID: 0}
      - {fileID: 0}
      - {fileID: 0}
      - {fileID: 0}
      - {fileID: 0}
      - {fileID: 0}
      - {fileID: 0}
      - {fileID: 0}
      - {fileID: 0}
      - {fileID: 0}
      - {fileID: 0}
      - {fileID: 0}
      - {fileID: 0}
      - {fileID: 0}
      - {fileID: 0}
      - {fileID: 0}
      - {fileID: 0}
      - {fileID: 0}
      - {fileID: 0}
      - {fileID: 0}
      - {fileID: 0}
      - {fileID: 0}
      - {fileID: 0}
      - {fileID: 0}
      width: 2048
      height: 2048
      bpp: 0
    UVs:
    - {x: 0.89746094, y: 0.13769531}
    - {x: 0.9213867, y: 0.13769531}
    - {x: 0.9213867, y: 0.109375}
    - {x: 0.89746094, y: 0.109375}
    OrgVertices:
    - {x: -24, y: 29, z: 0}
    - {x: 25, y: 29, z: 0}
    - {x: 25, y: -29, z: 0}
    - {x: -24, y: -29, z: 0}
  - AnimeRes: {fileID: 11400000}
    Name: red01
    Type: 0
    PicArea:
      Left: 1838
      Top: 1766
      Right: 1887
      Bottom: 1824
    OriginX: 24
    OriginY: 29
    MyId: 3
    ParentId: 0
    ChildNum: 0
    SrcObjId: 0
    SrcObjType: 0
    AlphaBlendType: 1
    InheritState:
      Type: 0
      Values:
      - Use: 1
        Rate: 1
      - Use: 1
        Rate: 1
      - Use: 1
        Rate: 1
      - Use: 1
        Rate: 1
      - Use: 1
        Rate: 1
      - Use: 1
        Rate: 1
      - Use: 1
        Rate: 1
      - Use: 0
        Rate: 0
      - Use: 0
        Rate: 0
      - Use: 0
        Rate: 0
      - Use: 1
        Rate: 1
      - Use: 1
        Rate: 1
      - Use: 1
        Rate: 1
      - Use: 1
        Rate: 1
      - Use: 1
        Rate: 1
      - Use: 1
        Rate: 1
      - Use: 1
        Rate: 1
      - Use: 1
        Rate: 1
      - Use: 1
        Rate: 1
      - Use: 1
        Rate: 1
      - Use: 1
        Rate: 1
    PosXKeys:
    - Value: -23
      _Time: 0
      _ValueType: 0
      _Curve:
        Type: 1
        StartT: 0
        StartV: 0
        EndT: 0
        EndV: 0
    - Value: -23
      _Time: 20
      _ValueType: 0
      _Curve:
        Type: 1
        StartT: 0
        StartV: 0
        EndT: 0
        EndV: 0
    - Value: -23
      _Time: 40
      _ValueType: 0
      _Curve:
        Type: 1
        StartT: 0
        StartV: 0
        EndT: 0
        EndV: 0
    PosYKeys:
    - Value: 157
      _Time: 0
      _ValueType: 0
      _Curve:
        Type: 1
        StartT: 0
        StartV: 0
        EndT: 0
        EndV: 0
    - Value: 157
      _Time: 20
      _ValueType: 0
      _Curve:
        Type: 1
        StartT: 0
        StartV: 0
        EndT: 0
        EndV: 0
    - Value: 157
      _Time: 40
      _ValueType: 0
      _Curve:
        Type: 1
        StartT: 0
        StartV: 0
        EndT: 0
        EndV: 0
    AngleKeys:
    - Value: 0
      _Time: 0
      _ValueType: 0
      _Curve:
        Type: 1
        StartT: 0
        StartV: 0
        EndT: 0
        EndV: 0
    - Value: 0
      _Time: 40
      _ValueType: 0
      _Curve:
        Type: 1
        StartT: 0
        StartV: 0
        EndT: 0
        EndV: 0
    ScaleXKeys: []
    ScaleYKeys: []
    TransKeys:
    - Value: 1
      _Time: 0
      _ValueType: 0
      _Curve:
        Type: 1
        StartT: 0
        StartV: 0
        EndT: 0
        EndV: 0
    - Value: 0.3
      _Time: 20
      _ValueType: 0
      _Curve:
        Type: 1
        StartT: 0
        StartV: 0
        EndT: 0
        EndV: 0
    - Value: 1
      _Time: 40
      _ValueType: 0
      _Curve:
        Type: 1
        StartT: 0
        StartV: 0
        EndT: 0
        EndV: 0
    PrioKeys: []
    FlipHKeys: []
    FlipVKeys: []
    HideKeys:
    - Value: 0
      _Time: 0
      _ValueType: 1
      _Curve:
        Type: 0
        StartT: 0
        StartV: 0
        EndT: 0
        EndV: 0
    - Value: 0
      _Time: 20
      _ValueType: 1
      _Curve:
        Type: 0
        StartT: 0
        StartV: 0
        EndT: 0
        EndV: 0
    - Value: 0
      _Time: 40
      _ValueType: 1
      _Curve:
        Type: 0
        StartT: 0
        StartV: 0
        EndT: 0
        EndV: 0
    PartsColKeys: []
    PartsPalKeys: []
    VertexKeys: []
    UserKeys: []
    SoundKeys: []
    ImageOffsetXKeys: []
    ImageOffsetYKeys: []
    ImageOffsetWKeys: []
    ImageOffsetHKeys: []
    OriginOffsetXKeys: []
    OriginOffsetYKeys: []
    PosXValues:
    - _RefKeyIndex: -1
      _Value: -23
    PosYValues:
    - _RefKeyIndex: -1
      _Value: 157
    AngleValues:
    - _RefKeyIndex: -1
      _Value: 0
    ScaleXValues: []
    ScaleYValues: []
    TransValues:
    - _RefKeyIndex: -1
      _Value: 1
    - _RefKeyIndex: -1
      _Value: 0.965
    - _RefKeyIndex: -1
      _Value: 0.93
    - _RefKeyIndex: -1
      _Value: 0.895
    - _RefKeyIndex: -1
      _Value: 0.86
    - _RefKeyIndex: -1
      _Value: 0.825
    - _RefKeyIndex: -1
      _Value: 0.79
    - _RefKeyIndex: -1
      _Value: 0.755
    - _RefKeyIndex: -1
      _Value: 0.72
    - _RefKeyIndex: -1
      _Value: 0.685
    - _RefKeyIndex: -1
      _Value: 0.65
    - _RefKeyIndex: -1
      _Value: 0.615
    - _RefKeyIndex: -1
      _Value: 0.58
    - _RefKeyIndex: -1
      _Value: 0.545
    - _RefKeyIndex: -1
      _Value: 0.51
    - _RefKeyIndex: -1
      _Value: 0.47500002
    - _RefKeyIndex: -1
      _Value: 0.44
    - _RefKeyIndex: -1
      _Value: 0.405
    - _RefKeyIndex: -1
      _Value: 0.37000003
    - _RefKeyIndex: -1
      _Value: 0.335
    - _RefKeyIndex: -1
      _Value: 0.3
    - _RefKeyIndex: -1
      _Value: 0.335
    - _RefKeyIndex: -1
      _Value: 0.37
    - _RefKeyIndex: -1
      _Value: 0.405
    - _RefKeyIndex: -1
      _Value: 0.44
    - _RefKeyIndex: -1
      _Value: 0.47500002
    - _RefKeyIndex: -1
      _Value: 0.51
    - _RefKeyIndex: -1
      _Value: 0.545
    - _RefKeyIndex: -1
      _Value: 0.58
    - _RefKeyIndex: -1
      _Value: 0.615
    - _RefKeyIndex: -1
      _Value: 0.65
    - _RefKeyIndex: -1
      _Value: 0.685
    - _RefKeyIndex: -1
      _Value: 0.72
    - _RefKeyIndex: -1
      _Value: 0.755
    - _RefKeyIndex: -1
      _Value: 0.79
    - _RefKeyIndex: -1
      _Value: 0.825
    - _RefKeyIndex: -1
      _Value: 0.86
    - _RefKeyIndex: -1
      _Value: 0.89500004
    - _RefKeyIndex: -1
      _Value: 0.93
    - _RefKeyIndex: -1
      _Value: 0.965
    - _RefKeyIndex: 2
      _Value: 0
    PrioValues: []
    FlipHValues: []
    FlipVValues: []
    HideValues:
    - _RefKeyIndex: 0
      _Value: 0
    PartsColValues: []
    PartsPalValues: []
    VertexValues: []
    UserValues: []
    SoundValues: []
    ImageOffsetXValues: []
    ImageOffsetYValues: []
    ImageOffsetWValues: []
    ImageOffsetHValues: []
    OriginOffsetXValues: []
    OriginOffsetYValues: []
    _hasAttrFlags: 551
    HasTrancparency: 1
    FrameNum: 41
    imageFile:
      path: Assets/Resources/Atlas/F_Map01/F_Map01.png
      texture: {fileID: 2800000, guid: 9a4fd90e12f6c94478532a57b1db8072, type: 3}
      materials:
      - {fileID: 0}
      - {fileID: 0}
      - {fileID: 0}
      - {fileID: 0}
      - {fileID: 0}
      - {fileID: 2100000, guid: 0eb64c8f0ca87034c95863deeea6a2ac, type: 2}
      - {fileID: 0}
      - {fileID: 0}
      - {fileID: 0}
      - {fileID: 0}
      - {fileID: 0}
      - {fileID: 0}
      - {fileID: 0}
      - {fileID: 0}
      - {fileID: 0}
      - {fileID: 0}
      - {fileID: 0}
      - {fileID: 0}
      - {fileID: 0}
      - {fileID: 0}
      - {fileID: 0}
      - {fileID: 0}
      - {fileID: 0}
      - {fileID: 0}
      - {fileID: 0}
      - {fileID: 0}
      - {fileID: 0}
      - {fileID: 0}
      - {fileID: 0}
      - {fileID: 0}
      - {fileID: 0}
      - {fileID: 0}
      - {fileID: 0}
      - {fileID: 0}
      - {fileID: 0}
      - {fileID: 0}
      - {fileID: 0}
      - {fileID: 0}
      - {fileID: 0}
      - {fileID: 0}
      - {fileID: 0}
      - {fileID: 0}
      - {fileID: 0}
      - {fileID: 0}
      - {fileID: 0}
      - {fileID: 0}
      - {fileID: 0}
      - {fileID: 0}
      - {fileID: 0}
      - {fileID: 0}
      width: 2048
      height: 2048
      bpp: 0
    UVs:
    - {x: 0.89746094, y: 0.13769531}
    - {x: 0.9213867, y: 0.13769531}
    - {x: 0.9213867, y: 0.109375}
    - {x: 0.89746094, y: 0.109375}
    OrgVertices:
    - {x: -24, y: 29, z: 0}
    - {x: 25, y: 29, z: 0}
    - {x: 25, y: -29, z: 0}
    - {x: -24, y: -29, z: 0}
  - AnimeRes: {fileID: 11400000}
    Name: red02
    Type: 0
    PicArea:
      Left: 1838
      Top: 1766
      Right: 1887
      Bottom: 1824
    OriginX: 24
    OriginY: 29
    MyId: 4
    ParentId: 0
    ChildNum: 0
    SrcObjId: 0
    SrcObjType: 0
    AlphaBlendType: 1
    InheritState:
      Type: 0
      Values:
      - Use: 1
        Rate: 1
      - Use: 1
        Rate: 1
      - Use: 1
        Rate: 1
      - Use: 1
        Rate: 1
      - Use: 1
        Rate: 1
      - Use: 1
        Rate: 1
      - Use: 1
        Rate: 1
      - Use: 0
        Rate: 0
      - Use: 0
        Rate: 0
      - Use: 0
        Rate: 0
      - Use: 1
        Rate: 1
      - Use: 1
        Rate: 1
      - Use: 1
        Rate: 1
      - Use: 1
        Rate: 1
      - Use: 1
        Rate: 1
      - Use: 1
        Rate: 1
      - Use: 1
        Rate: 1
      - Use: 1
        Rate: 1
      - Use: 1
        Rate: 1
      - Use: 1
        Rate: 1
      - Use: 1
        Rate: 1
    PosXKeys:
    - Value: 17
      _Time: 0
      _ValueType: 0
      _Curve:
        Type: 1
        StartT: 0
        StartV: 0
        EndT: 0
        EndV: 0
    - Value: 17
      _Time: 20
      _ValueType: 0
      _Curve:
        Type: 1
        StartT: 0
        StartV: 0
        EndT: 0
        EndV: 0
    - Value: 17
      _Time: 40
      _ValueType: 0
      _Curve:
        Type: 1
        StartT: 0
        StartV: 0
        EndT: 0
        EndV: 0
    PosYKeys:
    - Value: 188
      _Time: 0
      _ValueType: 0
      _Curve:
        Type: 1
        StartT: 0
        StartV: 0
        EndT: 0
        EndV: 0
    - Value: 188
      _Time: 20
      _ValueType: 0
      _Curve:
        Type: 1
        StartT: 0
        StartV: 0
        EndT: 0
        EndV: 0
    - Value: 188
      _Time: 40
      _ValueType: 0
      _Curve:
        Type: 1
        StartT: 0
        StartV: 0
        EndT: 0
        EndV: 0
    AngleKeys:
    - Value: 0
      _Time: 0
      _ValueType: 0
      _Curve:
        Type: 1
        StartT: 0
        StartV: 0
        EndT: 0
        EndV: 0
    - Value: 0
      _Time: 40
      _ValueType: 0
      _Curve:
        Type: 1
        StartT: 0
        StartV: 0
        EndT: 0
        EndV: 0
    ScaleXKeys: []
    ScaleYKeys: []
    TransKeys:
    - Value: 1
      _Time: 0
      _ValueType: 0
      _Curve:
        Type: 1
        StartT: 0
        StartV: 0
        EndT: 0
        EndV: 0
    - Value: 0.3
      _Time: 20
      _ValueType: 0
      _Curve:
        Type: 1
        StartT: 0
        StartV: 0
        EndT: 0
        EndV: 0
    - Value: 1
      _Time: 40
      _ValueType: 0
      _Curve:
        Type: 1
        StartT: 0
        StartV: 0
        EndT: 0
        EndV: 0
    PrioKeys: []
    FlipHKeys: []
    FlipVKeys: []
    HideKeys:
    - Value: 0
      _Time: 0
      _ValueType: 1
      _Curve:
        Type: 0
        StartT: 0
        StartV: 0
        EndT: 0
        EndV: 0
    - Value: 0
      _Time: 20
      _ValueType: 1
      _Curve:
        Type: 0
        StartT: 0
        StartV: 0
        EndT: 0
        EndV: 0
    - Value: 0
      _Time: 40
      _ValueType: 1
      _Curve:
        Type: 0
        StartT: 0
        StartV: 0
        EndT: 0
        EndV: 0
    PartsColKeys: []
    PartsPalKeys: []
    VertexKeys: []
    UserKeys: []
    SoundKeys: []
    ImageOffsetXKeys: []
    ImageOffsetYKeys: []
    ImageOffsetWKeys: []
    ImageOffsetHKeys: []
    OriginOffsetXKeys: []
    OriginOffsetYKeys: []
    PosXValues:
    - _RefKeyIndex: -1
      _Value: 17
    PosYValues:
    - _RefKeyIndex: -1
      _Value: 188
    AngleValues:
    - _RefKeyIndex: -1
      _Value: 0
    ScaleXValues: []
    ScaleYValues: []
    TransValues:
    - _RefKeyIndex: -1
      _Value: 1
    - _RefKeyIndex: -1
      _Value: 0.965
    - _RefKeyIndex: -1
      _Value: 0.93
    - _RefKeyIndex: -1
      _Value: 0.895
    - _RefKeyIndex: -1
      _Value: 0.86
    - _RefKeyIndex: -1
      _Value: 0.825
    - _RefKeyIndex: -1
      _Value: 0.79
    - _RefKeyIndex: -1
      _Value: 0.755
    - _RefKeyIndex: -1
      _Value: 0.72
    - _RefKeyIndex: -1
      _Value: 0.685
    - _RefKeyIndex: -1
      _Value: 0.65
    - _RefKeyIndex: -1
      _Value: 0.615
    - _RefKeyIndex: -1
      _Value: 0.58
    - _RefKeyIndex: -1
      _Value: 0.545
    - _RefKeyIndex: -1
      _Value: 0.51
    - _RefKeyIndex: -1
      _Value: 0.47500002
    - _RefKeyIndex: -1
      _Value: 0.44
    - _RefKeyIndex: -1
      _Value: 0.405
    - _RefKeyIndex: -1
      _Value: 0.37000003
    - _RefKeyIndex: -1
      _Value: 0.335
    - _RefKeyIndex: -1
      _Value: 0.3
    - _RefKeyIndex: -1
      _Value: 0.335
    - _RefKeyIndex: -1
      _Value: 0.37
    - _RefKeyIndex: -1
      _Value: 0.405
    - _RefKeyIndex: -1
      _Value: 0.44
    - _RefKeyIndex: -1
      _Value: 0.47500002
    - _RefKeyIndex: -1
      _Value: 0.51
    - _RefKeyIndex: -1
      _Value: 0.545
    - _RefKeyIndex: -1
      _Value: 0.58
    - _RefKeyIndex: -1
      _Value: 0.615
    - _RefKeyIndex: -1
      _Value: 0.65
    - _RefKeyIndex: -1
      _Value: 0.685
    - _RefKeyIndex: -1
      _Value: 0.72
    - _RefKeyIndex: -1
      _Value: 0.755
    - _RefKeyIndex: -1
      _Value: 0.79
    - _RefKeyIndex: -1
      _Value: 0.825
    - _RefKeyIndex: -1
      _Value: 0.86
    - _RefKeyIndex: -1
      _Value: 0.89500004
    - _RefKeyIndex: -1
      _Value: 0.93
    - _RefKeyIndex: -1
      _Value: 0.965
    - _RefKeyIndex: 2
      _Value: 0
    PrioValues: []
    FlipHValues: []
    FlipVValues: []
    HideValues:
    - _RefKeyIndex: 0
      _Value: 0
    PartsColValues: []
    PartsPalValues: []
    VertexValues: []
    UserValues: []
    SoundValues: []
    ImageOffsetXValues: []
    ImageOffsetYValues: []
    ImageOffsetWValues: []
    ImageOffsetHValues: []
    OriginOffsetXValues: []
    OriginOffsetYValues: []
    _hasAttrFlags: 551
    HasTrancparency: 1
    FrameNum: 41
    imageFile:
      path: Assets/Resources/Atlas/F_Map01/F_Map01.png
      texture: {fileID: 2800000, guid: 9a4fd90e12f6c94478532a57b1db8072, type: 3}
      materials:
      - {fileID: 0}
      - {fileID: 0}
      - {fileID: 0}
      - {fileID: 0}
      - {fileID: 0}
      - {fileID: 2100000, guid: 0eb64c8f0ca87034c95863deeea6a2ac, type: 2}
      - {fileID: 0}
      - {fileID: 0}
      - {fileID: 0}
      - {fileID: 0}
      - {fileID: 0}
      - {fileID: 0}
      - {fileID: 0}
      - {fileID: 0}
      - {fileID: 0}
      - {fileID: 0}
      - {fileID: 0}
      - {fileID: 0}
      - {fileID: 0}
      - {fileID: 0}
      - {fileID: 0}
      - {fileID: 0}
      - {fileID: 0}
      - {fileID: 0}
      - {fileID: 0}
      - {fileID: 0}
      - {fileID: 0}
      - {fileID: 0}
      - {fileID: 0}
      - {fileID: 0}
      - {fileID: 0}
      - {fileID: 0}
      - {fileID: 0}
      - {fileID: 0}
      - {fileID: 0}
      - {fileID: 0}
      - {fileID: 0}
      - {fileID: 0}
      - {fileID: 0}
      - {fileID: 0}
      - {fileID: 0}
      - {fileID: 0}
      - {fileID: 0}
      - {fileID: 0}
      - {fileID: 0}
      - {fileID: 0}
      - {fileID: 0}
      - {fileID: 0}
      - {fileID: 0}
      - {fileID: 0}
      width: 2048
      height: 2048
      bpp: 0
    UVs:
    - {x: 0.89746094, y: 0.13769531}
    - {x: 0.9213867, y: 0.13769531}
    - {x: 0.9213867, y: 0.109375}
    - {x: 0.89746094, y: 0.109375}
    OrgVertices:
    - {x: -24, y: 29, z: 0}
    - {x: 25, y: 29, z: 0}
    - {x: 25, y: -29, z: 0}
    - {x: -24, y: -29, z: 0}
  - AnimeRes: {fileID: 11400000}
    Name: red03
    Type: 0
    PicArea:
      Left: 1838
      Top: 1766
      Right: 1887
      Bottom: 1824
    OriginX: 24
    OriginY: 29
    MyId: 5
    ParentId: 0
    ChildNum: 0
    SrcObjId: 0
    SrcObjType: 0
    AlphaBlendType: 1
    InheritState:
      Type: 0
      Values:
      - Use: 1
        Rate: 1
      - Use: 1
        Rate: 1
      - Use: 1
        Rate: 1
      - Use: 1
        Rate: 1
      - Use: 1
        Rate: 1
      - Use: 1
        Rate: 1
      - Use: 1
        Rate: 1
      - Use: 0
        Rate: 0
      - Use: 0
        Rate: 0
      - Use: 0
        Rate: 0
      - Use: 1
        Rate: 1
      - Use: 1
        Rate: 1
      - Use: 1
        Rate: 1
      - Use: 1
        Rate: 1
      - Use: 1
        Rate: 1
      - Use: 1
        Rate: 1
      - Use: 1
        Rate: 1
      - Use: 1
        Rate: 1
      - Use: 1
        Rate: 1
      - Use: 1
        Rate: 1
      - Use: 1
        Rate: 1
    PosXKeys:
    - Value: 106
      _Time: 0
      _ValueType: 0
      _Curve:
        Type: 1
        StartT: 0
        StartV: 0
        EndT: 0
        EndV: 0
    - Value: 106
      _Time: 20
      _ValueType: 0
      _Curve:
        Type: 1
        StartT: 0
        StartV: 0
        EndT: 0
        EndV: 0
    - Value: 106
      _Time: 40
      _ValueType: 0
      _Curve:
        Type: 1
        StartT: 0
        StartV: 0
        EndT: 0
        EndV: 0
    PosYKeys:
    - Value: 240
      _Time: 0
      _ValueType: 0
      _Curve:
        Type: 1
        StartT: 0
        StartV: 0
        EndT: 0
        EndV: 0
    - Value: 240
      _Time: 20
      _ValueType: 0
      _Curve:
        Type: 1
        StartT: 0
        StartV: 0
        EndT: 0
        EndV: 0
    - Value: 240
      _Time: 40
      _ValueType: 0
      _Curve:
        Type: 1
        StartT: 0
        StartV: 0
        EndT: 0
        EndV: 0
    AngleKeys:
    - Value: 0
      _Time: 0
      _ValueType: 0
      _Curve:
        Type: 1
        StartT: 0
        StartV: 0
        EndT: 0
        EndV: 0
    - Value: 0
      _Time: 40
      _ValueType: 0
      _Curve:
        Type: 1
        StartT: 0
        StartV: 0
        EndT: 0
        EndV: 0
    ScaleXKeys: []
    ScaleYKeys: []
    TransKeys:
    - Value: 1
      _Time: 0
      _ValueType: 0
      _Curve:
        Type: 1
        StartT: 0
        StartV: 0
        EndT: 0
        EndV: 0
    - Value: 0.3
      _Time: 20
      _ValueType: 0
      _Curve:
        Type: 1
        StartT: 0
        StartV: 0
        EndT: 0
        EndV: 0
    - Value: 1
      _Time: 40
      _ValueType: 0
      _Curve:
        Type: 1
        StartT: 0
        StartV: 0
        EndT: 0
        EndV: 0
    PrioKeys: []
    FlipHKeys: []
    FlipVKeys: []
    HideKeys:
    - Value: 0
      _Time: 0
      _ValueType: 1
      _Curve:
        Type: 0
        StartT: 0
        StartV: 0
        EndT: 0
        EndV: 0
    - Value: 0
      _Time: 20
      _ValueType: 1
      _Curve:
        Type: 0
        StartT: 0
        StartV: 0
        EndT: 0
        EndV: 0
    - Value: 0
      _Time: 40
      _ValueType: 1
      _Curve:
        Type: 0
        StartT: 0
        StartV: 0
        EndT: 0
        EndV: 0
    PartsColKeys: []
    PartsPalKeys: []
    VertexKeys: []
    UserKeys: []
    SoundKeys: []
    ImageOffsetXKeys: []
    ImageOffsetYKeys: []
    ImageOffsetWKeys: []
    ImageOffsetHKeys: []
    OriginOffsetXKeys: []
    OriginOffsetYKeys: []
    PosXValues:
    - _RefKeyIndex: -1
      _Value: 106
    PosYValues:
    - _RefKeyIndex: -1
      _Value: 240
    AngleValues:
    - _RefKeyIndex: -1
      _Value: 0
    ScaleXValues: []
    ScaleYValues: []
    TransValues:
    - _RefKeyIndex: -1
      _Value: 1
    - _RefKeyIndex: -1
      _Value: 0.965
    - _RefKeyIndex: -1
      _Value: 0.93
    - _RefKeyIndex: -1
      _Value: 0.895
    - _RefKeyIndex: -1
      _Value: 0.86
    - _RefKeyIndex: -1
      _Value: 0.825
    - _RefKeyIndex: -1
      _Value: 0.79
    - _RefKeyIndex: -1
      _Value: 0.755
    - _RefKeyIndex: -1
      _Value: 0.72
    - _RefKeyIndex: -1
      _Value: 0.685
    - _RefKeyIndex: -1
      _Value: 0.65
    - _RefKeyIndex: -1
      _Value: 0.615
    - _RefKeyIndex: -1
      _Value: 0.58
    - _RefKeyIndex: -1
      _Value: 0.545
    - _RefKeyIndex: -1
      _Value: 0.51
    - _RefKeyIndex: -1
      _Value: 0.47500002
    - _RefKeyIndex: -1
      _Value: 0.44
    - _RefKeyIndex: -1
      _Value: 0.405
    - _RefKeyIndex: -1
      _Value: 0.37000003
    - _RefKeyIndex: -1
      _Value: 0.335
    - _RefKeyIndex: -1
      _Value: 0.3
    - _RefKeyIndex: -1
      _Value: 0.335
    - _RefKeyIndex: -1
      _Value: 0.37
    - _RefKeyIndex: -1
      _Value: 0.405
    - _RefKeyIndex: -1
      _Value: 0.44
    - _RefKeyIndex: -1
      _Value: 0.47500002
    - _RefKeyIndex: -1
      _Value: 0.51
    - _RefKeyIndex: -1
      _Value: 0.545
    - _RefKeyIndex: -1
      _Value: 0.58
    - _RefKeyIndex: -1
      _Value: 0.615
    - _RefKeyIndex: -1
      _Value: 0.65
    - _RefKeyIndex: -1
      _Value: 0.685
    - _RefKeyIndex: -1
      _Value: 0.72
    - _RefKeyIndex: -1
      _Value: 0.755
    - _RefKeyIndex: -1
      _Value: 0.79
    - _RefKeyIndex: -1
      _Value: 0.825
    - _RefKeyIndex: -1
      _Value: 0.86
    - _RefKeyIndex: -1
      _Value: 0.89500004
    - _RefKeyIndex: -1
      _Value: 0.93
    - _RefKeyIndex: -1
      _Value: 0.965
    - _RefKeyIndex: 2
      _Value: 0
    PrioValues: []
    FlipHValues: []
    FlipVValues: []
    HideValues:
    - _RefKeyIndex: 0
      _Value: 0
    PartsColValues: []
    PartsPalValues: []
    VertexValues: []
    UserValues: []
    SoundValues: []
    ImageOffsetXValues: []
    ImageOffsetYValues: []
    ImageOffsetWValues: []
    ImageOffsetHValues: []
    OriginOffsetXValues: []
    OriginOffsetYValues: []
    _hasAttrFlags: 551
    HasTrancparency: 1
    FrameNum: 41
    imageFile:
      path: Assets/Resources/Atlas/F_Map01/F_Map01.png
      texture: {fileID: 2800000, guid: 9a4fd90e12f6c94478532a57b1db8072, type: 3}
      materials:
      - {fileID: 0}
      - {fileID: 0}
      - {fileID: 0}
      - {fileID: 0}
      - {fileID: 0}
      - {fileID: 2100000, guid: 0eb64c8f0ca87034c95863deeea6a2ac, type: 2}
      - {fileID: 0}
      - {fileID: 0}
      - {fileID: 0}
      - {fileID: 0}
      - {fileID: 0}
      - {fileID: 0}
      - {fileID: 0}
      - {fileID: 0}
      - {fileID: 0}
      - {fileID: 0}
      - {fileID: 0}
      - {fileID: 0}
      - {fileID: 0}
      - {fileID: 0}
      - {fileID: 0}
      - {fileID: 0}
      - {fileID: 0}
      - {fileID: 0}
      - {fileID: 0}
      - {fileID: 0}
      - {fileID: 0}
      - {fileID: 0}
      - {fileID: 0}
      - {fileID: 0}
      - {fileID: 0}
      - {fileID: 0}
      - {fileID: 0}
      - {fileID: 0}
      - {fileID: 0}
      - {fileID: 0}
      - {fileID: 0}
      - {fileID: 0}
      - {fileID: 0}
      - {fileID: 0}
      - {fileID: 0}
      - {fileID: 0}
      - {fileID: 0}
      - {fileID: 0}
      - {fileID: 0}
      - {fileID: 0}
      - {fileID: 0}
      - {fileID: 0}
      - {fileID: 0}
      - {fileID: 0}
      width: 2048
      height: 2048
      bpp: 0
    UVs:
    - {x: 0.89746094, y: 0.13769531}
    - {x: 0.9213867, y: 0.13769531}
    - {x: 0.9213867, y: 0.109375}
    - {x: 0.89746094, y: 0.109375}
    OrgVertices:
    - {x: -24, y: 29, z: 0}
    - {x: 25, y: 29, z: 0}
    - {x: 25, y: -29, z: 0}
    - {x: -24, y: -29, z: 0}
  - AnimeRes: {fileID: 11400000}
    Name: red04
    Type: 0
    PicArea:
      Left: 1838
      Top: 1766
      Right: 1887
      Bottom: 1824
    OriginX: 24
    OriginY: 29
    MyId: 6
    ParentId: 0
    ChildNum: 0
    SrcObjId: 0
    SrcObjType: 0
    AlphaBlendType: 1
    InheritState:
      Type: 0
      Values:
      - Use: 1
        Rate: 1
      - Use: 1
        Rate: 1
      - Use: 1
        Rate: 1
      - Use: 1
        Rate: 1
      - Use: 1
        Rate: 1
      - Use: 1
        Rate: 1
      - Use: 1
        Rate: 1
      - Use: 0
        Rate: 0
      - Use: 0
        Rate: 0
      - Use: 0
        Rate: 0
      - Use: 1
        Rate: 1
      - Use: 1
        Rate: 1
      - Use: 1
        Rate: 1
      - Use: 1
        Rate: 1
      - Use: 1
        Rate: 1
      - Use: 1
        Rate: 1
      - Use: 1
        Rate: 1
      - Use: 1
        Rate: 1
      - Use: 1
        Rate: 1
      - Use: 1
        Rate: 1
      - Use: 1
        Rate: 1
    PosXKeys:
    - Value: 279
      _Time: 0
      _ValueType: 0
      _Curve:
        Type: 1
        StartT: 0
        StartV: 0
        EndT: 0
        EndV: 0
    - Value: 279
      _Time: 20
      _ValueType: 0
      _Curve:
        Type: 1
        StartT: 0
        StartV: 0
        EndT: 0
        EndV: 0
    - Value: 279
      _Time: 40
      _ValueType: 0
      _Curve:
        Type: 1
        StartT: 0
        StartV: 0
        EndT: 0
        EndV: 0
    PosYKeys:
    - Value: 201
      _Time: 0
      _ValueType: 0
      _Curve:
        Type: 1
        StartT: 0
        StartV: 0
        EndT: 0
        EndV: 0
    - Value: 201
      _Time: 20
      _ValueType: 0
      _Curve:
        Type: 1
        StartT: 0
        StartV: 0
        EndT: 0
        EndV: 0
    - Value: 201
      _Time: 40
      _ValueType: 0
      _Curve:
        Type: 1
        StartT: 0
        StartV: 0
        EndT: 0
        EndV: 0
    AngleKeys:
    - Value: 0
      _Time: 0
      _ValueType: 0
      _Curve:
        Type: 1
        StartT: 0
        StartV: 0
        EndT: 0
        EndV: 0
    - Value: 0
      _Time: 40
      _ValueType: 0
      _Curve:
        Type: 1
        StartT: 0
        StartV: 0
        EndT: 0
        EndV: 0
    ScaleXKeys: []
    ScaleYKeys: []
    TransKeys:
    - Value: 1
      _Time: 0
      _ValueType: 0
      _Curve:
        Type: 1
        StartT: 0
        StartV: 0
        EndT: 0
        EndV: 0
    - Value: 0.3
      _Time: 20
      _ValueType: 0
      _Curve:
        Type: 1
        StartT: 0
        StartV: 0
        EndT: 0
        EndV: 0
    - Value: 1
      _Time: 40
      _ValueType: 0
      _Curve:
        Type: 1
        StartT: 0
        StartV: 0
        EndT: 0
        EndV: 0
    PrioKeys: []
    FlipHKeys: []
    FlipVKeys: []
    HideKeys:
    - Value: 0
      _Time: 0
      _ValueType: 1
      _Curve:
        Type: 0
        StartT: 0
        StartV: 0
        EndT: 0
        EndV: 0
    - Value: 0
      _Time: 20
      _ValueType: 1
      _Curve:
        Type: 0
        StartT: 0
        StartV: 0
        EndT: 0
        EndV: 0
    - Value: 0
      _Time: 40
      _ValueType: 1
      _Curve:
        Type: 0
        StartT: 0
        StartV: 0
        EndT: 0
        EndV: 0
    PartsColKeys: []
    PartsPalKeys: []
    VertexKeys: []
    UserKeys: []
    SoundKeys: []
    ImageOffsetXKeys: []
    ImageOffsetYKeys: []
    ImageOffsetWKeys: []
    ImageOffsetHKeys: []
    OriginOffsetXKeys: []
    OriginOffsetYKeys: []
    PosXValues:
    - _RefKeyIndex: -1
      _Value: 279
    PosYValues:
    - _RefKeyIndex: -1
      _Value: 201
    AngleValues:
    - _RefKeyIndex: -1
      _Value: 0
    ScaleXValues: []
    ScaleYValues: []
    TransValues:
    - _RefKeyIndex: -1
      _Value: 1
    - _RefKeyIndex: -1
      _Value: 0.965
    - _RefKeyIndex: -1
      _Value: 0.93
    - _RefKeyIndex: -1
      _Value: 0.895
    - _RefKeyIndex: -1
      _Value: 0.86
    - _RefKeyIndex: -1
      _Value: 0.825
    - _RefKeyIndex: -1
      _Value: 0.79
    - _RefKeyIndex: -1
      _Value: 0.755
    - _RefKeyIndex: -1
      _Value: 0.72
    - _RefKeyIndex: -1
      _Value: 0.685
    - _RefKeyIndex: -1
      _Value: 0.65
    - _RefKeyIndex: -1
      _Value: 0.615
    - _RefKeyIndex: -1
      _Value: 0.58
    - _RefKeyIndex: -1
      _Value: 0.545
    - _RefKeyIndex: -1
      _Value: 0.51
    - _RefKeyIndex: -1
      _Value: 0.47500002
    - _RefKeyIndex: -1
      _Value: 0.44
    - _RefKeyIndex: -1
      _Value: 0.405
    - _RefKeyIndex: -1
      _Value: 0.37000003
    - _RefKeyIndex: -1
      _Value: 0.335
    - _RefKeyIndex: -1
      _Value: 0.3
    - _RefKeyIndex: -1
      _Value: 0.335
    - _RefKeyIndex: -1
      _Value: 0.37
    - _RefKeyIndex: -1
      _Value: 0.405
    - _RefKeyIndex: -1
      _Value: 0.44
    - _RefKeyIndex: -1
      _Value: 0.47500002
    - _RefKeyIndex: -1
      _Value: 0.51
    - _RefKeyIndex: -1
      _Value: 0.545
    - _RefKeyIndex: -1
      _Value: 0.58
    - _RefKeyIndex: -1
      _Value: 0.615
    - _RefKeyIndex: -1
      _Value: 0.65
    - _RefKeyIndex: -1
      _Value: 0.685
    - _RefKeyIndex: -1
      _Value: 0.72
    - _RefKeyIndex: -1
      _Value: 0.755
    - _RefKeyIndex: -1
      _Value: 0.79
    - _RefKeyIndex: -1
      _Value: 0.825
    - _RefKeyIndex: -1
      _Value: 0.86
    - _RefKeyIndex: -1
      _Value: 0.89500004
    - _RefKeyIndex: -1
      _Value: 0.93
    - _RefKeyIndex: -1
      _Value: 0.965
    - _RefKeyIndex: 2
      _Value: 0
    PrioValues: []
    FlipHValues: []
    FlipVValues: []
    HideValues:
    - _RefKeyIndex: 0
      _Value: 0
    PartsColValues: []
    PartsPalValues: []
    VertexValues: []
    UserValues: []
    SoundValues: []
    ImageOffsetXValues: []
    ImageOffsetYValues: []
    ImageOffsetWValues: []
    ImageOffsetHValues: []
    OriginOffsetXValues: []
    OriginOffsetYValues: []
    _hasAttrFlags: 551
    HasTrancparency: 1
    FrameNum: 41
    imageFile:
      path: Assets/Resources/Atlas/F_Map01/F_Map01.png
      texture: {fileID: 2800000, guid: 9a4fd90e12f6c94478532a57b1db8072, type: 3}
      materials:
      - {fileID: 0}
      - {fileID: 0}
      - {fileID: 0}
      - {fileID: 0}
      - {fileID: 0}
      - {fileID: 2100000, guid: 0eb64c8f0ca87034c95863deeea6a2ac, type: 2}
      - {fileID: 0}
      - {fileID: 0}
      - {fileID: 0}
      - {fileID: 0}
      - {fileID: 0}
      - {fileID: 0}
      - {fileID: 0}
      - {fileID: 0}
      - {fileID: 0}
      - {fileID: 0}
      - {fileID: 0}
      - {fileID: 0}
      - {fileID: 0}
      - {fileID: 0}
      - {fileID: 0}
      - {fileID: 0}
      - {fileID: 0}
      - {fileID: 0}
      - {fileID: 0}
      - {fileID: 0}
      - {fileID: 0}
      - {fileID: 0}
      - {fileID: 0}
      - {fileID: 0}
      - {fileID: 0}
      - {fileID: 0}
      - {fileID: 0}
      - {fileID: 0}
      - {fileID: 0}
      - {fileID: 0}
      - {fileID: 0}
      - {fileID: 0}
      - {fileID: 0}
      - {fileID: 0}
      - {fileID: 0}
      - {fileID: 0}
      - {fileID: 0}
      - {fileID: 0}
      - {fileID: 0}
      - {fileID: 0}
      - {fileID: 0}
      - {fileID: 0}
      - {fileID: 0}
      - {fileID: 0}
      width: 2048
      height: 2048
      bpp: 0
    UVs:
    - {x: 0.89746094, y: 0.13769531}
    - {x: 0.9213867, y: 0.13769531}
    - {x: 0.9213867, y: 0.109375}
    - {x: 0.89746094, y: 0.109375}
    OrgVertices:
    - {x: -24, y: 29, z: 0}
    - {x: 25, y: 29, z: 0}
    - {x: 25, y: -29, z: 0}
    - {x: -24, y: -29, z: 0}
  - AnimeRes: {fileID: 11400000}
    Name: red05
    Type: 0
    PicArea:
      Left: 1838
      Top: 1766
      Right: 1887
      Bottom: 1824
    OriginX: 24
    OriginY: 29
    MyId: 7
    ParentId: 0
    ChildNum: 0
    SrcObjId: 0
    SrcObjType: 0
    AlphaBlendType: 1
    InheritState:
      Type: 0
      Values:
      - Use: 1
        Rate: 1
      - Use: 1
        Rate: 1
      - Use: 1
        Rate: 1
      - Use: 1
        Rate: 1
      - Use: 1
        Rate: 1
      - Use: 1
        Rate: 1
      - Use: 1
        Rate: 1
      - Use: 0
        Rate: 0
      - Use: 0
        Rate: 0
      - Use: 0
        Rate: 0
      - Use: 1
        Rate: 1
      - Use: 1
        Rate: 1
      - Use: 1
        Rate: 1
      - Use: 1
        Rate: 1
      - Use: 1
        Rate: 1
      - Use: 1
        Rate: 1
      - Use: 1
        Rate: 1
      - Use: 1
        Rate: 1
      - Use: 1
        Rate: 1
      - Use: 1
        Rate: 1
      - Use: 1
        Rate: 1
    PosXKeys:
    - Value: 364
      _Time: 0
      _ValueType: 0
      _Curve:
        Type: 1
        StartT: 0
        StartV: 0
        EndT: 0
        EndV: 0
    - Value: 364
      _Time: 20
      _ValueType: 0
      _Curve:
        Type: 1
        StartT: 0
        StartV: 0
        EndT: 0
        EndV: 0
    - Value: 364
      _Time: 40
      _ValueType: 0
      _Curve:
        Type: 1
        StartT: 0
        StartV: 0
        EndT: 0
        EndV: 0
    PosYKeys:
    - Value: 246
      _Time: 0
      _ValueType: 0
      _Curve:
        Type: 1
        StartT: 0
        StartV: 0
        EndT: 0
        EndV: 0
    - Value: 246
      _Time: 20
      _ValueType: 0
      _Curve:
        Type: 1
        StartT: 0
        StartV: 0
        EndT: 0
        EndV: 0
    - Value: 246
      _Time: 40
      _ValueType: 0
      _Curve:
        Type: 1
        StartT: 0
        StartV: 0
        EndT: 0
        EndV: 0
    AngleKeys:
    - Value: 0
      _Time: 0
      _ValueType: 0
      _Curve:
        Type: 1
        StartT: 0
        StartV: 0
        EndT: 0
        EndV: 0
    - Value: 0
      _Time: 40
      _ValueType: 0
      _Curve:
        Type: 1
        StartT: 0
        StartV: 0
        EndT: 0
        EndV: 0
    ScaleXKeys: []
    ScaleYKeys: []
    TransKeys:
    - Value: 1
      _Time: 0
      _ValueType: 0
      _Curve:
        Type: 1
        StartT: 0
        StartV: 0
        EndT: 0
        EndV: 0
    - Value: 0.3
      _Time: 20
      _ValueType: 0
      _Curve:
        Type: 1
        StartT: 0
        StartV: 0
        EndT: 0
        EndV: 0
    - Value: 1
      _Time: 40
      _ValueType: 0
      _Curve:
        Type: 1
        StartT: 0
        StartV: 0
        EndT: 0
        EndV: 0
    PrioKeys: []
    FlipHKeys: []
    FlipVKeys: []
    HideKeys:
    - Value: 0
      _Time: 0
      _ValueType: 1
      _Curve:
        Type: 0
        StartT: 0
        StartV: 0
        EndT: 0
        EndV: 0
    - Value: 0
      _Time: 20
      _ValueType: 1
      _Curve:
        Type: 0
        StartT: 0
        StartV: 0
        EndT: 0
        EndV: 0
    - Value: 0
      _Time: 40
      _ValueType: 1
      _Curve:
        Type: 0
        StartT: 0
        StartV: 0
        EndT: 0
        EndV: 0
    PartsColKeys: []
    PartsPalKeys: []
    VertexKeys: []
    UserKeys: []
    SoundKeys: []
    ImageOffsetXKeys: []
    ImageOffsetYKeys: []
    ImageOffsetWKeys: []
    ImageOffsetHKeys: []
    OriginOffsetXKeys: []
    OriginOffsetYKeys: []
    PosXValues:
    - _RefKeyIndex: -1
      _Value: 364
    PosYValues:
    - _RefKeyIndex: -1
      _Value: 246
    AngleValues:
    - _RefKeyIndex: -1
      _Value: 0
    ScaleXValues: []
    ScaleYValues: []
    TransValues:
    - _RefKeyIndex: -1
      _Value: 1
    - _RefKeyIndex: -1
      _Value: 0.965
    - _RefKeyIndex: -1
      _Value: 0.93
    - _RefKeyIndex: -1
      _Value: 0.895
    - _RefKeyIndex: -1
      _Value: 0.86
    - _RefKeyIndex: -1
      _Value: 0.825
    - _RefKeyIndex: -1
      _Value: 0.79
    - _RefKeyIndex: -1
      _Value: 0.755
    - _RefKeyIndex: -1
      _Value: 0.72
    - _RefKeyIndex: -1
      _Value: 0.685
    - _RefKeyIndex: -1
      _Value: 0.65
    - _RefKeyIndex: -1
      _Value: 0.615
    - _RefKeyIndex: -1
      _Value: 0.58
    - _RefKeyIndex: -1
      _Value: 0.545
    - _RefKeyIndex: -1
      _Value: 0.51
    - _RefKeyIndex: -1
      _Value: 0.47500002
    - _RefKeyIndex: -1
      _Value: 0.44
    - _RefKeyIndex: -1
      _Value: 0.405
    - _RefKeyIndex: -1
      _Value: 0.37000003
    - _RefKeyIndex: -1
      _Value: 0.335
    - _RefKeyIndex: -1
      _Value: 0.3
    - _RefKeyIndex: -1
      _Value: 0.335
    - _RefKeyIndex: -1
      _Value: 0.37
    - _RefKeyIndex: -1
      _Value: 0.405
    - _RefKeyIndex: -1
      _Value: 0.44
    - _RefKeyIndex: -1
      _Value: 0.47500002
    - _RefKeyIndex: -1
      _Value: 0.51
    - _RefKeyIndex: -1
      _Value: 0.545
    - _RefKeyIndex: -1
      _Value: 0.58
    - _RefKeyIndex: -1
      _Value: 0.615
    - _RefKeyIndex: -1
      _Value: 0.65
    - _RefKeyIndex: -1
      _Value: 0.685
    - _RefKeyIndex: -1
      _Value: 0.72
    - _RefKeyIndex: -1
      _Value: 0.755
    - _RefKeyIndex: -1
      _Value: 0.79
    - _RefKeyIndex: -1
      _Value: 0.825
    - _RefKeyIndex: -1
      _Value: 0.86
    - _RefKeyIndex: -1
      _Value: 0.89500004
    - _RefKeyIndex: -1
      _Value: 0.93
    - _RefKeyIndex: -1
      _Value: 0.965
    - _RefKeyIndex: 2
      _Value: 0
    PrioValues: []
    FlipHValues: []
    FlipVValues: []
    HideValues:
    - _RefKeyIndex: 0
      _Value: 0
    PartsColValues: []
    PartsPalValues: []
    VertexValues: []
    UserValues: []
    SoundValues: []
    ImageOffsetXValues: []
    ImageOffsetYValues: []
    ImageOffsetWValues: []
    ImageOffsetHValues: []
    OriginOffsetXValues: []
    OriginOffsetYValues: []
    _hasAttrFlags: 551
    HasTrancparency: 1
    FrameNum: 41
    imageFile:
      path: Assets/Resources/Atlas/F_Map01/F_Map01.png
      texture: {fileID: 2800000, guid: 9a4fd90e12f6c94478532a57b1db8072, type: 3}
      materials:
      - {fileID: 0}
      - {fileID: 0}
      - {fileID: 0}
      - {fileID: 0}
      - {fileID: 0}
      - {fileID: 2100000, guid: 0eb64c8f0ca87034c95863deeea6a2ac, type: 2}
      - {fileID: 0}
      - {fileID: 0}
      - {fileID: 0}
      - {fileID: 0}
      - {fileID: 0}
      - {fileID: 0}
      - {fileID: 0}
      - {fileID: 0}
      - {fileID: 0}
      - {fileID: 0}
      - {fileID: 0}
      - {fileID: 0}
      - {fileID: 0}
      - {fileID: 0}
      - {fileID: 0}
      - {fileID: 0}
      - {fileID: 0}
      - {fileID: 0}
      - {fileID: 0}
      - {fileID: 0}
      - {fileID: 0}
      - {fileID: 0}
      - {fileID: 0}
      - {fileID: 0}
      - {fileID: 0}
      - {fileID: 0}
      - {fileID: 0}
      - {fileID: 0}
      - {fileID: 0}
      - {fileID: 0}
      - {fileID: 0}
      - {fileID: 0}
      - {fileID: 0}
      - {fileID: 0}
      - {fileID: 0}
      - {fileID: 0}
      - {fileID: 0}
      - {fileID: 0}
      - {fileID: 0}
      - {fileID: 0}
      - {fileID: 0}
      - {fileID: 0}
      - {fileID: 0}
      - {fileID: 0}
      width: 2048
      height: 2048
      bpp: 0
    UVs:
    - {x: 0.89746094, y: 0.13769531}
    - {x: 0.9213867, y: 0.13769531}
    - {x: 0.9213867, y: 0.109375}
    - {x: 0.89746094, y: 0.109375}
    OrgVertices:
    - {x: -24, y: 29, z: 0}
    - {x: 25, y: 29, z: 0}
    - {x: 25, y: -29, z: 0}
    - {x: -24, y: -29, z: 0}
  - AnimeRes: {fileID: 11400000}
    Name: red06
    Type: 0
    PicArea:
      Left: 1838
      Top: 1766
      Right: 1887
      Bottom: 1824
    OriginX: 24
    OriginY: 29
    MyId: 8
    ParentId: 0
    ChildNum: 0
    SrcObjId: 0
    SrcObjType: 0
    AlphaBlendType: 1
    InheritState:
      Type: 0
      Values:
      - Use: 1
        Rate: 1
      - Use: 1
        Rate: 1
      - Use: 1
        Rate: 1
      - Use: 1
        Rate: 1
      - Use: 1
        Rate: 1
      - Use: 1
        Rate: 1
      - Use: 1
        Rate: 1
      - Use: 0
        Rate: 0
      - Use: 0
        Rate: 0
      - Use: 0
        Rate: 0
      - Use: 1
        Rate: 1
      - Use: 1
        Rate: 1
      - Use: 1
        Rate: 1
      - Use: 1
        Rate: 1
      - Use: 1
        Rate: 1
      - Use: 1
        Rate: 1
      - Use: 1
        Rate: 1
      - Use: 1
        Rate: 1
      - Use: 1
        Rate: 1
      - Use: 1
        Rate: 1
      - Use: 1
        Rate: 1
    PosXKeys:
    - Value: 127
      _Time: 0
      _ValueType: 0
      _Curve:
        Type: 1
        StartT: 0
        StartV: 0
        EndT: 0
        EndV: 0
    - Value: 127
      _Time: 20
      _ValueType: 0
      _Curve:
        Type: 1
        StartT: 0
        StartV: 0
        EndT: 0
        EndV: 0
    - Value: 127
      _Time: 40
      _ValueType: 0
      _Curve:
        Type: 1
        StartT: 0
        StartV: 0
        EndT: 0
        EndV: 0
    PosYKeys:
    - Value: 311
      _Time: 0
      _ValueType: 0
      _Curve:
        Type: 1
        StartT: 0
        StartV: 0
        EndT: 0
        EndV: 0
    - Value: 311
      _Time: 20
      _ValueType: 0
      _Curve:
        Type: 1
        StartT: 0
        StartV: 0
        EndT: 0
        EndV: 0
    - Value: 311
      _Time: 40
      _ValueType: 0
      _Curve:
        Type: 1
        StartT: 0
        StartV: 0
        EndT: 0
        EndV: 0
    AngleKeys:
    - Value: 0
      _Time: 0
      _ValueType: 0
      _Curve:
        Type: 1
        StartT: 0
        StartV: 0
        EndT: 0
        EndV: 0
    - Value: 0
      _Time: 40
      _ValueType: 0
      _Curve:
        Type: 1
        StartT: 0
        StartV: 0
        EndT: 0
        EndV: 0
    ScaleXKeys: []
    ScaleYKeys: []
    TransKeys:
    - Value: 1
      _Time: 0
      _ValueType: 0
      _Curve:
        Type: 1
        StartT: 0
        StartV: 0
        EndT: 0
        EndV: 0
    - Value: 0.3
      _Time: 20
      _ValueType: 0
      _Curve:
        Type: 1
        StartT: 0
        StartV: 0
        EndT: 0
        EndV: 0
    - Value: 1
      _Time: 40
      _ValueType: 0
      _Curve:
        Type: 1
        StartT: 0
        StartV: 0
        EndT: 0
        EndV: 0
    PrioKeys: []
    FlipHKeys: []
    FlipVKeys: []
    HideKeys:
    - Value: 0
      _Time: 0
      _ValueType: 1
      _Curve:
        Type: 0
        StartT: 0
        StartV: 0
        EndT: 0
        EndV: 0
    - Value: 0
      _Time: 20
      _ValueType: 1
      _Curve:
        Type: 0
        StartT: 0
        StartV: 0
        EndT: 0
        EndV: 0
    - Value: 0
      _Time: 40
      _ValueType: 1
      _Curve:
        Type: 0
        StartT: 0
        StartV: 0
        EndT: 0
        EndV: 0
    PartsColKeys: []
    PartsPalKeys: []
    VertexKeys: []
    UserKeys: []
    SoundKeys: []
    ImageOffsetXKeys: []
    ImageOffsetYKeys: []
    ImageOffsetWKeys: []
    ImageOffsetHKeys: []
    OriginOffsetXKeys: []
    OriginOffsetYKeys: []
    PosXValues:
    - _RefKeyIndex: -1
      _Value: 127
    PosYValues:
    - _RefKeyIndex: -1
      _Value: 311
    AngleValues:
    - _RefKeyIndex: -1
      _Value: 0
    ScaleXValues: []
    ScaleYValues: []
    TransValues:
    - _RefKeyIndex: -1
      _Value: 1
    - _RefKeyIndex: -1
      _Value: 0.965
    - _RefKeyIndex: -1
      _Value: 0.93
    - _RefKeyIndex: -1
      _Value: 0.895
    - _RefKeyIndex: -1
      _Value: 0.86
    - _RefKeyIndex: -1
      _Value: 0.825
    - _RefKeyIndex: -1
      _Value: 0.79
    - _RefKeyIndex: -1
      _Value: 0.755
    - _RefKeyIndex: -1
      _Value: 0.72
    - _RefKeyIndex: -1
      _Value: 0.685
    - _RefKeyIndex: -1
      _Value: 0.65
    - _RefKeyIndex: -1
      _Value: 0.615
    - _RefKeyIndex: -1
      _Value: 0.58
    - _RefKeyIndex: -1
      _Value: 0.545
    - _RefKeyIndex: -1
      _Value: 0.51
    - _RefKeyIndex: -1
      _Value: 0.47500002
    - _RefKeyIndex: -1
      _Value: 0.44
    - _RefKeyIndex: -1
      _Value: 0.405
    - _RefKeyIndex: -1
      _Value: 0.37000003
    - _RefKeyIndex: -1
      _Value: 0.335
    - _RefKeyIndex: -1
      _Value: 0.3
    - _RefKeyIndex: -1
      _Value: 0.335
    - _RefKeyIndex: -1
      _Value: 0.37
    - _RefKeyIndex: -1
      _Value: 0.405
    - _RefKeyIndex: -1
      _Value: 0.44
    - _RefKeyIndex: -1
      _Value: 0.47500002
    - _RefKeyIndex: -1
      _Value: 0.51
    - _RefKeyIndex: -1
      _Value: 0.545
    - _RefKeyIndex: -1
      _Value: 0.58
    - _RefKeyIndex: -1
      _Value: 0.615
    - _RefKeyIndex: -1
      _Value: 0.65
    - _RefKeyIndex: -1
      _Value: 0.685
    - _RefKeyIndex: -1
      _Value: 0.72
    - _RefKeyIndex: -1
      _Value: 0.755
    - _RefKeyIndex: -1
      _Value: 0.79
    - _RefKeyIndex: -1
      _Value: 0.825
    - _RefKeyIndex: -1
      _Value: 0.86
    - _RefKeyIndex: -1
      _Value: 0.89500004
    - _RefKeyIndex: -1
      _Value: 0.93
    - _RefKeyIndex: -1
      _Value: 0.965
    - _RefKeyIndex: 2
      _Value: 0
    PrioValues: []
    FlipHValues: []
    FlipVValues: []
    HideValues:
    - _RefKeyIndex: 0
      _Value: 0
    PartsColValues: []
    PartsPalValues: []
    VertexValues: []
    UserValues: []
    SoundValues: []
    ImageOffsetXValues: []
    ImageOffsetYValues: []
    ImageOffsetWValues: []
    ImageOffsetHValues: []
    OriginOffsetXValues: []
    OriginOffsetYValues: []
    _hasAttrFlags: 551
    HasTrancparency: 1
    FrameNum: 41
    imageFile:
      path: Assets/Resources/Atlas/F_Map01/F_Map01.png
      texture: {fileID: 2800000, guid: 9a4fd90e12f6c94478532a57b1db8072, type: 3}
      materials:
      - {fileID: 0}
      - {fileID: 0}
      - {fileID: 0}
      - {fileID: 0}
      - {fileID: 0}
      - {fileID: 2100000, guid: 0eb64c8f0ca87034c95863deeea6a2ac, type: 2}
      - {fileID: 0}
      - {fileID: 0}
      - {fileID: 0}
      - {fileID: 0}
      - {fileID: 0}
      - {fileID: 0}
      - {fileID: 0}
      - {fileID: 0}
      - {fileID: 0}
      - {fileID: 0}
      - {fileID: 0}
      - {fileID: 0}
      - {fileID: 0}
      - {fileID: 0}
      - {fileID: 0}
      - {fileID: 0}
      - {fileID: 0}
      - {fileID: 0}
      - {fileID: 0}
      - {fileID: 0}
      - {fileID: 0}
      - {fileID: 0}
      - {fileID: 0}
      - {fileID: 0}
      - {fileID: 0}
      - {fileID: 0}
      - {fileID: 0}
      - {fileID: 0}
      - {fileID: 0}
      - {fileID: 0}
      - {fileID: 0}
      - {fileID: 0}
      - {fileID: 0}
      - {fileID: 0}
      - {fileID: 0}
      - {fileID: 0}
      - {fileID: 0}
      - {fileID: 0}
      - {fileID: 0}
      - {fileID: 0}
      - {fileID: 0}
      - {fileID: 0}
      - {fileID: 0}
      - {fileID: 0}
      width: 2048
      height: 2048
      bpp: 0
    UVs:
    - {x: 0.89746094, y: 0.13769531}
    - {x: 0.9213867, y: 0.13769531}
    - {x: 0.9213867, y: 0.109375}
    - {x: 0.89746094, y: 0.109375}
    OrgVertices:
    - {x: -24, y: 29, z: 0}
    - {x: 25, y: 29, z: 0}
    - {x: 25, y: -29, z: 0}
    - {x: -24, y: -29, z: 0}
  - AnimeRes: {fileID: 11400000}
    Name: red07
    Type: 0
    PicArea:
      Left: 1838
      Top: 1766
      Right: 1887
      Bottom: 1824
    OriginX: 24
    OriginY: 29
    MyId: 9
    ParentId: 0
    ChildNum: 0
    SrcObjId: 0
    SrcObjType: 0
    AlphaBlendType: 1
    InheritState:
      Type: 0
      Values:
      - Use: 1
        Rate: 1
      - Use: 1
        Rate: 1
      - Use: 1
        Rate: 1
      - Use: 1
        Rate: 1
      - Use: 1
        Rate: 1
      - Use: 1
        Rate: 1
      - Use: 1
        Rate: 1
      - Use: 0
        Rate: 0
      - Use: 0
        Rate: 0
      - Use: 0
        Rate: 0
      - Use: 1
        Rate: 1
      - Use: 1
        Rate: 1
      - Use: 1
        Rate: 1
      - Use: 1
        Rate: 1
      - Use: 1
        Rate: 1
      - Use: 1
        Rate: 1
      - Use: 1
        Rate: 1
      - Use: 1
        Rate: 1
      - Use: 1
        Rate: 1
      - Use: 1
        Rate: 1
      - Use: 1
        Rate: 1
    PosXKeys:
    - Value: -155
      _Time: 0
      _ValueType: 0
      _Curve:
        Type: 1
        StartT: 0
        StartV: 0
        EndT: 0
        EndV: 0
    - Value: -155
      _Time: 20
      _ValueType: 0
      _Curve:
        Type: 1
        StartT: 0
        StartV: 0
        EndT: 0
        EndV: 0
    - Value: -155
      _Time: 40
      _ValueType: 0
      _Curve:
        Type: 1
        StartT: 0
        StartV: 0
        EndT: 0
        EndV: 0
    PosYKeys:
    - Value: 274
      _Time: 0
      _ValueType: 0
      _Curve:
        Type: 1
        StartT: 0
        StartV: 0
        EndT: 0
        EndV: 0
    - Value: 274
      _Time: 20
      _ValueType: 0
      _Curve:
        Type: 1
        StartT: 0
        StartV: 0
        EndT: 0
        EndV: 0
    - Value: 274
      _Time: 40
      _ValueType: 0
      _Curve:
        Type: 1
        StartT: 0
        StartV: 0
        EndT: 0
        EndV: 0
    AngleKeys:
    - Value: 0
      _Time: 0
      _ValueType: 0
      _Curve:
        Type: 1
        StartT: 0
        StartV: 0
        EndT: 0
        EndV: 0
    - Value: 0
      _Time: 40
      _ValueType: 0
      _Curve:
        Type: 1
        StartT: 0
        StartV: 0
        EndT: 0
        EndV: 0
    ScaleXKeys: []
    ScaleYKeys: []
    TransKeys:
    - Value: 1
      _Time: 0
      _ValueType: 0
      _Curve:
        Type: 1
        StartT: 0
        StartV: 0
        EndT: 0
        EndV: 0
    - Value: 0.3
      _Time: 20
      _ValueType: 0
      _Curve:
        Type: 1
        StartT: 0
        StartV: 0
        EndT: 0
        EndV: 0
    - Value: 1
      _Time: 40
      _ValueType: 0
      _Curve:
        Type: 1
        StartT: 0
        StartV: 0
        EndT: 0
        EndV: 0
    PrioKeys: []
    FlipHKeys: []
    FlipVKeys: []
    HideKeys:
    - Value: 0
      _Time: 0
      _ValueType: 1
      _Curve:
        Type: 0
        StartT: 0
        StartV: 0
        EndT: 0
        EndV: 0
    - Value: 0
      _Time: 20
      _ValueType: 1
      _Curve:
        Type: 0
        StartT: 0
        StartV: 0
        EndT: 0
        EndV: 0
    - Value: 0
      _Time: 40
      _ValueType: 1
      _Curve:
        Type: 0
        StartT: 0
        StartV: 0
        EndT: 0
        EndV: 0
    PartsColKeys: []
    PartsPalKeys: []
    VertexKeys: []
    UserKeys: []
    SoundKeys: []
    ImageOffsetXKeys: []
    ImageOffsetYKeys: []
    ImageOffsetWKeys: []
    ImageOffsetHKeys: []
    OriginOffsetXKeys: []
    OriginOffsetYKeys: []
    PosXValues:
    - _RefKeyIndex: -1
      _Value: -155
    PosYValues:
    - _RefKeyIndex: -1
      _Value: 274
    AngleValues:
    - _RefKeyIndex: -1
      _Value: 0
    ScaleXValues: []
    ScaleYValues: []
    TransValues:
    - _RefKeyIndex: -1
      _Value: 1
    - _RefKeyIndex: -1
      _Value: 0.965
    - _RefKeyIndex: -1
      _Value: 0.93
    - _RefKeyIndex: -1
      _Value: 0.895
    - _RefKeyIndex: -1
      _Value: 0.86
    - _RefKeyIndex: -1
      _Value: 0.825
    - _RefKeyIndex: -1
      _Value: 0.79
    - _RefKeyIndex: -1
      _Value: 0.755
    - _RefKeyIndex: -1
      _Value: 0.72
    - _RefKeyIndex: -1
      _Value: 0.685
    - _RefKeyIndex: -1
      _Value: 0.65
    - _RefKeyIndex: -1
      _Value: 0.615
    - _RefKeyIndex: -1
      _Value: 0.58
    - _RefKeyIndex: -1
      _Value: 0.545
    - _RefKeyIndex: -1
      _Value: 0.51
    - _RefKeyIndex: -1
      _Value: 0.47500002
    - _RefKeyIndex: -1
      _Value: 0.44
    - _RefKeyIndex: -1
      _Value: 0.405
    - _RefKeyIndex: -1
      _Value: 0.37000003
    - _RefKeyIndex: -1
      _Value: 0.335
    - _RefKeyIndex: -1
      _Value: 0.3
    - _RefKeyIndex: -1
      _Value: 0.335
    - _RefKeyIndex: -1
      _Value: 0.37
    - _RefKeyIndex: -1
      _Value: 0.405
    - _RefKeyIndex: -1
      _Value: 0.44
    - _RefKeyIndex: -1
      _Value: 0.47500002
    - _RefKeyIndex: -1
      _Value: 0.51
    - _RefKeyIndex: -1
      _Value: 0.545
    - _RefKeyIndex: -1
      _Value: 0.58
    - _RefKeyIndex: -1
      _Value: 0.615
    - _RefKeyIndex: -1
      _Value: 0.65
    - _RefKeyIndex: -1
      _Value: 0.685
    - _RefKeyIndex: -1
      _Value: 0.72
    - _RefKeyIndex: -1
      _Value: 0.755
    - _RefKeyIndex: -1
      _Value: 0.79
    - _RefKeyIndex: -1
      _Value: 0.825
    - _RefKeyIndex: -1
      _Value: 0.86
    - _RefKeyIndex: -1
      _Value: 0.89500004
    - _RefKeyIndex: -1
      _Value: 0.93
    - _RefKeyIndex: -1
      _Value: 0.965
    - _RefKeyIndex: 2
      _Value: 0
    PrioValues: []
    FlipHValues: []
    FlipVValues: []
    HideValues:
    - _RefKeyIndex: 0
      _Value: 0
    PartsColValues: []
    PartsPalValues: []
    VertexValues: []
    UserValues: []
    SoundValues: []
    ImageOffsetXValues: []
    ImageOffsetYValues: []
    ImageOffsetWValues: []
    ImageOffsetHValues: []
    OriginOffsetXValues: []
    OriginOffsetYValues: []
    _hasAttrFlags: 551
    HasTrancparency: 1
    FrameNum: 41
    imageFile:
      path: Assets/Resources/Atlas/F_Map01/F_Map01.png
      texture: {fileID: 2800000, guid: 9a4fd90e12f6c94478532a57b1db8072, type: 3}
      materials:
      - {fileID: 0}
      - {fileID: 0}
      - {fileID: 0}
      - {fileID: 0}
      - {fileID: 0}
      - {fileID: 2100000, guid: 0eb64c8f0ca87034c95863deeea6a2ac, type: 2}
      - {fileID: 0}
      - {fileID: 0}
      - {fileID: 0}
      - {fileID: 0}
      - {fileID: 0}
      - {fileID: 0}
      - {fileID: 0}
      - {fileID: 0}
      - {fileID: 0}
      - {fileID: 0}
      - {fileID: 0}
      - {fileID: 0}
      - {fileID: 0}
      - {fileID: 0}
      - {fileID: 0}
      - {fileID: 0}
      - {fileID: 0}
      - {fileID: 0}
      - {fileID: 0}
      - {fileID: 0}
      - {fileID: 0}
      - {fileID: 0}
      - {fileID: 0}
      - {fileID: 0}
      - {fileID: 0}
      - {fileID: 0}
      - {fileID: 0}
      - {fileID: 0}
      - {fileID: 0}
      - {fileID: 0}
      - {fileID: 0}
      - {fileID: 0}
      - {fileID: 0}
      - {fileID: 0}
      - {fileID: 0}
      - {fileID: 0}
      - {fileID: 0}
      - {fileID: 0}
      - {fileID: 0}
      - {fileID: 0}
      - {fileID: 0}
      - {fileID: 0}
      - {fileID: 0}
      - {fileID: 0}
      width: 2048
      height: 2048
      bpp: 0
    UVs:
    - {x: 0.89746094, y: 0.13769531}
    - {x: 0.9213867, y: 0.13769531}
    - {x: 0.9213867, y: 0.109375}
    - {x: 0.89746094, y: 0.109375}
    OrgVertices:
    - {x: -24, y: 29, z: 0}
    - {x: 25, y: 29, z: 0}
    - {x: 25, y: -29, z: 0}
    - {x: -24, y: -29, z: 0}
  - AnimeRes: {fileID: 11400000}
    Name: red08
    Type: 0
    PicArea:
      Left: 1838
      Top: 1766
      Right: 1887
      Bottom: 1824
    OriginX: 24
    OriginY: 29
    MyId: 10
    ParentId: 0
    ChildNum: 0
    SrcObjId: 0
    SrcObjType: 0
    AlphaBlendType: 1
    InheritState:
      Type: 0
      Values:
      - Use: 1
        Rate: 1
      - Use: 1
        Rate: 1
      - Use: 1
        Rate: 1
      - Use: 1
        Rate: 1
      - Use: 1
        Rate: 1
      - Use: 1
        Rate: 1
      - Use: 1
        Rate: 1
      - Use: 0
        Rate: 0
      - Use: 0
        Rate: 0
      - Use: 0
        Rate: 0
      - Use: 1
        Rate: 1
      - Use: 1
        Rate: 1
      - Use: 1
        Rate: 1
      - Use: 1
        Rate: 1
      - Use: 1
        Rate: 1
      - Use: 1
        Rate: 1
      - Use: 1
        Rate: 1
      - Use: 1
        Rate: 1
      - Use: 1
        Rate: 1
      - Use: 1
        Rate: 1
      - Use: 1
        Rate: 1
    PosXKeys:
    - Value: -239
      _Time: 0
      _ValueType: 0
      _Curve:
        Type: 1
        StartT: 0
        StartV: 0
        EndT: 0
        EndV: 0
    - Value: -239
      _Time: 20
      _ValueType: 0
      _Curve:
        Type: 1
        StartT: 0
        StartV: 0
        EndT: 0
        EndV: 0
    - Value: -239
      _Time: 40
      _ValueType: 0
      _Curve:
        Type: 1
        StartT: 0
        StartV: 0
        EndT: 0
        EndV: 0
    PosYKeys:
    - Value: 345
      _Time: 0
      _ValueType: 0
      _Curve:
        Type: 1
        StartT: 0
        StartV: 0
        EndT: 0
        EndV: 0
    - Value: 345
      _Time: 20
      _ValueType: 0
      _Curve:
        Type: 1
        StartT: 0
        StartV: 0
        EndT: 0
        EndV: 0
    - Value: 345
      _Time: 40
      _ValueType: 0
      _Curve:
        Type: 1
        StartT: 0
        StartV: 0
        EndT: 0
        EndV: 0
    AngleKeys:
    - Value: 0
      _Time: 0
      _ValueType: 0
      _Curve:
        Type: 1
        StartT: 0
        StartV: 0
        EndT: 0
        EndV: 0
    - Value: 0
      _Time: 40
      _ValueType: 0
      _Curve:
        Type: 1
        StartT: 0
        StartV: 0
        EndT: 0
        EndV: 0
    ScaleXKeys: []
    ScaleYKeys: []
    TransKeys:
    - Value: 1
      _Time: 0
      _ValueType: 0
      _Curve:
        Type: 1
        StartT: 0
        StartV: 0
        EndT: 0
        EndV: 0
    - Value: 0.3
      _Time: 20
      _ValueType: 0
      _Curve:
        Type: 1
        StartT: 0
        StartV: 0
        EndT: 0
        EndV: 0
    - Value: 1
      _Time: 40
      _ValueType: 0
      _Curve:
        Type: 1
        StartT: 0
        StartV: 0
        EndT: 0
        EndV: 0
    PrioKeys: []
    FlipHKeys: []
    FlipVKeys: []
    HideKeys:
    - Value: 0
      _Time: 0
      _ValueType: 1
      _Curve:
        Type: 0
        StartT: 0
        StartV: 0
        EndT: 0
        EndV: 0
    - Value: 0
      _Time: 20
      _ValueType: 1
      _Curve:
        Type: 0
        StartT: 0
        StartV: 0
        EndT: 0
        EndV: 0
    - Value: 0
      _Time: 40
      _ValueType: 1
      _Curve:
        Type: 0
        StartT: 0
        StartV: 0
        EndT: 0
        EndV: 0
    PartsColKeys: []
    PartsPalKeys: []
    VertexKeys: []
    UserKeys: []
    SoundKeys: []
    ImageOffsetXKeys: []
    ImageOffsetYKeys: []
    ImageOffsetWKeys: []
    ImageOffsetHKeys: []
    OriginOffsetXKeys: []
    OriginOffsetYKeys: []
    PosXValues:
    - _RefKeyIndex: -1
      _Value: -239
    PosYValues:
    - _RefKeyIndex: -1
      _Value: 345
    AngleValues:
    - _RefKeyIndex: -1
      _Value: 0
    ScaleXValues: []
    ScaleYValues: []
    TransValues:
    - _RefKeyIndex: -1
      _Value: 1
    - _RefKeyIndex: -1
      _Value: 0.965
    - _RefKeyIndex: -1
      _Value: 0.93
    - _RefKeyIndex: -1
      _Value: 0.895
    - _RefKeyIndex: -1
      _Value: 0.86
    - _RefKeyIndex: -1
      _Value: 0.825
    - _RefKeyIndex: -1
      _Value: 0.79
    - _RefKeyIndex: -1
      _Value: 0.755
    - _RefKeyIndex: -1
      _Value: 0.72
    - _RefKeyIndex: -1
      _Value: 0.685
    - _RefKeyIndex: -1
      _Value: 0.65
    - _RefKeyIndex: -1
      _Value: 0.615
    - _RefKeyIndex: -1
      _Value: 0.58
    - _RefKeyIndex: -1
      _Value: 0.545
    - _RefKeyIndex: -1
      _Value: 0.51
    - _RefKeyIndex: -1
      _Value: 0.47500002
    - _RefKeyIndex: -1
      _Value: 0.44
    - _RefKeyIndex: -1
      _Value: 0.405
    - _RefKeyIndex: -1
      _Value: 0.37000003
    - _RefKeyIndex: -1
      _Value: 0.335
    - _RefKeyIndex: -1
      _Value: 0.3
    - _RefKeyIndex: -1
      _Value: 0.335
    - _RefKeyIndex: -1
      _Value: 0.37
    - _RefKeyIndex: -1
      _Value: 0.405
    - _RefKeyIndex: -1
      _Value: 0.44
    - _RefKeyIndex: -1
      _Value: 0.47500002
    - _RefKeyIndex: -1
      _Value: 0.51
    - _RefKeyIndex: -1
      _Value: 0.545
    - _RefKeyIndex: -1
      _Value: 0.58
    - _RefKeyIndex: -1
      _Value: 0.615
    - _RefKeyIndex: -1
      _Value: 0.65
    - _RefKeyIndex: -1
      _Value: 0.685
    - _RefKeyIndex: -1
      _Value: 0.72
    - _RefKeyIndex: -1
      _Value: 0.755
    - _RefKeyIndex: -1
      _Value: 0.79
    - _RefKeyIndex: -1
      _Value: 0.825
    - _RefKeyIndex: -1
      _Value: 0.86
    - _RefKeyIndex: -1
      _Value: 0.89500004
    - _RefKeyIndex: -1
      _Value: 0.93
    - _RefKeyIndex: -1
      _Value: 0.965
    - _RefKeyIndex: 2
      _Value: 0
    PrioValues: []
    FlipHValues: []
    FlipVValues: []
    HideValues:
    - _RefKeyIndex: 0
      _Value: 0
    PartsColValues: []
    PartsPalValues: []
    VertexValues: []
    UserValues: []
    SoundValues: []
    ImageOffsetXValues: []
    ImageOffsetYValues: []
    ImageOffsetWValues: []
    ImageOffsetHValues: []
    OriginOffsetXValues: []
    OriginOffsetYValues: []
    _hasAttrFlags: 551
    HasTrancparency: 1
    FrameNum: 41
    imageFile:
      path: Assets/Resources/Atlas/F_Map01/F_Map01.png
      texture: {fileID: 2800000, guid: 9a4fd90e12f6c94478532a57b1db8072, type: 3}
      materials:
      - {fileID: 0}
      - {fileID: 0}
      - {fileID: 0}
      - {fileID: 0}
      - {fileID: 0}
      - {fileID: 2100000, guid: 0eb64c8f0ca87034c95863deeea6a2ac, type: 2}
      - {fileID: 0}
      - {fileID: 0}
      - {fileID: 0}
      - {fileID: 0}
      - {fileID: 0}
      - {fileID: 0}
      - {fileID: 0}
      - {fileID: 0}
      - {fileID: 0}
      - {fileID: 0}
      - {fileID: 0}
      - {fileID: 0}
      - {fileID: 0}
      - {fileID: 0}
      - {fileID: 0}
      - {fileID: 0}
      - {fileID: 0}
      - {fileID: 0}
      - {fileID: 0}
      - {fileID: 0}
      - {fileID: 0}
      - {fileID: 0}
      - {fileID: 0}
      - {fileID: 0}
      - {fileID: 0}
      - {fileID: 0}
      - {fileID: 0}
      - {fileID: 0}
      - {fileID: 0}
      - {fileID: 0}
      - {fileID: 0}
      - {fileID: 0}
      - {fileID: 0}
      - {fileID: 0}
      - {fileID: 0}
      - {fileID: 0}
      - {fileID: 0}
      - {fileID: 0}
      - {fileID: 0}
      - {fileID: 0}
      - {fileID: 0}
      - {fileID: 0}
      - {fileID: 0}
      - {fileID: 0}
      width: 2048
      height: 2048
      bpp: 0
    UVs:
    - {x: 0.89746094, y: 0.13769531}
    - {x: 0.9213867, y: 0.13769531}
    - {x: 0.9213867, y: 0.109375}
    - {x: 0.89746094, y: 0.109375}
    OrgVertices:
    - {x: -24, y: 29, z: 0}
    - {x: 25, y: 29, z: 0}
    - {x: 25, y: -29, z: 0}
    - {x: -24, y: -29, z: 0}
  - AnimeRes: {fileID: 11400000}
    Name: red09
    Type: 0
    PicArea:
      Left: 1838
      Top: 1766
      Right: 1887
      Bottom: 1824
    OriginX: 24
    OriginY: 29
    MyId: 11
    ParentId: 0
    ChildNum: 0
    SrcObjId: 0
    SrcObjType: 0
    AlphaBlendType: 1
    InheritState:
      Type: 0
      Values:
      - Use: 1
        Rate: 1
      - Use: 1
        Rate: 1
      - Use: 1
        Rate: 1
      - Use: 1
        Rate: 1
      - Use: 1
        Rate: 1
      - Use: 1
        Rate: 1
      - Use: 1
        Rate: 1
      - Use: 0
        Rate: 0
      - Use: 0
        Rate: 0
      - Use: 0
        Rate: 0
      - Use: 1
        Rate: 1
      - Use: 1
        Rate: 1
      - Use: 1
        Rate: 1
      - Use: 1
        Rate: 1
      - Use: 1
        Rate: 1
      - Use: 1
        Rate: 1
      - Use: 1
        Rate: 1
      - Use: 1
        Rate: 1
      - Use: 1
        Rate: 1
      - Use: 1
        Rate: 1
      - Use: 1
        Rate: 1
    PosXKeys:
    - Value: -374
      _Time: 0
      _ValueType: 0
      _Curve:
        Type: 1
        StartT: 0
        StartV: 0
        EndT: 0
        EndV: 0
    - Value: -374
      _Time: 20
      _ValueType: 0
      _Curve:
        Type: 1
        StartT: 0
        StartV: 0
        EndT: 0
        EndV: 0
    - Value: -374
      _Time: 40
      _ValueType: 0
      _Curve:
        Type: 1
        StartT: 0
        StartV: 0
        EndT: 0
        EndV: 0
    PosYKeys:
    - Value: 423
      _Time: 0
      _ValueType: 0
      _Curve:
        Type: 1
        StartT: 0
        StartV: 0
        EndT: 0
        EndV: 0
    - Value: 423
      _Time: 20
      _ValueType: 0
      _Curve:
        Type: 1
        StartT: 0
        StartV: 0
        EndT: 0
        EndV: 0
    - Value: 423
      _Time: 40
      _ValueType: 0
      _Curve:
        Type: 1
        StartT: 0
        StartV: 0
        EndT: 0
        EndV: 0
    AngleKeys:
    - Value: 0
      _Time: 0
      _ValueType: 0
      _Curve:
        Type: 1
        StartT: 0
        StartV: 0
        EndT: 0
        EndV: 0
    - Value: 0
      _Time: 40
      _ValueType: 0
      _Curve:
        Type: 1
        StartT: 0
        StartV: 0
        EndT: 0
        EndV: 0
    ScaleXKeys: []
    ScaleYKeys: []
    TransKeys:
    - Value: 1
      _Time: 0
      _ValueType: 0
      _Curve:
        Type: 1
        StartT: 0
        StartV: 0
        EndT: 0
        EndV: 0
    - Value: 0.3
      _Time: 20
      _ValueType: 0
      _Curve:
        Type: 1
        StartT: 0
        StartV: 0
        EndT: 0
        EndV: 0
    - Value: 1
      _Time: 40
      _ValueType: 0
      _Curve:
        Type: 1
        StartT: 0
        StartV: 0
        EndT: 0
        EndV: 0
    PrioKeys: []
    FlipHKeys: []
    FlipVKeys: []
    HideKeys:
    - Value: 0
      _Time: 0
      _ValueType: 1
      _Curve:
        Type: 0
        StartT: 0
        StartV: 0
        EndT: 0
        EndV: 0
    - Value: 0
      _Time: 20
      _ValueType: 1
      _Curve:
        Type: 0
        StartT: 0
        StartV: 0
        EndT: 0
        EndV: 0
    - Value: 0
      _Time: 40
      _ValueType: 1
      _Curve:
        Type: 0
        StartT: 0
        StartV: 0
        EndT: 0
        EndV: 0
    PartsColKeys: []
    PartsPalKeys: []
    VertexKeys: []
    UserKeys: []
    SoundKeys: []
    ImageOffsetXKeys: []
    ImageOffsetYKeys: []
    ImageOffsetWKeys: []
    ImageOffsetHKeys: []
    OriginOffsetXKeys: []
    OriginOffsetYKeys: []
    PosXValues:
    - _RefKeyIndex: -1
      _Value: -374
    PosYValues:
    - _RefKeyIndex: -1
      _Value: 423
    AngleValues:
    - _RefKeyIndex: -1
      _Value: 0
    ScaleXValues: []
    ScaleYValues: []
    TransValues:
    - _RefKeyIndex: -1
      _Value: 1
    - _RefKeyIndex: -1
      _Value: 0.965
    - _RefKeyIndex: -1
      _Value: 0.93
    - _RefKeyIndex: -1
      _Value: 0.895
    - _RefKeyIndex: -1
      _Value: 0.86
    - _RefKeyIndex: -1
      _Value: 0.825
    - _RefKeyIndex: -1
      _Value: 0.79
    - _RefKeyIndex: -1
      _Value: 0.755
    - _RefKeyIndex: -1
      _Value: 0.72
    - _RefKeyIndex: -1
      _Value: 0.685
    - _RefKeyIndex: -1
      _Value: 0.65
    - _RefKeyIndex: -1
      _Value: 0.615
    - _RefKeyIndex: -1
      _Value: 0.58
    - _RefKeyIndex: -1
      _Value: 0.545
    - _RefKeyIndex: -1
      _Value: 0.51
    - _RefKeyIndex: -1
      _Value: 0.47500002
    - _RefKeyIndex: -1
      _Value: 0.44
    - _RefKeyIndex: -1
      _Value: 0.405
    - _RefKeyIndex: -1
      _Value: 0.37000003
    - _RefKeyIndex: -1
      _Value: 0.335
    - _RefKeyIndex: -1
      _Value: 0.3
    - _RefKeyIndex: -1
      _Value: 0.335
    - _RefKeyIndex: -1
      _Value: 0.37
    - _RefKeyIndex: -1
      _Value: 0.405
    - _RefKeyIndex: -1
      _Value: 0.44
    - _RefKeyIndex: -1
      _Value: 0.47500002
    - _RefKeyIndex: -1
      _Value: 0.51
    - _RefKeyIndex: -1
      _Value: 0.545
    - _RefKeyIndex: -1
      _Value: 0.58
    - _RefKeyIndex: -1
      _Value: 0.615
    - _RefKeyIndex: -1
      _Value: 0.65
    - _RefKeyIndex: -1
      _Value: 0.685
    - _RefKeyIndex: -1
      _Value: 0.72
    - _RefKeyIndex: -1
      _Value: 0.755
    - _RefKeyIndex: -1
      _Value: 0.79
    - _RefKeyIndex: -1
      _Value: 0.825
    - _RefKeyIndex: -1
      _Value: 0.86
    - _RefKeyIndex: -1
      _Value: 0.89500004
    - _RefKeyIndex: -1
      _Value: 0.93
    - _RefKeyIndex: -1
      _Value: 0.965
    - _RefKeyIndex: 2
      _Value: 0
    PrioValues: []
    FlipHValues: []
    FlipVValues: []
    HideValues:
    - _RefKeyIndex: 0
      _Value: 0
    PartsColValues: []
    PartsPalValues: []
    VertexValues: []
    UserValues: []
    SoundValues: []
    ImageOffsetXValues: []
    ImageOffsetYValues: []
    ImageOffsetWValues: []
    ImageOffsetHValues: []
    OriginOffsetXValues: []
    OriginOffsetYValues: []
    _hasAttrFlags: 551
    HasTrancparency: 1
    FrameNum: 41
    imageFile:
      path: Assets/Resources/Atlas/F_Map01/F_Map01.png
      texture: {fileID: 2800000, guid: 9a4fd90e12f6c94478532a57b1db8072, type: 3}
      materials:
      - {fileID: 0}
      - {fileID: 0}
      - {fileID: 0}
      - {fileID: 0}
      - {fileID: 0}
      - {fileID: 2100000, guid: 0eb64c8f0ca87034c95863deeea6a2ac, type: 2}
      - {fileID: 0}
      - {fileID: 0}
      - {fileID: 0}
      - {fileID: 0}
      - {fileID: 0}
      - {fileID: 0}
      - {fileID: 0}
      - {fileID: 0}
      - {fileID: 0}
      - {fileID: 0}
      - {fileID: 0}
      - {fileID: 0}
      - {fileID: 0}
      - {fileID: 0}
      - {fileID: 0}
      - {fileID: 0}
      - {fileID: 0}
      - {fileID: 0}
      - {fileID: 0}
      - {fileID: 0}
      - {fileID: 0}
      - {fileID: 0}
      - {fileID: 0}
      - {fileID: 0}
      - {fileID: 0}
      - {fileID: 0}
      - {fileID: 0}
      - {fileID: 0}
      - {fileID: 0}
      - {fileID: 0}
      - {fileID: 0}
      - {fileID: 0}
      - {fileID: 0}
      - {fileID: 0}
      - {fileID: 0}
      - {fileID: 0}
      - {fileID: 0}
      - {fileID: 0}
      - {fileID: 0}
      - {fileID: 0}
      - {fileID: 0}
      - {fileID: 0}
      - {fileID: 0}
      - {fileID: 0}
      width: 2048
      height: 2048
      bpp: 0
    UVs:
    - {x: 0.89746094, y: 0.13769531}
    - {x: 0.9213867, y: 0.13769531}
    - {x: 0.9213867, y: 0.109375}
    - {x: 0.89746094, y: 0.109375}
    OrgVertices:
    - {x: -24, y: 29, z: 0}
    - {x: 25, y: 29, z: 0}
    - {x: 25, y: -29, z: 0}
    - {x: -24, y: -29, z: 0}
  - AnimeRes: {fileID: 11400000}
    Name: red10
    Type: 0
    PicArea:
      Left: 1838
      Top: 1766
      Right: 1887
      Bottom: 1824
    OriginX: 24
    OriginY: 29
    MyId: 12
    ParentId: 0
    ChildNum: 0
    SrcObjId: 0
    SrcObjType: 0
    AlphaBlendType: 1
    InheritState:
      Type: 0
      Values:
      - Use: 1
        Rate: 1
      - Use: 1
        Rate: 1
      - Use: 1
        Rate: 1
      - Use: 1
        Rate: 1
      - Use: 1
        Rate: 1
      - Use: 1
        Rate: 1
      - Use: 1
        Rate: 1
      - Use: 0
        Rate: 0
      - Use: 0
        Rate: 0
      - Use: 0
        Rate: 0
      - Use: 1
        Rate: 1
      - Use: 1
        Rate: 1
      - Use: 1
        Rate: 1
      - Use: 1
        Rate: 1
      - Use: 1
        Rate: 1
      - Use: 1
        Rate: 1
      - Use: 1
        Rate: 1
      - Use: 1
        Rate: 1
      - Use: 1
        Rate: 1
      - Use: 1
        Rate: 1
      - Use: 1
        Rate: 1
    PosXKeys:
    - Value: 125
      _Time: 0
      _ValueType: 0
      _Curve:
        Type: 1
        StartT: 0
        StartV: 0
        EndT: 0
        EndV: 0
    - Value: 125
      _Time: 20
      _ValueType: 0
      _Curve:
        Type: 1
        StartT: 0
        StartV: 0
        EndT: 0
        EndV: 0
    - Value: 125
      _Time: 40
      _ValueType: 0
      _Curve:
        Type: 1
        StartT: 0
        StartV: 0
        EndT: 0
        EndV: 0
    PosYKeys:
    - Value: 425
      _Time: 0
      _ValueType: 0
      _Curve:
        Type: 1
        StartT: 0
        StartV: 0
        EndT: 0
        EndV: 0
    - Value: 425
      _Time: 20
      _ValueType: 0
      _Curve:
        Type: 1
        StartT: 0
        StartV: 0
        EndT: 0
        EndV: 0
    - Value: 425
      _Time: 40
      _ValueType: 0
      _Curve:
        Type: 1
        StartT: 0
        StartV: 0
        EndT: 0
        EndV: 0
    AngleKeys:
    - Value: 0
      _Time: 0
      _ValueType: 0
      _Curve:
        Type: 1
        StartT: 0
        StartV: 0
        EndT: 0
        EndV: 0
    - Value: 0
      _Time: 40
      _ValueType: 0
      _Curve:
        Type: 1
        StartT: 0
        StartV: 0
        EndT: 0
        EndV: 0
    ScaleXKeys: []
    ScaleYKeys: []
    TransKeys:
    - Value: 1
      _Time: 0
      _ValueType: 0
      _Curve:
        Type: 1
        StartT: 0
        StartV: 0
        EndT: 0
        EndV: 0
    - Value: 0.3
      _Time: 20
      _ValueType: 0
      _Curve:
        Type: 1
        StartT: 0
        StartV: 0
        EndT: 0
        EndV: 0
    - Value: 1
      _Time: 40
      _ValueType: 0
      _Curve:
        Type: 1
        StartT: 0
        StartV: 0
        EndT: 0
        EndV: 0
    PrioKeys: []
    FlipHKeys: []
    FlipVKeys: []
    HideKeys:
    - Value: 0
      _Time: 0
      _ValueType: 1
      _Curve:
        Type: 0
        StartT: 0
        StartV: 0
        EndT: 0
        EndV: 0
    - Value: 0
      _Time: 20
      _ValueType: 1
      _Curve:
        Type: 0
        StartT: 0
        StartV: 0
        EndT: 0
        EndV: 0
    - Value: 0
      _Time: 40
      _ValueType: 1
      _Curve:
        Type: 0
        StartT: 0
        StartV: 0
        EndT: 0
        EndV: 0
    PartsColKeys: []
    PartsPalKeys: []
    VertexKeys: []
    UserKeys: []
    SoundKeys: []
    ImageOffsetXKeys: []
    ImageOffsetYKeys: []
    ImageOffsetWKeys: []
    ImageOffsetHKeys: []
    OriginOffsetXKeys: []
    OriginOffsetYKeys: []
    PosXValues:
    - _RefKeyIndex: -1
      _Value: 125
    PosYValues:
    - _RefKeyIndex: -1
      _Value: 425
    AngleValues:
    - _RefKeyIndex: -1
      _Value: 0
    ScaleXValues: []
    ScaleYValues: []
    TransValues:
    - _RefKeyIndex: -1
      _Value: 1
    - _RefKeyIndex: -1
      _Value: 0.965
    - _RefKeyIndex: -1
      _Value: 0.93
    - _RefKeyIndex: -1
      _Value: 0.895
    - _RefKeyIndex: -1
      _Value: 0.86
    - _RefKeyIndex: -1
      _Value: 0.825
    - _RefKeyIndex: -1
      _Value: 0.79
    - _RefKeyIndex: -1
      _Value: 0.755
    - _RefKeyIndex: -1
      _Value: 0.72
    - _RefKeyIndex: -1
      _Value: 0.685
    - _RefKeyIndex: -1
      _Value: 0.65
    - _RefKeyIndex: -1
      _Value: 0.615
    - _RefKeyIndex: -1
      _Value: 0.58
    - _RefKeyIndex: -1
      _Value: 0.545
    - _RefKeyIndex: -1
      _Value: 0.51
    - _RefKeyIndex: -1
      _Value: 0.47500002
    - _RefKeyIndex: -1
      _Value: 0.44
    - _RefKeyIndex: -1
      _Value: 0.405
    - _RefKeyIndex: -1
      _Value: 0.37000003
    - _RefKeyIndex: -1
      _Value: 0.335
    - _RefKeyIndex: -1
      _Value: 0.3
    - _RefKeyIndex: -1
      _Value: 0.335
    - _RefKeyIndex: -1
      _Value: 0.37
    - _RefKeyIndex: -1
      _Value: 0.405
    - _RefKeyIndex: -1
      _Value: 0.44
    - _RefKeyIndex: -1
      _Value: 0.47500002
    - _RefKeyIndex: -1
      _Value: 0.51
    - _RefKeyIndex: -1
      _Value: 0.545
    - _RefKeyIndex: -1
      _Value: 0.58
    - _RefKeyIndex: -1
      _Value: 0.615
    - _RefKeyIndex: -1
      _Value: 0.65
    - _RefKeyIndex: -1
      _Value: 0.685
    - _RefKeyIndex: -1
      _Value: 0.72
    - _RefKeyIndex: -1
      _Value: 0.755
    - _RefKeyIndex: -1
      _Value: 0.79
    - _RefKeyIndex: -1
      _Value: 0.825
    - _RefKeyIndex: -1
      _Value: 0.86
    - _RefKeyIndex: -1
      _Value: 0.89500004
    - _RefKeyIndex: -1
      _Value: 0.93
    - _RefKeyIndex: -1
      _Value: 0.965
    - _RefKeyIndex: 2
      _Value: 0
    PrioValues: []
    FlipHValues: []
    FlipVValues: []
    HideValues:
    - _RefKeyIndex: 0
      _Value: 0
    PartsColValues: []
    PartsPalValues: []
    VertexValues: []
    UserValues: []
    SoundValues: []
    ImageOffsetXValues: []
    ImageOffsetYValues: []
    ImageOffsetWValues: []
    ImageOffsetHValues: []
    OriginOffsetXValues: []
    OriginOffsetYValues: []
    _hasAttrFlags: 551
    HasTrancparency: 1
    FrameNum: 41
    imageFile:
      path: Assets/Resources/Atlas/F_Map01/F_Map01.png
      texture: {fileID: 2800000, guid: 9a4fd90e12f6c94478532a57b1db8072, type: 3}
      materials:
      - {fileID: 0}
      - {fileID: 0}
      - {fileID: 0}
      - {fileID: 0}
      - {fileID: 0}
      - {fileID: 2100000, guid: 0eb64c8f0ca87034c95863deeea6a2ac, type: 2}
      - {fileID: 0}
      - {fileID: 0}
      - {fileID: 0}
      - {fileID: 0}
      - {fileID: 0}
      - {fileID: 0}
      - {fileID: 0}
      - {fileID: 0}
      - {fileID: 0}
      - {fileID: 0}
      - {fileID: 0}
      - {fileID: 0}
      - {fileID: 0}
      - {fileID: 0}
      - {fileID: 0}
      - {fileID: 0}
      - {fileID: 0}
      - {fileID: 0}
      - {fileID: 0}
      - {fileID: 0}
      - {fileID: 0}
      - {fileID: 0}
      - {fileID: 0}
      - {fileID: 0}
      - {fileID: 0}
      - {fileID: 0}
      - {fileID: 0}
      - {fileID: 0}
      - {fileID: 0}
      - {fileID: 0}
      - {fileID: 0}
      - {fileID: 0}
      - {fileID: 0}
      - {fileID: 0}
      - {fileID: 0}
      - {fileID: 0}
      - {fileID: 0}
      - {fileID: 0}
      - {fileID: 0}
      - {fileID: 0}
      - {fileID: 0}
      - {fileID: 0}
      - {fileID: 0}
      - {fileID: 0}
      width: 2048
      height: 2048
      bpp: 0
    UVs:
    - {x: 0.89746094, y: 0.13769531}
    - {x: 0.9213867, y: 0.13769531}
    - {x: 0.9213867, y: 0.109375}
    - {x: 0.89746094, y: 0.109375}
    OrgVertices:
    - {x: -24, y: 29, z: 0}
    - {x: 25, y: 29, z: 0}
    - {x: 25, y: -29, z: 0}
    - {x: -24, y: -29, z: 0}
  ImportedTime: -1458045378
  ImportedTimeHigh: -1999323430
