%YAML 1.1
%TAG !u! tag:unity3d.com,2011:
--- !u!114 &11400000
MonoBehaviour:
  m_ObjectHideFlags: 0
  m_PrefabParentObject: {fileID: 0}
  m_PrefabInternal: {fileID: 0}
  m_GameObject: {fileID: 0}
  m_Enabled: 1
  m_EditorHideFlags: 0
  m_Script: {fileID: 11500000, guid: 0ae895f3348548989f1b4caf6cca149f, type: 3}
  m_Name: obj_suzumeG_anim_ssa
  m_EditorClassIdentifier:
  OriginalPath: Assets/Resources/Atlas/F_Map01/obj_suzumeG_anim.ssax
  UseScaleFactor: 0
  ScaleFactor: 1
  FPS: 30
  EndFrame: 40
  hvFlipForImageOnly: 1
  ImageList:
  - path: Assets/Resources/Atlas/F_Map01/F_Map01.png
    texture: {fileID: 2800000, guid: 9a4fd90e12f6c94478532a57b1db8072, type: 3}
    materials:
    - {fileID: 0}
    - {fileID: 0}
    - {fileID: 0}
    - {fileID: 0}
    - {fileID: 0}
    - {fileID: 2100000, guid: 0eb64c8f0ca87034c95863deeea6a2ac, type: 2}
    - {fileID: 0}
    - {fileID: 0}
    - {fileID: 0}
    - {fileID: 0}
    - {fileID: 0}
    - {fileID: 0}
    - {fileID: 0}
    - {fileID: 0}
    - {fileID: 0}
    - {fileID: 0}
    - {fileID: 0}
    - {fileID: 0}
    - {fileID: 0}
    - {fileID: 0}
    - {fileID: 0}
    - {fileID: 0}
    - {fileID: 0}
    - {fileID: 0}
    - {fileID: 0}
    - {fileID: 0}
    - {fileID: 0}
    - {fileID: 0}
    - {fileID: 0}
    - {fileID: 0}
    - {fileID: 0}
    - {fileID: 0}
    - {fileID: 0}
    - {fileID: 0}
    - {fileID: 0}
    - {fileID: 0}
    - {fileID: 0}
    - {fileID: 0}
    - {fileID: 0}
    - {fileID: 0}
    - {fileID: 0}
    - {fileID: 0}
    - {fileID: 0}
    - {fileID: 0}
    - {fileID: 0}
    - {fileID: 0}
    - {fileID: 0}
    - {fileID: 0}
    - {fileID: 0}
    - {fileID: 0}
    width: 2048
    height: 2048
    bpp: 0
  PartList:
  - AnimeRes: {fileID: 11400000}
    Name: root
    Type: 1
    PicArea:
      Left: 0
      Top: 0
      Right: 0
      Bottom: 0
    OriginX: 0
    OriginY: 0
    MyId: 0
    ParentId: -1
    ChildNum: 0
    SrcObjId: 0
    SrcObjType: 0
    AlphaBlendType: 0
    InheritState:
      Type: 0
      Values:
      - Use: 1
        Rate: 1
      - Use: 1
        Rate: 1
      - Use: 1
        Rate: 1
      - Use: 1
        Rate: 1
      - Use: 1
        Rate: 1
      - Use: 1
        Rate: 1
      - Use: 1
        Rate: 1
      - Use: 0
        Rate: 0
      - Use: 0
        Rate: 0
      - Use: 0
        Rate: 0
      - Use: 1
        Rate: 1
      - Use: 1
        Rate: 1
      - Use: 1
        Rate: 1
      - Use: 1
        Rate: 1
      - Use: 1
        Rate: 1
      - Use: 1
        Rate: 1
      - Use: 1
        Rate: 1
      - Use: 1
        Rate: 1
      - Use: 1
        Rate: 1
      - Use: 1
        Rate: 1
      - Use: 1
        Rate: 1
    PosXKeys: []
    PosYKeys: []
    AngleKeys: []
    ScaleXKeys: []
    ScaleYKeys: []
    TransKeys: []
    PrioKeys: []
    FlipHKeys: []
    FlipVKeys: []
    HideKeys:
    - Value: 0
      _Time: 0
      _ValueType: 1
      _Curve:
        Type: 0
        StartT: 0
        StartV: 0
        EndT: 0
        EndV: 0
    PartsColKeys: []
    PartsPalKeys: []
    VertexKeys: []
    UserKeys: []
    SoundKeys: []
    ImageOffsetXKeys: []
    ImageOffsetYKeys: []
    ImageOffsetWKeys: []
    ImageOffsetHKeys: []
    OriginOffsetXKeys: []
    OriginOffsetYKeys: []
    PosXValues: []
    PosYValues: []
    AngleValues: []
    ScaleXValues: []
    ScaleYValues: []
    TransValues: []
    PrioValues: []
    FlipHValues: []
    FlipVValues: []
    HideValues:
    - _RefKeyIndex: 0
      _Value: 0
    - _RefKeyIndex: 0
      _Value: 0
    - _RefKeyIndex: 0
      _Value: 0
    - _RefKeyIndex: 0
      _Value: 0
    - _RefKeyIndex: 0
      _Value: 0
    - _RefKeyIndex: 0
      _Value: 0
    - _RefKeyIndex: 0
      _Value: 0
    - _RefKeyIndex: 0
      _Value: 0
    - _RefKeyIndex: 0
      _Value: 0
    - _RefKeyIndex: 0
      _Value: 0
    - _RefKeyIndex: 0
      _Value: 0
    - _RefKeyIndex: 0
      _Value: 0
    - _RefKeyIndex: 0
      _Value: 0
    - _RefKeyIndex: 0
      _Value: 0
    - _RefKeyIndex: 0
      _Value: 0
    - _RefKeyIndex: 0
      _Value: 0
    - _RefKeyIndex: 0
      _Value: 0
    - _RefKeyIndex: 0
      _Value: 0
    - _RefKeyIndex: 0
      _Value: 0
    - _RefKeyIndex: 0
      _Value: 0
    - _RefKeyIndex: 0
      _Value: 0
    - _RefKeyIndex: 0
      _Value: 0
    - _RefKeyIndex: 0
      _Value: 0
    - _RefKeyIndex: 0
      _Value: 0
    - _RefKeyIndex: 0
      _Value: 0
    - _RefKeyIndex: 0
      _Value: 0
    - _RefKeyIndex: 0
      _Value: 0
    - _RefKeyIndex: 0
      _Value: 0
    - _RefKeyIndex: 0
      _Value: 0
    - _RefKeyIndex: 0
      _Value: 0
    - _RefKeyIndex: 0
      _Value: 0
    - _RefKeyIndex: 0
      _Value: 0
    - _RefKeyIndex: 0
      _Value: 0
    - _RefKeyIndex: 0
      _Value: 0
    - _RefKeyIndex: 0
      _Value: 0
    - _RefKeyIndex: 0
      _Value: 0
    - _RefKeyIndex: 0
      _Value: 0
    - _RefKeyIndex: 0
      _Value: 0
    - _RefKeyIndex: 0
      _Value: 0
    - _RefKeyIndex: 0
      _Value: 0
    - _RefKeyIndex: 0
      _Value: 0
    PartsColValues: []
    PartsPalValues: []
    VertexValues: []
    UserValues: []
    SoundValues: []
    ImageOffsetXValues: []
    ImageOffsetYValues: []
    ImageOffsetWValues: []
    ImageOffsetHValues: []
    OriginOffsetXValues: []
    OriginOffsetYValues: []
    _hasAttrFlags: 512
    HasTrancparency: 0
    FrameNum: 41
    imageFile:
      path:
      texture: {fileID: 0}
      materials: []
      width: 0
      height: 0
      bpp: 0
    UVs: []
    OrgVertices:
    - {x: -0, y: 0, z: 0}
    - {x: 0, y: 0, z: 0}
    - {x: 0, y: -0, z: 0}
    - {x: -0, y: -0, z: 0}
  - AnimeRes: {fileID: 11400000}
    Name: map
    Type: 3
    PicArea:
      Left: 1838
      Top: 1893
      Right: 1839
      Bottom: 1894
    OriginX: 0
    OriginY: 0
    MyId: 1
    ParentId: 0
    ChildNum: 0
    SrcObjId: 0
    SrcObjType: 0
    AlphaBlendType: 1
    InheritState:
      Type: 0
      Values:
      - Use: 1
        Rate: 1
      - Use: 1
        Rate: 1
      - Use: 1
        Rate: 1
      - Use: 1
        Rate: 1
      - Use: 1
        Rate: 1
      - Use: 1
        Rate: 1
      - Use: 1
        Rate: 1
      - Use: 0
        Rate: 0
      - Use: 0
        Rate: 0
      - Use: 0
        Rate: 0
      - Use: 1
        Rate: 1
      - Use: 1
        Rate: 1
      - Use: 1
        Rate: 1
      - Use: 1
        Rate: 1
      - Use: 1
        Rate: 1
      - Use: 1
        Rate: 1
      - Use: 1
        Rate: 1
      - Use: 1
        Rate: 1
      - Use: 1
        Rate: 1
      - Use: 1
        Rate: 1
      - Use: 1
        Rate: 1
    PosXKeys: []
    PosYKeys: []
    AngleKeys: []
    ScaleXKeys: []
    ScaleYKeys: []
    TransKeys: []
    PrioKeys: []
    FlipHKeys: []
    FlipVKeys: []
    HideKeys: []
    PartsColKeys: []
    PartsPalKeys: []
    VertexKeys: []
    UserKeys: []
    SoundKeys: []
    ImageOffsetXKeys: []
    ImageOffsetYKeys: []
    ImageOffsetWKeys: []
    ImageOffsetHKeys: []
    OriginOffsetXKeys: []
    OriginOffsetYKeys: []
    PosXValues: []
    PosYValues: []
    AngleValues: []
    ScaleXValues: []
    ScaleYValues: []
    TransValues: []
    PrioValues: []
    FlipHValues: []
    FlipVValues: []
    HideValues: []
    PartsColValues: []
    PartsPalValues: []
    VertexValues: []
    UserValues: []
    SoundValues: []
    ImageOffsetXValues: []
    ImageOffsetYValues: []
    ImageOffsetWValues: []
    ImageOffsetHValues: []
    OriginOffsetXValues: []
    OriginOffsetYValues: []
    _hasAttrFlags: 0
    HasTrancparency: 0
    FrameNum: 41
    imageFile:
      path: Assets/Resources/Atlas/F_Map01/F_Map01.png
      texture: {fileID: 2800000, guid: 9a4fd90e12f6c94478532a57b1db8072, type: 3}
      materials:
      - {fileID: 0}
      - {fileID: 0}
      - {fileID: 0}
      - {fileID: 0}
      - {fileID: 0}
      - {fileID: 2100000, guid: 0eb64c8f0ca87034c95863deeea6a2ac, type: 2}
      - {fileID: 0}
      - {fileID: 0}
      - {fileID: 0}
      - {fileID: 0}
      - {fileID: 0}
      - {fileID: 0}
      - {fileID: 0}
      - {fileID: 0}
      - {fileID: 0}
      - {fileID: 0}
      - {fileID: 0}
      - {fileID: 0}
      - {fileID: 0}
      - {fileID: 0}
      - {fileID: 0}
      - {fileID: 0}
      - {fileID: 0}
      - {fileID: 0}
      - {fileID: 0}
      - {fileID: 0}
      - {fileID: 0}
      - {fileID: 0}
      - {fileID: 0}
      - {fileID: 0}
      - {fileID: 0}
      - {fileID: 0}
      - {fileID: 0}
      - {fileID: 0}
      - {fileID: 0}
      - {fileID: 0}
      - {fileID: 0}
      - {fileID: 0}
      - {fileID: 0}
      - {fileID: 0}
      - {fileID: 0}
      - {fileID: 0}
      - {fileID: 0}
      - {fileID: 0}
      - {fileID: 0}
      - {fileID: 0}
      - {fileID: 0}
      - {fileID: 0}
      - {fileID: 0}
      - {fileID: 0}
      width: 2048
      height: 2048
      bpp: 0
    UVs: []
    OrgVertices:
    - {x: -0, y: 0, z: 0}
    - {x: 1, y: 0, z: 0}
    - {x: 1, y: -1, z: 0}
    - {x: -0, y: -1, z: 0}
  - AnimeRes: {fileID: 11400000}
    Name: suzume
    Type: 0
    PicArea:
      Left: 1838
      Top: 1893
      Right: 1890
      Bottom: 1941
    OriginX: 26
    OriginY: 24
    MyId: 2
    ParentId: 0
    ChildNum: 0
    SrcObjId: 0
    SrcObjType: 0
    AlphaBlendType: 1
    InheritState:
      Type: 0
      Values:
      - Use: 1
        Rate: 1
      - Use: 1
        Rate: 1
      - Use: 1
        Rate: 1
      - Use: 1
        Rate: 1
      - Use: 1
        Rate: 1
      - Use: 1
        Rate: 1
      - Use: 1
        Rate: 1
      - Use: 0
        Rate: 0
      - Use: 0
        Rate: 0
      - Use: 0
        Rate: 0
      - Use: 1
        Rate: 1
      - Use: 1
        Rate: 1
      - Use: 1
        Rate: 1
      - Use: 1
        Rate: 1
      - Use: 1
        Rate: 1
      - Use: 1
        Rate: 1
      - Use: 1
        Rate: 1
      - Use: 1
        Rate: 1
      - Use: 1
        Rate: 1
      - Use: 1
        Rate: 1
      - Use: 1
        Rate: 1
    PosXKeys:
    - Value: -162
      _Time: 0
      _ValueType: 0
      _Curve:
        Type: 1
        StartT: 0
        StartV: 0
        EndT: 0
        EndV: 0
    - Value: -162
      _Time: 40
      _ValueType: 0
      _Curve:
        Type: 1
        StartT: 0
        StartV: 0
        EndT: 0
        EndV: 0
    PosYKeys:
    - Value: 251
      _Time: 0
      _ValueType: 0
      _Curve:
        Type: 1
        StartT: 0
        StartV: 0
        EndT: 0
        EndV: 0
    - Value: 251
      _Time: 40
      _ValueType: 0
      _Curve:
        Type: 1
        StartT: 0
        StartV: 0
        EndT: 0
        EndV: 0
    AngleKeys:
    - Value: 0
      _Time: 0
      _ValueType: 0
      _Curve:
        Type: 1
        StartT: 0
        StartV: 0
        EndT: 0
        EndV: 0
    - Value: 3
      _Time: 3
      _ValueType: 0
      _Curve:
        Type: 1
        StartT: 0
        StartV: 0
        EndT: 0
        EndV: 0
    - Value: 0
      _Time: 6
      _ValueType: 0
      _Curve:
        Type: 1
        StartT: 0
        StartV: 0
        EndT: 0
        EndV: 0
    - Value: 0
      _Time: 17
      _ValueType: 0
      _Curve:
        Type: 1
        StartT: 0
        StartV: 0
        EndT: 0
        EndV: 0
    - Value: 3
      _Time: 20
      _ValueType: 0
      _Curve:
        Type: 1
        StartT: 0
        StartV: 0
        EndT: 0
        EndV: 0
    - Value: 0
      _Time: 23
      _ValueType: 0
      _Curve:
        Type: 1
        StartT: 0
        StartV: 0
        EndT: 0
        EndV: 0
    - Value: 3
      _Time: 26
      _ValueType: 0
      _Curve:
        Type: 1
        StartT: 0
        StartV: 0
        EndT: 0
        EndV: 0
    - Value: 0
      _Time: 29
      _ValueType: 0
      _Curve:
        Type: 1
        StartT: 0
        StartV: 0
        EndT: 0
        EndV: 0
    - Value: 0
      _Time: 40
      _ValueType: 0
      _Curve:
        Type: 1
        StartT: 0
        StartV: 0
        EndT: 0
        EndV: 0
    ScaleXKeys:
    - Value: 0.6
      _Time: 0
      _ValueType: 0
      _Curve:
        Type: 1
        StartT: 0
        StartV: 0
        EndT: 0
        EndV: 0
    - Value: 0.6
      _Time: 40
      _ValueType: 0
      _Curve:
        Type: 1
        StartT: 0
        StartV: 0
        EndT: 0
        EndV: 0
    ScaleYKeys:
    - Value: 0.6
      _Time: 0
      _ValueType: 0
      _Curve:
        Type: 1
        StartT: 0
        StartV: 0
        EndT: 0
        EndV: 0
    - Value: 0.6
      _Time: 40
      _ValueType: 0
      _Curve:
        Type: 1
        StartT: 0
        StartV: 0
        EndT: 0
        EndV: 0
    TransKeys: []
    PrioKeys: []
    FlipHKeys: []
    FlipVKeys: []
    HideKeys:
    - Value: 0
      _Time: 0
      _ValueType: 1
      _Curve:
        Type: 0
        StartT: 0
        StartV: 0
        EndT: 0
        EndV: 0
    - Value: 0
      _Time: 40
      _ValueType: 1
      _Curve:
        Type: 0
        StartT: 0
        StartV: 0
        EndT: 0
        EndV: 0
    PartsColKeys: []
    PartsPalKeys: []
    VertexKeys: []
    UserKeys: []
    SoundKeys: []
    ImageOffsetXKeys: []
    ImageOffsetYKeys: []
    ImageOffsetWKeys: []
    ImageOffsetHKeys: []
    OriginOffsetXKeys:
    - Value: -10
      _Time: 0
      _ValueType: 0
      _Curve:
        Type: 1
        StartT: 0
        StartV: 0
        EndT: 0
        EndV: 0
    - Value: -10
      _Time: 40
      _ValueType: 0
      _Curve:
        Type: 1
        StartT: 0
        StartV: 0
        EndT: 0
        EndV: 0
    OriginOffsetYKeys:
    - Value: 14
      _Time: 0
      _ValueType: 0
      _Curve:
        Type: 1
        StartT: 0
        StartV: 0
        EndT: 0
        EndV: 0
    - Value: 14
      _Time: 40
      _ValueType: 0
      _Curve:
        Type: 1
        StartT: 0
        StartV: 0
        EndT: 0
        EndV: 0
    PosXValues:
    - _RefKeyIndex: -1
      _Value: -162
    PosYValues:
    - _RefKeyIndex: -1
      _Value: 251
    AngleValues:
    - _RefKeyIndex: -1
      _Value: 0
    - _RefKeyIndex: -1
      _Value: 1
    - _RefKeyIndex: -1
      _Value: 2
    - _RefKeyIndex: -1
      _Value: 3
    - _RefKeyIndex: -1
      _Value: 2
    - _RefKeyIndex: -1
      _Value: 0.99999994
    - _RefKeyIndex: -1
      _Value: 0
    - _RefKeyIndex: -1
      _Value: 0
    - _RefKeyIndex: -1
      _Value: 0
    - _RefKeyIndex: -1
      _Value: 0
    - _RefKeyIndex: -1
      _Value: 0
    - _RefKeyIndex: -1
      _Value: 0
    - _RefKeyIndex: -1
      _Value: 0
    - _RefKeyIndex: -1
      _Value: 0
    - _RefKeyIndex: -1
      _Value: 0
    - _RefKeyIndex: -1
      _Value: 0
    - _RefKeyIndex: -1
      _Value: 0
    - _RefKeyIndex: -1
      _Value: 0
    - _RefKeyIndex: -1
      _Value: 1
    - _RefKeyIndex: -1
      _Value: 2
    - _RefKeyIndex: -1
      _Value: 3
    - _RefKeyIndex: -1
      _Value: 2
    - _RefKeyIndex: -1
      _Value: 0.99999994
    - _RefKeyIndex: -1
      _Value: 0
    - _RefKeyIndex: -1
      _Value: 1
    - _RefKeyIndex: -1
      _Value: 2
    - _RefKeyIndex: -1
      _Value: 3
    - _RefKeyIndex: -1
      _Value: 2
    - _RefKeyIndex: -1
      _Value: 0.99999994
    - _RefKeyIndex: -1
      _Value: 0
    - _RefKeyIndex: -1
      _Value: 0
    - _RefKeyIndex: -1
      _Value: 0
    - _RefKeyIndex: -1
      _Value: 0
    - _RefKeyIndex: -1
      _Value: 0
    - _RefKeyIndex: -1
      _Value: 0
    - _RefKeyIndex: -1
      _Value: 0
    - _RefKeyIndex: -1
      _Value: 0
    - _RefKeyIndex: -1
      _Value: 0
    - _RefKeyIndex: -1
      _Value: 0
    - _RefKeyIndex: -1
      _Value: 0
    - _RefKeyIndex: 8
      _Value: 0
    ScaleXValues:
    - _RefKeyIndex: -1
      _Value: 0.6
    ScaleYValues:
    - _RefKeyIndex: -1
      _Value: 0.6
    TransValues: []
    PrioValues: []
    FlipHValues: []
    FlipVValues: []
    HideValues:
    - _RefKeyIndex: 0
      _Value: 0
    PartsColValues: []
    PartsPalValues: []
    VertexValues: []
    UserValues: []
    SoundValues: []
    ImageOffsetXValues: []
    ImageOffsetYValues: []
    ImageOffsetWValues: []
    ImageOffsetHValues: []
    OriginOffsetXValues:
    - _RefKeyIndex: -1
      _Value: -10
    OriginOffsetYValues:
    - _RefKeyIndex: -1
      _Value: 14
    _hasAttrFlags: 1573407
    HasTrancparency: 0
    FrameNum: 41
    imageFile:
      path: Assets/Resources/Atlas/F_Map01/F_Map01.png
      texture: {fileID: 2800000, guid: 9a4fd90e12f6c94478532a57b1db8072, type: 3}
      materials:
      - {fileID: 0}
      - {fileID: 0}
      - {fileID: 0}
      - {fileID: 0}
      - {fileID: 0}
      - {fileID: 2100000, guid: 0eb64c8f0ca87034c95863deeea6a2ac, type: 2}
      - {fileID: 0}
      - {fileID: 0}
      - {fileID: 0}
      - {fileID: 0}
      - {fileID: 0}
      - {fileID: 0}
      - {fileID: 0}
      - {fileID: 0}
      - {fileID: 0}
      - {fileID: 0}
      - {fileID: 0}
      - {fileID: 0}
      - {fileID: 0}
      - {fileID: 0}
      - {fileID: 0}
      - {fileID: 0}
      - {fileID: 0}
      - {fileID: 0}
      - {fileID: 0}
      - {fileID: 0}
      - {fileID: 0}
      - {fileID: 0}
      - {fileID: 0}
      - {fileID: 0}
      - {fileID: 0}
      - {fileID: 0}
      - {fileID: 0}
      - {fileID: 0}
      - {fileID: 0}
      - {fileID: 0}
      - {fileID: 0}
      - {fileID: 0}
      - {fileID: 0}
      - {fileID: 0}
      - {fileID: 0}
      - {fileID: 0}
      - {fileID: 0}
      - {fileID: 0}
      - {fileID: 0}
      - {fileID: 0}
      - {fileID: 0}
      - {fileID: 0}
      - {fileID: 0}
      - {fileID: 0}
      width: 2048
      height: 2048
      bpp: 0
    UVs:
    - {x: 0.89746094, y: 0.075683594}
    - {x: 0.92285156, y: 0.075683594}
    - {x: 0.92285156, y: 0.052246094}
    - {x: 0.89746094, y: 0.052246094}
    OrgVertices:
    - {x: -26, y: 24, z: 0}
    - {x: 26, y: 24, z: 0}
    - {x: 26, y: -24, z: 0}
    - {x: -26, y: -24, z: 0}
  - AnimeRes: {fileID: 11400000}
    Name: suzume_1
    Type: 0
    PicArea:
      Left: 1838
      Top: 1893
      Right: 1890
      Bottom: 1941
    OriginX: 26
    OriginY: 24
    MyId: 3
    ParentId: 0
    ChildNum: 0
    SrcObjId: 0
    SrcObjType: 0
    AlphaBlendType: 1
    InheritState:
      Type: 0
      Values:
      - Use: 1
        Rate: 1
      - Use: 1
        Rate: 1
      - Use: 1
        Rate: 1
      - Use: 1
        Rate: 1
      - Use: 1
        Rate: 1
      - Use: 1
        Rate: 1
      - Use: 1
        Rate: 1
      - Use: 0
        Rate: 0
      - Use: 0
        Rate: 0
      - Use: 0
        Rate: 0
      - Use: 1
        Rate: 1
      - Use: 1
        Rate: 1
      - Use: 1
        Rate: 1
      - Use: 1
        Rate: 1
      - Use: 1
        Rate: 1
      - Use: 1
        Rate: 1
      - Use: 1
        Rate: 1
      - Use: 1
        Rate: 1
      - Use: 1
        Rate: 1
      - Use: 1
        Rate: 1
      - Use: 1
        Rate: 1
    PosXKeys:
    - Value: -220
      _Time: 0
      _ValueType: 0
      _Curve:
        Type: 1
        StartT: 0
        StartV: 0
        EndT: 0
        EndV: 0
    - Value: -220
      _Time: 40
      _ValueType: 0
      _Curve:
        Type: 1
        StartT: 0
        StartV: 0
        EndT: 0
        EndV: 0
    PosYKeys:
    - Value: 266
      _Time: 0
      _ValueType: 0
      _Curve:
        Type: 1
        StartT: 0
        StartV: 0
        EndT: 0
        EndV: 0
    - Value: 266
      _Time: 40
      _ValueType: 0
      _Curve:
        Type: 1
        StartT: 0
        StartV: 0
        EndT: 0
        EndV: 0
    AngleKeys:
    - Value: 0
      _Time: 0
      _ValueType: 0
      _Curve:
        Type: 1
        StartT: 0
        StartV: 0
        EndT: 0
        EndV: 0
    - Value: 0
      _Time: 6
      _ValueType: 0
      _Curve:
        Type: 1
        StartT: 0
        StartV: 0
        EndT: 0
        EndV: 0
    - Value: -4
      _Time: 9
      _ValueType: 0
      _Curve:
        Type: 1
        StartT: 0
        StartV: 0
        EndT: 0
        EndV: 0
    - Value: 0
      _Time: 12
      _ValueType: 0
      _Curve:
        Type: 1
        StartT: 0
        StartV: 0
        EndT: 0
        EndV: 0
    - Value: -3
      _Time: 15
      _ValueType: 0
      _Curve:
        Type: 1
        StartT: 0
        StartV: 0
        EndT: 0
        EndV: 0
    - Value: 0
      _Time: 18
      _ValueType: 0
      _Curve:
        Type: 1
        StartT: 0
        StartV: 0
        EndT: 0
        EndV: 0
    - Value: 0
      _Time: 26
      _ValueType: 0
      _Curve:
        Type: 1
        StartT: 0
        StartV: 0
        EndT: 0
        EndV: 0
    - Value: -3
      _Time: 29
      _ValueType: 0
      _Curve:
        Type: 1
        StartT: 0
        StartV: 0
        EndT: 0
        EndV: 0
    - Value: 0
      _Time: 32
      _ValueType: 0
      _Curve:
        Type: 1
        StartT: 0
        StartV: 0
        EndT: 0
        EndV: 0
    - Value: -3
      _Time: 35
      _ValueType: 0
      _Curve:
        Type: 1
        StartT: 0
        StartV: 0
        EndT: 0
        EndV: 0
    - Value: 0
      _Time: 38
      _ValueType: 0
      _Curve:
        Type: 1
        StartT: 0
        StartV: 0
        EndT: 0
        EndV: 0
    - Value: 0
      _Time: 40
      _ValueType: 0
      _Curve:
        Type: 1
        StartT: 0
        StartV: 0
        EndT: 0
        EndV: 0
    ScaleXKeys:
    - Value: -0.6
      _Time: 0
      _ValueType: 0
      _Curve:
        Type: 1
        StartT: 0
        StartV: 0
        EndT: 0
        EndV: 0
    - Value: -0.6
      _Time: 40
      _ValueType: 0
      _Curve:
        Type: 1
        StartT: 0
        StartV: 0
        EndT: 0
        EndV: 0
    ScaleYKeys:
    - Value: 0.6
      _Time: 0
      _ValueType: 0
      _Curve:
        Type: 1
        StartT: 0
        StartV: 0
        EndT: 0
        EndV: 0
    - Value: 0.6
      _Time: 40
      _ValueType: 0
      _Curve:
        Type: 1
        StartT: 0
        StartV: 0
        EndT: 0
        EndV: 0
    TransKeys: []
    PrioKeys: []
    FlipHKeys: []
    FlipVKeys: []
    HideKeys:
    - Value: 0
      _Time: 0
      _ValueType: 1
      _Curve:
        Type: 0
        StartT: 0
        StartV: 0
        EndT: 0
        EndV: 0
    - Value: 0
      _Time: 40
      _ValueType: 1
      _Curve:
        Type: 0
        StartT: 0
        StartV: 0
        EndT: 0
        EndV: 0
    PartsColKeys: []
    PartsPalKeys: []
    VertexKeys: []
    UserKeys: []
    SoundKeys: []
    ImageOffsetXKeys: []
    ImageOffsetYKeys: []
    ImageOffsetWKeys: []
    ImageOffsetHKeys: []
    OriginOffsetXKeys:
    - Value: -10
      _Time: 0
      _ValueType: 0
      _Curve:
        Type: 1
        StartT: 0
        StartV: 0
        EndT: 0
        EndV: 0
    - Value: -10
      _Time: 40
      _ValueType: 0
      _Curve:
        Type: 1
        StartT: 0
        StartV: 0
        EndT: 0
        EndV: 0
    OriginOffsetYKeys:
    - Value: 14
      _Time: 0
      _ValueType: 0
      _Curve:
        Type: 1
        StartT: 0
        StartV: 0
        EndT: 0
        EndV: 0
    - Value: 14
      _Time: 40
      _ValueType: 0
      _Curve:
        Type: 1
        StartT: 0
        StartV: 0
        EndT: 0
        EndV: 0
    PosXValues:
    - _RefKeyIndex: -1
      _Value: -220
    PosYValues:
    - _RefKeyIndex: -1
      _Value: 266
    AngleValues:
    - _RefKeyIndex: -1
      _Value: 0
    - _RefKeyIndex: -1
      _Value: 0
    - _RefKeyIndex: -1
      _Value: 0
    - _RefKeyIndex: -1
      _Value: 0
    - _RefKeyIndex: -1
      _Value: 0
    - _RefKeyIndex: -1
      _Value: 0
    - _RefKeyIndex: -1
      _Value: 0
    - _RefKeyIndex: -1
      _Value: -1.3333334
    - _RefKeyIndex: -1
      _Value: -2.6666667
    - _RefKeyIndex: -1
      _Value: -4
    - _RefKeyIndex: -1
      _Value: -2.6666665
    - _RefKeyIndex: -1
      _Value: -1.3333333
    - _RefKeyIndex: -1
      _Value: 0
    - _RefKeyIndex: -1
      _Value: -1
    - _RefKeyIndex: -1
      _Value: -2
    - _RefKeyIndex: -1
      _Value: -3
    - _RefKeyIndex: -1
      _Value: -2
    - _RefKeyIndex: -1
      _Value: -0.99999994
    - _RefKeyIndex: -1
      _Value: 0
    - _RefKeyIndex: -1
      _Value: 0
    - _RefKeyIndex: -1
      _Value: 0
    - _RefKeyIndex: -1
      _Value: 0
    - _RefKeyIndex: -1
      _Value: 0
    - _RefKeyIndex: -1
      _Value: 0
    - _RefKeyIndex: -1
      _Value: 0
    - _RefKeyIndex: -1
      _Value: 0
    - _RefKeyIndex: -1
      _Value: 0
    - _RefKeyIndex: -1
      _Value: -1
    - _RefKeyIndex: -1
      _Value: -2
    - _RefKeyIndex: -1
      _Value: -3
    - _RefKeyIndex: -1
      _Value: -2
    - _RefKeyIndex: -1
      _Value: -0.99999994
    - _RefKeyIndex: -1
      _Value: 0
    - _RefKeyIndex: -1
      _Value: -1
    - _RefKeyIndex: -1
      _Value: -2
    - _RefKeyIndex: -1
      _Value: -3
    - _RefKeyIndex: -1
      _Value: -2
    - _RefKeyIndex: -1
      _Value: -0.99999994
    - _RefKeyIndex: -1
      _Value: 0
    - _RefKeyIndex: -1
      _Value: 0
    - _RefKeyIndex: 11
      _Value: 0
    ScaleXValues:
    - _RefKeyIndex: -1
      _Value: -0.6
    ScaleYValues:
    - _RefKeyIndex: -1
      _Value: 0.6
    TransValues: []
    PrioValues: []
    FlipHValues: []
    FlipVValues: []
    HideValues:
    - _RefKeyIndex: 0
      _Value: 0
    PartsColValues: []
    PartsPalValues: []
    VertexValues: []
    UserValues: []
    SoundValues: []
    ImageOffsetXValues: []
    ImageOffsetYValues: []
    ImageOffsetWValues: []
    ImageOffsetHValues: []
    OriginOffsetXValues:
    - _RefKeyIndex: -1
      _Value: -10
    OriginOffsetYValues:
    - _RefKeyIndex: -1
      _Value: 14
    _hasAttrFlags: 1573407
    HasTrancparency: 0
    FrameNum: 41
    imageFile:
      path: Assets/Resources/Atlas/F_Map01/F_Map01.png
      texture: {fileID: 2800000, guid: 9a4fd90e12f6c94478532a57b1db8072, type: 3}
      materials:
      - {fileID: 0}
      - {fileID: 0}
      - {fileID: 0}
      - {fileID: 0}
      - {fileID: 0}
      - {fileID: 2100000, guid: 0eb64c8f0ca87034c95863deeea6a2ac, type: 2}
      - {fileID: 0}
      - {fileID: 0}
      - {fileID: 0}
      - {fileID: 0}
      - {fileID: 0}
      - {fileID: 0}
      - {fileID: 0}
      - {fileID: 0}
      - {fileID: 0}
      - {fileID: 0}
      - {fileID: 0}
      - {fileID: 0}
      - {fileID: 0}
      - {fileID: 0}
      - {fileID: 0}
      - {fileID: 0}
      - {fileID: 0}
      - {fileID: 0}
      - {fileID: 0}
      - {fileID: 0}
      - {fileID: 0}
      - {fileID: 0}
      - {fileID: 0}
      - {fileID: 0}
      - {fileID: 0}
      - {fileID: 0}
      - {fileID: 0}
      - {fileID: 0}
      - {fileID: 0}
      - {fileID: 0}
      - {fileID: 0}
      - {fileID: 0}
      - {fileID: 0}
      - {fileID: 0}
      - {fileID: 0}
      - {fileID: 0}
      - {fileID: 0}
      - {fileID: 0}
      - {fileID: 0}
      - {fileID: 0}
      - {fileID: 0}
      - {fileID: 0}
      - {fileID: 0}
      - {fileID: 0}
      width: 2048
      height: 2048
      bpp: 0
    UVs:
    - {x: 0.89746094, y: 0.075683594}
    - {x: 0.92285156, y: 0.075683594}
    - {x: 0.92285156, y: 0.052246094}
    - {x: 0.89746094, y: 0.052246094}
    OrgVertices:
    - {x: -26, y: 24, z: 0}
    - {x: 26, y: 24, z: 0}
    - {x: 26, y: -24, z: 0}
    - {x: -26, y: -24, z: 0}
  ImportedTime: -1440183592
  ImportedTimeHigh: -1999323430
