%YAML 1.1
%TAG !u! tag:unity3d.com,2011:
--- !u!114 &11400000
MonoBehaviour:
  m_ObjectHideFlags: 0
  m_PrefabParentObject: {fileID: 0}
  m_PrefabInternal: {fileID: 0}
  m_GameObject: {fileID: 0}
  m_Enabled: 1
  m_EditorHideFlags: 0
  m_Script: {fileID: 11500000, guid: 0ae895f3348548989f1b4caf6cca149f, type: 3}
  m_Name: adv_enemy00_attack_ssa
  m_EditorClassIdentifier:
  OriginalPath: Assets/Resources/Atlas/PuzzleTile/adv_enemy00_attack.ssax
  UseScaleFactor: 0
  ScaleFactor: 1
  FPS: 30
  EndFrame: 30
  hvFlipForImageOnly: 1
  ImageList:
  - path: Assets/Resources/Atlas/PuzzleTile/PuzzleTile.png
    texture: {fileID: 2800000, guid: 00051aac90314b34982a652bd7ab76c2, type: 3}
    materials:
    - {fileID: 0}
    - {fileID: 0}
    - {fileID: 0}
    - {fileID: 0}
    - {fileID: 0}
    - {fileID: 2100000, guid: 68105edfbfe10654394bdef14d2d41d0, type: 2}
    - {fileID: 2100000, guid: 2879c887f9fc9614e9af0ab0d188f79a, type: 2}
    - {fileID: 0}
    - {fileID: 0}
    - {fileID: 0}
    - {fileID: 0}
    - {fileID: 0}
    - {fileID: 0}
    - {fileID: 0}
    - {fileID: 0}
    - {fileID: 0}
    - {fileID: 0}
    - {fileID: 0}
    - {fileID: 0}
    - {fileID: 0}
    - {fileID: 0}
    - {fileID: 0}
    - {fileID: 0}
    - {fileID: 0}
    - {fileID: 0}
    - {fileID: 0}
    - {fileID: 0}
    - {fileID: 0}
    - {fileID: 0}
    - {fileID: 0}
    - {fileID: 0}
    - {fileID: 0}
    - {fileID: 0}
    - {fileID: 0}
    - {fileID: 0}
    - {fileID: 0}
    - {fileID: 0}
    - {fileID: 0}
    - {fileID: 0}
    - {fileID: 0}
    - {fileID: 0}
    - {fileID: 0}
    - {fileID: 0}
    - {fileID: 0}
    - {fileID: 0}
    - {fileID: 0}
    - {fileID: 0}
    - {fileID: 0}
    - {fileID: 0}
    - {fileID: 0}
    width: 1024
    height: 2048
    bpp: 0
  PartList:
  - AnimeRes: {fileID: 11400000}
    Name: root
    Type: 1
    PicArea:
      Left: 0
      Top: 0
      Right: 0
      Bottom: 0
    OriginX: 0
    OriginY: 0
    MyId: 0
    ParentId: -1
    ChildNum: 0
    SrcObjId: 0
    SrcObjType: 0
    AlphaBlendType: 0
    InheritState:
      Type: 0
      Values:
      - Use: 1
        Rate: 1
      - Use: 1
        Rate: 1
      - Use: 1
        Rate: 1
      - Use: 1
        Rate: 1
      - Use: 1
        Rate: 1
      - Use: 1
        Rate: 1
      - Use: 1
        Rate: 1
      - Use: 0
        Rate: 0
      - Use: 0
        Rate: 0
      - Use: 0
        Rate: 0
      - Use: 1
        Rate: 1
      - Use: 1
        Rate: 1
      - Use: 1
        Rate: 1
      - Use: 1
        Rate: 1
      - Use: 1
        Rate: 1
      - Use: 1
        Rate: 1
      - Use: 1
        Rate: 1
      - Use: 1
        Rate: 1
      - Use: 1
        Rate: 1
      - Use: 1
        Rate: 1
      - Use: 1
        Rate: 1
    PosXKeys: []
    PosYKeys: []
    AngleKeys: []
    ScaleXKeys: []
    ScaleYKeys: []
    TransKeys: []
    PrioKeys: []
    FlipHKeys: []
    FlipVKeys: []
    HideKeys:
    - Value: 0
      _Time: 0
      _ValueType: 1
      _Curve:
        Type: 0
        StartT: 0
        StartV: 0
        EndT: 0
        EndV: 0
    PartsColKeys: []
    PartsPalKeys: []
    VertexKeys: []
    UserKeys: []
    SoundKeys: []
    ImageOffsetXKeys: []
    ImageOffsetYKeys: []
    ImageOffsetWKeys: []
    ImageOffsetHKeys: []
    OriginOffsetXKeys: []
    OriginOffsetYKeys: []
    PosXValues: []
    PosYValues: []
    AngleValues: []
    ScaleXValues: []
    ScaleYValues: []
    TransValues: []
    PrioValues: []
    FlipHValues: []
    FlipVValues: []
    HideValues:
    - _RefKeyIndex: 0
      _Value: 0
    - _RefKeyIndex: 0
      _Value: 0
    - _RefKeyIndex: 0
      _Value: 0
    - _RefKeyIndex: 0
      _Value: 0
    - _RefKeyIndex: 0
      _Value: 0
    - _RefKeyIndex: 0
      _Value: 0
    - _RefKeyIndex: 0
      _Value: 0
    - _RefKeyIndex: 0
      _Value: 0
    - _RefKeyIndex: 0
      _Value: 0
    - _RefKeyIndex: 0
      _Value: 0
    - _RefKeyIndex: 0
      _Value: 0
    - _RefKeyIndex: 0
      _Value: 0
    - _RefKeyIndex: 0
      _Value: 0
    - _RefKeyIndex: 0
      _Value: 0
    - _RefKeyIndex: 0
      _Value: 0
    - _RefKeyIndex: 0
      _Value: 0
    - _RefKeyIndex: 0
      _Value: 0
    - _RefKeyIndex: 0
      _Value: 0
    - _RefKeyIndex: 0
      _Value: 0
    - _RefKeyIndex: 0
      _Value: 0
    - _RefKeyIndex: 0
      _Value: 0
    - _RefKeyIndex: 0
      _Value: 0
    - _RefKeyIndex: 0
      _Value: 0
    - _RefKeyIndex: 0
      _Value: 0
    - _RefKeyIndex: 0
      _Value: 0
    - _RefKeyIndex: 0
      _Value: 0
    - _RefKeyIndex: 0
      _Value: 0
    - _RefKeyIndex: 0
      _Value: 0
    - _RefKeyIndex: 0
      _Value: 0
    - _RefKeyIndex: 0
      _Value: 0
    - _RefKeyIndex: 0
      _Value: 0
    PartsColValues: []
    PartsPalValues: []
    VertexValues: []
    UserValues: []
    SoundValues: []
    ImageOffsetXValues: []
    ImageOffsetYValues: []
    ImageOffsetWValues: []
    ImageOffsetHValues: []
    OriginOffsetXValues: []
    OriginOffsetYValues: []
    _hasAttrFlags: 512
    HasTrancparency: 0
    FrameNum: 31
    imageFile:
      path:
      texture: {fileID: 0}
      materials: []
      width: 0
      height: 0
      bpp: 0
    UVs: []
    OrgVertices:
    - {x: -0, y: 0, z: 0}
    - {x: 0, y: 0, z: 0}
    - {x: 0, y: -0, z: 0}
    - {x: -0, y: -0, z: 0}
  - AnimeRes: {fileID: 11400000}
    Name: null
    Type: 3
    PicArea:
      Left: 1
      Top: 325
      Right: 2
      Bottom: 326
    OriginX: 0
    OriginY: 0
    MyId: 1
    ParentId: 0
    ChildNum: 0
    SrcObjId: 0
    SrcObjType: 0
    AlphaBlendType: 1
    InheritState:
      Type: 0
      Values:
      - Use: 1
        Rate: 1
      - Use: 1
        Rate: 1
      - Use: 1
        Rate: 1
      - Use: 1
        Rate: 1
      - Use: 1
        Rate: 1
      - Use: 1
        Rate: 1
      - Use: 1
        Rate: 1
      - Use: 0
        Rate: 0
      - Use: 0
        Rate: 0
      - Use: 0
        Rate: 0
      - Use: 1
        Rate: 1
      - Use: 1
        Rate: 1
      - Use: 1
        Rate: 1
      - Use: 1
        Rate: 1
      - Use: 1
        Rate: 1
      - Use: 1
        Rate: 1
      - Use: 1
        Rate: 1
      - Use: 1
        Rate: 1
      - Use: 1
        Rate: 1
      - Use: 1
        Rate: 1
      - Use: 1
        Rate: 1
    PosXKeys:
    - Value: 0
      _Time: 0
      _ValueType: 0
      _Curve:
        Type: 1
        StartT: 0
        StartV: 0
        EndT: 0
        EndV: 0
    PosYKeys:
    - Value: 0
      _Time: 0
      _ValueType: 0
      _Curve:
        Type: 1
        StartT: 0
        StartV: 0
        EndT: 0
        EndV: 0
    AngleKeys:
    - Value: 0
      _Time: 0
      _ValueType: 0
      _Curve:
        Type: 1
        StartT: 0
        StartV: 0
        EndT: 0
        EndV: 0
    ScaleXKeys:
    - Value: 1.1
      _Time: 0
      _ValueType: 0
      _Curve:
        Type: 1
        StartT: 0
        StartV: 0
        EndT: 0
        EndV: 0
    ScaleYKeys:
    - Value: 1.1
      _Time: 0
      _ValueType: 0
      _Curve:
        Type: 1
        StartT: 0
        StartV: 0
        EndT: 0
        EndV: 0
    TransKeys: []
    PrioKeys: []
    FlipHKeys: []
    FlipVKeys: []
    HideKeys:
    - Value: 0
      _Time: 0
      _ValueType: 1
      _Curve:
        Type: 0
        StartT: 0
        StartV: 0
        EndT: 0
        EndV: 0
    PartsColKeys: []
    PartsPalKeys: []
    VertexKeys: []
    UserKeys: []
    SoundKeys: []
    ImageOffsetXKeys: []
    ImageOffsetYKeys: []
    ImageOffsetWKeys: []
    ImageOffsetHKeys: []
    OriginOffsetXKeys: []
    OriginOffsetYKeys: []
    PosXValues:
    - _RefKeyIndex: 0
      _Value: 0
    PosYValues:
    - _RefKeyIndex: 0
      _Value: 0
    AngleValues:
    - _RefKeyIndex: 0
      _Value: 0
    ScaleXValues:
    - _RefKeyIndex: 0
      _Value: 0
    ScaleYValues:
    - _RefKeyIndex: 0
      _Value: 0
    TransValues: []
    PrioValues: []
    FlipHValues: []
    FlipVValues: []
    HideValues:
    - _RefKeyIndex: 0
      _Value: 0
    - _RefKeyIndex: 0
      _Value: 0
    - _RefKeyIndex: 0
      _Value: 0
    - _RefKeyIndex: 0
      _Value: 0
    - _RefKeyIndex: 0
      _Value: 0
    - _RefKeyIndex: 0
      _Value: 0
    - _RefKeyIndex: 0
      _Value: 0
    - _RefKeyIndex: 0
      _Value: 0
    - _RefKeyIndex: 0
      _Value: 0
    - _RefKeyIndex: 0
      _Value: 0
    - _RefKeyIndex: 0
      _Value: 0
    - _RefKeyIndex: 0
      _Value: 0
    - _RefKeyIndex: 0
      _Value: 0
    - _RefKeyIndex: 0
      _Value: 0
    - _RefKeyIndex: 0
      _Value: 0
    - _RefKeyIndex: 0
      _Value: 0
    - _RefKeyIndex: 0
      _Value: 0
    - _RefKeyIndex: 0
      _Value: 0
    - _RefKeyIndex: 0
      _Value: 0
    - _RefKeyIndex: 0
      _Value: 0
    - _RefKeyIndex: 0
      _Value: 0
    - _RefKeyIndex: 0
      _Value: 0
    - _RefKeyIndex: 0
      _Value: 0
    - _RefKeyIndex: 0
      _Value: 0
    - _RefKeyIndex: 0
      _Value: 0
    - _RefKeyIndex: 0
      _Value: 0
    - _RefKeyIndex: 0
      _Value: 0
    - _RefKeyIndex: 0
      _Value: 0
    - _RefKeyIndex: 0
      _Value: 0
    - _RefKeyIndex: 0
      _Value: 0
    - _RefKeyIndex: 0
      _Value: 0
    PartsColValues: []
    PartsPalValues: []
    VertexValues: []
    UserValues: []
    SoundValues: []
    ImageOffsetXValues: []
    ImageOffsetYValues: []
    ImageOffsetWValues: []
    ImageOffsetHValues: []
    OriginOffsetXValues: []
    OriginOffsetYValues: []
    _hasAttrFlags: 543
    HasTrancparency: 0
    FrameNum: 31
    imageFile:
      path: Assets/Resources/Atlas/PuzzleTile/PuzzleTile.png
      texture: {fileID: 2800000, guid: 00051aac90314b34982a652bd7ab76c2, type: 3}
      materials:
      - {fileID: 0}
      - {fileID: 0}
      - {fileID: 0}
      - {fileID: 0}
      - {fileID: 0}
      - {fileID: 2100000, guid: 68105edfbfe10654394bdef14d2d41d0, type: 2}
      - {fileID: 2100000, guid: 2879c887f9fc9614e9af0ab0d188f79a, type: 2}
      - {fileID: 0}
      - {fileID: 0}
      - {fileID: 0}
      - {fileID: 0}
      - {fileID: 0}
      - {fileID: 0}
      - {fileID: 0}
      - {fileID: 0}
      - {fileID: 0}
      - {fileID: 0}
      - {fileID: 0}
      - {fileID: 0}
      - {fileID: 0}
      - {fileID: 0}
      - {fileID: 0}
      - {fileID: 0}
      - {fileID: 0}
      - {fileID: 0}
      - {fileID: 0}
      - {fileID: 0}
      - {fileID: 0}
      - {fileID: 0}
      - {fileID: 0}
      - {fileID: 0}
      - {fileID: 0}
      - {fileID: 0}
      - {fileID: 0}
      - {fileID: 0}
      - {fileID: 0}
      - {fileID: 0}
      - {fileID: 0}
      - {fileID: 0}
      - {fileID: 0}
      - {fileID: 0}
      - {fileID: 0}
      - {fileID: 0}
      - {fileID: 0}
      - {fileID: 0}
      - {fileID: 0}
      - {fileID: 0}
      - {fileID: 0}
      - {fileID: 0}
      - {fileID: 0}
      width: 1024
      height: 2048
      bpp: 0
    UVs: []
    OrgVertices:
    - {x: -0, y: 0, z: 0}
    - {x: 1, y: 0, z: 0}
    - {x: 1, y: -1, z: 0}
    - {x: -0, y: -1, z: 0}
  - AnimeRes: {fileID: 11400000}
    Name: body
    Type: 0
    PicArea:
      Left: 511
      Top: 35
      Right: 647
      Bottom: 171
    OriginX: 68
    OriginY: 68
    MyId: 2
    ParentId: 1
    ChildNum: 0
    SrcObjId: 0
    SrcObjType: 0
    AlphaBlendType: 1
    InheritState:
      Type: 0
      Values:
      - Use: 1
        Rate: 1
      - Use: 1
        Rate: 1
      - Use: 1
        Rate: 1
      - Use: 1
        Rate: 1
      - Use: 1
        Rate: 1
      - Use: 1
        Rate: 1
      - Use: 1
        Rate: 1
      - Use: 0
        Rate: 0
      - Use: 0
        Rate: 0
      - Use: 0
        Rate: 0
      - Use: 1
        Rate: 1
      - Use: 1
        Rate: 1
      - Use: 1
        Rate: 1
      - Use: 1
        Rate: 1
      - Use: 1
        Rate: 1
      - Use: 1
        Rate: 1
      - Use: 1
        Rate: 1
      - Use: 1
        Rate: 1
      - Use: 1
        Rate: 1
      - Use: 1
        Rate: 1
      - Use: 1
        Rate: 1
    PosXKeys:
    - Value: 0
      _Time: 0
      _ValueType: 0
      _Curve:
        Type: 1
        StartT: 0
        StartV: 0
        EndT: 0
        EndV: 0
    - Value: 1
      _Time: 14
      _ValueType: 0
      _Curve:
        Type: 1
        StartT: 0
        StartV: 0
        EndT: 0
        EndV: 0
    - Value: 6
      _Time: 19
      _ValueType: 0
      _Curve:
        Type: 1
        StartT: 0
        StartV: 0
        EndT: 0
        EndV: 0
    - Value: 0
      _Time: 30
      _ValueType: 0
      _Curve:
        Type: 1
        StartT: 0
        StartV: 0
        EndT: 0
        EndV: 0
    PosYKeys:
    - Value: 0
      _Time: 0
      _ValueType: 0
      _Curve:
        Type: 1
        StartT: 0
        StartV: 0
        EndT: 0
        EndV: 0
    - Value: -5
      _Time: 14
      _ValueType: 0
      _Curve:
        Type: 1
        StartT: 0
        StartV: 0
        EndT: 0
        EndV: 0
    - Value: 6
      _Time: 19
      _ValueType: 0
      _Curve:
        Type: 1
        StartT: 0
        StartV: 0
        EndT: 0
        EndV: 0
    - Value: 0
      _Time: 30
      _ValueType: 0
      _Curve:
        Type: 1
        StartT: 0
        StartV: 0
        EndT: 0
        EndV: 0
    AngleKeys:
    - Value: 0
      _Time: 0
      _ValueType: 0
      _Curve:
        Type: 1
        StartT: 0
        StartV: 0
        EndT: 0
        EndV: 0
    - Value: -1
      _Time: 14
      _ValueType: 0
      _Curve:
        Type: 1
        StartT: 0
        StartV: 0
        EndT: 0
        EndV: 0
    - Value: 20.945
      _Time: 19
      _ValueType: 0
      _Curve:
        Type: 1
        StartT: 0
        StartV: 0
        EndT: 0
        EndV: 0
    - Value: 0
      _Time: 30
      _ValueType: 0
      _Curve:
        Type: 1
        StartT: 0
        StartV: 0
        EndT: 0
        EndV: 0
    ScaleXKeys:
    - Value: 1
      _Time: 0
      _ValueType: 0
      _Curve:
        Type: 1
        StartT: 0
        StartV: 0
        EndT: 0
        EndV: 0
    - Value: 1
      _Time: 14
      _ValueType: 0
      _Curve:
        Type: 1
        StartT: 0
        StartV: 0
        EndT: 0
        EndV: 0
    - Value: 1.3
      _Time: 19
      _ValueType: 0
      _Curve:
        Type: 1
        StartT: 0
        StartV: 0
        EndT: 0
        EndV: 0
    - Value: 1
      _Time: 30
      _ValueType: 0
      _Curve:
        Type: 1
        StartT: 0
        StartV: 0
        EndT: 0
        EndV: 0
    ScaleYKeys:
    - Value: 1
      _Time: 0
      _ValueType: 0
      _Curve:
        Type: 1
        StartT: 0
        StartV: 0
        EndT: 0
        EndV: 0
    - Value: 1
      _Time: 14
      _ValueType: 0
      _Curve:
        Type: 1
        StartT: 0
        StartV: 0
        EndT: 0
        EndV: 0
    - Value: 1.3
      _Time: 19
      _ValueType: 0
      _Curve:
        Type: 1
        StartT: 0
        StartV: 0
        EndT: 0
        EndV: 0
    - Value: 1
      _Time: 30
      _ValueType: 0
      _Curve:
        Type: 1
        StartT: 0
        StartV: 0
        EndT: 0
        EndV: 0
    TransKeys: []
    PrioKeys: []
    FlipHKeys: []
    FlipVKeys: []
    HideKeys:
    - Value: 0
      _Time: 0
      _ValueType: 1
      _Curve:
        Type: 0
        StartT: 0
        StartV: 0
        EndT: 0
        EndV: 0
    - Value: 0
      _Time: 14
      _ValueType: 1
      _Curve:
        Type: 0
        StartT: 0
        StartV: 0
        EndT: 0
        EndV: 0
    - Value: 0
      _Time: 19
      _ValueType: 1
      _Curve:
        Type: 0
        StartT: 0
        StartV: 0
        EndT: 0
        EndV: 0
    - Value: 0
      _Time: 30
      _ValueType: 1
      _Curve:
        Type: 0
        StartT: 0
        StartV: 0
        EndT: 0
        EndV: 0
    PartsColKeys: []
    PartsPalKeys: []
    VertexKeys:
    - Value:
        Vertices:
        - X: 0
          Y: 0
        - X: 0
          Y: 0
        - X: 0
          Y: 0
        - X: 0
          Y: 0
      _Time: 0
      _ValueType: 5
      _Curve:
        Type: 1
        StartT: 0
        StartV: 0
        EndT: 0
        EndV: 0
    - Value:
        Vertices:
        - X: 14
          Y: 0
        - X: 6
          Y: 7
        - X: 4
          Y: -6
        - X: -10
          Y: -15
      _Time: 14
      _ValueType: 5
      _Curve:
        Type: 1
        StartT: 0
        StartV: 0
        EndT: 0
        EndV: 0
    - Value:
        Vertices:
        - X: -5
          Y: -3
        - X: -2
          Y: -4
        - X: 4
          Y: -7
        - X: 6
          Y: 0
      _Time: 19
      _ValueType: 5
      _Curve:
        Type: 1
        StartT: 0
        StartV: 0
        EndT: 0
        EndV: 0
    - Value:
        Vertices:
        - X: 0
          Y: 0
        - X: 0
          Y: 0
        - X: 0
          Y: 0
        - X: 0
          Y: 0
      _Time: 30
      _ValueType: 5
      _Curve:
        Type: 1
        StartT: 0
        StartV: 0
        EndT: 0
        EndV: 0
    UserKeys: []
    SoundKeys: []
    ImageOffsetXKeys: []
    ImageOffsetYKeys: []
    ImageOffsetWKeys: []
    ImageOffsetHKeys: []
    OriginOffsetXKeys: []
    OriginOffsetYKeys: []
    PosXValues:
    - _RefKeyIndex: -1
      _Value: 0
    - _RefKeyIndex: -1
      _Value: 0.071428575
    - _RefKeyIndex: -1
      _Value: 0.14285715
    - _RefKeyIndex: -1
      _Value: 0.21428572
    - _RefKeyIndex: -1
      _Value: 0.2857143
    - _RefKeyIndex: -1
      _Value: 0.35714287
    - _RefKeyIndex: -1
      _Value: 0.42857143
    - _RefKeyIndex: -1
      _Value: 0.5
    - _RefKeyIndex: -1
      _Value: 0.5714286
    - _RefKeyIndex: -1
      _Value: 0.64285713
    - _RefKeyIndex: -1
      _Value: 0.71428573
    - _RefKeyIndex: -1
      _Value: 0.78571427
    - _RefKeyIndex: -1
      _Value: 0.85714287
    - _RefKeyIndex: -1
      _Value: 0.9285714
    - _RefKeyIndex: -1
      _Value: 1
    - _RefKeyIndex: -1
      _Value: 2
    - _RefKeyIndex: -1
      _Value: 3
    - _RefKeyIndex: -1
      _Value: 4
    - _RefKeyIndex: -1
      _Value: 5
    - _RefKeyIndex: -1
      _Value: 6
    - _RefKeyIndex: -1
      _Value: 5.4545455
    - _RefKeyIndex: -1
      _Value: 4.909091
    - _RefKeyIndex: -1
      _Value: 4.3636365
    - _RefKeyIndex: -1
      _Value: 3.8181818
    - _RefKeyIndex: -1
      _Value: 3.2727273
    - _RefKeyIndex: -1
      _Value: 2.7272725
    - _RefKeyIndex: -1
      _Value: 2.1818182
    - _RefKeyIndex: -1
      _Value: 1.6363635
    - _RefKeyIndex: -1
      _Value: 1.0909091
    - _RefKeyIndex: -1
      _Value: 0.5454544
    - _RefKeyIndex: 3
      _Value: 0
    PosYValues:
    - _RefKeyIndex: -1
      _Value: 0
    - _RefKeyIndex: -1
      _Value: -0.35714287
    - _RefKeyIndex: -1
      _Value: -0.71428573
    - _RefKeyIndex: -1
      _Value: -1.0714285
    - _RefKeyIndex: -1
      _Value: -1.4285715
    - _RefKeyIndex: -1
      _Value: -1.7857144
    - _RefKeyIndex: -1
      _Value: -2.142857
    - _RefKeyIndex: -1
      _Value: -2.5
    - _RefKeyIndex: -1
      _Value: -2.857143
    - _RefKeyIndex: -1
      _Value: -3.2142856
    - _RefKeyIndex: -1
      _Value: -3.5714288
    - _RefKeyIndex: -1
      _Value: -3.9285712
    - _RefKeyIndex: -1
      _Value: -4.285714
    - _RefKeyIndex: -1
      _Value: -4.642857
    - _RefKeyIndex: -1
      _Value: -5
    - _RefKeyIndex: -1
      _Value: -2.8
    - _RefKeyIndex: -1
      _Value: -0.5999999
    - _RefKeyIndex: -1
      _Value: 1.6000003
    - _RefKeyIndex: -1
      _Value: 3.8000002
    - _RefKeyIndex: -1
      _Value: 6
    - _RefKeyIndex: -1
      _Value: 5.4545455
    - _RefKeyIndex: -1
      _Value: 4.909091
    - _RefKeyIndex: -1
      _Value: 4.3636365
    - _RefKeyIndex: -1
      _Value: 3.8181818
    - _RefKeyIndex: -1
      _Value: 3.2727273
    - _RefKeyIndex: -1
      _Value: 2.7272725
    - _RefKeyIndex: -1
      _Value: 2.1818182
    - _RefKeyIndex: -1
      _Value: 1.6363635
    - _RefKeyIndex: -1
      _Value: 1.0909091
    - _RefKeyIndex: -1
      _Value: 0.5454544
    - _RefKeyIndex: 3
      _Value: 0
    AngleValues:
    - _RefKeyIndex: -1
      _Value: 0
    - _RefKeyIndex: -1
      _Value: -0.071428575
    - _RefKeyIndex: -1
      _Value: -0.14285715
    - _RefKeyIndex: -1
      _Value: -0.21428572
    - _RefKeyIndex: -1
      _Value: -0.2857143
    - _RefKeyIndex: -1
      _Value: -0.35714287
    - _RefKeyIndex: -1
      _Value: -0.42857143
    - _RefKeyIndex: -1
      _Value: -0.5
    - _RefKeyIndex: -1
      _Value: -0.5714286
    - _RefKeyIndex: -1
      _Value: -0.64285713
    - _RefKeyIndex: -1
      _Value: -0.71428573
    - _RefKeyIndex: -1
      _Value: -0.78571427
    - _RefKeyIndex: -1
      _Value: -0.85714287
    - _RefKeyIndex: -1
      _Value: -0.9285714
    - _RefKeyIndex: -1
      _Value: -1
    - _RefKeyIndex: -1
      _Value: 3.389
    - _RefKeyIndex: -1
      _Value: 7.778
    - _RefKeyIndex: -1
      _Value: 12.167001
    - _RefKeyIndex: -1
      _Value: 16.556
    - _RefKeyIndex: -1
      _Value: 20.945
    - _RefKeyIndex: -1
      _Value: 19.040909
    - _RefKeyIndex: -1
      _Value: 17.136818
    - _RefKeyIndex: -1
      _Value: 15.232727
    - _RefKeyIndex: -1
      _Value: 13.328636
    - _RefKeyIndex: -1
      _Value: 11.424545
    - _RefKeyIndex: -1
      _Value: 9.520454
    - _RefKeyIndex: -1
      _Value: 7.6163635
    - _RefKeyIndex: -1
      _Value: 5.712272
    - _RefKeyIndex: -1
      _Value: 3.8081818
    - _RefKeyIndex: -1
      _Value: 1.9040903
    - _RefKeyIndex: 3
      _Value: 0
    ScaleXValues:
    - _RefKeyIndex: -1
      _Value: 1
    - _RefKeyIndex: -1
      _Value: 1
    - _RefKeyIndex: -1
      _Value: 1
    - _RefKeyIndex: -1
      _Value: 1
    - _RefKeyIndex: -1
      _Value: 1
    - _RefKeyIndex: -1
      _Value: 1
    - _RefKeyIndex: -1
      _Value: 1
    - _RefKeyIndex: -1
      _Value: 1
    - _RefKeyIndex: -1
      _Value: 1
    - _RefKeyIndex: -1
      _Value: 1
    - _RefKeyIndex: -1
      _Value: 1
    - _RefKeyIndex: -1
      _Value: 1
    - _RefKeyIndex: -1
      _Value: 1
    - _RefKeyIndex: -1
      _Value: 1
    - _RefKeyIndex: -1
      _Value: 1
    - _RefKeyIndex: -1
      _Value: 1.06
    - _RefKeyIndex: -1
      _Value: 1.12
    - _RefKeyIndex: -1
      _Value: 1.18
    - _RefKeyIndex: -1
      _Value: 1.24
    - _RefKeyIndex: -1
      _Value: 1.3
    - _RefKeyIndex: -1
      _Value: 1.2727273
    - _RefKeyIndex: -1
      _Value: 1.2454545
    - _RefKeyIndex: -1
      _Value: 1.2181817
    - _RefKeyIndex: -1
      _Value: 1.190909
    - _RefKeyIndex: -1
      _Value: 1.1636363
    - _RefKeyIndex: -1
      _Value: 1.1363636
    - _RefKeyIndex: -1
      _Value: 1.1090909
    - _RefKeyIndex: -1
      _Value: 1.0818181
    - _RefKeyIndex: -1
      _Value: 1.0545454
    - _RefKeyIndex: -1
      _Value: 1.0272727
    - _RefKeyIndex: 3
      _Value: 0
    ScaleYValues:
    - _RefKeyIndex: -1
      _Value: 1
    - _RefKeyIndex: -1
      _Value: 1
    - _RefKeyIndex: -1
      _Value: 1
    - _RefKeyIndex: -1
      _Value: 1
    - _RefKeyIndex: -1
      _Value: 1
    - _RefKeyIndex: -1
      _Value: 1
    - _RefKeyIndex: -1
      _Value: 1
    - _RefKeyIndex: -1
      _Value: 1
    - _RefKeyIndex: -1
      _Value: 1
    - _RefKeyIndex: -1
      _Value: 1
    - _RefKeyIndex: -1
      _Value: 1
    - _RefKeyIndex: -1
      _Value: 1
    - _RefKeyIndex: -1
      _Value: 1
    - _RefKeyIndex: -1
      _Value: 1
    - _RefKeyIndex: -1
      _Value: 1
    - _RefKeyIndex: -1
      _Value: 1.06
    - _RefKeyIndex: -1
      _Value: 1.12
    - _RefKeyIndex: -1
      _Value: 1.18
    - _RefKeyIndex: -1
      _Value: 1.24
    - _RefKeyIndex: -1
      _Value: 1.3
    - _RefKeyIndex: -1
      _Value: 1.2727273
    - _RefKeyIndex: -1
      _Value: 1.2454545
    - _RefKeyIndex: -1
      _Value: 1.2181817
    - _RefKeyIndex: -1
      _Value: 1.190909
    - _RefKeyIndex: -1
      _Value: 1.1636363
    - _RefKeyIndex: -1
      _Value: 1.1363636
    - _RefKeyIndex: -1
      _Value: 1.1090909
    - _RefKeyIndex: -1
      _Value: 1.0818181
    - _RefKeyIndex: -1
      _Value: 1.0545454
    - _RefKeyIndex: -1
      _Value: 1.0272727
    - _RefKeyIndex: 3
      _Value: 0
    TransValues: []
    PrioValues: []
    FlipHValues: []
    FlipVValues: []
    HideValues:
    - _RefKeyIndex: 0
      _Value: 0
    PartsColValues: []
    PartsPalValues: []
    VertexValues:
    - _RefKeyIndex: -1
      _Value:
        Vertices:
        - X: 0
          Y: 0
        - X: 0
          Y: 0
        - X: 0
          Y: 0
        - X: 0
          Y: 0
    - _RefKeyIndex: -1
      _Value:
        Vertices:
        - X: 1
          Y: 0
        - X: 0
          Y: 0
        - X: 0
          Y: 0
        - X: 0
          Y: -1
    - _RefKeyIndex: -1
      _Value:
        Vertices:
        - X: 2
          Y: 0
        - X: 0
          Y: 1
        - X: 0
          Y: 0
        - X: -1
          Y: -2
    - _RefKeyIndex: -1
      _Value:
        Vertices:
        - X: 3
          Y: 0
        - X: 1
          Y: 1
        - X: 0
          Y: -1
        - X: -2
          Y: -3
    - _RefKeyIndex: -1
      _Value:
        Vertices:
        - X: 4
          Y: 0
        - X: 1
          Y: 2
        - X: 1
          Y: -1
        - X: -2
          Y: -4
    - _RefKeyIndex: -1
      _Value:
        Vertices:
        - X: 5
          Y: 0
        - X: 2
          Y: 2
        - X: 1
          Y: -2
        - X: -3
          Y: -5
    - _RefKeyIndex: -1
      _Value:
        Vertices:
        - X: 6
          Y: 0
        - X: 2
          Y: 3
        - X: 1
          Y: -2
        - X: -4
          Y: -6
    - _RefKeyIndex: -1
      _Value:
        Vertices:
        - X: 7
          Y: 0
        - X: 3
          Y: 3
        - X: 2
          Y: -3
        - X: -5
          Y: -7
    - _RefKeyIndex: -1
      _Value:
        Vertices:
        - X: 8
          Y: 0
        - X: 3
          Y: 4
        - X: 2
          Y: -3
        - X: -5
          Y: -8
    - _RefKeyIndex: -1
      _Value:
        Vertices:
        - X: 9
          Y: 0
        - X: 3
          Y: 4
        - X: 2
          Y: -3
        - X: -6
          Y: -9
    - _RefKeyIndex: -1
      _Value:
        Vertices:
        - X: 10
          Y: 0
        - X: 4
          Y: 5
        - X: 2
          Y: -4
        - X: -7
          Y: -10
    - _RefKeyIndex: -1
      _Value:
        Vertices:
        - X: 11
          Y: 0
        - X: 4
          Y: 5
        - X: 3
          Y: -4
        - X: -7
          Y: -11
    - _RefKeyIndex: -1
      _Value:
        Vertices:
        - X: 12
          Y: 0
        - X: 5
          Y: 6
        - X: 3
          Y: -5
        - X: -8
          Y: -12
    - _RefKeyIndex: -1
      _Value:
        Vertices:
        - X: 13
          Y: 0
        - X: 5
          Y: 6
        - X: 3
          Y: -5
        - X: -9
          Y: -13
    - _RefKeyIndex: -1
      _Value:
        Vertices:
        - X: 14
          Y: 0
        - X: 6
          Y: 7
        - X: 4
          Y: -6
        - X: -10
          Y: -15
    - _RefKeyIndex: -1
      _Value:
        Vertices:
        - X: 10
          Y: 0
        - X: 4
          Y: 4
        - X: 4
          Y: -6
        - X: -6
          Y: -12
    - _RefKeyIndex: -1
      _Value:
        Vertices:
        - X: 6
          Y: -1
        - X: 2
          Y: 2
        - X: 4
          Y: -6
        - X: -3
          Y: -9
    - _RefKeyIndex: -1
      _Value:
        Vertices:
        - X: 2
          Y: -1
        - X: 1
          Y: 0
        - X: 4
          Y: -6
        - X: 0
          Y: -5
    - _RefKeyIndex: -1
      _Value:
        Vertices:
        - X: -1
          Y: -2
        - X: 0
          Y: -1
        - X: 4
          Y: -6
        - X: 2
          Y: -2
    - _RefKeyIndex: -1
      _Value:
        Vertices:
        - X: -5
          Y: -3
        - X: -2
          Y: -4
        - X: 4
          Y: -7
        - X: 6
          Y: 0
    - _RefKeyIndex: -1
      _Value:
        Vertices:
        - X: -4
          Y: -2
        - X: -1
          Y: -3
        - X: 3
          Y: -6
        - X: 5
          Y: 0
    - _RefKeyIndex: -1
      _Value:
        Vertices:
        - X: -4
          Y: -2
        - X: -1
          Y: -3
        - X: 3
          Y: -5
        - X: 4
          Y: 0
    - _RefKeyIndex: -1
      _Value:
        Vertices:
        - X: -3
          Y: -2
        - X: -1
          Y: -2
        - X: 2
          Y: -5
        - X: 4
          Y: 0
    - _RefKeyIndex: -1
      _Value:
        Vertices:
        - X: -3
          Y: -1
        - X: -1
          Y: -2
        - X: 2
          Y: -4
        - X: 3
          Y: 0
    - _RefKeyIndex: -1
      _Value:
        Vertices:
        - X: -2
          Y: -1
        - X: -1
          Y: -2
        - X: 2
          Y: -3
        - X: 3
          Y: 0
    - _RefKeyIndex: -1
      _Value:
        Vertices:
        - X: -2
          Y: -1
        - X: 0
          Y: -1
        - X: 1
          Y: -3
        - X: 2
          Y: 0
    - _RefKeyIndex: -1
      _Value:
        Vertices:
        - X: -1
          Y: -1
        - X: 0
          Y: -1
        - X: 1
          Y: -2
        - X: 2
          Y: 0
    - _RefKeyIndex: -1
      _Value:
        Vertices:
        - X: -1
          Y: 0
        - X: 0
          Y: -1
        - X: 1
          Y: -1
        - X: 1
          Y: 0
    - _RefKeyIndex: -1
      _Value:
        Vertices:
        - X: 0
          Y: 0
        - X: 0
          Y: 0
        - X: 0
          Y: -1
        - X: 1
          Y: 0
    - _RefKeyIndex: -1
      _Value:
        Vertices:
        - X: 0
          Y: 0
        - X: 0
          Y: 0
        - X: 0
          Y: 0
        - X: 0
          Y: 0
    - _RefKeyIndex: 3
      _Value:
        Vertices: []
    UserValues: []
    SoundValues: []
    ImageOffsetXValues: []
    ImageOffsetYValues: []
    ImageOffsetWValues: []
    ImageOffsetHValues: []
    OriginOffsetXValues: []
    OriginOffsetYValues: []
    _hasAttrFlags: 4639
    HasTrancparency: 0
    FrameNum: 31
    imageFile:
      path: Assets/Resources/Atlas/PuzzleTile/PuzzleTile.png
      texture: {fileID: 2800000, guid: 00051aac90314b34982a652bd7ab76c2, type: 3}
      materials:
      - {fileID: 0}
      - {fileID: 0}
      - {fileID: 0}
      - {fileID: 0}
      - {fileID: 0}
      - {fileID: 2100000, guid: 68105edfbfe10654394bdef14d2d41d0, type: 2}
      - {fileID: 2100000, guid: 2879c887f9fc9614e9af0ab0d188f79a, type: 2}
      - {fileID: 0}
      - {fileID: 0}
      - {fileID: 0}
      - {fileID: 0}
      - {fileID: 0}
      - {fileID: 0}
      - {fileID: 0}
      - {fileID: 0}
      - {fileID: 0}
      - {fileID: 0}
      - {fileID: 0}
      - {fileID: 0}
      - {fileID: 0}
      - {fileID: 0}
      - {fileID: 0}
      - {fileID: 0}
      - {fileID: 0}
      - {fileID: 0}
      - {fileID: 0}
      - {fileID: 0}
      - {fileID: 0}
      - {fileID: 0}
      - {fileID: 0}
      - {fileID: 0}
      - {fileID: 0}
      - {fileID: 0}
      - {fileID: 0}
      - {fileID: 0}
      - {fileID: 0}
      - {fileID: 0}
      - {fileID: 0}
      - {fileID: 0}
      - {fileID: 0}
      - {fileID: 0}
      - {fileID: 0}
      - {fileID: 0}
      - {fileID: 0}
      - {fileID: 0}
      - {fileID: 0}
      - {fileID: 0}
      - {fileID: 0}
      - {fileID: 0}
      - {fileID: 0}
      width: 1024
      height: 2048
      bpp: 0
    UVs:
    - {x: 0.49902344, y: 0.98291016}
    - {x: 0.63183594, y: 0.98291016}
    - {x: 0.63183594, y: 0.9165039}
    - {x: 0.49902344, y: 0.9165039}
    OrgVertices:
    - {x: -68, y: 68, z: 0}
    - {x: 68, y: 68, z: 0}
    - {x: 68, y: -68, z: 0}
    - {x: -68, y: -68, z: 0}
  - AnimeRes: {fileID: 11400000}
    Name: mouse
    Type: 0
    PicArea:
      Left: 123
      Top: 1372
      Right: 163
      Bottom: 1392
    OriginX: 20
    OriginY: 10
    MyId: 3
    ParentId: 2
    ChildNum: 0
    SrcObjId: 0
    SrcObjType: 0
    AlphaBlendType: 1
    InheritState:
      Type: 0
      Values:
      - Use: 1
        Rate: 1
      - Use: 1
        Rate: 1
      - Use: 1
        Rate: 1
      - Use: 1
        Rate: 1
      - Use: 1
        Rate: 1
      - Use: 1
        Rate: 1
      - Use: 1
        Rate: 1
      - Use: 0
        Rate: 0
      - Use: 0
        Rate: 0
      - Use: 0
        Rate: 0
      - Use: 1
        Rate: 1
      - Use: 1
        Rate: 1
      - Use: 1
        Rate: 1
      - Use: 1
        Rate: 1
      - Use: 1
        Rate: 1
      - Use: 1
        Rate: 1
      - Use: 1
        Rate: 1
      - Use: 1
        Rate: 1
      - Use: 1
        Rate: 1
      - Use: 1
        Rate: 1
      - Use: 1
        Rate: 1
    PosXKeys:
    - Value: 0
      _Time: 0
      _ValueType: 0
      _Curve:
        Type: 1
        StartT: 0
        StartV: 0
        EndT: 0
        EndV: 0
    - Value: 4
      _Time: 14
      _ValueType: 0
      _Curve:
        Type: 1
        StartT: 0
        StartV: 0
        EndT: 0
        EndV: 0
    - Value: 0
      _Time: 19
      _ValueType: 0
      _Curve:
        Type: 1
        StartT: 0
        StartV: 0
        EndT: 0
        EndV: 0
    - Value: 0
      _Time: 30
      _ValueType: 0
      _Curve:
        Type: 1
        StartT: 0
        StartV: 0
        EndT: 0
        EndV: 0
    PosYKeys:
    - Value: -10
      _Time: 0
      _ValueType: 0
      _Curve:
        Type: 1
        StartT: 0
        StartV: 0
        EndT: 0
        EndV: 0
    - Value: -12
      _Time: 14
      _ValueType: 0
      _Curve:
        Type: 1
        StartT: 0
        StartV: 0
        EndT: 0
        EndV: 0
    - Value: -14
      _Time: 19
      _ValueType: 0
      _Curve:
        Type: 1
        StartT: 0
        StartV: 0
        EndT: 0
        EndV: 0
    - Value: -10
      _Time: 30
      _ValueType: 0
      _Curve:
        Type: 1
        StartT: 0
        StartV: 0
        EndT: 0
        EndV: 0
    AngleKeys:
    - Value: 0
      _Time: 0
      _ValueType: 0
      _Curve:
        Type: 1
        StartT: 0
        StartV: 0
        EndT: 0
        EndV: 0
    - Value: -6.421
      _Time: 14
      _ValueType: 0
      _Curve:
        Type: 1
        StartT: 0
        StartV: 0
        EndT: 0
        EndV: 0
    - Value: 2.342
      _Time: 19
      _ValueType: 0
      _Curve:
        Type: 1
        StartT: 0
        StartV: 0
        EndT: 0
        EndV: 0
    - Value: 0
      _Time: 30
      _ValueType: 0
      _Curve:
        Type: 1
        StartT: 0
        StartV: 0
        EndT: 0
        EndV: 0
    ScaleXKeys: []
    ScaleYKeys: []
    TransKeys: []
    PrioKeys: []
    FlipHKeys: []
    FlipVKeys: []
    HideKeys:
    - Value: 0
      _Time: 0
      _ValueType: 1
      _Curve:
        Type: 0
        StartT: 0
        StartV: 0
        EndT: 0
        EndV: 0
    - Value: 0
      _Time: 14
      _ValueType: 1
      _Curve:
        Type: 0
        StartT: 0
        StartV: 0
        EndT: 0
        EndV: 0
    - Value: 0
      _Time: 19
      _ValueType: 1
      _Curve:
        Type: 0
        StartT: 0
        StartV: 0
        EndT: 0
        EndV: 0
    - Value: 0
      _Time: 30
      _ValueType: 1
      _Curve:
        Type: 0
        StartT: 0
        StartV: 0
        EndT: 0
        EndV: 0
    PartsColKeys: []
    PartsPalKeys: []
    VertexKeys: []
    UserKeys: []
    SoundKeys: []
    ImageOffsetXKeys: []
    ImageOffsetYKeys: []
    ImageOffsetWKeys: []
    ImageOffsetHKeys: []
    OriginOffsetXKeys: []
    OriginOffsetYKeys: []
    PosXValues:
    - _RefKeyIndex: -1
      _Value: 0
    - _RefKeyIndex: -1
      _Value: 0.2857143
    - _RefKeyIndex: -1
      _Value: 0.5714286
    - _RefKeyIndex: -1
      _Value: 0.85714287
    - _RefKeyIndex: -1
      _Value: 1.1428572
    - _RefKeyIndex: -1
      _Value: 1.4285715
    - _RefKeyIndex: -1
      _Value: 1.7142857
    - _RefKeyIndex: -1
      _Value: 2
    - _RefKeyIndex: -1
      _Value: 2.2857144
    - _RefKeyIndex: -1
      _Value: 2.5714285
    - _RefKeyIndex: -1
      _Value: 2.857143
    - _RefKeyIndex: -1
      _Value: 3.142857
    - _RefKeyIndex: -1
      _Value: 3.4285715
    - _RefKeyIndex: -1
      _Value: 3.7142856
    - _RefKeyIndex: -1
      _Value: 4
    - _RefKeyIndex: -1
      _Value: 3.2
    - _RefKeyIndex: -1
      _Value: 2.4
    - _RefKeyIndex: -1
      _Value: 1.5999999
    - _RefKeyIndex: -1
      _Value: 0.79999995
    - _RefKeyIndex: -1
      _Value: 0
    - _RefKeyIndex: -1
      _Value: 0
    - _RefKeyIndex: -1
      _Value: 0
    - _RefKeyIndex: -1
      _Value: 0
    - _RefKeyIndex: -1
      _Value: 0
    - _RefKeyIndex: -1
      _Value: 0
    - _RefKeyIndex: -1
      _Value: 0
    - _RefKeyIndex: -1
      _Value: 0
    - _RefKeyIndex: -1
      _Value: 0
    - _RefKeyIndex: -1
      _Value: 0
    - _RefKeyIndex: -1
      _Value: 0
    - _RefKeyIndex: 3
      _Value: 0
    PosYValues:
    - _RefKeyIndex: -1
      _Value: -10
    - _RefKeyIndex: -1
      _Value: -10.142858
    - _RefKeyIndex: -1
      _Value: -10.285714
    - _RefKeyIndex: -1
      _Value: -10.428572
    - _RefKeyIndex: -1
      _Value: -10.571428
    - _RefKeyIndex: -1
      _Value: -10.714286
    - _RefKeyIndex: -1
      _Value: -10.857142
    - _RefKeyIndex: -1
      _Value: -11
    - _RefKeyIndex: -1
      _Value: -11.142858
    - _RefKeyIndex: -1
      _Value: -11.285714
    - _RefKeyIndex: -1
      _Value: -11.428572
    - _RefKeyIndex: -1
      _Value: -11.571428
    - _RefKeyIndex: -1
      _Value: -11.714286
    - _RefKeyIndex: -1
      _Value: -11.857142
    - _RefKeyIndex: -1
      _Value: -12
    - _RefKeyIndex: -1
      _Value: -12.4
    - _RefKeyIndex: -1
      _Value: -12.8
    - _RefKeyIndex: -1
      _Value: -13.2
    - _RefKeyIndex: -1
      _Value: -13.6
    - _RefKeyIndex: -1
      _Value: -14
    - _RefKeyIndex: -1
      _Value: -13.636364
    - _RefKeyIndex: -1
      _Value: -13.272727
    - _RefKeyIndex: -1
      _Value: -12.909091
    - _RefKeyIndex: -1
      _Value: -12.545454
    - _RefKeyIndex: -1
      _Value: -12.181818
    - _RefKeyIndex: -1
      _Value: -11.818182
    - _RefKeyIndex: -1
      _Value: -11.454546
    - _RefKeyIndex: -1
      _Value: -11.090909
    - _RefKeyIndex: -1
      _Value: -10.727273
    - _RefKeyIndex: -1
      _Value: -10.363636
    - _RefKeyIndex: 3
      _Value: 0
    AngleValues:
    - _RefKeyIndex: -1
      _Value: 0
    - _RefKeyIndex: -1
      _Value: -0.45864287
    - _RefKeyIndex: -1
      _Value: -0.91728574
    - _RefKeyIndex: -1
      _Value: -1.3759286
    - _RefKeyIndex: -1
      _Value: -1.8345715
    - _RefKeyIndex: -1
      _Value: -2.2932143
    - _RefKeyIndex: -1
      _Value: -2.7518573
    - _RefKeyIndex: -1
      _Value: -3.2105
    - _RefKeyIndex: -1
      _Value: -3.669143
    - _RefKeyIndex: -1
      _Value: -4.1277857
    - _RefKeyIndex: -1
      _Value: -4.5864286
    - _RefKeyIndex: -1
      _Value: -5.045071
    - _RefKeyIndex: -1
      _Value: -5.5037146
    - _RefKeyIndex: -1
      _Value: -5.962357
    - _RefKeyIndex: -1
      _Value: -6.421
    - _RefKeyIndex: -1
      _Value: -4.6684
    - _RefKeyIndex: -1
      _Value: -2.9157999
    - _RefKeyIndex: -1
      _Value: -1.1631998
    - _RefKeyIndex: -1
      _Value: 0.5894001
    - _RefKeyIndex: -1
      _Value: 2.342
    - _RefKeyIndex: -1
      _Value: 2.129091
    - _RefKeyIndex: -1
      _Value: 1.9161818
    - _RefKeyIndex: -1
      _Value: 1.7032727
    - _RefKeyIndex: -1
      _Value: 1.4903636
    - _RefKeyIndex: -1
      _Value: 1.2774545
    - _RefKeyIndex: -1
      _Value: 1.0645454
    - _RefKeyIndex: -1
      _Value: 0.8516364
    - _RefKeyIndex: -1
      _Value: 0.63872725
    - _RefKeyIndex: -1
      _Value: 0.4258182
    - _RefKeyIndex: -1
      _Value: 0.21290903
    - _RefKeyIndex: 3
      _Value: 0
    ScaleXValues: []
    ScaleYValues: []
    TransValues: []
    PrioValues: []
    FlipHValues: []
    FlipVValues: []
    HideValues:
    - _RefKeyIndex: 0
      _Value: 0
    PartsColValues: []
    PartsPalValues: []
    VertexValues: []
    UserValues: []
    SoundValues: []
    ImageOffsetXValues: []
    ImageOffsetYValues: []
    ImageOffsetWValues: []
    ImageOffsetHValues: []
    OriginOffsetXValues: []
    OriginOffsetYValues: []
    _hasAttrFlags: 519
    HasTrancparency: 0
    FrameNum: 31
    imageFile:
      path: Assets/Resources/Atlas/PuzzleTile/PuzzleTile.png
      texture: {fileID: 2800000, guid: 00051aac90314b34982a652bd7ab76c2, type: 3}
      materials:
      - {fileID: 0}
      - {fileID: 0}
      - {fileID: 0}
      - {fileID: 0}
      - {fileID: 0}
      - {fileID: 2100000, guid: 68105edfbfe10654394bdef14d2d41d0, type: 2}
      - {fileID: 2100000, guid: 2879c887f9fc9614e9af0ab0d188f79a, type: 2}
      - {fileID: 0}
      - {fileID: 0}
      - {fileID: 0}
      - {fileID: 0}
      - {fileID: 0}
      - {fileID: 0}
      - {fileID: 0}
      - {fileID: 0}
      - {fileID: 0}
      - {fileID: 0}
      - {fileID: 0}
      - {fileID: 0}
      - {fileID: 0}
      - {fileID: 0}
      - {fileID: 0}
      - {fileID: 0}
      - {fileID: 0}
      - {fileID: 0}
      - {fileID: 0}
      - {fileID: 0}
      - {fileID: 0}
      - {fileID: 0}
      - {fileID: 0}
      - {fileID: 0}
      - {fileID: 0}
      - {fileID: 0}
      - {fileID: 0}
      - {fileID: 0}
      - {fileID: 0}
      - {fileID: 0}
      - {fileID: 0}
      - {fileID: 0}
      - {fileID: 0}
      - {fileID: 0}
      - {fileID: 0}
      - {fileID: 0}
      - {fileID: 0}
      - {fileID: 0}
      - {fileID: 0}
      - {fileID: 0}
      - {fileID: 0}
      - {fileID: 0}
      - {fileID: 0}
      width: 1024
      height: 2048
      bpp: 0
    UVs:
    - {x: 0.12011719, y: 0.33007812}
    - {x: 0.15917969, y: 0.33007812}
    - {x: 0.15917969, y: 0.3203125}
    - {x: 0.12011719, y: 0.3203125}
    OrgVertices:
    - {x: -20, y: 10, z: 0}
    - {x: 20, y: 10, z: 0}
    - {x: 20, y: -10, z: 0}
    - {x: -20, y: -10, z: 0}
  - AnimeRes: {fileID: 11400000}
    Name: hand_R_1_1
    Type: 0
    PicArea:
      Left: 816
      Top: 1757
      Right: 882
      Bottom: 1808
    OriginX: 33
    OriginY: 25
    MyId: 4
    ParentId: 1
    ChildNum: 0
    SrcObjId: 0
    SrcObjType: 0
    AlphaBlendType: 1
    InheritState:
      Type: 0
      Values:
      - Use: 1
        Rate: 1
      - Use: 1
        Rate: 1
      - Use: 1
        Rate: 1
      - Use: 1
        Rate: 1
      - Use: 1
        Rate: 1
      - Use: 1
        Rate: 1
      - Use: 1
        Rate: 1
      - Use: 0
        Rate: 0
      - Use: 0
        Rate: 0
      - Use: 0
        Rate: 0
      - Use: 1
        Rate: 1
      - Use: 1
        Rate: 1
      - Use: 1
        Rate: 1
      - Use: 1
        Rate: 1
      - Use: 1
        Rate: 1
      - Use: 1
        Rate: 1
      - Use: 1
        Rate: 1
      - Use: 1
        Rate: 1
      - Use: 1
        Rate: 1
      - Use: 1
        Rate: 1
      - Use: 1
        Rate: 1
    PosXKeys:
    - Value: -33
      _Time: 14
      _ValueType: 0
      _Curve:
        Type: 1
        StartT: 0
        StartV: 0
        EndT: 0
        EndV: 0
    - Value: 52
      _Time: 25
      _ValueType: 0
      _Curve:
        Type: 1
        StartT: 0
        StartV: 0
        EndT: 0
        EndV: 0
    - Value: -33
      _Time: 30
      _ValueType: 0
      _Curve:
        Type: 1
        StartT: 0
        StartV: 0
        EndT: 0
        EndV: 0
    PosYKeys:
    - Value: -38
      _Time: 14
      _ValueType: 0
      _Curve:
        Type: 1
        StartT: 0
        StartV: 0
        EndT: 0
        EndV: 0
    - Value: 42
      _Time: 25
      _ValueType: 0
      _Curve:
        Type: 1
        StartT: 0
        StartV: 0
        EndT: 0
        EndV: 0
    - Value: 26
      _Time: 30
      _ValueType: 0
      _Curve:
        Type: 1
        StartT: 0
        StartV: 0
        EndT: 0
        EndV: 0
    AngleKeys:
    - Value: -31.67
      _Time: 14
      _ValueType: 0
      _Curve:
        Type: 1
        StartT: 0
        StartV: 0
        EndT: 0
        EndV: 0
    - Value: 17.441
      _Time: 25
      _ValueType: 0
      _Curve:
        Type: 1
        StartT: 0
        StartV: 0
        EndT: 0
        EndV: 0
    - Value: 0
      _Time: 30
      _ValueType: 0
      _Curve:
        Type: 1
        StartT: 0
        StartV: 0
        EndT: 0
        EndV: 0
    ScaleXKeys:
    - Value: 1.25
      _Time: 14
      _ValueType: 0
      _Curve:
        Type: 1
        StartT: 0
        StartV: 0
        EndT: 0
        EndV: 0
    - Value: 3
      _Time: 25
      _ValueType: 0
      _Curve:
        Type: 1
        StartT: 0
        StartV: 0
        EndT: 0
        EndV: 0
    - Value: 1
      _Time: 30
      _ValueType: 0
      _Curve:
        Type: 1
        StartT: 0
        StartV: 0
        EndT: 0
        EndV: 0
    ScaleYKeys:
    - Value: 1.25
      _Time: 14
      _ValueType: 0
      _Curve:
        Type: 1
        StartT: 0
        StartV: 0
        EndT: 0
        EndV: 0
    - Value: 3
      _Time: 25
      _ValueType: 0
      _Curve:
        Type: 1
        StartT: 0
        StartV: 0
        EndT: 0
        EndV: 0
    - Value: 1
      _Time: 30
      _ValueType: 0
      _Curve:
        Type: 1
        StartT: 0
        StartV: 0
        EndT: 0
        EndV: 0
    TransKeys:
    - Value: 0.3
      _Time: 14
      _ValueType: 0
      _Curve:
        Type: 1
        StartT: 0
        StartV: 0
        EndT: 0
        EndV: 0
    PrioKeys:
    - Value: 1
      _Time: 30
      _ValueType: 0
      _Curve:
        Type: 1
        StartT: 0
        StartV: 0
        EndT: 0
        EndV: 0
    FlipHKeys: []
    FlipVKeys: []
    HideKeys:
    - Value: 0
      _Time: 14
      _ValueType: 1
      _Curve:
        Type: 0
        StartT: 0
        StartV: 0
        EndT: 0
        EndV: 0
    - Value: 0
      _Time: 25
      _ValueType: 1
      _Curve:
        Type: 0
        StartT: 0
        StartV: 0
        EndT: 0
        EndV: 0
    - Value: 0
      _Time: 30
      _ValueType: 1
      _Curve:
        Type: 0
        StartT: 0
        StartV: 0
        EndT: 0
        EndV: 0
    PartsColKeys:
    - Value:
        Target: 1
        Operation: 1
        Colors:
        - R: 128
          G: 128
          B: 128
          A: 0
        - R: 128
          G: 128
          B: 128
          A: 0
        - R: 128
          G: 128
          B: 128
          A: 0
        - R: 128
          G: 128
          B: 128
          A: 0
      _Time: 14
      _ValueType: 4
      _Curve:
        Type: 1
        StartT: 0
        StartV: 0
        EndT: 0
        EndV: 0
    PartsPalKeys: []
    VertexKeys: []
    UserKeys: []
    SoundKeys: []
    ImageOffsetXKeys: []
    ImageOffsetYKeys: []
    ImageOffsetWKeys: []
    ImageOffsetHKeys: []
    OriginOffsetXKeys: []
    OriginOffsetYKeys: []
    PosXValues:
    - _RefKeyIndex: 0
      _Value: 0
    - _RefKeyIndex: 0
      _Value: 0
    - _RefKeyIndex: 0
      _Value: 0
    - _RefKeyIndex: 0
      _Value: 0
    - _RefKeyIndex: 0
      _Value: 0
    - _RefKeyIndex: 0
      _Value: 0
    - _RefKeyIndex: 0
      _Value: 0
    - _RefKeyIndex: 0
      _Value: 0
    - _RefKeyIndex: 0
      _Value: 0
    - _RefKeyIndex: 0
      _Value: 0
    - _RefKeyIndex: 0
      _Value: 0
    - _RefKeyIndex: 0
      _Value: 0
    - _RefKeyIndex: 0
      _Value: 0
    - _RefKeyIndex: 0
      _Value: 0
    - _RefKeyIndex: -1
      _Value: -33
    - _RefKeyIndex: -1
      _Value: -25.272728
    - _RefKeyIndex: -1
      _Value: -17.545454
    - _RefKeyIndex: -1
      _Value: -9.818181
    - _RefKeyIndex: -1
      _Value: -2.090908
    - _RefKeyIndex: -1
      _Value: 5.636365
    - _RefKeyIndex: -1
      _Value: 13.363638
    - _RefKeyIndex: -1
      _Value: 21.090908
    - _RefKeyIndex: -1
      _Value: 28.818184
    - _RefKeyIndex: -1
      _Value: 36.545456
    - _RefKeyIndex: -1
      _Value: 44.272728
    - _RefKeyIndex: -1
      _Value: 52
    - _RefKeyIndex: -1
      _Value: 35
    - _RefKeyIndex: -1
      _Value: 18
    - _RefKeyIndex: -1
      _Value: 0.999998
    - _RefKeyIndex: -1
      _Value: -16.000002
    - _RefKeyIndex: 2
      _Value: 0
    PosYValues:
    - _RefKeyIndex: 0
      _Value: 0
    - _RefKeyIndex: 0
      _Value: 0
    - _RefKeyIndex: 0
      _Value: 0
    - _RefKeyIndex: 0
      _Value: 0
    - _RefKeyIndex: 0
      _Value: 0
    - _RefKeyIndex: 0
      _Value: 0
    - _RefKeyIndex: 0
      _Value: 0
    - _RefKeyIndex: 0
      _Value: 0
    - _RefKeyIndex: 0
      _Value: 0
    - _RefKeyIndex: 0
      _Value: 0
    - _RefKeyIndex: 0
      _Value: 0
    - _RefKeyIndex: 0
      _Value: 0
    - _RefKeyIndex: 0
      _Value: 0
    - _RefKeyIndex: 0
      _Value: 0
    - _RefKeyIndex: -1
      _Value: -38
    - _RefKeyIndex: -1
      _Value: -30.727272
    - _RefKeyIndex: -1
      _Value: -23.454544
    - _RefKeyIndex: -1
      _Value: -16.181818
    - _RefKeyIndex: -1
      _Value: -8.90909
    - _RefKeyIndex: -1
      _Value: -1.6363626
    - _RefKeyIndex: -1
      _Value: 5.636365
    - _RefKeyIndex: -1
      _Value: 12.90909
    - _RefKeyIndex: -1
      _Value: 20.18182
    - _RefKeyIndex: -1
      _Value: 27.454544
    - _RefKeyIndex: -1
      _Value: 34.727276
    - _RefKeyIndex: -1
      _Value: 42
    - _RefKeyIndex: -1
      _Value: 38.8
    - _RefKeyIndex: -1
      _Value: 35.6
    - _RefKeyIndex: -1
      _Value: 32.4
    - _RefKeyIndex: -1
      _Value: 29.2
    - _RefKeyIndex: 2
      _Value: 0
    AngleValues:
    - _RefKeyIndex: 0
      _Value: 0
    - _RefKeyIndex: 0
      _Value: 0
    - _RefKeyIndex: 0
      _Value: 0
    - _RefKeyIndex: 0
      _Value: 0
    - _RefKeyIndex: 0
      _Value: 0
    - _RefKeyIndex: 0
      _Value: 0
    - _RefKeyIndex: 0
      _Value: 0
    - _RefKeyIndex: 0
      _Value: 0
    - _RefKeyIndex: 0
      _Value: 0
    - _RefKeyIndex: 0
      _Value: 0
    - _RefKeyIndex: 0
      _Value: 0
    - _RefKeyIndex: 0
      _Value: 0
    - _RefKeyIndex: 0
      _Value: 0
    - _RefKeyIndex: 0
      _Value: 0
    - _RefKeyIndex: -1
      _Value: -31.67
    - _RefKeyIndex: -1
      _Value: -27.205364
    - _RefKeyIndex: -1
      _Value: -22.740726
    - _RefKeyIndex: -1
      _Value: -18.27609
    - _RefKeyIndex: -1
      _Value: -13.811454
    - _RefKeyIndex: -1
      _Value: -9.346818
    - _RefKeyIndex: -1
      _Value: -4.882181
    - _RefKeyIndex: -1
      _Value: -0.41754603
    - _RefKeyIndex: -1
      _Value: 4.047092
    - _RefKeyIndex: -1
      _Value: 8.511727
    - _RefKeyIndex: -1
      _Value: 12.976365
    - _RefKeyIndex: -1
      _Value: 17.441
    - _RefKeyIndex: -1
      _Value: 13.9528
    - _RefKeyIndex: -1
      _Value: 10.4646
    - _RefKeyIndex: -1
      _Value: 6.9763994
    - _RefKeyIndex: -1
      _Value: 3.4881997
    - _RefKeyIndex: 2
      _Value: 0
    ScaleXValues:
    - _RefKeyIndex: 0
      _Value: 0
    - _RefKeyIndex: 0
      _Value: 0
    - _RefKeyIndex: 0
      _Value: 0
    - _RefKeyIndex: 0
      _Value: 0
    - _RefKeyIndex: 0
      _Value: 0
    - _RefKeyIndex: 0
      _Value: 0
    - _RefKeyIndex: 0
      _Value: 0
    - _RefKeyIndex: 0
      _Value: 0
    - _RefKeyIndex: 0
      _Value: 0
    - _RefKeyIndex: 0
      _Value: 0
    - _RefKeyIndex: 0
      _Value: 0
    - _RefKeyIndex: 0
      _Value: 0
    - _RefKeyIndex: 0
      _Value: 0
    - _RefKeyIndex: 0
      _Value: 0
    - _RefKeyIndex: -1
      _Value: 1.25
    - _RefKeyIndex: -1
      _Value: 1.4090909
    - _RefKeyIndex: -1
      _Value: 1.5681819
    - _RefKeyIndex: -1
      _Value: 1.7272727
    - _RefKeyIndex: -1
      _Value: 1.8863636
    - _RefKeyIndex: -1
      _Value: 2.0454545
    - _RefKeyIndex: -1
      _Value: 2.2045455
    - _RefKeyIndex: -1
      _Value: 2.3636363
    - _RefKeyIndex: -1
      _Value: 2.5227273
    - _RefKeyIndex: -1
      _Value: 2.6818182
    - _RefKeyIndex: -1
      _Value: 2.8409092
    - _RefKeyIndex: -1
      _Value: 3
    - _RefKeyIndex: -1
      _Value: 2.6
    - _RefKeyIndex: -1
      _Value: 2.2
    - _RefKeyIndex: -1
      _Value: 1.8
    - _RefKeyIndex: -1
      _Value: 1.4
    - _RefKeyIndex: 2
      _Value: 0
    ScaleYValues:
    - _RefKeyIndex: 0
      _Value: 0
    - _RefKeyIndex: 0
      _Value: 0
    - _RefKeyIndex: 0
      _Value: 0
    - _RefKeyIndex: 0
      _Value: 0
    - _RefKeyIndex: 0
      _Value: 0
    - _RefKeyIndex: 0
      _Value: 0
    - _RefKeyIndex: 0
      _Value: 0
    - _RefKeyIndex: 0
      _Value: 0
    - _RefKeyIndex: 0
      _Value: 0
    - _RefKeyIndex: 0
      _Value: 0
    - _RefKeyIndex: 0
      _Value: 0
    - _RefKeyIndex: 0
      _Value: 0
    - _RefKeyIndex: 0
      _Value: 0
    - _RefKeyIndex: 0
      _Value: 0
    - _RefKeyIndex: -1
      _Value: 1.25
    - _RefKeyIndex: -1
      _Value: 1.4090909
    - _RefKeyIndex: -1
      _Value: 1.5681819
    - _RefKeyIndex: -1
      _Value: 1.7272727
    - _RefKeyIndex: -1
      _Value: 1.8863636
    - _RefKeyIndex: -1
      _Value: 2.0454545
    - _RefKeyIndex: -1
      _Value: 2.2045455
    - _RefKeyIndex: -1
      _Value: 2.3636363
    - _RefKeyIndex: -1
      _Value: 2.5227273
    - _RefKeyIndex: -1
      _Value: 2.6818182
    - _RefKeyIndex: -1
      _Value: 2.8409092
    - _RefKeyIndex: -1
      _Value: 3
    - _RefKeyIndex: -1
      _Value: 2.6
    - _RefKeyIndex: -1
      _Value: 2.2
    - _RefKeyIndex: -1
      _Value: 1.8
    - _RefKeyIndex: -1
      _Value: 1.4
    - _RefKeyIndex: 2
      _Value: 0
    TransValues:
    - _RefKeyIndex: 0
      _Value: 0
    PrioValues:
    - _RefKeyIndex: 0
      _Value: 0
    FlipHValues: []
    FlipVValues: []
    HideValues:
    - _RefKeyIndex: 0
      _Value: 0
    PartsColValues:
    - _RefKeyIndex: 0
      _Value:
        Target: 0
        Operation: 0
        Colors: []
    PartsPalValues: []
    VertexValues: []
    UserValues: []
    SoundValues: []
    ImageOffsetXValues: []
    ImageOffsetYValues: []
    ImageOffsetWValues: []
    ImageOffsetHValues: []
    OriginOffsetXValues: []
    OriginOffsetYValues: []
    _hasAttrFlags: 1663
    HasTrancparency: 1
    FrameNum: 31
    imageFile:
      path: Assets/Resources/Atlas/PuzzleTile/PuzzleTile.png
      texture: {fileID: 2800000, guid: 00051aac90314b34982a652bd7ab76c2, type: 3}
      materials:
      - {fileID: 0}
      - {fileID: 0}
      - {fileID: 0}
      - {fileID: 0}
      - {fileID: 0}
      - {fileID: 2100000, guid: 68105edfbfe10654394bdef14d2d41d0, type: 2}
      - {fileID: 2100000, guid: 2879c887f9fc9614e9af0ab0d188f79a, type: 2}
      - {fileID: 0}
      - {fileID: 0}
      - {fileID: 0}
      - {fileID: 0}
      - {fileID: 0}
      - {fileID: 0}
      - {fileID: 0}
      - {fileID: 0}
      - {fileID: 0}
      - {fileID: 0}
      - {fileID: 0}
      - {fileID: 0}
      - {fileID: 0}
      - {fileID: 0}
      - {fileID: 0}
      - {fileID: 0}
      - {fileID: 0}
      - {fileID: 0}
      - {fileID: 0}
      - {fileID: 0}
      - {fileID: 0}
      - {fileID: 0}
      - {fileID: 0}
      - {fileID: 0}
      - {fileID: 0}
      - {fileID: 0}
      - {fileID: 0}
      - {fileID: 0}
      - {fileID: 0}
      - {fileID: 0}
      - {fileID: 0}
      - {fileID: 0}
      - {fileID: 0}
      - {fileID: 0}
      - {fileID: 0}
      - {fileID: 0}
      - {fileID: 0}
      - {fileID: 0}
      - {fileID: 0}
      - {fileID: 0}
      - {fileID: 0}
      - {fileID: 0}
      - {fileID: 0}
      width: 1024
      height: 2048
      bpp: 0
    UVs:
    - {x: 0.796875, y: 0.14208984}
    - {x: 0.8613281, y: 0.14208984}
    - {x: 0.8613281, y: 0.1171875}
    - {x: 0.796875, y: 0.1171875}
    OrgVertices:
    - {x: -33, y: 25, z: 0}
    - {x: 33, y: 25, z: 0}
    - {x: 33, y: -26, z: 0}
    - {x: -33, y: -26, z: 0}
  - AnimeRes: {fileID: 11400000}
    Name: hand_R_1
    Type: 0
    PicArea:
      Left: 816
      Top: 1757
      Right: 882
      Bottom: 1808
    OriginX: 33
    OriginY: 25
    MyId: 5
    ParentId: 1
    ChildNum: 0
    SrcObjId: 0
    SrcObjType: 0
    AlphaBlendType: 1
    InheritState:
      Type: 0
      Values:
      - Use: 1
        Rate: 1
      - Use: 1
        Rate: 1
      - Use: 1
        Rate: 1
      - Use: 1
        Rate: 1
      - Use: 1
        Rate: 1
      - Use: 1
        Rate: 1
      - Use: 1
        Rate: 1
      - Use: 0
        Rate: 0
      - Use: 0
        Rate: 0
      - Use: 0
        Rate: 0
      - Use: 1
        Rate: 1
      - Use: 1
        Rate: 1
      - Use: 1
        Rate: 1
      - Use: 1
        Rate: 1
      - Use: 1
        Rate: 1
      - Use: 1
        Rate: 1
      - Use: 1
        Rate: 1
      - Use: 1
        Rate: 1
      - Use: 1
        Rate: 1
      - Use: 1
        Rate: 1
      - Use: 1
        Rate: 1
    PosXKeys:
    - Value: -33
      _Time: 14
      _ValueType: 0
      _Curve:
        Type: 1
        StartT: 0
        StartV: 0
        EndT: 0
        EndV: 0
    - Value: 52
      _Time: 22
      _ValueType: 0
      _Curve:
        Type: 1
        StartT: 0
        StartV: 0
        EndT: 0
        EndV: 0
    - Value: -33
      _Time: 30
      _ValueType: 0
      _Curve:
        Type: 1
        StartT: 0
        StartV: 0
        EndT: 0
        EndV: 0
    PosYKeys:
    - Value: -38
      _Time: 14
      _ValueType: 0
      _Curve:
        Type: 1
        StartT: 0
        StartV: 0
        EndT: 0
        EndV: 0
    - Value: 42
      _Time: 22
      _ValueType: 0
      _Curve:
        Type: 1
        StartT: 0
        StartV: 0
        EndT: 0
        EndV: 0
    - Value: 26
      _Time: 30
      _ValueType: 0
      _Curve:
        Type: 1
        StartT: 0
        StartV: 0
        EndT: 0
        EndV: 0
    AngleKeys:
    - Value: -31.67
      _Time: 14
      _ValueType: 0
      _Curve:
        Type: 1
        StartT: 0
        StartV: 0
        EndT: 0
        EndV: 0
    - Value: 17.441
      _Time: 22
      _ValueType: 0
      _Curve:
        Type: 1
        StartT: 0
        StartV: 0
        EndT: 0
        EndV: 0
    - Value: 0
      _Time: 30
      _ValueType: 0
      _Curve:
        Type: 1
        StartT: 0
        StartV: 0
        EndT: 0
        EndV: 0
    ScaleXKeys:
    - Value: 1.25
      _Time: 14
      _ValueType: 0
      _Curve:
        Type: 1
        StartT: 0
        StartV: 0
        EndT: 0
        EndV: 0
    - Value: 3
      _Time: 22
      _ValueType: 0
      _Curve:
        Type: 1
        StartT: 0
        StartV: 0
        EndT: 0
        EndV: 0
    - Value: 1
      _Time: 30
      _ValueType: 0
      _Curve:
        Type: 1
        StartT: 0
        StartV: 0
        EndT: 0
        EndV: 0
    ScaleYKeys:
    - Value: 1.25
      _Time: 14
      _ValueType: 0
      _Curve:
        Type: 1
        StartT: 0
        StartV: 0
        EndT: 0
        EndV: 0
    - Value: 3
      _Time: 22
      _ValueType: 0
      _Curve:
        Type: 1
        StartT: 0
        StartV: 0
        EndT: 0
        EndV: 0
    - Value: 1
      _Time: 30
      _ValueType: 0
      _Curve:
        Type: 1
        StartT: 0
        StartV: 0
        EndT: 0
        EndV: 0
    TransKeys:
    - Value: 0.5
      _Time: 14
      _ValueType: 0
      _Curve:
        Type: 1
        StartT: 0
        StartV: 0
        EndT: 0
        EndV: 0
    PrioKeys:
    - Value: 1
      _Time: 30
      _ValueType: 0
      _Curve:
        Type: 1
        StartT: 0
        StartV: 0
        EndT: 0
        EndV: 0
    FlipHKeys: []
    FlipVKeys: []
    HideKeys:
    - Value: 0
      _Time: 14
      _ValueType: 1
      _Curve:
        Type: 0
        StartT: 0
        StartV: 0
        EndT: 0
        EndV: 0
    - Value: 0
      _Time: 22
      _ValueType: 1
      _Curve:
        Type: 0
        StartT: 0
        StartV: 0
        EndT: 0
        EndV: 0
    - Value: 0
      _Time: 30
      _ValueType: 1
      _Curve:
        Type: 0
        StartT: 0
        StartV: 0
        EndT: 0
        EndV: 0
    PartsColKeys:
    - Value:
        Target: 1
        Operation: 1
        Colors:
        - R: 128
          G: 128
          B: 128
          A: 0
        - R: 128
          G: 128
          B: 128
          A: 0
        - R: 128
          G: 128
          B: 128
          A: 0
        - R: 128
          G: 128
          B: 128
          A: 0
      _Time: 14
      _ValueType: 4
      _Curve:
        Type: 1
        StartT: 0
        StartV: 0
        EndT: 0
        EndV: 0
    PartsPalKeys: []
    VertexKeys: []
    UserKeys: []
    SoundKeys: []
    ImageOffsetXKeys: []
    ImageOffsetYKeys: []
    ImageOffsetWKeys: []
    ImageOffsetHKeys: []
    OriginOffsetXKeys: []
    OriginOffsetYKeys: []
    PosXValues:
    - _RefKeyIndex: 0
      _Value: 0
    - _RefKeyIndex: 0
      _Value: 0
    - _RefKeyIndex: 0
      _Value: 0
    - _RefKeyIndex: 0
      _Value: 0
    - _RefKeyIndex: 0
      _Value: 0
    - _RefKeyIndex: 0
      _Value: 0
    - _RefKeyIndex: 0
      _Value: 0
    - _RefKeyIndex: 0
      _Value: 0
    - _RefKeyIndex: 0
      _Value: 0
    - _RefKeyIndex: 0
      _Value: 0
    - _RefKeyIndex: 0
      _Value: 0
    - _RefKeyIndex: 0
      _Value: 0
    - _RefKeyIndex: 0
      _Value: 0
    - _RefKeyIndex: 0
      _Value: 0
    - _RefKeyIndex: -1
      _Value: -33
    - _RefKeyIndex: -1
      _Value: -22.375
    - _RefKeyIndex: -1
      _Value: -11.75
    - _RefKeyIndex: -1
      _Value: -1.125
    - _RefKeyIndex: -1
      _Value: 9.5
    - _RefKeyIndex: -1
      _Value: 20.125
    - _RefKeyIndex: -1
      _Value: 30.75
    - _RefKeyIndex: -1
      _Value: 41.375
    - _RefKeyIndex: -1
      _Value: 52
    - _RefKeyIndex: -1
      _Value: 41.375
    - _RefKeyIndex: -1
      _Value: 30.75
    - _RefKeyIndex: -1
      _Value: 20.125
    - _RefKeyIndex: -1
      _Value: 9.5
    - _RefKeyIndex: -1
      _Value: -1.125
    - _RefKeyIndex: -1
      _Value: -11.75
    - _RefKeyIndex: -1
      _Value: -22.375
    - _RefKeyIndex: 2
      _Value: 0
    PosYValues:
    - _RefKeyIndex: 0
      _Value: 0
    - _RefKeyIndex: 0
      _Value: 0
    - _RefKeyIndex: 0
      _Value: 0
    - _RefKeyIndex: 0
      _Value: 0
    - _RefKeyIndex: 0
      _Value: 0
    - _RefKeyIndex: 0
      _Value: 0
    - _RefKeyIndex: 0
      _Value: 0
    - _RefKeyIndex: 0
      _Value: 0
    - _RefKeyIndex: 0
      _Value: 0
    - _RefKeyIndex: 0
      _Value: 0
    - _RefKeyIndex: 0
      _Value: 0
    - _RefKeyIndex: 0
      _Value: 0
    - _RefKeyIndex: 0
      _Value: 0
    - _RefKeyIndex: 0
      _Value: 0
    - _RefKeyIndex: -1
      _Value: -38
    - _RefKeyIndex: -1
      _Value: -28
    - _RefKeyIndex: -1
      _Value: -18
    - _RefKeyIndex: -1
      _Value: -8
    - _RefKeyIndex: -1
      _Value: 2
    - _RefKeyIndex: -1
      _Value: 12
    - _RefKeyIndex: -1
      _Value: 22
    - _RefKeyIndex: -1
      _Value: 32
    - _RefKeyIndex: -1
      _Value: 42
    - _RefKeyIndex: -1
      _Value: 40
    - _RefKeyIndex: -1
      _Value: 38
    - _RefKeyIndex: -1
      _Value: 36
    - _RefKeyIndex: -1
      _Value: 34
    - _RefKeyIndex: -1
      _Value: 32
    - _RefKeyIndex: -1
      _Value: 30
    - _RefKeyIndex: -1
      _Value: 28
    - _RefKeyIndex: 2
      _Value: 0
    AngleValues:
    - _RefKeyIndex: 0
      _Value: 0
    - _RefKeyIndex: 0
      _Value: 0
    - _RefKeyIndex: 0
      _Value: 0
    - _RefKeyIndex: 0
      _Value: 0
    - _RefKeyIndex: 0
      _Value: 0
    - _RefKeyIndex: 0
      _Value: 0
    - _RefKeyIndex: 0
      _Value: 0
    - _RefKeyIndex: 0
      _Value: 0
    - _RefKeyIndex: 0
      _Value: 0
    - _RefKeyIndex: 0
      _Value: 0
    - _RefKeyIndex: 0
      _Value: 0
    - _RefKeyIndex: 0
      _Value: 0
    - _RefKeyIndex: 0
      _Value: 0
    - _RefKeyIndex: 0
      _Value: 0
    - _RefKeyIndex: -1
      _Value: -31.67
    - _RefKeyIndex: -1
      _Value: -25.531124
    - _RefKeyIndex: -1
      _Value: -19.39225
    - _RefKeyIndex: -1
      _Value: -13.253375
    - _RefKeyIndex: -1
      _Value: -7.1145
    - _RefKeyIndex: -1
      _Value: -0.97562504
    - _RefKeyIndex: -1
      _Value: 5.16325
    - _RefKeyIndex: -1
      _Value: 11.302125
    - _RefKeyIndex: -1
      _Value: 17.441
    - _RefKeyIndex: -1
      _Value: 15.260875
    - _RefKeyIndex: -1
      _Value: 13.0807495
    - _RefKeyIndex: -1
      _Value: 10.900625
    - _RefKeyIndex: -1
      _Value: 8.7205
    - _RefKeyIndex: -1
      _Value: 6.5403748
    - _RefKeyIndex: -1
      _Value: 4.36025
    - _RefKeyIndex: -1
      _Value: 2.180125
    - _RefKeyIndex: 2
      _Value: 0
    ScaleXValues:
    - _RefKeyIndex: 0
      _Value: 0
    - _RefKeyIndex: 0
      _Value: 0
    - _RefKeyIndex: 0
      _Value: 0
    - _RefKeyIndex: 0
      _Value: 0
    - _RefKeyIndex: 0
      _Value: 0
    - _RefKeyIndex: 0
      _Value: 0
    - _RefKeyIndex: 0
      _Value: 0
    - _RefKeyIndex: 0
      _Value: 0
    - _RefKeyIndex: 0
      _Value: 0
    - _RefKeyIndex: 0
      _Value: 0
    - _RefKeyIndex: 0
      _Value: 0
    - _RefKeyIndex: 0
      _Value: 0
    - _RefKeyIndex: 0
      _Value: 0
    - _RefKeyIndex: 0
      _Value: 0
    - _RefKeyIndex: -1
      _Value: 1.25
    - _RefKeyIndex: -1
      _Value: 1.46875
    - _RefKeyIndex: -1
      _Value: 1.6875
    - _RefKeyIndex: -1
      _Value: 1.90625
    - _RefKeyIndex: -1
      _Value: 2.125
    - _RefKeyIndex: -1
      _Value: 2.34375
    - _RefKeyIndex: -1
      _Value: 2.5625
    - _RefKeyIndex: -1
      _Value: 2.78125
    - _RefKeyIndex: -1
      _Value: 3
    - _RefKeyIndex: -1
      _Value: 2.75
    - _RefKeyIndex: -1
      _Value: 2.5
    - _RefKeyIndex: -1
      _Value: 2.25
    - _RefKeyIndex: -1
      _Value: 2
    - _RefKeyIndex: -1
      _Value: 1.75
    - _RefKeyIndex: -1
      _Value: 1.5
    - _RefKeyIndex: -1
      _Value: 1.25
    - _RefKeyIndex: 2
      _Value: 0
    ScaleYValues:
    - _RefKeyIndex: 0
      _Value: 0
    - _RefKeyIndex: 0
      _Value: 0
    - _RefKeyIndex: 0
      _Value: 0
    - _RefKeyIndex: 0
      _Value: 0
    - _RefKeyIndex: 0
      _Value: 0
    - _RefKeyIndex: 0
      _Value: 0
    - _RefKeyIndex: 0
      _Value: 0
    - _RefKeyIndex: 0
      _Value: 0
    - _RefKeyIndex: 0
      _Value: 0
    - _RefKeyIndex: 0
      _Value: 0
    - _RefKeyIndex: 0
      _Value: 0
    - _RefKeyIndex: 0
      _Value: 0
    - _RefKeyIndex: 0
      _Value: 0
    - _RefKeyIndex: 0
      _Value: 0
    - _RefKeyIndex: -1
      _Value: 1.25
    - _RefKeyIndex: -1
      _Value: 1.46875
    - _RefKeyIndex: -1
      _Value: 1.6875
    - _RefKeyIndex: -1
      _Value: 1.90625
    - _RefKeyIndex: -1
      _Value: 2.125
    - _RefKeyIndex: -1
      _Value: 2.34375
    - _RefKeyIndex: -1
      _Value: 2.5625
    - _RefKeyIndex: -1
      _Value: 2.78125
    - _RefKeyIndex: -1
      _Value: 3
    - _RefKeyIndex: -1
      _Value: 2.75
    - _RefKeyIndex: -1
      _Value: 2.5
    - _RefKeyIndex: -1
      _Value: 2.25
    - _RefKeyIndex: -1
      _Value: 2
    - _RefKeyIndex: -1
      _Value: 1.75
    - _RefKeyIndex: -1
      _Value: 1.5
    - _RefKeyIndex: -1
      _Value: 1.25
    - _RefKeyIndex: 2
      _Value: 0
    TransValues:
    - _RefKeyIndex: 0
      _Value: 0
    PrioValues:
    - _RefKeyIndex: 0
      _Value: 0
    FlipHValues: []
    FlipVValues: []
    HideValues:
    - _RefKeyIndex: 0
      _Value: 0
    PartsColValues:
    - _RefKeyIndex: 0
      _Value:
        Target: 0
        Operation: 0
        Colors: []
    PartsPalValues: []
    VertexValues: []
    UserValues: []
    SoundValues: []
    ImageOffsetXValues: []
    ImageOffsetYValues: []
    ImageOffsetWValues: []
    ImageOffsetHValues: []
    OriginOffsetXValues: []
    OriginOffsetYValues: []
    _hasAttrFlags: 1663
    HasTrancparency: 1
    FrameNum: 31
    imageFile:
      path: Assets/Resources/Atlas/PuzzleTile/PuzzleTile.png
      texture: {fileID: 2800000, guid: 00051aac90314b34982a652bd7ab76c2, type: 3}
      materials:
      - {fileID: 0}
      - {fileID: 0}
      - {fileID: 0}
      - {fileID: 0}
      - {fileID: 0}
      - {fileID: 2100000, guid: 68105edfbfe10654394bdef14d2d41d0, type: 2}
      - {fileID: 2100000, guid: 2879c887f9fc9614e9af0ab0d188f79a, type: 2}
      - {fileID: 0}
      - {fileID: 0}
      - {fileID: 0}
      - {fileID: 0}
      - {fileID: 0}
      - {fileID: 0}
      - {fileID: 0}
      - {fileID: 0}
      - {fileID: 0}
      - {fileID: 0}
      - {fileID: 0}
      - {fileID: 0}
      - {fileID: 0}
      - {fileID: 0}
      - {fileID: 0}
      - {fileID: 0}
      - {fileID: 0}
      - {fileID: 0}
      - {fileID: 0}
      - {fileID: 0}
      - {fileID: 0}
      - {fileID: 0}
      - {fileID: 0}
      - {fileID: 0}
      - {fileID: 0}
      - {fileID: 0}
      - {fileID: 0}
      - {fileID: 0}
      - {fileID: 0}
      - {fileID: 0}
      - {fileID: 0}
      - {fileID: 0}
      - {fileID: 0}
      - {fileID: 0}
      - {fileID: 0}
      - {fileID: 0}
      - {fileID: 0}
      - {fileID: 0}
      - {fileID: 0}
      - {fileID: 0}
      - {fileID: 0}
      - {fileID: 0}
      - {fileID: 0}
      width: 1024
      height: 2048
      bpp: 0
    UVs:
    - {x: 0.796875, y: 0.14208984}
    - {x: 0.8613281, y: 0.14208984}
    - {x: 0.8613281, y: 0.1171875}
    - {x: 0.796875, y: 0.1171875}
    OrgVertices:
    - {x: -33, y: 25, z: 0}
    - {x: 33, y: 25, z: 0}
    - {x: 33, y: -26, z: 0}
    - {x: -33, y: -26, z: 0}
  - AnimeRes: {fileID: 11400000}
    Name: hand_R
    Type: 0
    PicArea:
      Left: 816
      Top: 1757
      Right: 882
      Bottom: 1808
    OriginX: 33
    OriginY: 25
    MyId: 6
    ParentId: 1
    ChildNum: 0
    SrcObjId: 0
    SrcObjType: 0
    AlphaBlendType: 1
    InheritState:
      Type: 0
      Values:
      - Use: 1
        Rate: 1
      - Use: 1
        Rate: 1
      - Use: 1
        Rate: 1
      - Use: 1
        Rate: 1
      - Use: 1
        Rate: 1
      - Use: 1
        Rate: 1
      - Use: 1
        Rate: 1
      - Use: 0
        Rate: 0
      - Use: 0
        Rate: 0
      - Use: 0
        Rate: 0
      - Use: 1
        Rate: 1
      - Use: 1
        Rate: 1
      - Use: 1
        Rate: 1
      - Use: 1
        Rate: 1
      - Use: 1
        Rate: 1
      - Use: 1
        Rate: 1
      - Use: 1
        Rate: 1
      - Use: 1
        Rate: 1
      - Use: 1
        Rate: 1
      - Use: 1
        Rate: 1
      - Use: 1
        Rate: 1
    PosXKeys:
    - Value: -33
      _Time: 0
      _ValueType: 0
      _Curve:
        Type: 1
        StartT: 0
        StartV: 0
        EndT: 0
        EndV: 0
    - Value: -33
      _Time: 14
      _ValueType: 0
      _Curve:
        Type: 1
        StartT: 0
        StartV: 0
        EndT: 0
        EndV: 0
    - Value: 52
      _Time: 19
      _ValueType: 0
      _Curve:
        Type: 1
        StartT: 0
        StartV: 0
        EndT: 0
        EndV: 0
    - Value: -33
      _Time: 30
      _ValueType: 0
      _Curve:
        Type: 1
        StartT: 0
        StartV: 0
        EndT: 0
        EndV: 0
    PosYKeys:
    - Value: 26
      _Time: 0
      _ValueType: 0
      _Curve:
        Type: 1
        StartT: 0
        StartV: 0
        EndT: 0
        EndV: 0
    - Value: -38
      _Time: 14
      _ValueType: 0
      _Curve:
        Type: 1
        StartT: 0
        StartV: 0
        EndT: 0
        EndV: 0
    - Value: 42
      _Time: 19
      _ValueType: 0
      _Curve:
        Type: 1
        StartT: 0
        StartV: 0
        EndT: 0
        EndV: 0
    - Value: 26
      _Time: 30
      _ValueType: 0
      _Curve:
        Type: 1
        StartT: 0
        StartV: 0
        EndT: 0
        EndV: 0
    AngleKeys:
    - Value: 0
      _Time: 0
      _ValueType: 0
      _Curve:
        Type: 1
        StartT: 0
        StartV: 0
        EndT: 0
        EndV: 0
    - Value: -31.67
      _Time: 14
      _ValueType: 0
      _Curve:
        Type: 1
        StartT: 0
        StartV: 0
        EndT: 0
        EndV: 0
    - Value: 17.441
      _Time: 19
      _ValueType: 0
      _Curve:
        Type: 1
        StartT: 0
        StartV: 0
        EndT: 0
        EndV: 0
    - Value: 0
      _Time: 30
      _ValueType: 0
      _Curve:
        Type: 1
        StartT: 0
        StartV: 0
        EndT: 0
        EndV: 0
    ScaleXKeys:
    - Value: 1
      _Time: 0
      _ValueType: 0
      _Curve:
        Type: 1
        StartT: 0
        StartV: 0
        EndT: 0
        EndV: 0
    - Value: 1.25
      _Time: 14
      _ValueType: 0
      _Curve:
        Type: 1
        StartT: 0
        StartV: 0
        EndT: 0
        EndV: 0
    - Value: 3
      _Time: 19
      _ValueType: 0
      _Curve:
        Type: 1
        StartT: 0
        StartV: 0
        EndT: 0
        EndV: 0
    - Value: 1
      _Time: 30
      _ValueType: 0
      _Curve:
        Type: 1
        StartT: 0
        StartV: 0
        EndT: 0
        EndV: 0
    ScaleYKeys:
    - Value: 1
      _Time: 0
      _ValueType: 0
      _Curve:
        Type: 1
        StartT: 0
        StartV: 0
        EndT: 0
        EndV: 0
    - Value: 1.25
      _Time: 14
      _ValueType: 0
      _Curve:
        Type: 1
        StartT: 0
        StartV: 0
        EndT: 0
        EndV: 0
    - Value: 3
      _Time: 19
      _ValueType: 0
      _Curve:
        Type: 1
        StartT: 0
        StartV: 0
        EndT: 0
        EndV: 0
    - Value: 1
      _Time: 30
      _ValueType: 0
      _Curve:
        Type: 1
        StartT: 0
        StartV: 0
        EndT: 0
        EndV: 0
    TransKeys: []
    PrioKeys:
    - Value: 2
      _Time: 0
      _ValueType: 0
      _Curve:
        Type: 1
        StartT: 0
        StartV: 0
        EndT: 0
        EndV: 0
    FlipHKeys: []
    FlipVKeys: []
    HideKeys:
    - Value: 0
      _Time: 0
      _ValueType: 1
      _Curve:
        Type: 0
        StartT: 0
        StartV: 0
        EndT: 0
        EndV: 0
    - Value: 0
      _Time: 14
      _ValueType: 1
      _Curve:
        Type: 0
        StartT: 0
        StartV: 0
        EndT: 0
        EndV: 0
    - Value: 0
      _Time: 19
      _ValueType: 1
      _Curve:
        Type: 0
        StartT: 0
        StartV: 0
        EndT: 0
        EndV: 0
    - Value: 0
      _Time: 30
      _ValueType: 1
      _Curve:
        Type: 0
        StartT: 0
        StartV: 0
        EndT: 0
        EndV: 0
    PartsColKeys: []
    PartsPalKeys: []
    VertexKeys: []
    UserKeys: []
    SoundKeys: []
    ImageOffsetXKeys: []
    ImageOffsetYKeys: []
    ImageOffsetWKeys: []
    ImageOffsetHKeys: []
    OriginOffsetXKeys: []
    OriginOffsetYKeys: []
    PosXValues:
    - _RefKeyIndex: -1
      _Value: -33
    - _RefKeyIndex: -1
      _Value: -33
    - _RefKeyIndex: -1
      _Value: -33
    - _RefKeyIndex: -1
      _Value: -33
    - _RefKeyIndex: -1
      _Value: -33
    - _RefKeyIndex: -1
      _Value: -33
    - _RefKeyIndex: -1
      _Value: -33
    - _RefKeyIndex: -1
      _Value: -33
    - _RefKeyIndex: -1
      _Value: -33
    - _RefKeyIndex: -1
      _Value: -33
    - _RefKeyIndex: -1
      _Value: -33
    - _RefKeyIndex: -1
      _Value: -33
    - _RefKeyIndex: -1
      _Value: -33
    - _RefKeyIndex: -1
      _Value: -33
    - _RefKeyIndex: -1
      _Value: -33
    - _RefKeyIndex: -1
      _Value: -16
    - _RefKeyIndex: -1
      _Value: 1.0000005
    - _RefKeyIndex: -1
      _Value: 18.000002
    - _RefKeyIndex: -1
      _Value: 35
    - _RefKeyIndex: -1
      _Value: 52
    - _RefKeyIndex: -1
      _Value: 44.272728
    - _RefKeyIndex: -1
      _Value: 36.545456
    - _RefKeyIndex: -1
      _Value: 28.818182
    - _RefKeyIndex: -1
      _Value: 21.090908
    - _RefKeyIndex: -1
      _Value: 13.363635
    - _RefKeyIndex: -1
      _Value: 5.636362
    - _RefKeyIndex: -1
      _Value: -2.090908
    - _RefKeyIndex: -1
      _Value: -9.818184
    - _RefKeyIndex: -1
      _Value: -17.545454
    - _RefKeyIndex: -1
      _Value: -25.27273
    - _RefKeyIndex: 3
      _Value: 0
    PosYValues:
    - _RefKeyIndex: -1
      _Value: 26
    - _RefKeyIndex: -1
      _Value: 21.428572
    - _RefKeyIndex: -1
      _Value: 16.857143
    - _RefKeyIndex: -1
      _Value: 12.285714
    - _RefKeyIndex: -1
      _Value: 7.714285
    - _RefKeyIndex: -1
      _Value: 3.1428566
    - _RefKeyIndex: -1
      _Value: -1.4285717
    - _RefKeyIndex: -1
      _Value: -6
    - _RefKeyIndex: -1
      _Value: -10.57143
    - _RefKeyIndex: -1
      _Value: -15.142857
    - _RefKeyIndex: -1
      _Value: -19.714287
    - _RefKeyIndex: -1
      _Value: -24.285713
    - _RefKeyIndex: -1
      _Value: -28.857143
    - _RefKeyIndex: -1
      _Value: -33.42857
    - _RefKeyIndex: -1
      _Value: -38
    - _RefKeyIndex: -1
      _Value: -22
    - _RefKeyIndex: -1
      _Value: -5.9999995
    - _RefKeyIndex: -1
      _Value: 10.000002
    - _RefKeyIndex: -1
      _Value: 26
    - _RefKeyIndex: -1
      _Value: 42
    - _RefKeyIndex: -1
      _Value: 40.545456
    - _RefKeyIndex: -1
      _Value: 39.090908
    - _RefKeyIndex: -1
      _Value: 37.636364
    - _RefKeyIndex: -1
      _Value: 36.181816
    - _RefKeyIndex: -1
      _Value: 34.727272
    - _RefKeyIndex: -1
      _Value: 33.272728
    - _RefKeyIndex: -1
      _Value: 31.818182
    - _RefKeyIndex: -1
      _Value: 30.363636
    - _RefKeyIndex: -1
      _Value: 28.909092
    - _RefKeyIndex: -1
      _Value: 27.454544
    - _RefKeyIndex: 3
      _Value: 0
    AngleValues:
    - _RefKeyIndex: -1
      _Value: 0
    - _RefKeyIndex: -1
      _Value: -2.262143
    - _RefKeyIndex: -1
      _Value: -4.524286
    - _RefKeyIndex: -1
      _Value: -6.7864285
    - _RefKeyIndex: -1
      _Value: -9.048572
    - _RefKeyIndex: -1
      _Value: -11.310715
    - _RefKeyIndex: -1
      _Value: -13.572857
    - _RefKeyIndex: -1
      _Value: -15.835
    - _RefKeyIndex: -1
      _Value: -18.097143
    - _RefKeyIndex: -1
      _Value: -20.359285
    - _RefKeyIndex: -1
      _Value: -22.62143
    - _RefKeyIndex: -1
      _Value: -24.883572
    - _RefKeyIndex: -1
      _Value: -27.145714
    - _RefKeyIndex: -1
      _Value: -29.407856
    - _RefKeyIndex: -1
      _Value: -31.67
    - _RefKeyIndex: -1
      _Value: -21.8478
    - _RefKeyIndex: -1
      _Value: -12.0255995
    - _RefKeyIndex: -1
      _Value: -2.203399
    - _RefKeyIndex: -1
      _Value: 7.6188006
    - _RefKeyIndex: -1
      _Value: 17.441
    - _RefKeyIndex: -1
      _Value: 15.855454
    - _RefKeyIndex: -1
      _Value: 14.269909
    - _RefKeyIndex: -1
      _Value: 12.684363
    - _RefKeyIndex: -1
      _Value: 11.098818
    - _RefKeyIndex: -1
      _Value: 9.513272
    - _RefKeyIndex: -1
      _Value: 7.9277267
    - _RefKeyIndex: -1
      _Value: 6.342182
    - _RefKeyIndex: -1
      _Value: 4.756636
    - _RefKeyIndex: -1
      _Value: 3.171091
    - _RefKeyIndex: -1
      _Value: 1.585545
    - _RefKeyIndex: 3
      _Value: 0
    ScaleXValues:
    - _RefKeyIndex: -1
      _Value: 1
    - _RefKeyIndex: -1
      _Value: 1.0178572
    - _RefKeyIndex: -1
      _Value: 1.0357143
    - _RefKeyIndex: -1
      _Value: 1.0535715
    - _RefKeyIndex: -1
      _Value: 1.0714285
    - _RefKeyIndex: -1
      _Value: 1.0892857
    - _RefKeyIndex: -1
      _Value: 1.1071428
    - _RefKeyIndex: -1
      _Value: 1.125
    - _RefKeyIndex: -1
      _Value: 1.1428572
    - _RefKeyIndex: -1
      _Value: 1.1607143
    - _RefKeyIndex: -1
      _Value: 1.1785715
    - _RefKeyIndex: -1
      _Value: 1.1964285
    - _RefKeyIndex: -1
      _Value: 1.2142857
    - _RefKeyIndex: -1
      _Value: 1.2321428
    - _RefKeyIndex: -1
      _Value: 1.25
    - _RefKeyIndex: -1
      _Value: 1.6
    - _RefKeyIndex: -1
      _Value: 1.95
    - _RefKeyIndex: -1
      _Value: 2.3
    - _RefKeyIndex: -1
      _Value: 2.65
    - _RefKeyIndex: -1
      _Value: 3
    - _RefKeyIndex: -1
      _Value: 2.8181818
    - _RefKeyIndex: -1
      _Value: 2.6363635
    - _RefKeyIndex: -1
      _Value: 2.4545455
    - _RefKeyIndex: -1
      _Value: 2.2727273
    - _RefKeyIndex: -1
      _Value: 2.090909
    - _RefKeyIndex: -1
      _Value: 1.9090909
    - _RefKeyIndex: -1
      _Value: 1.7272727
    - _RefKeyIndex: -1
      _Value: 1.5454545
    - _RefKeyIndex: -1
      _Value: 1.3636364
    - _RefKeyIndex: -1
      _Value: 1.1818181
    - _RefKeyIndex: 3
      _Value: 0
    ScaleYValues:
    - _RefKeyIndex: -1
      _Value: 1
    - _RefKeyIndex: -1
      _Value: 1.0178572
    - _RefKeyIndex: -1
      _Value: 1.0357143
    - _RefKeyIndex: -1
      _Value: 1.0535715
    - _RefKeyIndex: -1
      _Value: 1.0714285
    - _RefKeyIndex: -1
      _Value: 1.0892857
    - _RefKeyIndex: -1
      _Value: 1.1071428
    - _RefKeyIndex: -1
      _Value: 1.125
    - _RefKeyIndex: -1
      _Value: 1.1428572
    - _RefKeyIndex: -1
      _Value: 1.1607143
    - _RefKeyIndex: -1
      _Value: 1.1785715
    - _RefKeyIndex: -1
      _Value: 1.1964285
    - _RefKeyIndex: -1
      _Value: 1.2142857
    - _RefKeyIndex: -1
      _Value: 1.2321428
    - _RefKeyIndex: -1
      _Value: 1.25
    - _RefKeyIndex: -1
      _Value: 1.6
    - _RefKeyIndex: -1
      _Value: 1.95
    - _RefKeyIndex: -1
      _Value: 2.3
    - _RefKeyIndex: -1
      _Value: 2.65
    - _RefKeyIndex: -1
      _Value: 3
    - _RefKeyIndex: -1
      _Value: 2.8181818
    - _RefKeyIndex: -1
      _Value: 2.6363635
    - _RefKeyIndex: -1
      _Value: 2.4545455
    - _RefKeyIndex: -1
      _Value: 2.2727273
    - _RefKeyIndex: -1
      _Value: 2.090909
    - _RefKeyIndex: -1
      _Value: 1.9090909
    - _RefKeyIndex: -1
      _Value: 1.7272727
    - _RefKeyIndex: -1
      _Value: 1.5454545
    - _RefKeyIndex: -1
      _Value: 1.3636364
    - _RefKeyIndex: -1
      _Value: 1.1818181
    - _RefKeyIndex: 3
      _Value: 0
    TransValues: []
    PrioValues:
    - _RefKeyIndex: 0
      _Value: 0
    FlipHValues: []
    FlipVValues: []
    HideValues:
    - _RefKeyIndex: 0
      _Value: 0
    PartsColValues: []
    PartsPalValues: []
    VertexValues: []
    UserValues: []
    SoundValues: []
    ImageOffsetXValues: []
    ImageOffsetYValues: []
    ImageOffsetWValues: []
    ImageOffsetHValues: []
    OriginOffsetXValues: []
    OriginOffsetYValues: []
    _hasAttrFlags: 607
    HasTrancparency: 0
    FrameNum: 31
    imageFile:
      path: Assets/Resources/Atlas/PuzzleTile/PuzzleTile.png
      texture: {fileID: 2800000, guid: 00051aac90314b34982a652bd7ab76c2, type: 3}
      materials:
      - {fileID: 0}
      - {fileID: 0}
      - {fileID: 0}
      - {fileID: 0}
      - {fileID: 0}
      - {fileID: 2100000, guid: 68105edfbfe10654394bdef14d2d41d0, type: 2}
      - {fileID: 2100000, guid: 2879c887f9fc9614e9af0ab0d188f79a, type: 2}
      - {fileID: 0}
      - {fileID: 0}
      - {fileID: 0}
      - {fileID: 0}
      - {fileID: 0}
      - {fileID: 0}
      - {fileID: 0}
      - {fileID: 0}
      - {fileID: 0}
      - {fileID: 0}
      - {fileID: 0}
      - {fileID: 0}
      - {fileID: 0}
      - {fileID: 0}
      - {fileID: 0}
      - {fileID: 0}
      - {fileID: 0}
      - {fileID: 0}
      - {fileID: 0}
      - {fileID: 0}
      - {fileID: 0}
      - {fileID: 0}
      - {fileID: 0}
      - {fileID: 0}
      - {fileID: 0}
      - {fileID: 0}
      - {fileID: 0}
      - {fileID: 0}
      - {fileID: 0}
      - {fileID: 0}
      - {fileID: 0}
      - {fileID: 0}
      - {fileID: 0}
      - {fileID: 0}
      - {fileID: 0}
      - {fileID: 0}
      - {fileID: 0}
      - {fileID: 0}
      - {fileID: 0}
      - {fileID: 0}
      - {fileID: 0}
      - {fileID: 0}
      - {fileID: 0}
      width: 1024
      height: 2048
      bpp: 0
    UVs:
    - {x: 0.796875, y: 0.14208984}
    - {x: 0.8613281, y: 0.14208984}
    - {x: 0.8613281, y: 0.1171875}
    - {x: 0.796875, y: 0.1171875}
    OrgVertices:
    - {x: -33, y: 25, z: 0}
    - {x: 33, y: 25, z: 0}
    - {x: 33, y: -26, z: 0}
    - {x: -33, y: -26, z: 0}
  - AnimeRes: {fileID: 11400000}
    Name: hand_L
    Type: 0
    PicArea:
      Left: 816
      Top: 1757
      Right: 882
      Bottom: 1808
    OriginX: 33
    OriginY: 25
    MyId: 7
    ParentId: 1
    ChildNum: 0
    SrcObjId: 0
    SrcObjType: 0
    AlphaBlendType: 1
    InheritState:
      Type: 0
      Values:
      - Use: 1
        Rate: 1
      - Use: 1
        Rate: 1
      - Use: 1
        Rate: 1
      - Use: 1
        Rate: 1
      - Use: 1
        Rate: 1
      - Use: 1
        Rate: 1
      - Use: 1
        Rate: 1
      - Use: 0
        Rate: 0
      - Use: 0
        Rate: 0
      - Use: 0
        Rate: 0
      - Use: 1
        Rate: 1
      - Use: 1
        Rate: 1
      - Use: 1
        Rate: 1
      - Use: 1
        Rate: 1
      - Use: 1
        Rate: 1
      - Use: 1
        Rate: 1
      - Use: 1
        Rate: 1
      - Use: 1
        Rate: 1
      - Use: 1
        Rate: 1
      - Use: 1
        Rate: 1
      - Use: 1
        Rate: 1
    PosXKeys:
    - Value: 34
      _Time: 0
      _ValueType: 0
      _Curve:
        Type: 1
        StartT: 0
        StartV: 0
        EndT: 0
        EndV: 0
    - Value: 37
      _Time: 14
      _ValueType: 0
      _Curve:
        Type: 1
        StartT: 0
        StartV: 0
        EndT: 0
        EndV: 0
    - Value: 36
      _Time: 19
      _ValueType: 0
      _Curve:
        Type: 1
        StartT: 0
        StartV: 0
        EndT: 0
        EndV: 0
    - Value: 34
      _Time: 30
      _ValueType: 0
      _Curve:
        Type: 1
        StartT: 0
        StartV: 0
        EndT: 0
        EndV: 0
    PosYKeys:
    - Value: 35
      _Time: 0
      _ValueType: 0
      _Curve:
        Type: 1
        StartT: 0
        StartV: 0
        EndT: 0
        EndV: 0
    - Value: 19
      _Time: 14
      _ValueType: 0
      _Curve:
        Type: 1
        StartT: 0
        StartV: 0
        EndT: 0
        EndV: 0
    - Value: -9
      _Time: 19
      _ValueType: 0
      _Curve:
        Type: 1
        StartT: 0
        StartV: 0
        EndT: 0
        EndV: 0
    - Value: 35
      _Time: 30
      _ValueType: 0
      _Curve:
        Type: 1
        StartT: 0
        StartV: 0
        EndT: 0
        EndV: 0
    AngleKeys:
    - Value: 0
      _Time: 0
      _ValueType: 0
      _Curve:
        Type: 1
        StartT: 0
        StartV: 0
        EndT: 0
        EndV: 0
    - Value: -18.266
      _Time: 14
      _ValueType: 0
      _Curve:
        Type: 1
        StartT: 0
        StartV: 0
        EndT: 0
        EndV: 0
    - Value: 14.237
      _Time: 19
      _ValueType: 0
      _Curve:
        Type: 1
        StartT: 0
        StartV: 0
        EndT: 0
        EndV: 0
    - Value: 0
      _Time: 30
      _ValueType: 0
      _Curve:
        Type: 1
        StartT: 0
        StartV: 0
        EndT: 0
        EndV: 0
    ScaleXKeys:
    - Value: 1
      _Time: 0
      _ValueType: 0
      _Curve:
        Type: 1
        StartT: 0
        StartV: 0
        EndT: 0
        EndV: 0
    - Value: 0.9
      _Time: 14
      _ValueType: 0
      _Curve:
        Type: 1
        StartT: 0
        StartV: 0
        EndT: 0
        EndV: 0
    - Value: 1.1
      _Time: 19
      _ValueType: 0
      _Curve:
        Type: 1
        StartT: 0
        StartV: 0
        EndT: 0
        EndV: 0
    - Value: 1
      _Time: 30
      _ValueType: 0
      _Curve:
        Type: 1
        StartT: 0
        StartV: 0
        EndT: 0
        EndV: 0
    ScaleYKeys:
    - Value: 1
      _Time: 0
      _ValueType: 0
      _Curve:
        Type: 1
        StartT: 0
        StartV: 0
        EndT: 0
        EndV: 0
    - Value: 0.9
      _Time: 14
      _ValueType: 0
      _Curve:
        Type: 1
        StartT: 0
        StartV: 0
        EndT: 0
        EndV: 0
    - Value: 1.1
      _Time: 19
      _ValueType: 0
      _Curve:
        Type: 1
        StartT: 0
        StartV: 0
        EndT: 0
        EndV: 0
    - Value: 1
      _Time: 30
      _ValueType: 0
      _Curve:
        Type: 1
        StartT: 0
        StartV: 0
        EndT: 0
        EndV: 0
    TransKeys: []
    PrioKeys:
    - Value: 1
      _Time: 19
      _ValueType: 0
      _Curve:
        Type: 1
        StartT: 0
        StartV: 0
        EndT: 0
        EndV: 0
    FlipHKeys:
    - Value: 1
      _Time: 0
      _ValueType: 1
      _Curve:
        Type: 0
        StartT: 0
        StartV: 0
        EndT: 0
        EndV: 0
    - Value: 1
      _Time: 14
      _ValueType: 1
      _Curve:
        Type: 0
        StartT: 0
        StartV: 0
        EndT: 0
        EndV: 0
    - Value: 1
      _Time: 19
      _ValueType: 1
      _Curve:
        Type: 0
        StartT: 0
        StartV: 0
        EndT: 0
        EndV: 0
    - Value: 1
      _Time: 30
      _ValueType: 1
      _Curve:
        Type: 0
        StartT: 0
        StartV: 0
        EndT: 0
        EndV: 0
    FlipVKeys: []
    HideKeys:
    - Value: 0
      _Time: 0
      _ValueType: 1
      _Curve:
        Type: 0
        StartT: 0
        StartV: 0
        EndT: 0
        EndV: 0
    - Value: 0
      _Time: 14
      _ValueType: 1
      _Curve:
        Type: 0
        StartT: 0
        StartV: 0
        EndT: 0
        EndV: 0
    - Value: 0
      _Time: 19
      _ValueType: 1
      _Curve:
        Type: 0
        StartT: 0
        StartV: 0
        EndT: 0
        EndV: 0
    - Value: 0
      _Time: 30
      _ValueType: 1
      _Curve:
        Type: 0
        StartT: 0
        StartV: 0
        EndT: 0
        EndV: 0
    PartsColKeys: []
    PartsPalKeys: []
    VertexKeys: []
    UserKeys: []
    SoundKeys: []
    ImageOffsetXKeys: []
    ImageOffsetYKeys: []
    ImageOffsetWKeys: []
    ImageOffsetHKeys: []
    OriginOffsetXKeys: []
    OriginOffsetYKeys: []
    PosXValues:
    - _RefKeyIndex: -1
      _Value: 34
    - _RefKeyIndex: -1
      _Value: 34.214287
    - _RefKeyIndex: -1
      _Value: 34.42857
    - _RefKeyIndex: -1
      _Value: 34.642857
    - _RefKeyIndex: -1
      _Value: 34.857143
    - _RefKeyIndex: -1
      _Value: 35.07143
    - _RefKeyIndex: -1
      _Value: 35.285713
    - _RefKeyIndex: -1
      _Value: 35.5
    - _RefKeyIndex: -1
      _Value: 35.714287
    - _RefKeyIndex: -1
      _Value: 35.92857
    - _RefKeyIndex: -1
      _Value: 36.142857
    - _RefKeyIndex: -1
      _Value: 36.357143
    - _RefKeyIndex: -1
      _Value: 36.57143
    - _RefKeyIndex: -1
      _Value: 36.785713
    - _RefKeyIndex: -1
      _Value: 37
    - _RefKeyIndex: -1
      _Value: 36.8
    - _RefKeyIndex: -1
      _Value: 36.6
    - _RefKeyIndex: -1
      _Value: 36.4
    - _RefKeyIndex: -1
      _Value: 36.2
    - _RefKeyIndex: -1
      _Value: 36
    - _RefKeyIndex: -1
      _Value: 35.81818
    - _RefKeyIndex: -1
      _Value: 35.636364
    - _RefKeyIndex: -1
      _Value: 35.454544
    - _RefKeyIndex: -1
      _Value: 35.272728
    - _RefKeyIndex: -1
      _Value: 35.090908
    - _RefKeyIndex: -1
      _Value: 34.909092
    - _RefKeyIndex: -1
      _Value: 34.727272
    - _RefKeyIndex: -1
      _Value: 34.545456
    - _RefKeyIndex: -1
      _Value: 34.363636
    - _RefKeyIndex: -1
      _Value: 34.18182
    - _RefKeyIndex: 3
      _Value: 0
    PosYValues:
    - _RefKeyIndex: -1
      _Value: 35
    - _RefKeyIndex: -1
      _Value: 33.857143
    - _RefKeyIndex: -1
      _Value: 32.714287
    - _RefKeyIndex: -1
      _Value: 31.571428
    - _RefKeyIndex: -1
      _Value: 30.428572
    - _RefKeyIndex: -1
      _Value: 29.285713
    - _RefKeyIndex: -1
      _Value: 28.142857
    - _RefKeyIndex: -1
      _Value: 27
    - _RefKeyIndex: -1
      _Value: 25.857143
    - _RefKeyIndex: -1
      _Value: 24.714287
    - _RefKeyIndex: -1
      _Value: 23.571428
    - _RefKeyIndex: -1
      _Value: 22.428572
    - _RefKeyIndex: -1
      _Value: 21.285713
    - _RefKeyIndex: -1
      _Value: 20.142857
    - _RefKeyIndex: -1
      _Value: 19
    - _RefKeyIndex: -1
      _Value: 13.4
    - _RefKeyIndex: -1
      _Value: 7.7999997
    - _RefKeyIndex: -1
      _Value: 2.1999993
    - _RefKeyIndex: -1
      _Value: -3.4000003
    - _RefKeyIndex: -1
      _Value: -9
    - _RefKeyIndex: -1
      _Value: -5
    - _RefKeyIndex: -1
      _Value: -0.99999976
    - _RefKeyIndex: -1
      _Value: 3.0000005
    - _RefKeyIndex: -1
      _Value: 7.0000005
    - _RefKeyIndex: -1
      _Value: 11.000001
    - _RefKeyIndex: -1
      _Value: 15.000001
    - _RefKeyIndex: -1
      _Value: 19
    - _RefKeyIndex: -1
      _Value: 23
    - _RefKeyIndex: -1
      _Value: 27
    - _RefKeyIndex: -1
      _Value: 31.000002
    - _RefKeyIndex: 3
      _Value: 0
    AngleValues:
    - _RefKeyIndex: -1
      _Value: 0
    - _RefKeyIndex: -1
      _Value: -1.3047144
    - _RefKeyIndex: -1
      _Value: -2.609429
    - _RefKeyIndex: -1
      _Value: -3.914143
    - _RefKeyIndex: -1
      _Value: -5.218858
    - _RefKeyIndex: -1
      _Value: -6.523572
    - _RefKeyIndex: -1
      _Value: -7.828286
    - _RefKeyIndex: -1
      _Value: -9.133
    - _RefKeyIndex: -1
      _Value: -10.437716
    - _RefKeyIndex: -1
      _Value: -11.742429
    - _RefKeyIndex: -1
      _Value: -13.047144
    - _RefKeyIndex: -1
      _Value: -14.351857
    - _RefKeyIndex: -1
      _Value: -15.656572
    - _RefKeyIndex: -1
      _Value: -16.961287
    - _RefKeyIndex: -1
      _Value: -18.266
    - _RefKeyIndex: -1
      _Value: -11.7654
    - _RefKeyIndex: -1
      _Value: -5.2648
    - _RefKeyIndex: -1
      _Value: 1.2358007
    - _RefKeyIndex: -1
      _Value: 7.7364006
    - _RefKeyIndex: -1
      _Value: 14.237
    - _RefKeyIndex: -1
      _Value: 12.942728
    - _RefKeyIndex: -1
      _Value: 11.648455
    - _RefKeyIndex: -1
      _Value: 10.354182
    - _RefKeyIndex: -1
      _Value: 9.059909
    - _RefKeyIndex: -1
      _Value: 7.7656364
    - _RefKeyIndex: -1
      _Value: 6.4713635
    - _RefKeyIndex: -1
      _Value: 5.177091
    - _RefKeyIndex: -1
      _Value: 3.882818
    - _RefKeyIndex: -1
      _Value: 2.5885456
    - _RefKeyIndex: -1
      _Value: 1.2942724
    - _RefKeyIndex: 3
      _Value: 0
    ScaleXValues:
    - _RefKeyIndex: -1
      _Value: 1
    - _RefKeyIndex: -1
      _Value: 0.99285716
    - _RefKeyIndex: -1
      _Value: 0.98571426
    - _RefKeyIndex: -1
      _Value: 0.9785714
    - _RefKeyIndex: -1
      _Value: 0.9714286
    - _RefKeyIndex: -1
      _Value: 0.96428573
    - _RefKeyIndex: -1
      _Value: 0.95714283
    - _RefKeyIndex: -1
      _Value: 0.95
    - _RefKeyIndex: -1
      _Value: 0.94285715
    - _RefKeyIndex: -1
      _Value: 0.93571424
    - _RefKeyIndex: -1
      _Value: 0.9285714
    - _RefKeyIndex: -1
      _Value: 0.92142856
    - _RefKeyIndex: -1
      _Value: 0.9142857
    - _RefKeyIndex: -1
      _Value: 0.9071428
    - _RefKeyIndex: -1
      _Value: 0.9
    - _RefKeyIndex: -1
      _Value: 0.94
    - _RefKeyIndex: -1
      _Value: 0.98
    - _RefKeyIndex: -1
      _Value: 1.02
    - _RefKeyIndex: -1
      _Value: 1.0600001
    - _RefKeyIndex: -1
      _Value: 1.1
    - _RefKeyIndex: -1
      _Value: 1.0909091
    - _RefKeyIndex: -1
      _Value: 1.0818182
    - _RefKeyIndex: -1
      _Value: 1.0727273
    - _RefKeyIndex: -1
      _Value: 1.0636364
    - _RefKeyIndex: -1
      _Value: 1.0545455
    - _RefKeyIndex: -1
      _Value: 1.0454545
    - _RefKeyIndex: -1
      _Value: 1.0363636
    - _RefKeyIndex: -1
      _Value: 1.0272727
    - _RefKeyIndex: -1
      _Value: 1.0181818
    - _RefKeyIndex: -1
      _Value: 1.0090909
    - _RefKeyIndex: 3
      _Value: 0
    ScaleYValues:
    - _RefKeyIndex: -1
      _Value: 1
    - _RefKeyIndex: -1
      _Value: 0.99285716
    - _RefKeyIndex: -1
      _Value: 0.98571426
    - _RefKeyIndex: -1
      _Value: 0.9785714
    - _RefKeyIndex: -1
      _Value: 0.9714286
    - _RefKeyIndex: -1
      _Value: 0.96428573
    - _RefKeyIndex: -1
      _Value: 0.95714283
    - _RefKeyIndex: -1
      _Value: 0.95
    - _RefKeyIndex: -1
      _Value: 0.94285715
    - _RefKeyIndex: -1
      _Value: 0.93571424
    - _RefKeyIndex: -1
      _Value: 0.9285714
    - _RefKeyIndex: -1
      _Value: 0.92142856
    - _RefKeyIndex: -1
      _Value: 0.9142857
    - _RefKeyIndex: -1
      _Value: 0.9071428
    - _RefKeyIndex: -1
      _Value: 0.9
    - _RefKeyIndex: -1
      _Value: 0.94
    - _RefKeyIndex: -1
      _Value: 0.98
    - _RefKeyIndex: -1
      _Value: 1.02
    - _RefKeyIndex: -1
      _Value: 1.0600001
    - _RefKeyIndex: -1
      _Value: 1.1
    - _RefKeyIndex: -1
      _Value: 1.0909091
    - _RefKeyIndex: -1
      _Value: 1.0818182
    - _RefKeyIndex: -1
      _Value: 1.0727273
    - _RefKeyIndex: -1
      _Value: 1.0636364
    - _RefKeyIndex: -1
      _Value: 1.0545455
    - _RefKeyIndex: -1
      _Value: 1.0454545
    - _RefKeyIndex: -1
      _Value: 1.0363636
    - _RefKeyIndex: -1
      _Value: 1.0272727
    - _RefKeyIndex: -1
      _Value: 1.0181818
    - _RefKeyIndex: -1
      _Value: 1.0090909
    - _RefKeyIndex: 3
      _Value: 0
    TransValues: []
    PrioValues:
    - _RefKeyIndex: 0
      _Value: 0
    FlipHValues:
    - _RefKeyIndex: 0
      _Value: 0
    FlipVValues: []
    HideValues:
    - _RefKeyIndex: 0
      _Value: 0
    PartsColValues: []
    PartsPalValues: []
    VertexValues: []
    UserValues: []
    SoundValues: []
    ImageOffsetXValues: []
    ImageOffsetYValues: []
    ImageOffsetWValues: []
    ImageOffsetHValues: []
    OriginOffsetXValues: []
    OriginOffsetYValues: []
    _hasAttrFlags: 735
    HasTrancparency: 0
    FrameNum: 31
    imageFile:
      path: Assets/Resources/Atlas/PuzzleTile/PuzzleTile.png
      texture: {fileID: 2800000, guid: 00051aac90314b34982a652bd7ab76c2, type: 3}
      materials:
      - {fileID: 0}
      - {fileID: 0}
      - {fileID: 0}
      - {fileID: 0}
      - {fileID: 0}
      - {fileID: 2100000, guid: 68105edfbfe10654394bdef14d2d41d0, type: 2}
      - {fileID: 2100000, guid: 2879c887f9fc9614e9af0ab0d188f79a, type: 2}
      - {fileID: 0}
      - {fileID: 0}
      - {fileID: 0}
      - {fileID: 0}
      - {fileID: 0}
      - {fileID: 0}
      - {fileID: 0}
      - {fileID: 0}
      - {fileID: 0}
      - {fileID: 0}
      - {fileID: 0}
      - {fileID: 0}
      - {fileID: 0}
      - {fileID: 0}
      - {fileID: 0}
      - {fileID: 0}
      - {fileID: 0}
      - {fileID: 0}
      - {fileID: 0}
      - {fileID: 0}
      - {fileID: 0}
      - {fileID: 0}
      - {fileID: 0}
      - {fileID: 0}
      - {fileID: 0}
      - {fileID: 0}
      - {fileID: 0}
      - {fileID: 0}
      - {fileID: 0}
      - {fileID: 0}
      - {fileID: 0}
      - {fileID: 0}
      - {fileID: 0}
      - {fileID: 0}
      - {fileID: 0}
      - {fileID: 0}
      - {fileID: 0}
      - {fileID: 0}
      - {fileID: 0}
      - {fileID: 0}
      - {fileID: 0}
      - {fileID: 0}
      - {fileID: 0}
      width: 1024
      height: 2048
      bpp: 0
    UVs:
    - {x: 0.796875, y: 0.14208984}
    - {x: 0.8613281, y: 0.14208984}
    - {x: 0.8613281, y: 0.1171875}
    - {x: 0.796875, y: 0.1171875}
    OrgVertices:
    - {x: -33, y: 25, z: 0}
    - {x: 33, y: 25, z: 0}
    - {x: 33, y: -26, z: 0}
    - {x: -33, y: -26, z: 0}
  ImportedTime: 989920221
  ImportedTimeHigh: -1999271361
