%YAML 1.1
%TAG !u! tag:unity3d.com,2011:
--- !u!114 &11400000
MonoBehaviour:
  m_ObjectHideFlags: 0
  m_PrefabParentObject: {fileID: 0}
  m_PrefabInternal: {fileID: 0}
  m_GameObject: {fileID: 0}
  m_Enabled: 1
  m_EditorHideFlags: 0
  m_Script: {fileID: 11500000, guid: 0ae895f3348548989f1b4caf6cca149f, type: 3}
  m_Name: drop_paint_orange_ssa
  m_EditorClassIdentifier:
  OriginalPath: Assets/Resources/Atlas/PuzzleTile/drop_paint_orange.ssax
  UseScaleFactor: 0
  ScaleFactor: 1
  FPS: 30
  EndFrame: 39
  hvFlipForImageOnly: 1
  ImageList:
  - path: Assets/Resources/Atlas/PuzzleTile/PuzzleTile.png
    texture: {fileID: 2800000, guid: 00051aac90314b34982a652bd7ab76c2, type: 3}
    materials:
    - {fileID: 0}
    - {fileID: 0}
    - {fileID: 0}
    - {fileID: 0}
    - {fileID: 0}
    - {fileID: 2100000, guid: 68105edfbfe10654394bdef14d2d41d0, type: 2}
    - {fileID: 0}
    - {fileID: 0}
    - {fileID: 0}
    - {fileID: 0}
    - {fileID: 0}
    - {fileID: 0}
    - {fileID: 0}
    - {fileID: 0}
    - {fileID: 0}
    - {fileID: 0}
    - {fileID: 0}
    - {fileID: 0}
    - {fileID: 0}
    - {fileID: 0}
    - {fileID: 0}
    - {fileID: 0}
    - {fileID: 0}
    - {fileID: 0}
    - {fileID: 0}
    - {fileID: 0}
    - {fileID: 0}
    - {fileID: 0}
    - {fileID: 0}
    - {fileID: 0}
    - {fileID: 0}
    - {fileID: 0}
    - {fileID: 0}
    - {fileID: 0}
    - {fileID: 0}
    - {fileID: 0}
    - {fileID: 0}
    - {fileID: 0}
    - {fileID: 0}
    - {fileID: 0}
    - {fileID: 0}
    - {fileID: 0}
    - {fileID: 0}
    - {fileID: 0}
    - {fileID: 0}
    - {fileID: 0}
    - {fileID: 0}
    - {fileID: 0}
    - {fileID: 0}
    - {fileID: 0}
    width: 1024
    height: 2048
    bpp: 0
  PartList:
  - AnimeRes: {fileID: 11400000}
    Name: root
    Type: 1
    PicArea:
      Left: 0
      Top: 0
      Right: 0
      Bottom: 0
    OriginX: 0
    OriginY: 0
    MyId: 0
    ParentId: -1
    ChildNum: 0
    SrcObjId: 0
    SrcObjType: 0
    AlphaBlendType: 0
    InheritState:
      Type: 0
      Values:
      - Use: 1
        Rate: 1
      - Use: 1
        Rate: 1
      - Use: 1
        Rate: 1
      - Use: 1
        Rate: 1
      - Use: 1
        Rate: 1
      - Use: 1
        Rate: 1
      - Use: 1
        Rate: 1
      - Use: 0
        Rate: 0
      - Use: 0
        Rate: 0
      - Use: 0
        Rate: 0
      - Use: 1
        Rate: 1
      - Use: 1
        Rate: 1
      - Use: 1
        Rate: 1
      - Use: 1
        Rate: 1
      - Use: 1
        Rate: 1
      - Use: 1
        Rate: 1
      - Use: 1
        Rate: 1
      - Use: 1
        Rate: 1
      - Use: 1
        Rate: 1
      - Use: 1
        Rate: 1
      - Use: 1
        Rate: 1
    PosXKeys: []
    PosYKeys: []
    AngleKeys: []
    ScaleXKeys: []
    ScaleYKeys: []
    TransKeys: []
    PrioKeys: []
    FlipHKeys: []
    FlipVKeys: []
    HideKeys:
    - Value: 0
      _Time: 0
      _ValueType: 1
      _Curve:
        Type: 0
        StartT: 0
        StartV: 0
        EndT: 0
        EndV: 0
    PartsColKeys: []
    PartsPalKeys: []
    VertexKeys: []
    UserKeys: []
    SoundKeys: []
    ImageOffsetXKeys: []
    ImageOffsetYKeys: []
    ImageOffsetWKeys: []
    ImageOffsetHKeys: []
    OriginOffsetXKeys: []
    OriginOffsetYKeys: []
    PosXValues: []
    PosYValues: []
    AngleValues: []
    ScaleXValues: []
    ScaleYValues: []
    TransValues: []
    PrioValues: []
    FlipHValues: []
    FlipVValues: []
    HideValues:
    - _RefKeyIndex: 0
      _Value: 0
    - _RefKeyIndex: 0
      _Value: 0
    - _RefKeyIndex: 0
      _Value: 0
    - _RefKeyIndex: 0
      _Value: 0
    - _RefKeyIndex: 0
      _Value: 0
    - _RefKeyIndex: 0
      _Value: 0
    - _RefKeyIndex: 0
      _Value: 0
    - _RefKeyIndex: 0
      _Value: 0
    - _RefKeyIndex: 0
      _Value: 0
    - _RefKeyIndex: 0
      _Value: 0
    - _RefKeyIndex: 0
      _Value: 0
    - _RefKeyIndex: 0
      _Value: 0
    - _RefKeyIndex: 0
      _Value: 0
    - _RefKeyIndex: 0
      _Value: 0
    - _RefKeyIndex: 0
      _Value: 0
    - _RefKeyIndex: 0
      _Value: 0
    - _RefKeyIndex: 0
      _Value: 0
    - _RefKeyIndex: 0
      _Value: 0
    - _RefKeyIndex: 0
      _Value: 0
    - _RefKeyIndex: 0
      _Value: 0
    - _RefKeyIndex: 0
      _Value: 0
    - _RefKeyIndex: 0
      _Value: 0
    - _RefKeyIndex: 0
      _Value: 0
    - _RefKeyIndex: 0
      _Value: 0
    - _RefKeyIndex: 0
      _Value: 0
    - _RefKeyIndex: 0
      _Value: 0
    - _RefKeyIndex: 0
      _Value: 0
    - _RefKeyIndex: 0
      _Value: 0
    - _RefKeyIndex: 0
      _Value: 0
    - _RefKeyIndex: 0
      _Value: 0
    - _RefKeyIndex: 0
      _Value: 0
    - _RefKeyIndex: 0
      _Value: 0
    - _RefKeyIndex: 0
      _Value: 0
    - _RefKeyIndex: 0
      _Value: 0
    - _RefKeyIndex: 0
      _Value: 0
    - _RefKeyIndex: 0
      _Value: 0
    - _RefKeyIndex: 0
      _Value: 0
    - _RefKeyIndex: 0
      _Value: 0
    - _RefKeyIndex: 0
      _Value: 0
    - _RefKeyIndex: 0
      _Value: 0
    PartsColValues: []
    PartsPalValues: []
    VertexValues: []
    UserValues: []
    SoundValues: []
    ImageOffsetXValues: []
    ImageOffsetYValues: []
    ImageOffsetWValues: []
    ImageOffsetHValues: []
    OriginOffsetXValues: []
    OriginOffsetYValues: []
    _hasAttrFlags: 512
    HasTrancparency: 0
    FrameNum: 40
    imageFile:
      path:
      texture: {fileID: 0}
      materials: []
      width: 0
      height: 0
      bpp: 0
    UVs: []
    OrgVertices:
    - {x: -0, y: 0, z: 0}
    - {x: 0, y: 0, z: 0}
    - {x: 0, y: -0, z: 0}
    - {x: -0, y: -0, z: 0}
  - AnimeRes: {fileID: 11400000}
    Name: change_000
    Type: 0
    PicArea:
      Left: 1021
      Top: 1
      Right: 1022
      Bottom: 2
    OriginX: 0
    OriginY: 0
    MyId: 1
    ParentId: 0
    ChildNum: 0
    SrcObjId: 0
    SrcObjType: 0
    AlphaBlendType: 1
    InheritState:
      Type: 0
      Values:
      - Use: 1
        Rate: 1
      - Use: 1
        Rate: 1
      - Use: 1
        Rate: 1
      - Use: 1
        Rate: 1
      - Use: 1
        Rate: 1
      - Use: 1
        Rate: 1
      - Use: 1
        Rate: 1
      - Use: 0
        Rate: 0
      - Use: 0
        Rate: 0
      - Use: 0
        Rate: 0
      - Use: 1
        Rate: 1
      - Use: 1
        Rate: 1
      - Use: 1
        Rate: 1
      - Use: 1
        Rate: 1
      - Use: 1
        Rate: 1
      - Use: 1
        Rate: 1
      - Use: 1
        Rate: 1
      - Use: 1
        Rate: 1
      - Use: 1
        Rate: 1
      - Use: 1
        Rate: 1
      - Use: 1
        Rate: 1
    PosXKeys:
    - Value: 0
      _Time: 0
      _ValueType: 0
      _Curve:
        Type: 1
        StartT: 0
        StartV: 0
        EndT: 0
        EndV: 0
    PosYKeys:
    - Value: 0
      _Time: 0
      _ValueType: 0
      _Curve:
        Type: 1
        StartT: 0
        StartV: 0
        EndT: 0
        EndV: 0
    AngleKeys: []
    ScaleXKeys: []
    ScaleYKeys: []
    TransKeys: []
    PrioKeys: []
    FlipHKeys: []
    FlipVKeys: []
    HideKeys:
    - Value: 0
      _Time: 0
      _ValueType: 1
      _Curve:
        Type: 0
        StartT: 0
        StartV: 0
        EndT: 0
        EndV: 0
    PartsColKeys: []
    PartsPalKeys: []
    VertexKeys: []
    UserKeys: []
    SoundKeys: []
    ImageOffsetXKeys: []
    ImageOffsetYKeys: []
    ImageOffsetWKeys: []
    ImageOffsetHKeys: []
    OriginOffsetXKeys: []
    OriginOffsetYKeys: []
    PosXValues:
    - _RefKeyIndex: 0
      _Value: 0
    PosYValues:
    - _RefKeyIndex: 0
      _Value: 0
    AngleValues: []
    ScaleXValues: []
    ScaleYValues: []
    TransValues: []
    PrioValues: []
    FlipHValues: []
    FlipVValues: []
    HideValues:
    - _RefKeyIndex: 0
      _Value: 0
    - _RefKeyIndex: 0
      _Value: 0
    - _RefKeyIndex: 0
      _Value: 0
    - _RefKeyIndex: 0
      _Value: 0
    - _RefKeyIndex: 0
      _Value: 0
    - _RefKeyIndex: 0
      _Value: 0
    - _RefKeyIndex: 0
      _Value: 0
    - _RefKeyIndex: 0
      _Value: 0
    - _RefKeyIndex: 0
      _Value: 0
    - _RefKeyIndex: 0
      _Value: 0
    - _RefKeyIndex: 0
      _Value: 0
    - _RefKeyIndex: 0
      _Value: 0
    - _RefKeyIndex: 0
      _Value: 0
    - _RefKeyIndex: 0
      _Value: 0
    - _RefKeyIndex: 0
      _Value: 0
    - _RefKeyIndex: 0
      _Value: 0
    - _RefKeyIndex: 0
      _Value: 0
    - _RefKeyIndex: 0
      _Value: 0
    - _RefKeyIndex: 0
      _Value: 0
    - _RefKeyIndex: 0
      _Value: 0
    - _RefKeyIndex: 0
      _Value: 0
    - _RefKeyIndex: 0
      _Value: 0
    - _RefKeyIndex: 0
      _Value: 0
    - _RefKeyIndex: 0
      _Value: 0
    - _RefKeyIndex: 0
      _Value: 0
    - _RefKeyIndex: 0
      _Value: 0
    - _RefKeyIndex: 0
      _Value: 0
    - _RefKeyIndex: 0
      _Value: 0
    - _RefKeyIndex: 0
      _Value: 0
    - _RefKeyIndex: 0
      _Value: 0
    - _RefKeyIndex: 0
      _Value: 0
    - _RefKeyIndex: 0
      _Value: 0
    - _RefKeyIndex: 0
      _Value: 0
    - _RefKeyIndex: 0
      _Value: 0
    - _RefKeyIndex: 0
      _Value: 0
    - _RefKeyIndex: 0
      _Value: 0
    - _RefKeyIndex: 0
      _Value: 0
    - _RefKeyIndex: 0
      _Value: 0
    - _RefKeyIndex: 0
      _Value: 0
    - _RefKeyIndex: 0
      _Value: 0
    PartsColValues: []
    PartsPalValues: []
    VertexValues: []
    UserValues: []
    SoundValues: []
    ImageOffsetXValues: []
    ImageOffsetYValues: []
    ImageOffsetWValues: []
    ImageOffsetHValues: []
    OriginOffsetXValues: []
    OriginOffsetYValues: []
    _hasAttrFlags: 515
    HasTrancparency: 0
    FrameNum: 40
    imageFile:
      path: Assets/Resources/Atlas/PuzzleTile/PuzzleTile.png
      texture: {fileID: 2800000, guid: 00051aac90314b34982a652bd7ab76c2, type: 3}
      materials:
      - {fileID: 0}
      - {fileID: 0}
      - {fileID: 0}
      - {fileID: 0}
      - {fileID: 0}
      - {fileID: 2100000, guid: 68105edfbfe10654394bdef14d2d41d0, type: 2}
      - {fileID: 0}
      - {fileID: 0}
      - {fileID: 0}
      - {fileID: 0}
      - {fileID: 0}
      - {fileID: 0}
      - {fileID: 0}
      - {fileID: 0}
      - {fileID: 0}
      - {fileID: 0}
      - {fileID: 0}
      - {fileID: 0}
      - {fileID: 0}
      - {fileID: 0}
      - {fileID: 0}
      - {fileID: 0}
      - {fileID: 0}
      - {fileID: 0}
      - {fileID: 0}
      - {fileID: 0}
      - {fileID: 0}
      - {fileID: 0}
      - {fileID: 0}
      - {fileID: 0}
      - {fileID: 0}
      - {fileID: 0}
      - {fileID: 0}
      - {fileID: 0}
      - {fileID: 0}
      - {fileID: 0}
      - {fileID: 0}
      - {fileID: 0}
      - {fileID: 0}
      - {fileID: 0}
      - {fileID: 0}
      - {fileID: 0}
      - {fileID: 0}
      - {fileID: 0}
      - {fileID: 0}
      - {fileID: 0}
      - {fileID: 0}
      - {fileID: 0}
      - {fileID: 0}
      - {fileID: 0}
      width: 1024
      height: 2048
      bpp: 0
    UVs:
    - {x: 0.9970703, y: 0.9995117}
    - {x: 0.9980469, y: 0.9995117}
    - {x: 0.9980469, y: 0.99902344}
    - {x: 0.9970703, y: 0.99902344}
    OrgVertices:
    - {x: -0, y: 0, z: 0}
    - {x: 1, y: 0, z: 0}
    - {x: 1, y: -1, z: 0}
    - {x: -0, y: -1, z: 0}
  - AnimeRes: {fileID: 11400000}
    Name: null
    Type: 3
    PicArea:
      Left: 956
      Top: 1047
      Right: 957
      Bottom: 1048
    OriginX: 0
    OriginY: 0
    MyId: 2
    ParentId: 0
    ChildNum: 0
    SrcObjId: 0
    SrcObjType: 0
    AlphaBlendType: 1
    InheritState:
      Type: 0
      Values:
      - Use: 1
        Rate: 1
      - Use: 1
        Rate: 1
      - Use: 1
        Rate: 1
      - Use: 1
        Rate: 1
      - Use: 1
        Rate: 1
      - Use: 1
        Rate: 1
      - Use: 1
        Rate: 1
      - Use: 0
        Rate: 0
      - Use: 0
        Rate: 0
      - Use: 0
        Rate: 0
      - Use: 1
        Rate: 1
      - Use: 1
        Rate: 1
      - Use: 1
        Rate: 1
      - Use: 1
        Rate: 1
      - Use: 1
        Rate: 1
      - Use: 1
        Rate: 1
      - Use: 1
        Rate: 1
      - Use: 1
        Rate: 1
      - Use: 1
        Rate: 1
      - Use: 1
        Rate: 1
      - Use: 1
        Rate: 1
    PosXKeys:
    - Value: 0
      _Time: 0
      _ValueType: 0
      _Curve:
        Type: 1
        StartT: 0
        StartV: 0
        EndT: 0
        EndV: 0
    PosYKeys:
    - Value: 0
      _Time: 0
      _ValueType: 0
      _Curve:
        Type: 1
        StartT: 0
        StartV: 0
        EndT: 0
        EndV: 0
    AngleKeys:
    - Value: 0
      _Time: 0
      _ValueType: 0
      _Curve:
        Type: 1
        StartT: 0
        StartV: 0
        EndT: 0
        EndV: 0
    ScaleXKeys: []
    ScaleYKeys: []
    TransKeys: []
    PrioKeys: []
    FlipHKeys: []
    FlipVKeys: []
    HideKeys:
    - Value: 0
      _Time: 0
      _ValueType: 1
      _Curve:
        Type: 0
        StartT: 0
        StartV: 0
        EndT: 0
        EndV: 0
    PartsColKeys: []
    PartsPalKeys: []
    VertexKeys: []
    UserKeys: []
    SoundKeys: []
    ImageOffsetXKeys: []
    ImageOffsetYKeys: []
    ImageOffsetWKeys: []
    ImageOffsetHKeys: []
    OriginOffsetXKeys: []
    OriginOffsetYKeys: []
    PosXValues:
    - _RefKeyIndex: 0
      _Value: 0
    PosYValues:
    - _RefKeyIndex: 0
      _Value: 0
    AngleValues:
    - _RefKeyIndex: 0
      _Value: 0
    ScaleXValues: []
    ScaleYValues: []
    TransValues: []
    PrioValues: []
    FlipHValues: []
    FlipVValues: []
    HideValues:
    - _RefKeyIndex: 0
      _Value: 0
    - _RefKeyIndex: 0
      _Value: 0
    - _RefKeyIndex: 0
      _Value: 0
    - _RefKeyIndex: 0
      _Value: 0
    - _RefKeyIndex: 0
      _Value: 0
    - _RefKeyIndex: 0
      _Value: 0
    - _RefKeyIndex: 0
      _Value: 0
    - _RefKeyIndex: 0
      _Value: 0
    - _RefKeyIndex: 0
      _Value: 0
    - _RefKeyIndex: 0
      _Value: 0
    - _RefKeyIndex: 0
      _Value: 0
    - _RefKeyIndex: 0
      _Value: 0
    - _RefKeyIndex: 0
      _Value: 0
    - _RefKeyIndex: 0
      _Value: 0
    - _RefKeyIndex: 0
      _Value: 0
    - _RefKeyIndex: 0
      _Value: 0
    - _RefKeyIndex: 0
      _Value: 0
    - _RefKeyIndex: 0
      _Value: 0
    - _RefKeyIndex: 0
      _Value: 0
    - _RefKeyIndex: 0
      _Value: 0
    - _RefKeyIndex: 0
      _Value: 0
    - _RefKeyIndex: 0
      _Value: 0
    - _RefKeyIndex: 0
      _Value: 0
    - _RefKeyIndex: 0
      _Value: 0
    - _RefKeyIndex: 0
      _Value: 0
    - _RefKeyIndex: 0
      _Value: 0
    - _RefKeyIndex: 0
      _Value: 0
    - _RefKeyIndex: 0
      _Value: 0
    - _RefKeyIndex: 0
      _Value: 0
    - _RefKeyIndex: 0
      _Value: 0
    - _RefKeyIndex: 0
      _Value: 0
    - _RefKeyIndex: 0
      _Value: 0
    - _RefKeyIndex: 0
      _Value: 0
    - _RefKeyIndex: 0
      _Value: 0
    - _RefKeyIndex: 0
      _Value: 0
    - _RefKeyIndex: 0
      _Value: 0
    - _RefKeyIndex: 0
      _Value: 0
    - _RefKeyIndex: 0
      _Value: 0
    - _RefKeyIndex: 0
      _Value: 0
    - _RefKeyIndex: 0
      _Value: 0
    PartsColValues: []
    PartsPalValues: []
    VertexValues: []
    UserValues: []
    SoundValues: []
    ImageOffsetXValues: []
    ImageOffsetYValues: []
    ImageOffsetWValues: []
    ImageOffsetHValues: []
    OriginOffsetXValues: []
    OriginOffsetYValues: []
    _hasAttrFlags: 519
    HasTrancparency: 0
    FrameNum: 40
    imageFile:
      path: Assets/Resources/Atlas/PuzzleTile/PuzzleTile.png
      texture: {fileID: 2800000, guid: 00051aac90314b34982a652bd7ab76c2, type: 3}
      materials:
      - {fileID: 0}
      - {fileID: 0}
      - {fileID: 0}
      - {fileID: 0}
      - {fileID: 0}
      - {fileID: 2100000, guid: 68105edfbfe10654394bdef14d2d41d0, type: 2}
      - {fileID: 0}
      - {fileID: 0}
      - {fileID: 0}
      - {fileID: 0}
      - {fileID: 0}
      - {fileID: 0}
      - {fileID: 0}
      - {fileID: 0}
      - {fileID: 0}
      - {fileID: 0}
      - {fileID: 0}
      - {fileID: 0}
      - {fileID: 0}
      - {fileID: 0}
      - {fileID: 0}
      - {fileID: 0}
      - {fileID: 0}
      - {fileID: 0}
      - {fileID: 0}
      - {fileID: 0}
      - {fileID: 0}
      - {fileID: 0}
      - {fileID: 0}
      - {fileID: 0}
      - {fileID: 0}
      - {fileID: 0}
      - {fileID: 0}
      - {fileID: 0}
      - {fileID: 0}
      - {fileID: 0}
      - {fileID: 0}
      - {fileID: 0}
      - {fileID: 0}
      - {fileID: 0}
      - {fileID: 0}
      - {fileID: 0}
      - {fileID: 0}
      - {fileID: 0}
      - {fileID: 0}
      - {fileID: 0}
      - {fileID: 0}
      - {fileID: 0}
      - {fileID: 0}
      - {fileID: 0}
      width: 1024
      height: 2048
      bpp: 0
    UVs: []
    OrgVertices:
    - {x: -0, y: 0, z: 0}
    - {x: 1, y: 0, z: 0}
    - {x: 1, y: -1, z: 0}
    - {x: -0, y: -1, z: 0}
  - AnimeRes: {fileID: 11400000}
    Name: ring0
    Type: 0
    PicArea:
      Left: 956
      Top: 1181
      Right: 1022
      Bottom: 1247
    OriginX: 33
    OriginY: 33
    MyId: 3
    ParentId: 2
    ChildNum: 0
    SrcObjId: 0
    SrcObjType: 0
    AlphaBlendType: 1
    InheritState:
      Type: 0
      Values:
      - Use: 1
        Rate: 1
      - Use: 1
        Rate: 1
      - Use: 1
        Rate: 1
      - Use: 1
        Rate: 1
      - Use: 1
        Rate: 1
      - Use: 1
        Rate: 1
      - Use: 1
        Rate: 1
      - Use: 0
        Rate: 0
      - Use: 0
        Rate: 0
      - Use: 0
        Rate: 0
      - Use: 1
        Rate: 1
      - Use: 1
        Rate: 1
      - Use: 1
        Rate: 1
      - Use: 1
        Rate: 1
      - Use: 1
        Rate: 1
      - Use: 1
        Rate: 1
      - Use: 1
        Rate: 1
      - Use: 1
        Rate: 1
      - Use: 1
        Rate: 1
      - Use: 1
        Rate: 1
      - Use: 1
        Rate: 1
    PosXKeys:
    - Value: 0
      _Time: 0
      _ValueType: 0
      _Curve:
        Type: 1
        StartT: 0
        StartV: 0
        EndT: 0
        EndV: 0
    - Value: 0
      _Time: 25
      _ValueType: 0
      _Curve:
        Type: 1
        StartT: 0
        StartV: 0
        EndT: 0
        EndV: 0
    PosYKeys:
    - Value: 0
      _Time: 0
      _ValueType: 0
      _Curve:
        Type: 1
        StartT: 0
        StartV: 0
        EndT: 0
        EndV: 0
    - Value: 0
      _Time: 25
      _ValueType: 0
      _Curve:
        Type: 1
        StartT: 0
        StartV: 0
        EndT: 0
        EndV: 0
    AngleKeys:
    - Value: 0
      _Time: 0
      _ValueType: 0
      _Curve:
        Type: 1
        StartT: 0
        StartV: 0
        EndT: 0
        EndV: 0
    - Value: 180
      _Time: 25
      _ValueType: 0
      _Curve:
        Type: 1
        StartT: 0
        StartV: 0
        EndT: 0
        EndV: 0
    ScaleXKeys:
    - Value: 0
      _Time: 0
      _ValueType: 0
      _Curve:
        Type: 1
        StartT: 0
        StartV: 0
        EndT: 0
        EndV: 0
    - Value: 2
      _Time: 25
      _ValueType: 0
      _Curve:
        Type: 1
        StartT: 0
        StartV: 0
        EndT: 0
        EndV: 0
    ScaleYKeys:
    - Value: 0
      _Time: 0
      _ValueType: 0
      _Curve:
        Type: 1
        StartT: 0
        StartV: 0
        EndT: 0
        EndV: 0
    - Value: 2
      _Time: 25
      _ValueType: 0
      _Curve:
        Type: 1
        StartT: 0
        StartV: 0
        EndT: 0
        EndV: 0
    TransKeys:
    - Value: 1
      _Time: 0
      _ValueType: 0
      _Curve:
        Type: 1
        StartT: 0
        StartV: 0
        EndT: 0
        EndV: 0
    - Value: 0
      _Time: 25
      _ValueType: 0
      _Curve:
        Type: 1
        StartT: 0
        StartV: 0
        EndT: 0
        EndV: 0
    PrioKeys: []
    FlipHKeys: []
    FlipVKeys: []
    HideKeys:
    - Value: 0
      _Time: 0
      _ValueType: 1
      _Curve:
        Type: 0
        StartT: 0
        StartV: 0
        EndT: 0
        EndV: 0
    - Value: 0
      _Time: 25
      _ValueType: 1
      _Curve:
        Type: 0
        StartT: 0
        StartV: 0
        EndT: 0
        EndV: 0
    PartsColKeys: []
    PartsPalKeys: []
    VertexKeys: []
    UserKeys: []
    SoundKeys: []
    ImageOffsetXKeys: []
    ImageOffsetYKeys: []
    ImageOffsetWKeys: []
    ImageOffsetHKeys: []
    OriginOffsetXKeys: []
    OriginOffsetYKeys: []
    PosXValues:
    - _RefKeyIndex: -1
      _Value: 0
    PosYValues:
    - _RefKeyIndex: -1
      _Value: 0
    AngleValues:
    - _RefKeyIndex: -1
      _Value: 0
    - _RefKeyIndex: -1
      _Value: 7.2
    - _RefKeyIndex: -1
      _Value: 14.4
    - _RefKeyIndex: -1
      _Value: 21.6
    - _RefKeyIndex: -1
      _Value: 28.8
    - _RefKeyIndex: -1
      _Value: 36
    - _RefKeyIndex: -1
      _Value: 43.2
    - _RefKeyIndex: -1
      _Value: 50.4
    - _RefKeyIndex: -1
      _Value: 57.6
    - _RefKeyIndex: -1
      _Value: 64.8
    - _RefKeyIndex: -1
      _Value: 72
    - _RefKeyIndex: -1
      _Value: 79.2
    - _RefKeyIndex: -1
      _Value: 86.4
    - _RefKeyIndex: -1
      _Value: 93.6
    - _RefKeyIndex: -1
      _Value: 100.8
    - _RefKeyIndex: -1
      _Value: 108.00001
    - _RefKeyIndex: -1
      _Value: 115.2
    - _RefKeyIndex: -1
      _Value: 122.4
    - _RefKeyIndex: -1
      _Value: 129.6
    - _RefKeyIndex: -1
      _Value: 136.8
    - _RefKeyIndex: -1
      _Value: 144
    - _RefKeyIndex: -1
      _Value: 151.2
    - _RefKeyIndex: -1
      _Value: 158.4
    - _RefKeyIndex: -1
      _Value: 165.6
    - _RefKeyIndex: -1
      _Value: 172.8
    - _RefKeyIndex: 1
      _Value: 0
    - _RefKeyIndex: 1
      _Value: 0
    - _RefKeyIndex: 1
      _Value: 0
    - _RefKeyIndex: 1
      _Value: 0
    - _RefKeyIndex: 1
      _Value: 0
    - _RefKeyIndex: 1
      _Value: 0
    - _RefKeyIndex: 1
      _Value: 0
    - _RefKeyIndex: 1
      _Value: 0
    - _RefKeyIndex: 1
      _Value: 0
    - _RefKeyIndex: 1
      _Value: 0
    - _RefKeyIndex: 1
      _Value: 0
    - _RefKeyIndex: 1
      _Value: 0
    - _RefKeyIndex: 1
      _Value: 0
    - _RefKeyIndex: 1
      _Value: 0
    - _RefKeyIndex: 1
      _Value: 0
    ScaleXValues:
    - _RefKeyIndex: -1
      _Value: 0
    - _RefKeyIndex: -1
      _Value: 0.08
    - _RefKeyIndex: -1
      _Value: 0.16
    - _RefKeyIndex: -1
      _Value: 0.24
    - _RefKeyIndex: -1
      _Value: 0.32
    - _RefKeyIndex: -1
      _Value: 0.4
    - _RefKeyIndex: -1
      _Value: 0.48
    - _RefKeyIndex: -1
      _Value: 0.56
    - _RefKeyIndex: -1
      _Value: 0.64
    - _RefKeyIndex: -1
      _Value: 0.72
    - _RefKeyIndex: -1
      _Value: 0.8
    - _RefKeyIndex: -1
      _Value: 0.88
    - _RefKeyIndex: -1
      _Value: 0.96
    - _RefKeyIndex: -1
      _Value: 1.04
    - _RefKeyIndex: -1
      _Value: 1.12
    - _RefKeyIndex: -1
      _Value: 1.2
    - _RefKeyIndex: -1
      _Value: 1.28
    - _RefKeyIndex: -1
      _Value: 1.36
    - _RefKeyIndex: -1
      _Value: 1.44
    - _RefKeyIndex: -1
      _Value: 1.52
    - _RefKeyIndex: -1
      _Value: 1.6
    - _RefKeyIndex: -1
      _Value: 1.68
    - _RefKeyIndex: -1
      _Value: 1.76
    - _RefKeyIndex: -1
      _Value: 1.84
    - _RefKeyIndex: -1
      _Value: 1.92
    - _RefKeyIndex: 1
      _Value: 0
    - _RefKeyIndex: 1
      _Value: 0
    - _RefKeyIndex: 1
      _Value: 0
    - _RefKeyIndex: 1
      _Value: 0
    - _RefKeyIndex: 1
      _Value: 0
    - _RefKeyIndex: 1
      _Value: 0
    - _RefKeyIndex: 1
      _Value: 0
    - _RefKeyIndex: 1
      _Value: 0
    - _RefKeyIndex: 1
      _Value: 0
    - _RefKeyIndex: 1
      _Value: 0
    - _RefKeyIndex: 1
      _Value: 0
    - _RefKeyIndex: 1
      _Value: 0
    - _RefKeyIndex: 1
      _Value: 0
    - _RefKeyIndex: 1
      _Value: 0
    - _RefKeyIndex: 1
      _Value: 0
    ScaleYValues:
    - _RefKeyIndex: -1
      _Value: 0
    - _RefKeyIndex: -1
      _Value: 0.08
    - _RefKeyIndex: -1
      _Value: 0.16
    - _RefKeyIndex: -1
      _Value: 0.24
    - _RefKeyIndex: -1
      _Value: 0.32
    - _RefKeyIndex: -1
      _Value: 0.4
    - _RefKeyIndex: -1
      _Value: 0.48
    - _RefKeyIndex: -1
      _Value: 0.56
    - _RefKeyIndex: -1
      _Value: 0.64
    - _RefKeyIndex: -1
      _Value: 0.72
    - _RefKeyIndex: -1
      _Value: 0.8
    - _RefKeyIndex: -1
      _Value: 0.88
    - _RefKeyIndex: -1
      _Value: 0.96
    - _RefKeyIndex: -1
      _Value: 1.04
    - _RefKeyIndex: -1
      _Value: 1.12
    - _RefKeyIndex: -1
      _Value: 1.2
    - _RefKeyIndex: -1
      _Value: 1.28
    - _RefKeyIndex: -1
      _Value: 1.36
    - _RefKeyIndex: -1
      _Value: 1.44
    - _RefKeyIndex: -1
      _Value: 1.52
    - _RefKeyIndex: -1
      _Value: 1.6
    - _RefKeyIndex: -1
      _Value: 1.68
    - _RefKeyIndex: -1
      _Value: 1.76
    - _RefKeyIndex: -1
      _Value: 1.84
    - _RefKeyIndex: -1
      _Value: 1.92
    - _RefKeyIndex: 1
      _Value: 0
    - _RefKeyIndex: 1
      _Value: 0
    - _RefKeyIndex: 1
      _Value: 0
    - _RefKeyIndex: 1
      _Value: 0
    - _RefKeyIndex: 1
      _Value: 0
    - _RefKeyIndex: 1
      _Value: 0
    - _RefKeyIndex: 1
      _Value: 0
    - _RefKeyIndex: 1
      _Value: 0
    - _RefKeyIndex: 1
      _Value: 0
    - _RefKeyIndex: 1
      _Value: 0
    - _RefKeyIndex: 1
      _Value: 0
    - _RefKeyIndex: 1
      _Value: 0
    - _RefKeyIndex: 1
      _Value: 0
    - _RefKeyIndex: 1
      _Value: 0
    - _RefKeyIndex: 1
      _Value: 0
    TransValues:
    - _RefKeyIndex: -1
      _Value: 1
    - _RefKeyIndex: -1
      _Value: 0.96
    - _RefKeyIndex: -1
      _Value: 0.92
    - _RefKeyIndex: -1
      _Value: 0.88
    - _RefKeyIndex: -1
      _Value: 0.84000003
    - _RefKeyIndex: -1
      _Value: 0.8
    - _RefKeyIndex: -1
      _Value: 0.76
    - _RefKeyIndex: -1
      _Value: 0.72
    - _RefKeyIndex: -1
      _Value: 0.68
    - _RefKeyIndex: -1
      _Value: 0.64
    - _RefKeyIndex: -1
      _Value: 0.6
    - _RefKeyIndex: -1
      _Value: 0.56
    - _RefKeyIndex: -1
      _Value: 0.52
    - _RefKeyIndex: -1
      _Value: 0.48000002
    - _RefKeyIndex: -1
      _Value: 0.44
    - _RefKeyIndex: -1
      _Value: 0.39999998
    - _RefKeyIndex: -1
      _Value: 0.36
    - _RefKeyIndex: -1
      _Value: 0.32
    - _RefKeyIndex: -1
      _Value: 0.27999997
    - _RefKeyIndex: -1
      _Value: 0.24000001
    - _RefKeyIndex: -1
      _Value: 0.19999999
    - _RefKeyIndex: -1
      _Value: 0.16000003
    - _RefKeyIndex: -1
      _Value: 0.120000005
    - _RefKeyIndex: -1
      _Value: 0.07999998
    - _RefKeyIndex: -1
      _Value: 0.04000002
    - _RefKeyIndex: 1
      _Value: 0
    - _RefKeyIndex: 1
      _Value: 0
    - _RefKeyIndex: 1
      _Value: 0
    - _RefKeyIndex: 1
      _Value: 0
    - _RefKeyIndex: 1
      _Value: 0
    - _RefKeyIndex: 1
      _Value: 0
    - _RefKeyIndex: 1
      _Value: 0
    - _RefKeyIndex: 1
      _Value: 0
    - _RefKeyIndex: 1
      _Value: 0
    - _RefKeyIndex: 1
      _Value: 0
    - _RefKeyIndex: 1
      _Value: 0
    - _RefKeyIndex: 1
      _Value: 0
    - _RefKeyIndex: 1
      _Value: 0
    - _RefKeyIndex: 1
      _Value: 0
    - _RefKeyIndex: 1
      _Value: 0
    PrioValues: []
    FlipHValues: []
    FlipVValues: []
    HideValues:
    - _RefKeyIndex: 0
      _Value: 0
    PartsColValues: []
    PartsPalValues: []
    VertexValues: []
    UserValues: []
    SoundValues: []
    ImageOffsetXValues: []
    ImageOffsetYValues: []
    ImageOffsetWValues: []
    ImageOffsetHValues: []
    OriginOffsetXValues: []
    OriginOffsetYValues: []
    _hasAttrFlags: 575
    HasTrancparency: 1
    FrameNum: 40
    imageFile:
      path: Assets/Resources/Atlas/PuzzleTile/PuzzleTile.png
      texture: {fileID: 2800000, guid: 00051aac90314b34982a652bd7ab76c2, type: 3}
      materials:
      - {fileID: 0}
      - {fileID: 0}
      - {fileID: 0}
      - {fileID: 0}
      - {fileID: 0}
      - {fileID: 2100000, guid: 68105edfbfe10654394bdef14d2d41d0, type: 2}
      - {fileID: 0}
      - {fileID: 0}
      - {fileID: 0}
      - {fileID: 0}
      - {fileID: 0}
      - {fileID: 0}
      - {fileID: 0}
      - {fileID: 0}
      - {fileID: 0}
      - {fileID: 0}
      - {fileID: 0}
      - {fileID: 0}
      - {fileID: 0}
      - {fileID: 0}
      - {fileID: 0}
      - {fileID: 0}
      - {fileID: 0}
      - {fileID: 0}
      - {fileID: 0}
      - {fileID: 0}
      - {fileID: 0}
      - {fileID: 0}
      - {fileID: 0}
      - {fileID: 0}
      - {fileID: 0}
      - {fileID: 0}
      - {fileID: 0}
      - {fileID: 0}
      - {fileID: 0}
      - {fileID: 0}
      - {fileID: 0}
      - {fileID: 0}
      - {fileID: 0}
      - {fileID: 0}
      - {fileID: 0}
      - {fileID: 0}
      - {fileID: 0}
      - {fileID: 0}
      - {fileID: 0}
      - {fileID: 0}
      - {fileID: 0}
      - {fileID: 0}
      - {fileID: 0}
      - {fileID: 0}
      width: 1024
      height: 2048
      bpp: 0
    UVs:
    - {x: 0.93359375, y: 0.42333984}
    - {x: 0.9980469, y: 0.42333984}
    - {x: 0.9980469, y: 0.39111328}
    - {x: 0.93359375, y: 0.39111328}
    OrgVertices:
    - {x: -33, y: 33, z: 0}
    - {x: 33, y: 33, z: 0}
    - {x: 33, y: -33, z: 0}
    - {x: -33, y: -33, z: 0}
  - AnimeRes: {fileID: 11400000}
    Name: ring1
    Type: 0
    PicArea:
      Left: 956
      Top: 1181
      Right: 1022
      Bottom: 1247
    OriginX: 33
    OriginY: 33
    MyId: 4
    ParentId: 2
    ChildNum: 0
    SrcObjId: 0
    SrcObjType: 0
    AlphaBlendType: 1
    InheritState:
      Type: 0
      Values:
      - Use: 1
        Rate: 1
      - Use: 1
        Rate: 1
      - Use: 1
        Rate: 1
      - Use: 1
        Rate: 1
      - Use: 1
        Rate: 1
      - Use: 1
        Rate: 1
      - Use: 1
        Rate: 1
      - Use: 0
        Rate: 0
      - Use: 0
        Rate: 0
      - Use: 0
        Rate: 0
      - Use: 1
        Rate: 1
      - Use: 1
        Rate: 1
      - Use: 1
        Rate: 1
      - Use: 1
        Rate: 1
      - Use: 1
        Rate: 1
      - Use: 1
        Rate: 1
      - Use: 1
        Rate: 1
      - Use: 1
        Rate: 1
      - Use: 1
        Rate: 1
      - Use: 1
        Rate: 1
      - Use: 1
        Rate: 1
    PosXKeys:
    - Value: 0
      _Time: 4
      _ValueType: 0
      _Curve:
        Type: 1
        StartT: 0
        StartV: 0
        EndT: 0
        EndV: 0
    - Value: 0
      _Time: 29
      _ValueType: 0
      _Curve:
        Type: 1
        StartT: 0
        StartV: 0
        EndT: 0
        EndV: 0
    PosYKeys:
    - Value: 0
      _Time: 4
      _ValueType: 0
      _Curve:
        Type: 1
        StartT: 0
        StartV: 0
        EndT: 0
        EndV: 0
    - Value: 0
      _Time: 29
      _ValueType: 0
      _Curve:
        Type: 1
        StartT: 0
        StartV: 0
        EndT: 0
        EndV: 0
    AngleKeys:
    - Value: 0
      _Time: 4
      _ValueType: 0
      _Curve:
        Type: 1
        StartT: 0
        StartV: 0
        EndT: 0
        EndV: 0
    - Value: 160
      _Time: 29
      _ValueType: 0
      _Curve:
        Type: 1
        StartT: 0
        StartV: 0
        EndT: 0
        EndV: 0
    ScaleXKeys:
    - Value: 0
      _Time: 4
      _ValueType: 0
      _Curve:
        Type: 1
        StartT: 0
        StartV: 0
        EndT: 0
        EndV: 0
    - Value: 2
      _Time: 29
      _ValueType: 0
      _Curve:
        Type: 1
        StartT: 0
        StartV: 0
        EndT: 0
        EndV: 0
    ScaleYKeys:
    - Value: 0
      _Time: 4
      _ValueType: 0
      _Curve:
        Type: 1
        StartT: 0
        StartV: 0
        EndT: 0
        EndV: 0
    - Value: 2
      _Time: 29
      _ValueType: 0
      _Curve:
        Type: 1
        StartT: 0
        StartV: 0
        EndT: 0
        EndV: 0
    TransKeys:
    - Value: 0.6
      _Time: 4
      _ValueType: 0
      _Curve:
        Type: 1
        StartT: 0
        StartV: 0
        EndT: 0
        EndV: 0
    - Value: 0
      _Time: 29
      _ValueType: 0
      _Curve:
        Type: 1
        StartT: 0
        StartV: 0
        EndT: 0
        EndV: 0
    PrioKeys: []
    FlipHKeys: []
    FlipVKeys: []
    HideKeys:
    - Value: 0
      _Time: 4
      _ValueType: 1
      _Curve:
        Type: 0
        StartT: 0
        StartV: 0
        EndT: 0
        EndV: 0
    - Value: 0
      _Time: 29
      _ValueType: 1
      _Curve:
        Type: 0
        StartT: 0
        StartV: 0
        EndT: 0
        EndV: 0
    PartsColKeys: []
    PartsPalKeys: []
    VertexKeys: []
    UserKeys: []
    SoundKeys: []
    ImageOffsetXKeys: []
    ImageOffsetYKeys: []
    ImageOffsetWKeys: []
    ImageOffsetHKeys: []
    OriginOffsetXKeys: []
    OriginOffsetYKeys: []
    PosXValues:
    - _RefKeyIndex: 0
      _Value: 0
    PosYValues:
    - _RefKeyIndex: 0
      _Value: 0
    AngleValues:
    - _RefKeyIndex: 0
      _Value: 0
    - _RefKeyIndex: 0
      _Value: 0
    - _RefKeyIndex: 0
      _Value: 0
    - _RefKeyIndex: 0
      _Value: 0
    - _RefKeyIndex: -1
      _Value: 0
    - _RefKeyIndex: -1
      _Value: 6.3999996
    - _RefKeyIndex: -1
      _Value: 12.799999
    - _RefKeyIndex: -1
      _Value: 19.199999
    - _RefKeyIndex: -1
      _Value: 25.599998
    - _RefKeyIndex: -1
      _Value: 32
    - _RefKeyIndex: -1
      _Value: 38.399998
    - _RefKeyIndex: -1
      _Value: 44.8
    - _RefKeyIndex: -1
      _Value: 51.199997
    - _RefKeyIndex: -1
      _Value: 57.600002
    - _RefKeyIndex: -1
      _Value: 64
    - _RefKeyIndex: -1
      _Value: 70.4
    - _RefKeyIndex: -1
      _Value: 76.799995
    - _RefKeyIndex: -1
      _Value: 83.2
    - _RefKeyIndex: -1
      _Value: 89.6
    - _RefKeyIndex: -1
      _Value: 96
    - _RefKeyIndex: -1
      _Value: 102.399994
    - _RefKeyIndex: -1
      _Value: 108.8
    - _RefKeyIndex: -1
      _Value: 115.200005
    - _RefKeyIndex: -1
      _Value: 121.6
    - _RefKeyIndex: -1
      _Value: 128
    - _RefKeyIndex: -1
      _Value: 134.4
    - _RefKeyIndex: -1
      _Value: 140.8
    - _RefKeyIndex: -1
      _Value: 147.2
    - _RefKeyIndex: -1
      _Value: 153.59999
    - _RefKeyIndex: 1
      _Value: 0
    - _RefKeyIndex: 1
      _Value: 0
    - _RefKeyIndex: 1
      _Value: 0
    - _RefKeyIndex: 1
      _Value: 0
    - _RefKeyIndex: 1
      _Value: 0
    - _RefKeyIndex: 1
      _Value: 0
    - _RefKeyIndex: 1
      _Value: 0
    - _RefKeyIndex: 1
      _Value: 0
    - _RefKeyIndex: 1
      _Value: 0
    - _RefKeyIndex: 1
      _Value: 0
    - _RefKeyIndex: 1
      _Value: 0
    ScaleXValues:
    - _RefKeyIndex: 0
      _Value: 0
    - _RefKeyIndex: 0
      _Value: 0
    - _RefKeyIndex: 0
      _Value: 0
    - _RefKeyIndex: 0
      _Value: 0
    - _RefKeyIndex: -1
      _Value: 0
    - _RefKeyIndex: -1
      _Value: 0.08
    - _RefKeyIndex: -1
      _Value: 0.16
    - _RefKeyIndex: -1
      _Value: 0.24
    - _RefKeyIndex: -1
      _Value: 0.32
    - _RefKeyIndex: -1
      _Value: 0.4
    - _RefKeyIndex: -1
      _Value: 0.48
    - _RefKeyIndex: -1
      _Value: 0.56
    - _RefKeyIndex: -1
      _Value: 0.64
    - _RefKeyIndex: -1
      _Value: 0.72
    - _RefKeyIndex: -1
      _Value: 0.8
    - _RefKeyIndex: -1
      _Value: 0.88
    - _RefKeyIndex: -1
      _Value: 0.96
    - _RefKeyIndex: -1
      _Value: 1.04
    - _RefKeyIndex: -1
      _Value: 1.12
    - _RefKeyIndex: -1
      _Value: 1.2
    - _RefKeyIndex: -1
      _Value: 1.28
    - _RefKeyIndex: -1
      _Value: 1.36
    - _RefKeyIndex: -1
      _Value: 1.44
    - _RefKeyIndex: -1
      _Value: 1.52
    - _RefKeyIndex: -1
      _Value: 1.6
    - _RefKeyIndex: -1
      _Value: 1.68
    - _RefKeyIndex: -1
      _Value: 1.76
    - _RefKeyIndex: -1
      _Value: 1.84
    - _RefKeyIndex: -1
      _Value: 1.92
    - _RefKeyIndex: 1
      _Value: 0
    - _RefKeyIndex: 1
      _Value: 0
    - _RefKeyIndex: 1
      _Value: 0
    - _RefKeyIndex: 1
      _Value: 0
    - _RefKeyIndex: 1
      _Value: 0
    - _RefKeyIndex: 1
      _Value: 0
    - _RefKeyIndex: 1
      _Value: 0
    - _RefKeyIndex: 1
      _Value: 0
    - _RefKeyIndex: 1
      _Value: 0
    - _RefKeyIndex: 1
      _Value: 0
    - _RefKeyIndex: 1
      _Value: 0
    ScaleYValues:
    - _RefKeyIndex: 0
      _Value: 0
    - _RefKeyIndex: 0
      _Value: 0
    - _RefKeyIndex: 0
      _Value: 0
    - _RefKeyIndex: 0
      _Value: 0
    - _RefKeyIndex: -1
      _Value: 0
    - _RefKeyIndex: -1
      _Value: 0.08
    - _RefKeyIndex: -1
      _Value: 0.16
    - _RefKeyIndex: -1
      _Value: 0.24
    - _RefKeyIndex: -1
      _Value: 0.32
    - _RefKeyIndex: -1
      _Value: 0.4
    - _RefKeyIndex: -1
      _Value: 0.48
    - _RefKeyIndex: -1
      _Value: 0.56
    - _RefKeyIndex: -1
      _Value: 0.64
    - _RefKeyIndex: -1
      _Value: 0.72
    - _RefKeyIndex: -1
      _Value: 0.8
    - _RefKeyIndex: -1
      _Value: 0.88
    - _RefKeyIndex: -1
      _Value: 0.96
    - _RefKeyIndex: -1
      _Value: 1.04
    - _RefKeyIndex: -1
      _Value: 1.12
    - _RefKeyIndex: -1
      _Value: 1.2
    - _RefKeyIndex: -1
      _Value: 1.28
    - _RefKeyIndex: -1
      _Value: 1.36
    - _RefKeyIndex: -1
      _Value: 1.44
    - _RefKeyIndex: -1
      _Value: 1.52
    - _RefKeyIndex: -1
      _Value: 1.6
    - _RefKeyIndex: -1
      _Value: 1.68
    - _RefKeyIndex: -1
      _Value: 1.76
    - _RefKeyIndex: -1
      _Value: 1.84
    - _RefKeyIndex: -1
      _Value: 1.92
    - _RefKeyIndex: 1
      _Value: 0
    - _RefKeyIndex: 1
      _Value: 0
    - _RefKeyIndex: 1
      _Value: 0
    - _RefKeyIndex: 1
      _Value: 0
    - _RefKeyIndex: 1
      _Value: 0
    - _RefKeyIndex: 1
      _Value: 0
    - _RefKeyIndex: 1
      _Value: 0
    - _RefKeyIndex: 1
      _Value: 0
    - _RefKeyIndex: 1
      _Value: 0
    - _RefKeyIndex: 1
      _Value: 0
    - _RefKeyIndex: 1
      _Value: 0
    TransValues:
    - _RefKeyIndex: 0
      _Value: 0
    - _RefKeyIndex: 0
      _Value: 0
    - _RefKeyIndex: 0
      _Value: 0
    - _RefKeyIndex: 0
      _Value: 0
    - _RefKeyIndex: -1
      _Value: 0.6
    - _RefKeyIndex: -1
      _Value: 0.57600003
    - _RefKeyIndex: -1
      _Value: 0.55200005
    - _RefKeyIndex: -1
      _Value: 0.528
    - _RefKeyIndex: -1
      _Value: 0.504
    - _RefKeyIndex: -1
      _Value: 0.48000002
    - _RefKeyIndex: -1
      _Value: 0.45600003
    - _RefKeyIndex: -1
      _Value: 0.432
    - _RefKeyIndex: -1
      _Value: 0.40800002
    - _RefKeyIndex: -1
      _Value: 0.384
    - _RefKeyIndex: -1
      _Value: 0.36
    - _RefKeyIndex: -1
      _Value: 0.33600003
    - _RefKeyIndex: -1
      _Value: 0.312
    - _RefKeyIndex: -1
      _Value: 0.28800002
    - _RefKeyIndex: -1
      _Value: 0.264
    - _RefKeyIndex: -1
      _Value: 0.24
    - _RefKeyIndex: -1
      _Value: 0.21600002
    - _RefKeyIndex: -1
      _Value: 0.192
    - _RefKeyIndex: -1
      _Value: 0.16799998
    - _RefKeyIndex: -1
      _Value: 0.14400001
    - _RefKeyIndex: -1
      _Value: 0.12
    - _RefKeyIndex: -1
      _Value: 0.09600002
    - _RefKeyIndex: -1
      _Value: 0.072000004
    - _RefKeyIndex: -1
      _Value: 0.047999993
    - _RefKeyIndex: -1
      _Value: 0.024000013
    - _RefKeyIndex: 1
      _Value: 0
    - _RefKeyIndex: 1
      _Value: 0
    - _RefKeyIndex: 1
      _Value: 0
    - _RefKeyIndex: 1
      _Value: 0
    - _RefKeyIndex: 1
      _Value: 0
    - _RefKeyIndex: 1
      _Value: 0
    - _RefKeyIndex: 1
      _Value: 0
    - _RefKeyIndex: 1
      _Value: 0
    - _RefKeyIndex: 1
      _Value: 0
    - _RefKeyIndex: 1
      _Value: 0
    - _RefKeyIndex: 1
      _Value: 0
    PrioValues: []
    FlipHValues: []
    FlipVValues: []
    HideValues:
    - _RefKeyIndex: 0
      _Value: 0
    PartsColValues: []
    PartsPalValues: []
    VertexValues: []
    UserValues: []
    SoundValues: []
    ImageOffsetXValues: []
    ImageOffsetYValues: []
    ImageOffsetWValues: []
    ImageOffsetHValues: []
    OriginOffsetXValues: []
    OriginOffsetYValues: []
    _hasAttrFlags: 575
    HasTrancparency: 1
    FrameNum: 40
    imageFile:
      path: Assets/Resources/Atlas/PuzzleTile/PuzzleTile.png
      texture: {fileID: 2800000, guid: 00051aac90314b34982a652bd7ab76c2, type: 3}
      materials:
      - {fileID: 0}
      - {fileID: 0}
      - {fileID: 0}
      - {fileID: 0}
      - {fileID: 0}
      - {fileID: 2100000, guid: 68105edfbfe10654394bdef14d2d41d0, type: 2}
      - {fileID: 0}
      - {fileID: 0}
      - {fileID: 0}
      - {fileID: 0}
      - {fileID: 0}
      - {fileID: 0}
      - {fileID: 0}
      - {fileID: 0}
      - {fileID: 0}
      - {fileID: 0}
      - {fileID: 0}
      - {fileID: 0}
      - {fileID: 0}
      - {fileID: 0}
      - {fileID: 0}
      - {fileID: 0}
      - {fileID: 0}
      - {fileID: 0}
      - {fileID: 0}
      - {fileID: 0}
      - {fileID: 0}
      - {fileID: 0}
      - {fileID: 0}
      - {fileID: 0}
      - {fileID: 0}
      - {fileID: 0}
      - {fileID: 0}
      - {fileID: 0}
      - {fileID: 0}
      - {fileID: 0}
      - {fileID: 0}
      - {fileID: 0}
      - {fileID: 0}
      - {fileID: 0}
      - {fileID: 0}
      - {fileID: 0}
      - {fileID: 0}
      - {fileID: 0}
      - {fileID: 0}
      - {fileID: 0}
      - {fileID: 0}
      - {fileID: 0}
      - {fileID: 0}
      - {fileID: 0}
      width: 1024
      height: 2048
      bpp: 0
    UVs:
    - {x: 0.93359375, y: 0.42333984}
    - {x: 0.9980469, y: 0.42333984}
    - {x: 0.9980469, y: 0.39111328}
    - {x: 0.93359375, y: 0.39111328}
    OrgVertices:
    - {x: -33, y: 33, z: 0}
    - {x: 33, y: 33, z: 0}
    - {x: 33, y: -33, z: 0}
    - {x: -33, y: -33, z: 0}
  - AnimeRes: {fileID: 11400000}
    Name: ring2
    Type: 0
    PicArea:
      Left: 956
      Top: 1181
      Right: 1022
      Bottom: 1247
    OriginX: 33
    OriginY: 33
    MyId: 5
    ParentId: 2
    ChildNum: 0
    SrcObjId: 0
    SrcObjType: 0
    AlphaBlendType: 1
    InheritState:
      Type: 0
      Values:
      - Use: 1
        Rate: 1
      - Use: 1
        Rate: 1
      - Use: 1
        Rate: 1
      - Use: 1
        Rate: 1
      - Use: 1
        Rate: 1
      - Use: 1
        Rate: 1
      - Use: 1
        Rate: 1
      - Use: 0
        Rate: 0
      - Use: 0
        Rate: 0
      - Use: 0
        Rate: 0
      - Use: 1
        Rate: 1
      - Use: 1
        Rate: 1
      - Use: 1
        Rate: 1
      - Use: 1
        Rate: 1
      - Use: 1
        Rate: 1
      - Use: 1
        Rate: 1
      - Use: 1
        Rate: 1
      - Use: 1
        Rate: 1
      - Use: 1
        Rate: 1
      - Use: 1
        Rate: 1
      - Use: 1
        Rate: 1
    PosXKeys:
    - Value: 0
      _Time: 8
      _ValueType: 0
      _Curve:
        Type: 1
        StartT: 0
        StartV: 0
        EndT: 0
        EndV: 0
    - Value: 0
      _Time: 33
      _ValueType: 0
      _Curve:
        Type: 1
        StartT: 0
        StartV: 0
        EndT: 0
        EndV: 0
    PosYKeys:
    - Value: 0
      _Time: 8
      _ValueType: 0
      _Curve:
        Type: 1
        StartT: 0
        StartV: 0
        EndT: 0
        EndV: 0
    - Value: 0
      _Time: 33
      _ValueType: 0
      _Curve:
        Type: 1
        StartT: 0
        StartV: 0
        EndT: 0
        EndV: 0
    AngleKeys:
    - Value: 0
      _Time: 8
      _ValueType: 0
      _Curve:
        Type: 1
        StartT: 0
        StartV: 0
        EndT: 0
        EndV: 0
    - Value: 140
      _Time: 33
      _ValueType: 0
      _Curve:
        Type: 1
        StartT: 0
        StartV: 0
        EndT: 0
        EndV: 0
    ScaleXKeys:
    - Value: 0
      _Time: 8
      _ValueType: 0
      _Curve:
        Type: 1
        StartT: 0
        StartV: 0
        EndT: 0
        EndV: 0
    - Value: 2
      _Time: 33
      _ValueType: 0
      _Curve:
        Type: 1
        StartT: 0
        StartV: 0
        EndT: 0
        EndV: 0
    ScaleYKeys:
    - Value: 0
      _Time: 8
      _ValueType: 0
      _Curve:
        Type: 1
        StartT: 0
        StartV: 0
        EndT: 0
        EndV: 0
    - Value: 2
      _Time: 33
      _ValueType: 0
      _Curve:
        Type: 1
        StartT: 0
        StartV: 0
        EndT: 0
        EndV: 0
    TransKeys:
    - Value: 0.3
      _Time: 8
      _ValueType: 0
      _Curve:
        Type: 1
        StartT: 0
        StartV: 0
        EndT: 0
        EndV: 0
    - Value: 0
      _Time: 33
      _ValueType: 0
      _Curve:
        Type: 1
        StartT: 0
        StartV: 0
        EndT: 0
        EndV: 0
    PrioKeys: []
    FlipHKeys: []
    FlipVKeys: []
    HideKeys:
    - Value: 0
      _Time: 8
      _ValueType: 1
      _Curve:
        Type: 0
        StartT: 0
        StartV: 0
        EndT: 0
        EndV: 0
    - Value: 0
      _Time: 33
      _ValueType: 1
      _Curve:
        Type: 0
        StartT: 0
        StartV: 0
        EndT: 0
        EndV: 0
    PartsColKeys: []
    PartsPalKeys: []
    VertexKeys: []
    UserKeys: []
    SoundKeys: []
    ImageOffsetXKeys: []
    ImageOffsetYKeys: []
    ImageOffsetWKeys: []
    ImageOffsetHKeys: []
    OriginOffsetXKeys: []
    OriginOffsetYKeys: []
    PosXValues:
    - _RefKeyIndex: 0
      _Value: 0
    PosYValues:
    - _RefKeyIndex: 0
      _Value: 0
    AngleValues:
    - _RefKeyIndex: 0
      _Value: 0
    - _RefKeyIndex: 0
      _Value: 0
    - _RefKeyIndex: 0
      _Value: 0
    - _RefKeyIndex: 0
      _Value: 0
    - _RefKeyIndex: 0
      _Value: 0
    - _RefKeyIndex: 0
      _Value: 0
    - _RefKeyIndex: 0
      _Value: 0
    - _RefKeyIndex: 0
      _Value: 0
    - _RefKeyIndex: -1
      _Value: 0
    - _RefKeyIndex: -1
      _Value: 5.6
    - _RefKeyIndex: -1
      _Value: 11.2
    - _RefKeyIndex: -1
      _Value: 16.8
    - _RefKeyIndex: -1
      _Value: 22.4
    - _RefKeyIndex: -1
      _Value: 28
    - _RefKeyIndex: -1
      _Value: 33.6
    - _RefKeyIndex: -1
      _Value: 39.2
    - _RefKeyIndex: -1
      _Value: 44.8
    - _RefKeyIndex: -1
      _Value: 50.4
    - _RefKeyIndex: -1
      _Value: 56
    - _RefKeyIndex: -1
      _Value: 61.6
    - _RefKeyIndex: -1
      _Value: 67.2
    - _RefKeyIndex: -1
      _Value: 72.799995
    - _RefKeyIndex: -1
      _Value: 78.4
    - _RefKeyIndex: -1
      _Value: 84
    - _RefKeyIndex: -1
      _Value: 89.6
    - _RefKeyIndex: -1
      _Value: 95.200005
    - _RefKeyIndex: -1
      _Value: 100.8
    - _RefKeyIndex: -1
      _Value: 106.4
    - _RefKeyIndex: -1
      _Value: 112
    - _RefKeyIndex: -1
      _Value: 117.6
    - _RefKeyIndex: -1
      _Value: 123.2
    - _RefKeyIndex: -1
      _Value: 128.8
    - _RefKeyIndex: -1
      _Value: 134.4
    - _RefKeyIndex: 1
      _Value: 0
    - _RefKeyIndex: 1
      _Value: 0
    - _RefKeyIndex: 1
      _Value: 0
    - _RefKeyIndex: 1
      _Value: 0
    - _RefKeyIndex: 1
      _Value: 0
    - _RefKeyIndex: 1
      _Value: 0
    - _RefKeyIndex: 1
      _Value: 0
    ScaleXValues:
    - _RefKeyIndex: 0
      _Value: 0
    - _RefKeyIndex: 0
      _Value: 0
    - _RefKeyIndex: 0
      _Value: 0
    - _RefKeyIndex: 0
      _Value: 0
    - _RefKeyIndex: 0
      _Value: 0
    - _RefKeyIndex: 0
      _Value: 0
    - _RefKeyIndex: 0
      _Value: 0
    - _RefKeyIndex: 0
      _Value: 0
    - _RefKeyIndex: -1
      _Value: 0
    - _RefKeyIndex: -1
      _Value: 0.08
    - _RefKeyIndex: -1
      _Value: 0.16
    - _RefKeyIndex: -1
      _Value: 0.24
    - _RefKeyIndex: -1
      _Value: 0.32
    - _RefKeyIndex: -1
      _Value: 0.4
    - _RefKeyIndex: -1
      _Value: 0.48
    - _RefKeyIndex: -1
      _Value: 0.56
    - _RefKeyIndex: -1
      _Value: 0.64
    - _RefKeyIndex: -1
      _Value: 0.72
    - _RefKeyIndex: -1
      _Value: 0.8
    - _RefKeyIndex: -1
      _Value: 0.88
    - _RefKeyIndex: -1
      _Value: 0.96
    - _RefKeyIndex: -1
      _Value: 1.04
    - _RefKeyIndex: -1
      _Value: 1.12
    - _RefKeyIndex: -1
      _Value: 1.2
    - _RefKeyIndex: -1
      _Value: 1.28
    - _RefKeyIndex: -1
      _Value: 1.36
    - _RefKeyIndex: -1
      _Value: 1.44
    - _RefKeyIndex: -1
      _Value: 1.52
    - _RefKeyIndex: -1
      _Value: 1.6
    - _RefKeyIndex: -1
      _Value: 1.68
    - _RefKeyIndex: -1
      _Value: 1.76
    - _RefKeyIndex: -1
      _Value: 1.84
    - _RefKeyIndex: -1
      _Value: 1.92
    - _RefKeyIndex: 1
      _Value: 0
    - _RefKeyIndex: 1
      _Value: 0
    - _RefKeyIndex: 1
      _Value: 0
    - _RefKeyIndex: 1
      _Value: 0
    - _RefKeyIndex: 1
      _Value: 0
    - _RefKeyIndex: 1
      _Value: 0
    - _RefKeyIndex: 1
      _Value: 0
    ScaleYValues:
    - _RefKeyIndex: 0
      _Value: 0
    - _RefKeyIndex: 0
      _Value: 0
    - _RefKeyIndex: 0
      _Value: 0
    - _RefKeyIndex: 0
      _Value: 0
    - _RefKeyIndex: 0
      _Value: 0
    - _RefKeyIndex: 0
      _Value: 0
    - _RefKeyIndex: 0
      _Value: 0
    - _RefKeyIndex: 0
      _Value: 0
    - _RefKeyIndex: -1
      _Value: 0
    - _RefKeyIndex: -1
      _Value: 0.08
    - _RefKeyIndex: -1
      _Value: 0.16
    - _RefKeyIndex: -1
      _Value: 0.24
    - _RefKeyIndex: -1
      _Value: 0.32
    - _RefKeyIndex: -1
      _Value: 0.4
    - _RefKeyIndex: -1
      _Value: 0.48
    - _RefKeyIndex: -1
      _Value: 0.56
    - _RefKeyIndex: -1
      _Value: 0.64
    - _RefKeyIndex: -1
      _Value: 0.72
    - _RefKeyIndex: -1
      _Value: 0.8
    - _RefKeyIndex: -1
      _Value: 0.88
    - _RefKeyIndex: -1
      _Value: 0.96
    - _RefKeyIndex: -1
      _Value: 1.04
    - _RefKeyIndex: -1
      _Value: 1.12
    - _RefKeyIndex: -1
      _Value: 1.2
    - _RefKeyIndex: -1
      _Value: 1.28
    - _RefKeyIndex: -1
      _Value: 1.36
    - _RefKeyIndex: -1
      _Value: 1.44
    - _RefKeyIndex: -1
      _Value: 1.52
    - _RefKeyIndex: -1
      _Value: 1.6
    - _RefKeyIndex: -1
      _Value: 1.68
    - _RefKeyIndex: -1
      _Value: 1.76
    - _RefKeyIndex: -1
      _Value: 1.84
    - _RefKeyIndex: -1
      _Value: 1.92
    - _RefKeyIndex: 1
      _Value: 0
    - _RefKeyIndex: 1
      _Value: 0
    - _RefKeyIndex: 1
      _Value: 0
    - _RefKeyIndex: 1
      _Value: 0
    - _RefKeyIndex: 1
      _Value: 0
    - _RefKeyIndex: 1
      _Value: 0
    - _RefKeyIndex: 1
      _Value: 0
    TransValues:
    - _RefKeyIndex: 0
      _Value: 0
    - _RefKeyIndex: 0
      _Value: 0
    - _RefKeyIndex: 0
      _Value: 0
    - _RefKeyIndex: 0
      _Value: 0
    - _RefKeyIndex: 0
      _Value: 0
    - _RefKeyIndex: 0
      _Value: 0
    - _RefKeyIndex: 0
      _Value: 0
    - _RefKeyIndex: 0
      _Value: 0
    - _RefKeyIndex: -1
      _Value: 0.3
    - _RefKeyIndex: -1
      _Value: 0.28800002
    - _RefKeyIndex: -1
      _Value: 0.27600002
    - _RefKeyIndex: -1
      _Value: 0.264
    - _RefKeyIndex: -1
      _Value: 0.252
    - _RefKeyIndex: -1
      _Value: 0.24000001
    - _RefKeyIndex: -1
      _Value: 0.22800002
    - _RefKeyIndex: -1
      _Value: 0.216
    - _RefKeyIndex: -1
      _Value: 0.20400001
    - _RefKeyIndex: -1
      _Value: 0.192
    - _RefKeyIndex: -1
      _Value: 0.18
    - _RefKeyIndex: -1
      _Value: 0.16800001
    - _RefKeyIndex: -1
      _Value: 0.156
    - _RefKeyIndex: -1
      _Value: 0.14400001
    - _RefKeyIndex: -1
      _Value: 0.132
    - _RefKeyIndex: -1
      _Value: 0.12
    - _RefKeyIndex: -1
      _Value: 0.10800001
    - _RefKeyIndex: -1
      _Value: 0.096
    - _RefKeyIndex: -1
      _Value: 0.08399999
    - _RefKeyIndex: -1
      _Value: 0.072000004
    - _RefKeyIndex: -1
      _Value: 0.06
    - _RefKeyIndex: -1
      _Value: 0.04800001
    - _RefKeyIndex: -1
      _Value: 0.036000002
    - _RefKeyIndex: -1
      _Value: 0.023999996
    - _RefKeyIndex: -1
      _Value: 0.012000007
    - _RefKeyIndex: 1
      _Value: 0
    - _RefKeyIndex: 1
      _Value: 0
    - _RefKeyIndex: 1
      _Value: 0
    - _RefKeyIndex: 1
      _Value: 0
    - _RefKeyIndex: 1
      _Value: 0
    - _RefKeyIndex: 1
      _Value: 0
    - _RefKeyIndex: 1
      _Value: 0
    PrioValues: []
    FlipHValues: []
    FlipVValues: []
    HideValues:
    - _RefKeyIndex: 0
      _Value: 0
    PartsColValues: []
    PartsPalValues: []
    VertexValues: []
    UserValues: []
    SoundValues: []
    ImageOffsetXValues: []
    ImageOffsetYValues: []
    ImageOffsetWValues: []
    ImageOffsetHValues: []
    OriginOffsetXValues: []
    OriginOffsetYValues: []
    _hasAttrFlags: 575
    HasTrancparency: 1
    FrameNum: 40
    imageFile:
      path: Assets/Resources/Atlas/PuzzleTile/PuzzleTile.png
      texture: {fileID: 2800000, guid: 00051aac90314b34982a652bd7ab76c2, type: 3}
      materials:
      - {fileID: 0}
      - {fileID: 0}
      - {fileID: 0}
      - {fileID: 0}
      - {fileID: 0}
      - {fileID: 2100000, guid: 68105edfbfe10654394bdef14d2d41d0, type: 2}
      - {fileID: 0}
      - {fileID: 0}
      - {fileID: 0}
      - {fileID: 0}
      - {fileID: 0}
      - {fileID: 0}
      - {fileID: 0}
      - {fileID: 0}
      - {fileID: 0}
      - {fileID: 0}
      - {fileID: 0}
      - {fileID: 0}
      - {fileID: 0}
      - {fileID: 0}
      - {fileID: 0}
      - {fileID: 0}
      - {fileID: 0}
      - {fileID: 0}
      - {fileID: 0}
      - {fileID: 0}
      - {fileID: 0}
      - {fileID: 0}
      - {fileID: 0}
      - {fileID: 0}
      - {fileID: 0}
      - {fileID: 0}
      - {fileID: 0}
      - {fileID: 0}
      - {fileID: 0}
      - {fileID: 0}
      - {fileID: 0}
      - {fileID: 0}
      - {fileID: 0}
      - {fileID: 0}
      - {fileID: 0}
      - {fileID: 0}
      - {fileID: 0}
      - {fileID: 0}
      - {fileID: 0}
      - {fileID: 0}
      - {fileID: 0}
      - {fileID: 0}
      - {fileID: 0}
      - {fileID: 0}
      width: 1024
      height: 2048
      bpp: 0
    UVs:
    - {x: 0.93359375, y: 0.42333984}
    - {x: 0.9980469, y: 0.42333984}
    - {x: 0.9980469, y: 0.39111328}
    - {x: 0.93359375, y: 0.39111328}
    OrgVertices:
    - {x: -33, y: 33, z: 0}
    - {x: 33, y: 33, z: 0}
    - {x: 33, y: -33, z: 0}
    - {x: -33, y: -33, z: 0}
  - AnimeRes: {fileID: 11400000}
    Name: core
    Type: 0
    PicArea:
      Left: 818
      Top: 1523
      Right: 854
      Bottom: 1559
    OriginX: 18
    OriginY: 18
    MyId: 6
    ParentId: 2
    ChildNum: 0
    SrcObjId: 0
    SrcObjType: 0
    AlphaBlendType: 1
    InheritState:
      Type: 0
      Values:
      - Use: 1
        Rate: 1
      - Use: 1
        Rate: 1
      - Use: 1
        Rate: 1
      - Use: 1
        Rate: 1
      - Use: 1
        Rate: 1
      - Use: 1
        Rate: 1
      - Use: 1
        Rate: 1
      - Use: 0
        Rate: 0
      - Use: 0
        Rate: 0
      - Use: 0
        Rate: 0
      - Use: 1
        Rate: 1
      - Use: 1
        Rate: 1
      - Use: 1
        Rate: 1
      - Use: 1
        Rate: 1
      - Use: 1
        Rate: 1
      - Use: 1
        Rate: 1
      - Use: 1
        Rate: 1
      - Use: 1
        Rate: 1
      - Use: 1
        Rate: 1
      - Use: 1
        Rate: 1
      - Use: 1
        Rate: 1
    PosXKeys:
    - Value: 0
      _Time: 0
      _ValueType: 0
      _Curve:
        Type: 1
        StartT: 0
        StartV: 0
        EndT: 0
        EndV: 0
    - Value: 0
      _Time: 14
      _ValueType: 0
      _Curve:
        Type: 1
        StartT: 0
        StartV: 0
        EndT: 0
        EndV: 0
    - Value: 0
      _Time: 29
      _ValueType: 0
      _Curve:
        Type: 1
        StartT: 0
        StartV: 0
        EndT: 0
        EndV: 0
    PosYKeys:
    - Value: 0
      _Time: 0
      _ValueType: 0
      _Curve:
        Type: 1
        StartT: 0
        StartV: 0
        EndT: 0
        EndV: 0
    - Value: 0
      _Time: 14
      _ValueType: 0
      _Curve:
        Type: 1
        StartT: 0
        StartV: 0
        EndT: 0
        EndV: 0
    - Value: 0
      _Time: 29
      _ValueType: 0
      _Curve:
        Type: 1
        StartT: 0
        StartV: 0
        EndT: 0
        EndV: 0
    AngleKeys:
    - Value: 0
      _Time: 0
      _ValueType: 0
      _Curve:
        Type: 1
        StartT: 0
        StartV: 0
        EndT: 0
        EndV: 0
    - Value: 0
      _Time: 14
      _ValueType: 0
      _Curve:
        Type: 1
        StartT: 0
        StartV: 0
        EndT: 0
        EndV: 0
    - Value: 0
      _Time: 29
      _ValueType: 0
      _Curve:
        Type: 1
        StartT: 0
        StartV: 0
        EndT: 0
        EndV: 0
    ScaleXKeys:
    - Value: 0.8
      _Time: 0
      _ValueType: 0
      _Curve:
        Type: 1
        StartT: 0
        StartV: 0
        EndT: 0
        EndV: 0
    - Value: 0.6
      _Time: 14
      _ValueType: 0
      _Curve:
        Type: 1
        StartT: 0
        StartV: 0
        EndT: 0
        EndV: 0
    - Value: 0.8
      _Time: 29
      _ValueType: 0
      _Curve:
        Type: 1
        StartT: 0
        StartV: 0
        EndT: 0
        EndV: 0
    ScaleYKeys:
    - Value: 0.8
      _Time: 0
      _ValueType: 0
      _Curve:
        Type: 1
        StartT: 0
        StartV: 0
        EndT: 0
        EndV: 0
    - Value: 0.6
      _Time: 14
      _ValueType: 0
      _Curve:
        Type: 1
        StartT: 0
        StartV: 0
        EndT: 0
        EndV: 0
    - Value: 0.8
      _Time: 29
      _ValueType: 0
      _Curve:
        Type: 1
        StartT: 0
        StartV: 0
        EndT: 0
        EndV: 0
    TransKeys:
    - Value: 0.4
      _Time: 0
      _ValueType: 0
      _Curve:
        Type: 1
        StartT: 0
        StartV: 0
        EndT: 0
        EndV: 0
    - Value: 0.2
      _Time: 14
      _ValueType: 0
      _Curve:
        Type: 1
        StartT: 0
        StartV: 0
        EndT: 0
        EndV: 0
    - Value: 0.4
      _Time: 29
      _ValueType: 0
      _Curve:
        Type: 1
        StartT: 0
        StartV: 0
        EndT: 0
        EndV: 0
    PrioKeys: []
    FlipHKeys: []
    FlipVKeys: []
    HideKeys:
    - Value: 0
      _Time: 0
      _ValueType: 1
      _Curve:
        Type: 0
        StartT: 0
        StartV: 0
        EndT: 0
        EndV: 0
    - Value: 0
      _Time: 14
      _ValueType: 1
      _Curve:
        Type: 0
        StartT: 0
        StartV: 0
        EndT: 0
        EndV: 0
    - Value: 0
      _Time: 29
      _ValueType: 1
      _Curve:
        Type: 0
        StartT: 0
        StartV: 0
        EndT: 0
        EndV: 0
    PartsColKeys: []
    PartsPalKeys: []
    VertexKeys: []
    UserKeys: []
    SoundKeys: []
    ImageOffsetXKeys: []
    ImageOffsetYKeys: []
    ImageOffsetWKeys: []
    ImageOffsetHKeys: []
    OriginOffsetXKeys: []
    OriginOffsetYKeys: []
    PosXValues:
    - _RefKeyIndex: -1
      _Value: 0
    PosYValues:
    - _RefKeyIndex: -1
      _Value: 0
    AngleValues:
    - _RefKeyIndex: -1
      _Value: 0
    ScaleXValues:
    - _RefKeyIndex: -1
      _Value: 0.8
    - _RefKeyIndex: -1
      _Value: 0.78571427
    - _RefKeyIndex: -1
      _Value: 0.7714286
    - _RefKeyIndex: -1
      _Value: 0.75714284
    - _RefKeyIndex: -1
      _Value: 0.74285716
    - _RefKeyIndex: -1
      _Value: 0.7285714
    - _RefKeyIndex: -1
      _Value: 0.71428573
    - _RefKeyIndex: -1
      _Value: 0.70000005
    - _RefKeyIndex: -1
      _Value: 0.6857143
    - _RefKeyIndex: -1
      _Value: 0.6714286
    - _RefKeyIndex: -1
      _Value: 0.6571429
    - _RefKeyIndex: -1
      _Value: 0.6428572
    - _RefKeyIndex: -1
      _Value: 0.62857145
    - _RefKeyIndex: -1
      _Value: 0.61428577
    - _RefKeyIndex: -1
      _Value: 0.6
    - _RefKeyIndex: -1
      _Value: 0.61333334
    - _RefKeyIndex: -1
      _Value: 0.62666667
    - _RefKeyIndex: -1
      _Value: 0.64000005
    - _RefKeyIndex: -1
      _Value: 0.65333337
    - _RefKeyIndex: -1
      _Value: 0.6666667
    - _RefKeyIndex: -1
      _Value: 0.68
    - _RefKeyIndex: -1
      _Value: 0.6933333
    - _RefKeyIndex: -1
      _Value: 0.7066667
    - _RefKeyIndex: -1
      _Value: 0.72
    - _RefKeyIndex: -1
      _Value: 0.73333335
    - _RefKeyIndex: -1
      _Value: 0.74666667
    - _RefKeyIndex: -1
      _Value: 0.76
    - _RefKeyIndex: -1
      _Value: 0.7733334
    - _RefKeyIndex: -1
      _Value: 0.7866667
    - _RefKeyIndex: 2
      _Value: 0
    - _RefKeyIndex: 2
      _Value: 0
    - _RefKeyIndex: 2
      _Value: 0
    - _RefKeyIndex: 2
      _Value: 0
    - _RefKeyIndex: 2
      _Value: 0
    - _RefKeyIndex: 2
      _Value: 0
    - _RefKeyIndex: 2
      _Value: 0
    - _RefKeyIndex: 2
      _Value: 0
    - _RefKeyIndex: 2
      _Value: 0
    - _RefKeyIndex: 2
      _Value: 0
    - _RefKeyIndex: 2
      _Value: 0
    ScaleYValues:
    - _RefKeyIndex: -1
      _Value: 0.8
    - _RefKeyIndex: -1
      _Value: 0.78571427
    - _RefKeyIndex: -1
      _Value: 0.7714286
    - _RefKeyIndex: -1
      _Value: 0.75714284
    - _RefKeyIndex: -1
      _Value: 0.74285716
    - _RefKeyIndex: -1
      _Value: 0.7285714
    - _RefKeyIndex: -1
      _Value: 0.71428573
    - _RefKeyIndex: -1
      _Value: 0.70000005
    - _RefKeyIndex: -1
      _Value: 0.6857143
    - _RefKeyIndex: -1
      _Value: 0.6714286
    - _RefKeyIndex: -1
      _Value: 0.6571429
    - _RefKeyIndex: -1
      _Value: 0.6428572
    - _RefKeyIndex: -1
      _Value: 0.62857145
    - _RefKeyIndex: -1
      _Value: 0.61428577
    - _RefKeyIndex: -1
      _Value: 0.6
    - _RefKeyIndex: -1
      _Value: 0.61333334
    - _RefKeyIndex: -1
      _Value: 0.62666667
    - _RefKeyIndex: -1
      _Value: 0.64000005
    - _RefKeyIndex: -1
      _Value: 0.65333337
    - _RefKeyIndex: -1
      _Value: 0.6666667
    - _RefKeyIndex: -1
      _Value: 0.68
    - _RefKeyIndex: -1
      _Value: 0.6933333
    - _RefKeyIndex: -1
      _Value: 0.7066667
    - _RefKeyIndex: -1
      _Value: 0.72
    - _RefKeyIndex: -1
      _Value: 0.73333335
    - _RefKeyIndex: -1
      _Value: 0.74666667
    - _RefKeyIndex: -1
      _Value: 0.76
    - _RefKeyIndex: -1
      _Value: 0.7733334
    - _RefKeyIndex: -1
      _Value: 0.7866667
    - _RefKeyIndex: 2
      _Value: 0
    - _RefKeyIndex: 2
      _Value: 0
    - _RefKeyIndex: 2
      _Value: 0
    - _RefKeyIndex: 2
      _Value: 0
    - _RefKeyIndex: 2
      _Value: 0
    - _RefKeyIndex: 2
      _Value: 0
    - _RefKeyIndex: 2
      _Value: 0
    - _RefKeyIndex: 2
      _Value: 0
    - _RefKeyIndex: 2
      _Value: 0
    - _RefKeyIndex: 2
      _Value: 0
    - _RefKeyIndex: 2
      _Value: 0
    TransValues:
    - _RefKeyIndex: -1
      _Value: 0.4
    - _RefKeyIndex: -1
      _Value: 0.3857143
    - _RefKeyIndex: -1
      _Value: 0.37142858
    - _RefKeyIndex: -1
      _Value: 0.35714287
    - _RefKeyIndex: -1
      _Value: 0.34285715
    - _RefKeyIndex: -1
      _Value: 0.32857144
    - _RefKeyIndex: -1
      _Value: 0.31428573
    - _RefKeyIndex: -1
      _Value: 0.3
    - _RefKeyIndex: -1
      _Value: 0.2857143
    - _RefKeyIndex: -1
      _Value: 0.27142859
    - _RefKeyIndex: -1
      _Value: 0.25714287
    - _RefKeyIndex: -1
      _Value: 0.24285714
    - _RefKeyIndex: -1
      _Value: 0.22857143
    - _RefKeyIndex: -1
      _Value: 0.21428572
    - _RefKeyIndex: -1
      _Value: 0.2
    - _RefKeyIndex: -1
      _Value: 0.21333334
    - _RefKeyIndex: -1
      _Value: 0.22666667
    - _RefKeyIndex: -1
      _Value: 0.24000001
    - _RefKeyIndex: -1
      _Value: 0.25333333
    - _RefKeyIndex: -1
      _Value: 0.26666668
    - _RefKeyIndex: -1
      _Value: 0.28
    - _RefKeyIndex: -1
      _Value: 0.29333335
    - _RefKeyIndex: -1
      _Value: 0.30666667
    - _RefKeyIndex: -1
      _Value: 0.32000002
    - _RefKeyIndex: -1
      _Value: 0.33333334
    - _RefKeyIndex: -1
      _Value: 0.34666666
    - _RefKeyIndex: -1
      _Value: 0.36
    - _RefKeyIndex: -1
      _Value: 0.37333333
    - _RefKeyIndex: -1
      _Value: 0.3866667
    - _RefKeyIndex: 2
      _Value: 0
    - _RefKeyIndex: 2
      _Value: 0
    - _RefKeyIndex: 2
      _Value: 0
    - _RefKeyIndex: 2
      _Value: 0
    - _RefKeyIndex: 2
      _Value: 0
    - _RefKeyIndex: 2
      _Value: 0
    - _RefKeyIndex: 2
      _Value: 0
    - _RefKeyIndex: 2
      _Value: 0
    - _RefKeyIndex: 2
      _Value: 0
    - _RefKeyIndex: 2
      _Value: 0
    - _RefKeyIndex: 2
      _Value: 0
    PrioValues: []
    FlipHValues: []
    FlipVValues: []
    HideValues:
    - _RefKeyIndex: 0
      _Value: 0
    PartsColValues: []
    PartsPalValues: []
    VertexValues: []
    UserValues: []
    SoundValues: []
    ImageOffsetXValues: []
    ImageOffsetYValues: []
    ImageOffsetWValues: []
    ImageOffsetHValues: []
    OriginOffsetXValues: []
    OriginOffsetYValues: []
    _hasAttrFlags: 575
    HasTrancparency: 1
    FrameNum: 40
    imageFile:
      path: Assets/Resources/Atlas/PuzzleTile/PuzzleTile.png
      texture: {fileID: 2800000, guid: 00051aac90314b34982a652bd7ab76c2, type: 3}
      materials:
      - {fileID: 0}
      - {fileID: 0}
      - {fileID: 0}
      - {fileID: 0}
      - {fileID: 0}
      - {fileID: 2100000, guid: 68105edfbfe10654394bdef14d2d41d0, type: 2}
      - {fileID: 0}
      - {fileID: 0}
      - {fileID: 0}
      - {fileID: 0}
      - {fileID: 0}
      - {fileID: 0}
      - {fileID: 0}
      - {fileID: 0}
      - {fileID: 0}
      - {fileID: 0}
      - {fileID: 0}
      - {fileID: 0}
      - {fileID: 0}
      - {fileID: 0}
      - {fileID: 0}
      - {fileID: 0}
      - {fileID: 0}
      - {fileID: 0}
      - {fileID: 0}
      - {fileID: 0}
      - {fileID: 0}
      - {fileID: 0}
      - {fileID: 0}
      - {fileID: 0}
      - {fileID: 0}
      - {fileID: 0}
      - {fileID: 0}
      - {fileID: 0}
      - {fileID: 0}
      - {fileID: 0}
      - {fileID: 0}
      - {fileID: 0}
      - {fileID: 0}
      - {fileID: 0}
      - {fileID: 0}
      - {fileID: 0}
      - {fileID: 0}
      - {fileID: 0}
      - {fileID: 0}
      - {fileID: 0}
      - {fileID: 0}
      - {fileID: 0}
      - {fileID: 0}
      - {fileID: 0}
      width: 1024
      height: 2048
      bpp: 0
    UVs:
    - {x: 0.7988281, y: 0.25634766}
    - {x: 0.8339844, y: 0.25634766}
    - {x: 0.8339844, y: 0.23876953}
    - {x: 0.7988281, y: 0.23876953}
    OrgVertices:
    - {x: -18, y: 18, z: 0}
    - {x: 18, y: 18, z: 0}
    - {x: 18, y: -18, z: 0}
    - {x: -18, y: -18, z: 0}
  ImportedTime: 1251943521
  ImportedTimeHigh: -1999271361
