%YAML 1.1
%TAG !u! tag:unity3d.com,2011:
--- !u!114 &11400000
MonoBehaviour:
  m_ObjectHideFlags: 0
  m_PrefabParentObject: {fileID: 0}
  m_PrefabInternal: {fileID: 0}
  m_GameObject: {fileID: 0}
  m_Enabled: 1
  m_EditorHideFlags: 0
  m_Script: {fileID: 11500000, guid: 0ae895f3348548989f1b4caf6cca149f, type: 3}
  m_Name: efc_change_drop_anim_ssa
  m_EditorClassIdentifier:
  OriginalPath: Assets/Resources/Atlas/PuzzleTile/efc_change_drop_anim.ssax
  UseScaleFactor: 0
  ScaleFactor: 1
  FPS: 30
  EndFrame: 20
  hvFlipForImageOnly: 1
  ImageList:
  - path: Assets/Resources/Atlas/PuzzleTile/PuzzleTile.png
    texture: {fileID: 2800000, guid: 00051aac90314b34982a652bd7ab76c2, type: 3}
    materials:
    - {fileID: 0}
    - {fileID: 0}
    - {fileID: 0}
    - {fileID: 0}
    - {fileID: 0}
    - {fileID: 2100000, guid: 68105edfbfe10654394bdef14d2d41d0, type: 2}
    - {fileID: 0}
    - {fileID: 0}
    - {fileID: 0}
    - {fileID: 0}
    - {fileID: 0}
    - {fileID: 0}
    - {fileID: 0}
    - {fileID: 0}
    - {fileID: 0}
    - {fileID: 0}
    - {fileID: 0}
    - {fileID: 0}
    - {fileID: 0}
    - {fileID: 0}
    - {fileID: 0}
    - {fileID: 0}
    - {fileID: 0}
    - {fileID: 0}
    - {fileID: 0}
    - {fileID: 0}
    - {fileID: 0}
    - {fileID: 0}
    - {fileID: 0}
    - {fileID: 0}
    - {fileID: 0}
    - {fileID: 0}
    - {fileID: 0}
    - {fileID: 0}
    - {fileID: 0}
    - {fileID: 0}
    - {fileID: 0}
    - {fileID: 0}
    - {fileID: 0}
    - {fileID: 0}
    - {fileID: 0}
    - {fileID: 0}
    - {fileID: 0}
    - {fileID: 0}
    - {fileID: 0}
    - {fileID: 0}
    - {fileID: 0}
    - {fileID: 0}
    - {fileID: 0}
    - {fileID: 0}
    width: 1024
    height: 2048
    bpp: 0
  PartList:
  - AnimeRes: {fileID: 11400000}
    Name: root
    Type: 1
    PicArea:
      Left: 0
      Top: 0
      Right: 0
      Bottom: 0
    OriginX: 0
    OriginY: 0
    MyId: 0
    ParentId: -1
    ChildNum: 0
    SrcObjId: 0
    SrcObjType: 0
    AlphaBlendType: 0
    InheritState:
      Type: 0
      Values:
      - Use: 1
        Rate: 1
      - Use: 1
        Rate: 1
      - Use: 1
        Rate: 1
      - Use: 1
        Rate: 1
      - Use: 1
        Rate: 1
      - Use: 1
        Rate: 1
      - Use: 1
        Rate: 1
      - Use: 0
        Rate: 0
      - Use: 0
        Rate: 0
      - Use: 0
        Rate: 0
      - Use: 1
        Rate: 1
      - Use: 1
        Rate: 1
      - Use: 1
        Rate: 1
      - Use: 1
        Rate: 1
      - Use: 1
        Rate: 1
      - Use: 1
        Rate: 1
      - Use: 1
        Rate: 1
      - Use: 1
        Rate: 1
      - Use: 1
        Rate: 1
      - Use: 1
        Rate: 1
      - Use: 1
        Rate: 1
    PosXKeys: []
    PosYKeys: []
    AngleKeys: []
    ScaleXKeys: []
    ScaleYKeys: []
    TransKeys: []
    PrioKeys: []
    FlipHKeys: []
    FlipVKeys: []
    HideKeys:
    - Value: 0
      _Time: 0
      _ValueType: 1
      _Curve:
        Type: 0
        StartT: 0
        StartV: 0
        EndT: 0
        EndV: 0
    PartsColKeys: []
    PartsPalKeys: []
    VertexKeys: []
    UserKeys: []
    SoundKeys: []
    ImageOffsetXKeys: []
    ImageOffsetYKeys: []
    ImageOffsetWKeys: []
    ImageOffsetHKeys: []
    OriginOffsetXKeys: []
    OriginOffsetYKeys: []
    PosXValues: []
    PosYValues: []
    AngleValues: []
    ScaleXValues: []
    ScaleYValues: []
    TransValues: []
    PrioValues: []
    FlipHValues: []
    FlipVValues: []
    HideValues:
    - _RefKeyIndex: 0
      _Value: 0
    - _RefKeyIndex: 0
      _Value: 0
    - _RefKeyIndex: 0
      _Value: 0
    - _RefKeyIndex: 0
      _Value: 0
    - _RefKeyIndex: 0
      _Value: 0
    - _RefKeyIndex: 0
      _Value: 0
    - _RefKeyIndex: 0
      _Value: 0
    - _RefKeyIndex: 0
      _Value: 0
    - _RefKeyIndex: 0
      _Value: 0
    - _RefKeyIndex: 0
      _Value: 0
    - _RefKeyIndex: 0
      _Value: 0
    - _RefKeyIndex: 0
      _Value: 0
    - _RefKeyIndex: 0
      _Value: 0
    - _RefKeyIndex: 0
      _Value: 0
    - _RefKeyIndex: 0
      _Value: 0
    - _RefKeyIndex: 0
      _Value: 0
    - _RefKeyIndex: 0
      _Value: 0
    - _RefKeyIndex: 0
      _Value: 0
    - _RefKeyIndex: 0
      _Value: 0
    - _RefKeyIndex: 0
      _Value: 0
    - _RefKeyIndex: 0
      _Value: 0
    PartsColValues: []
    PartsPalValues: []
    VertexValues: []
    UserValues: []
    SoundValues: []
    ImageOffsetXValues: []
    ImageOffsetYValues: []
    ImageOffsetWValues: []
    ImageOffsetHValues: []
    OriginOffsetXValues: []
    OriginOffsetYValues: []
    _hasAttrFlags: 512
    HasTrancparency: 0
    FrameNum: 21
    imageFile:
      path:
      texture: {fileID: 0}
      materials: []
      width: 0
      height: 0
      bpp: 0
    UVs: []
    OrgVertices:
    - {x: -0, y: 0, z: 0}
    - {x: 0, y: 0, z: 0}
    - {x: 0, y: -0, z: 0}
    - {x: -0, y: -0, z: 0}
  - AnimeRes: {fileID: 11400000}
    Name: ring
    Type: 0
    PicArea:
      Left: 581
      Top: 961
      Right: 661
      Bottom: 1041
    OriginX: 40
    OriginY: 40
    MyId: 1
    ParentId: 0
    ChildNum: 0
    SrcObjId: 0
    SrcObjType: 0
    AlphaBlendType: 1
    InheritState:
      Type: 0
      Values:
      - Use: 1
        Rate: 1
      - Use: 1
        Rate: 1
      - Use: 1
        Rate: 1
      - Use: 1
        Rate: 1
      - Use: 1
        Rate: 1
      - Use: 1
        Rate: 1
      - Use: 1
        Rate: 1
      - Use: 0
        Rate: 0
      - Use: 0
        Rate: 0
      - Use: 0
        Rate: 0
      - Use: 1
        Rate: 1
      - Use: 1
        Rate: 1
      - Use: 1
        Rate: 1
      - Use: 1
        Rate: 1
      - Use: 1
        Rate: 1
      - Use: 1
        Rate: 1
      - Use: 1
        Rate: 1
      - Use: 1
        Rate: 1
      - Use: 1
        Rate: 1
      - Use: 1
        Rate: 1
      - Use: 1
        Rate: 1
    PosXKeys:
    - Value: 0
      _Time: 0
      _ValueType: 0
      _Curve:
        Type: 1
        StartT: 0
        StartV: 0
        EndT: 0
        EndV: 0
    - Value: 0
      _Time: 20
      _ValueType: 0
      _Curve:
        Type: 1
        StartT: 0
        StartV: 0
        EndT: 0
        EndV: 0
    PosYKeys:
    - Value: 0
      _Time: 0
      _ValueType: 0
      _Curve:
        Type: 1
        StartT: 0
        StartV: 0
        EndT: 0
        EndV: 0
    - Value: 0
      _Time: 20
      _ValueType: 0
      _Curve:
        Type: 1
        StartT: 0
        StartV: 0
        EndT: 0
        EndV: 0
    AngleKeys:
    - Value: 0
      _Time: 0
      _ValueType: 0
      _Curve:
        Type: 1
        StartT: 0
        StartV: 0
        EndT: 0
        EndV: 0
    - Value: 0
      _Time: 20
      _ValueType: 0
      _Curve:
        Type: 1
        StartT: 0
        StartV: 0
        EndT: 0
        EndV: 0
    ScaleXKeys:
    - Value: 0.5
      _Time: 0
      _ValueType: 0
      _Curve:
        Type: 1
        StartT: 0
        StartV: 0
        EndT: 0
        EndV: 0
    - Value: 2
      _Time: 20
      _ValueType: 0
      _Curve:
        Type: 1
        StartT: 0
        StartV: 0
        EndT: 0
        EndV: 0
    ScaleYKeys:
    - Value: 0.5
      _Time: 0
      _ValueType: 0
      _Curve:
        Type: 1
        StartT: 0
        StartV: 0
        EndT: 0
        EndV: 0
    - Value: 2
      _Time: 20
      _ValueType: 0
      _Curve:
        Type: 1
        StartT: 0
        StartV: 0
        EndT: 0
        EndV: 0
    TransKeys:
    - Value: 0
      _Time: 0
      _ValueType: 0
      _Curve:
        Type: 1
        StartT: 0
        StartV: 0
        EndT: 0
        EndV: 0
    - Value: 1
      _Time: 3
      _ValueType: 0
      _Curve:
        Type: 1
        StartT: 0
        StartV: 0
        EndT: 0
        EndV: 0
    - Value: 0
      _Time: 20
      _ValueType: 0
      _Curve:
        Type: 1
        StartT: 0
        StartV: 0
        EndT: 0
        EndV: 0
    PrioKeys: []
    FlipHKeys: []
    FlipVKeys: []
    HideKeys:
    - Value: 0
      _Time: 0
      _ValueType: 1
      _Curve:
        Type: 0
        StartT: 0
        StartV: 0
        EndT: 0
        EndV: 0
    - Value: 0
      _Time: 20
      _ValueType: 1
      _Curve:
        Type: 0
        StartT: 0
        StartV: 0
        EndT: 0
        EndV: 0
    PartsColKeys: []
    PartsPalKeys: []
    VertexKeys: []
    UserKeys: []
    SoundKeys: []
    ImageOffsetXKeys: []
    ImageOffsetYKeys: []
    ImageOffsetWKeys: []
    ImageOffsetHKeys: []
    OriginOffsetXKeys: []
    OriginOffsetYKeys: []
    PosXValues:
    - _RefKeyIndex: -1
      _Value: 0
    PosYValues:
    - _RefKeyIndex: -1
      _Value: 0
    AngleValues:
    - _RefKeyIndex: -1
      _Value: 0
    ScaleXValues:
    - _RefKeyIndex: -1
      _Value: 0.5
    - _RefKeyIndex: -1
      _Value: 0.575
    - _RefKeyIndex: -1
      _Value: 0.65
    - _RefKeyIndex: -1
      _Value: 0.725
    - _RefKeyIndex: -1
      _Value: 0.8
    - _RefKeyIndex: -1
      _Value: 0.875
    - _RefKeyIndex: -1
      _Value: 0.95000005
    - _RefKeyIndex: -1
      _Value: 1.025
    - _RefKeyIndex: -1
      _Value: 1.1
    - _RefKeyIndex: -1
      _Value: 1.175
    - _RefKeyIndex: -1
      _Value: 1.25
    - _RefKeyIndex: -1
      _Value: 1.325
    - _RefKeyIndex: -1
      _Value: 1.4000001
    - _RefKeyIndex: -1
      _Value: 1.4749999
    - _RefKeyIndex: -1
      _Value: 1.55
    - _RefKeyIndex: -1
      _Value: 1.625
    - _RefKeyIndex: -1
      _Value: 1.7
    - _RefKeyIndex: -1
      _Value: 1.7750001
    - _RefKeyIndex: -1
      _Value: 1.8499999
    - _RefKeyIndex: -1
      _Value: 1.925
    - _RefKeyIndex: 1
      _Value: 0
    ScaleYValues:
    - _RefKeyIndex: -1
      _Value: 0.5
    - _RefKeyIndex: -1
      _Value: 0.575
    - _RefKeyIndex: -1
      _Value: 0.65
    - _RefKeyIndex: -1
      _Value: 0.725
    - _RefKeyIndex: -1
      _Value: 0.8
    - _RefKeyIndex: -1
      _Value: 0.875
    - _RefKeyIndex: -1
      _Value: 0.95000005
    - _RefKeyIndex: -1
      _Value: 1.025
    - _RefKeyIndex: -1
      _Value: 1.1
    - _RefKeyIndex: -1
      _Value: 1.175
    - _RefKeyIndex: -1
      _Value: 1.25
    - _RefKeyIndex: -1
      _Value: 1.325
    - _RefKeyIndex: -1
      _Value: 1.4000001
    - _RefKeyIndex: -1
      _Value: 1.4749999
    - _RefKeyIndex: -1
      _Value: 1.55
    - _RefKeyIndex: -1
      _Value: 1.625
    - _RefKeyIndex: -1
      _Value: 1.7
    - _RefKeyIndex: -1
      _Value: 1.7750001
    - _RefKeyIndex: -1
      _Value: 1.8499999
    - _RefKeyIndex: -1
      _Value: 1.925
    - _RefKeyIndex: 1
      _Value: 0
    TransValues:
    - _RefKeyIndex: -1
      _Value: 0
    - _RefKeyIndex: -1
      _Value: 0.33333334
    - _RefKeyIndex: -1
      _Value: 0.6666667
    - _RefKeyIndex: -1
      _Value: 1
    - _RefKeyIndex: -1
      _Value: 0.9411765
    - _RefKeyIndex: -1
      _Value: 0.88235295
    - _RefKeyIndex: -1
      _Value: 0.8235294
    - _RefKeyIndex: -1
      _Value: 0.7647059
    - _RefKeyIndex: -1
      _Value: 0.7058823
    - _RefKeyIndex: -1
      _Value: 0.64705884
    - _RefKeyIndex: -1
      _Value: 0.58823526
    - _RefKeyIndex: -1
      _Value: 0.5294118
    - _RefKeyIndex: -1
      _Value: 0.4705882
    - _RefKeyIndex: -1
      _Value: 0.41176468
    - _RefKeyIndex: -1
      _Value: 0.35294116
    - _RefKeyIndex: -1
      _Value: 0.29411763
    - _RefKeyIndex: -1
      _Value: 0.2352941
    - _RefKeyIndex: -1
      _Value: 0.17647058
    - _RefKeyIndex: -1
      _Value: 0.11764705
    - _RefKeyIndex: -1
      _Value: 0.058823526
    - _RefKeyIndex: 2
      _Value: 0
    PrioValues: []
    FlipHValues: []
    FlipVValues: []
    HideValues:
    - _RefKeyIndex: 0
      _Value: 0
    PartsColValues: []
    PartsPalValues: []
    VertexValues: []
    UserValues: []
    SoundValues: []
    ImageOffsetXValues: []
    ImageOffsetYValues: []
    ImageOffsetWValues: []
    ImageOffsetHValues: []
    OriginOffsetXValues: []
    OriginOffsetYValues: []
    _hasAttrFlags: 575
    HasTrancparency: 1
    FrameNum: 21
    imageFile:
      path: Assets/Resources/Atlas/PuzzleTile/PuzzleTile.png
      texture: {fileID: 2800000, guid: 00051aac90314b34982a652bd7ab76c2, type: 3}
      materials:
      - {fileID: 0}
      - {fileID: 0}
      - {fileID: 0}
      - {fileID: 0}
      - {fileID: 0}
      - {fileID: 2100000, guid: 68105edfbfe10654394bdef14d2d41d0, type: 2}
      - {fileID: 0}
      - {fileID: 0}
      - {fileID: 0}
      - {fileID: 0}
      - {fileID: 0}
      - {fileID: 0}
      - {fileID: 0}
      - {fileID: 0}
      - {fileID: 0}
      - {fileID: 0}
      - {fileID: 0}
      - {fileID: 0}
      - {fileID: 0}
      - {fileID: 0}
      - {fileID: 0}
      - {fileID: 0}
      - {fileID: 0}
      - {fileID: 0}
      - {fileID: 0}
      - {fileID: 0}
      - {fileID: 0}
      - {fileID: 0}
      - {fileID: 0}
      - {fileID: 0}
      - {fileID: 0}
      - {fileID: 0}
      - {fileID: 0}
      - {fileID: 0}
      - {fileID: 0}
      - {fileID: 0}
      - {fileID: 0}
      - {fileID: 0}
      - {fileID: 0}
      - {fileID: 0}
      - {fileID: 0}
      - {fileID: 0}
      - {fileID: 0}
      - {fileID: 0}
      - {fileID: 0}
      - {fileID: 0}
      - {fileID: 0}
      - {fileID: 0}
      - {fileID: 0}
      - {fileID: 0}
      width: 1024
      height: 2048
      bpp: 0
    UVs:
    - {x: 0.5673828, y: 0.5307617}
    - {x: 0.6455078, y: 0.5307617}
    - {x: 0.6455078, y: 0.49169922}
    - {x: 0.5673828, y: 0.49169922}
    OrgVertices:
    - {x: -40, y: 40, z: 0}
    - {x: 40, y: 40, z: 0}
    - {x: 40, y: -40, z: 0}
    - {x: -40, y: -40, z: 0}
  - AnimeRes: {fileID: 11400000}
    Name: shine00
    Type: 0
    PicArea:
      Left: 189
      Top: 514
      Right: 292
      Bottom: 574
    OriginX: 51
    OriginY: 30
    MyId: 2
    ParentId: 0
    ChildNum: 0
    SrcObjId: 0
    SrcObjType: 0
    AlphaBlendType: 1
    InheritState:
      Type: 0
      Values:
      - Use: 1
        Rate: 1
      - Use: 1
        Rate: 1
      - Use: 1
        Rate: 1
      - Use: 1
        Rate: 1
      - Use: 1
        Rate: 1
      - Use: 1
        Rate: 1
      - Use: 1
        Rate: 1
      - Use: 0
        Rate: 0
      - Use: 0
        Rate: 0
      - Use: 0
        Rate: 0
      - Use: 1
        Rate: 1
      - Use: 1
        Rate: 1
      - Use: 1
        Rate: 1
      - Use: 1
        Rate: 1
      - Use: 1
        Rate: 1
      - Use: 1
        Rate: 1
      - Use: 1
        Rate: 1
      - Use: 1
        Rate: 1
      - Use: 1
        Rate: 1
      - Use: 1
        Rate: 1
      - Use: 1
        Rate: 1
    PosXKeys:
    - Value: 0
      _Time: 0
      _ValueType: 0
      _Curve:
        Type: 1
        StartT: 0
        StartV: 0
        EndT: 0
        EndV: 0
    - Value: 0
      _Time: 20
      _ValueType: 0
      _Curve:
        Type: 1
        StartT: 0
        StartV: 0
        EndT: 0
        EndV: 0
    PosYKeys:
    - Value: 0
      _Time: 0
      _ValueType: 0
      _Curve:
        Type: 1
        StartT: 0
        StartV: 0
        EndT: 0
        EndV: 0
    - Value: 0
      _Time: 20
      _ValueType: 0
      _Curve:
        Type: 1
        StartT: 0
        StartV: 0
        EndT: 0
        EndV: 0
    AngleKeys:
    - Value: 0
      _Time: 0
      _ValueType: 0
      _Curve:
        Type: 1
        StartT: 0
        StartV: 0
        EndT: 0
        EndV: 0
    - Value: -80
      _Time: 20
      _ValueType: 0
      _Curve:
        Type: 1
        StartT: 0
        StartV: 0
        EndT: 0
        EndV: 0
    ScaleXKeys:
    - Value: 0.2
      _Time: 0
      _ValueType: 0
      _Curve:
        Type: 1
        StartT: 0
        StartV: 0
        EndT: 0
        EndV: 0
    - Value: 1.5
      _Time: 20
      _ValueType: 0
      _Curve:
        Type: 1
        StartT: 0
        StartV: 0
        EndT: 0
        EndV: 0
    ScaleYKeys:
    - Value: 0
      _Time: 0
      _ValueType: 0
      _Curve:
        Type: 1
        StartT: 0
        StartV: 0
        EndT: 0
        EndV: 0
    - Value: 1.2
      _Time: 20
      _ValueType: 0
      _Curve:
        Type: 1
        StartT: 0
        StartV: 0
        EndT: 0
        EndV: 0
    TransKeys:
    - Value: 1
      _Time: 0
      _ValueType: 0
      _Curve:
        Type: 1
        StartT: 0
        StartV: 0
        EndT: 0
        EndV: 0
    - Value: 0
      _Time: 20
      _ValueType: 0
      _Curve:
        Type: 1
        StartT: 0
        StartV: 0
        EndT: 0
        EndV: 0
    PrioKeys: []
    FlipHKeys: []
    FlipVKeys: []
    HideKeys:
    - Value: 0
      _Time: 0
      _ValueType: 1
      _Curve:
        Type: 0
        StartT: 0
        StartV: 0
        EndT: 0
        EndV: 0
    - Value: 0
      _Time: 20
      _ValueType: 1
      _Curve:
        Type: 0
        StartT: 0
        StartV: 0
        EndT: 0
        EndV: 0
    PartsColKeys: []
    PartsPalKeys: []
    VertexKeys: []
    UserKeys: []
    SoundKeys: []
    ImageOffsetXKeys: []
    ImageOffsetYKeys: []
    ImageOffsetWKeys: []
    ImageOffsetHKeys: []
    OriginOffsetXKeys:
    - Value: 51
      _Time: 0
      _ValueType: 0
      _Curve:
        Type: 1
        StartT: 0
        StartV: 0
        EndT: 0
        EndV: 0
    - Value: 51
      _Time: 20
      _ValueType: 0
      _Curve:
        Type: 1
        StartT: 0
        StartV: 0
        EndT: 0
        EndV: 0
    OriginOffsetYKeys: []
    PosXValues:
    - _RefKeyIndex: -1
      _Value: 0
    PosYValues:
    - _RefKeyIndex: -1
      _Value: 0
    AngleValues:
    - _RefKeyIndex: -1
      _Value: 0
    - _RefKeyIndex: -1
      _Value: -4
    - _RefKeyIndex: -1
      _Value: -8
    - _RefKeyIndex: -1
      _Value: -12
    - _RefKeyIndex: -1
      _Value: -16
    - _RefKeyIndex: -1
      _Value: -20
    - _RefKeyIndex: -1
      _Value: -24
    - _RefKeyIndex: -1
      _Value: -28
    - _RefKeyIndex: -1
      _Value: -32
    - _RefKeyIndex: -1
      _Value: -36
    - _RefKeyIndex: -1
      _Value: -40
    - _RefKeyIndex: -1
      _Value: -44
    - _RefKeyIndex: -1
      _Value: -48
    - _RefKeyIndex: -1
      _Value: -52
    - _RefKeyIndex: -1
      _Value: -56
    - _RefKeyIndex: -1
      _Value: -60
    - _RefKeyIndex: -1
      _Value: -64
    - _RefKeyIndex: -1
      _Value: -68
    - _RefKeyIndex: -1
      _Value: -72
    - _RefKeyIndex: -1
      _Value: -76
    - _RefKeyIndex: 1
      _Value: 0
    ScaleXValues:
    - _RefKeyIndex: -1
      _Value: 0.2
    - _RefKeyIndex: -1
      _Value: 0.26500002
    - _RefKeyIndex: -1
      _Value: 0.33
    - _RefKeyIndex: -1
      _Value: 0.395
    - _RefKeyIndex: -1
      _Value: 0.46
    - _RefKeyIndex: -1
      _Value: 0.525
    - _RefKeyIndex: -1
      _Value: 0.59000003
    - _RefKeyIndex: -1
      _Value: 0.655
    - _RefKeyIndex: -1
      _Value: 0.72
    - _RefKeyIndex: -1
      _Value: 0.78499997
    - _RefKeyIndex: -1
      _Value: 0.85
    - _RefKeyIndex: -1
      _Value: 0.915
    - _RefKeyIndex: -1
      _Value: 0.98
    - _RefKeyIndex: -1
      _Value: 1.045
    - _RefKeyIndex: -1
      _Value: 1.11
    - _RefKeyIndex: -1
      _Value: 1.175
    - _RefKeyIndex: -1
      _Value: 1.24
    - _RefKeyIndex: -1
      _Value: 1.3050001
    - _RefKeyIndex: -1
      _Value: 1.37
    - _RefKeyIndex: -1
      _Value: 1.435
    - _RefKeyIndex: 1
      _Value: 0
    ScaleYValues:
    - _RefKeyIndex: -1
      _Value: 0
    - _RefKeyIndex: -1
      _Value: 0.060000002
    - _RefKeyIndex: -1
      _Value: 0.120000005
    - _RefKeyIndex: -1
      _Value: 0.18
    - _RefKeyIndex: -1
      _Value: 0.24000001
    - _RefKeyIndex: -1
      _Value: 0.3
    - _RefKeyIndex: -1
      _Value: 0.36
    - _RefKeyIndex: -1
      _Value: 0.42000002
    - _RefKeyIndex: -1
      _Value: 0.48000002
    - _RefKeyIndex: -1
      _Value: 0.54
    - _RefKeyIndex: -1
      _Value: 0.6
    - _RefKeyIndex: -1
      _Value: 0.66
    - _RefKeyIndex: -1
      _Value: 0.72
    - _RefKeyIndex: -1
      _Value: 0.78000003
    - _RefKeyIndex: -1
      _Value: 0.84000003
    - _RefKeyIndex: -1
      _Value: 0.90000004
    - _RefKeyIndex: -1
      _Value: 0.96000004
    - _RefKeyIndex: -1
      _Value: 1.0200001
    - _RefKeyIndex: -1
      _Value: 1.08
    - _RefKeyIndex: -1
      _Value: 1.14
    - _RefKeyIndex: 1
      _Value: 0
    TransValues:
    - _RefKeyIndex: -1
      _Value: 1
    - _RefKeyIndex: -1
      _Value: 0.95
    - _RefKeyIndex: -1
      _Value: 0.9
    - _RefKeyIndex: -1
      _Value: 0.85
    - _RefKeyIndex: -1
      _Value: 0.8
    - _RefKeyIndex: -1
      _Value: 0.75
    - _RefKeyIndex: -1
      _Value: 0.7
    - _RefKeyIndex: -1
      _Value: 0.65
    - _RefKeyIndex: -1
      _Value: 0.6
    - _RefKeyIndex: -1
      _Value: 0.55
    - _RefKeyIndex: -1
      _Value: 0.5
    - _RefKeyIndex: -1
      _Value: 0.45
    - _RefKeyIndex: -1
      _Value: 0.39999998
    - _RefKeyIndex: -1
      _Value: 0.35000002
    - _RefKeyIndex: -1
      _Value: 0.3
    - _RefKeyIndex: -1
      _Value: 0.25
    - _RefKeyIndex: -1
      _Value: 0.19999999
    - _RefKeyIndex: -1
      _Value: 0.14999998
    - _RefKeyIndex: -1
      _Value: 0.100000024
    - _RefKeyIndex: -1
      _Value: 0.050000012
    - _RefKeyIndex: 1
      _Value: 0
    PrioValues: []
    FlipHValues: []
    FlipVValues: []
    HideValues:
    - _RefKeyIndex: 0
      _Value: 0
    PartsColValues: []
    PartsPalValues: []
    VertexValues: []
    UserValues: []
    SoundValues: []
    ImageOffsetXValues: []
    ImageOffsetYValues: []
    ImageOffsetWValues: []
    ImageOffsetHValues: []
    OriginOffsetXValues:
    - _RefKeyIndex: -1
      _Value: 51
    OriginOffsetYValues: []
    _hasAttrFlags: 524863
    HasTrancparency: 1
    FrameNum: 21
    imageFile:
      path: Assets/Resources/Atlas/PuzzleTile/PuzzleTile.png
      texture: {fileID: 2800000, guid: 00051aac90314b34982a652bd7ab76c2, type: 3}
      materials:
      - {fileID: 0}
      - {fileID: 0}
      - {fileID: 0}
      - {fileID: 0}
      - {fileID: 0}
      - {fileID: 2100000, guid: 68105edfbfe10654394bdef14d2d41d0, type: 2}
      - {fileID: 0}
      - {fileID: 0}
      - {fileID: 0}
      - {fileID: 0}
      - {fileID: 0}
      - {fileID: 0}
      - {fileID: 0}
      - {fileID: 0}
      - {fileID: 0}
      - {fileID: 0}
      - {fileID: 0}
      - {fileID: 0}
      - {fileID: 0}
      - {fileID: 0}
      - {fileID: 0}
      - {fileID: 0}
      - {fileID: 0}
      - {fileID: 0}
      - {fileID: 0}
      - {fileID: 0}
      - {fileID: 0}
      - {fileID: 0}
      - {fileID: 0}
      - {fileID: 0}
      - {fileID: 0}
      - {fileID: 0}
      - {fileID: 0}
      - {fileID: 0}
      - {fileID: 0}
      - {fileID: 0}
      - {fileID: 0}
      - {fileID: 0}
      - {fileID: 0}
      - {fileID: 0}
      - {fileID: 0}
      - {fileID: 0}
      - {fileID: 0}
      - {fileID: 0}
      - {fileID: 0}
      - {fileID: 0}
      - {fileID: 0}
      - {fileID: 0}
      - {fileID: 0}
      - {fileID: 0}
      width: 1024
      height: 2048
      bpp: 0
    UVs:
    - {x: 0.18457031, y: 0.74902344}
    - {x: 0.28515625, y: 0.74902344}
    - {x: 0.28515625, y: 0.71972656}
    - {x: 0.18457031, y: 0.71972656}
    OrgVertices:
    - {x: -51, y: 30, z: 0}
    - {x: 52, y: 30, z: 0}
    - {x: 52, y: -30, z: 0}
    - {x: -51, y: -30, z: 0}
  - AnimeRes: {fileID: 11400000}
    Name: shine01
    Type: 0
    PicArea:
      Left: 189
      Top: 514
      Right: 292
      Bottom: 574
    OriginX: 51
    OriginY: 30
    MyId: 3
    ParentId: 0
    ChildNum: 0
    SrcObjId: 0
    SrcObjType: 0
    AlphaBlendType: 1
    InheritState:
      Type: 0
      Values:
      - Use: 1
        Rate: 1
      - Use: 1
        Rate: 1
      - Use: 1
        Rate: 1
      - Use: 1
        Rate: 1
      - Use: 1
        Rate: 1
      - Use: 1
        Rate: 1
      - Use: 1
        Rate: 1
      - Use: 0
        Rate: 0
      - Use: 0
        Rate: 0
      - Use: 0
        Rate: 0
      - Use: 1
        Rate: 1
      - Use: 1
        Rate: 1
      - Use: 1
        Rate: 1
      - Use: 1
        Rate: 1
      - Use: 1
        Rate: 1
      - Use: 1
        Rate: 1
      - Use: 1
        Rate: 1
      - Use: 1
        Rate: 1
      - Use: 1
        Rate: 1
      - Use: 1
        Rate: 1
      - Use: 1
        Rate: 1
    PosXKeys:
    - Value: 0
      _Time: 5
      _ValueType: 0
      _Curve:
        Type: 1
        StartT: 0
        StartV: 0
        EndT: 0
        EndV: 0
    - Value: 0
      _Time: 20
      _ValueType: 0
      _Curve:
        Type: 1
        StartT: 0
        StartV: 0
        EndT: 0
        EndV: 0
    PosYKeys:
    - Value: 0
      _Time: 5
      _ValueType: 0
      _Curve:
        Type: 1
        StartT: 0
        StartV: 0
        EndT: 0
        EndV: 0
    - Value: 0
      _Time: 20
      _ValueType: 0
      _Curve:
        Type: 1
        StartT: 0
        StartV: 0
        EndT: 0
        EndV: 0
    AngleKeys:
    - Value: 120
      _Time: 5
      _ValueType: 0
      _Curve:
        Type: 1
        StartT: 0
        StartV: 0
        EndT: 0
        EndV: 0
    - Value: 30
      _Time: 20
      _ValueType: 0
      _Curve:
        Type: 1
        StartT: 0
        StartV: 0
        EndT: 0
        EndV: 0
    ScaleXKeys:
    - Value: 0.2
      _Time: 5
      _ValueType: 0
      _Curve:
        Type: 1
        StartT: 0
        StartV: 0
        EndT: 0
        EndV: 0
    - Value: 1.6
      _Time: 20
      _ValueType: 0
      _Curve:
        Type: 1
        StartT: 0
        StartV: 0
        EndT: 0
        EndV: 0
    ScaleYKeys:
    - Value: 0
      _Time: 5
      _ValueType: 0
      _Curve:
        Type: 1
        StartT: 0
        StartV: 0
        EndT: 0
        EndV: 0
    - Value: 1
      _Time: 20
      _ValueType: 0
      _Curve:
        Type: 1
        StartT: 0
        StartV: 0
        EndT: 0
        EndV: 0
    TransKeys:
    - Value: 1
      _Time: 5
      _ValueType: 0
      _Curve:
        Type: 1
        StartT: 0
        StartV: 0
        EndT: 0
        EndV: 0
    - Value: 0
      _Time: 20
      _ValueType: 0
      _Curve:
        Type: 1
        StartT: 0
        StartV: 0
        EndT: 0
        EndV: 0
    PrioKeys: []
    FlipHKeys: []
    FlipVKeys: []
    HideKeys:
    - Value: 0
      _Time: 5
      _ValueType: 1
      _Curve:
        Type: 0
        StartT: 0
        StartV: 0
        EndT: 0
        EndV: 0
    - Value: 0
      _Time: 20
      _ValueType: 1
      _Curve:
        Type: 0
        StartT: 0
        StartV: 0
        EndT: 0
        EndV: 0
    PartsColKeys: []
    PartsPalKeys: []
    VertexKeys: []
    UserKeys: []
    SoundKeys: []
    ImageOffsetXKeys: []
    ImageOffsetYKeys: []
    ImageOffsetWKeys: []
    ImageOffsetHKeys: []
    OriginOffsetXKeys:
    - Value: 51
      _Time: 5
      _ValueType: 0
      _Curve:
        Type: 1
        StartT: 0
        StartV: 0
        EndT: 0
        EndV: 0
    - Value: 51
      _Time: 20
      _ValueType: 0
      _Curve:
        Type: 1
        StartT: 0
        StartV: 0
        EndT: 0
        EndV: 0
    OriginOffsetYKeys: []
    PosXValues:
    - _RefKeyIndex: 0
      _Value: 0
    PosYValues:
    - _RefKeyIndex: 0
      _Value: 0
    AngleValues:
    - _RefKeyIndex: 0
      _Value: 0
    - _RefKeyIndex: 0
      _Value: 0
    - _RefKeyIndex: 0
      _Value: 0
    - _RefKeyIndex: 0
      _Value: 0
    - _RefKeyIndex: 0
      _Value: 0
    - _RefKeyIndex: -1
      _Value: 120
    - _RefKeyIndex: -1
      _Value: 114
    - _RefKeyIndex: -1
      _Value: 108
    - _RefKeyIndex: -1
      _Value: 102
    - _RefKeyIndex: -1
      _Value: 96
    - _RefKeyIndex: -1
      _Value: 90
    - _RefKeyIndex: -1
      _Value: 84
    - _RefKeyIndex: -1
      _Value: 78
    - _RefKeyIndex: -1
      _Value: 72
    - _RefKeyIndex: -1
      _Value: 66
    - _RefKeyIndex: -1
      _Value: 60
    - _RefKeyIndex: -1
      _Value: 54
    - _RefKeyIndex: -1
      _Value: 48
    - _RefKeyIndex: -1
      _Value: 42
    - _RefKeyIndex: -1
      _Value: 36
    - _RefKeyIndex: 1
      _Value: 0
    ScaleXValues:
    - _RefKeyIndex: 0
      _Value: 0
    - _RefKeyIndex: 0
      _Value: 0
    - _RefKeyIndex: 0
      _Value: 0
    - _RefKeyIndex: 0
      _Value: 0
    - _RefKeyIndex: 0
      _Value: 0
    - _RefKeyIndex: -1
      _Value: 0.2
    - _RefKeyIndex: -1
      _Value: 0.29333335
    - _RefKeyIndex: -1
      _Value: 0.3866667
    - _RefKeyIndex: -1
      _Value: 0.48000002
    - _RefKeyIndex: -1
      _Value: 0.5733334
    - _RefKeyIndex: -1
      _Value: 0.6666667
    - _RefKeyIndex: -1
      _Value: 0.76
    - _RefKeyIndex: -1
      _Value: 0.85333335
    - _RefKeyIndex: -1
      _Value: 0.9466667
    - _RefKeyIndex: -1
      _Value: 1.0400001
    - _RefKeyIndex: -1
      _Value: 1.1333333
    - _RefKeyIndex: -1
      _Value: 1.2266667
    - _RefKeyIndex: -1
      _Value: 1.32
    - _RefKeyIndex: -1
      _Value: 1.4133334
    - _RefKeyIndex: -1
      _Value: 1.5066667
    - _RefKeyIndex: 1
      _Value: 0
    ScaleYValues:
    - _RefKeyIndex: 0
      _Value: 0
    - _RefKeyIndex: 0
      _Value: 0
    - _RefKeyIndex: 0
      _Value: 0
    - _RefKeyIndex: 0
      _Value: 0
    - _RefKeyIndex: 0
      _Value: 0
    - _RefKeyIndex: -1
      _Value: 0
    - _RefKeyIndex: -1
      _Value: 0.06666667
    - _RefKeyIndex: -1
      _Value: 0.13333334
    - _RefKeyIndex: -1
      _Value: 0.2
    - _RefKeyIndex: -1
      _Value: 0.26666668
    - _RefKeyIndex: -1
      _Value: 0.33333334
    - _RefKeyIndex: -1
      _Value: 0.4
    - _RefKeyIndex: -1
      _Value: 0.46666667
    - _RefKeyIndex: -1
      _Value: 0.53333336
    - _RefKeyIndex: -1
      _Value: 0.6
    - _RefKeyIndex: -1
      _Value: 0.6666667
    - _RefKeyIndex: -1
      _Value: 0.73333335
    - _RefKeyIndex: -1
      _Value: 0.8
    - _RefKeyIndex: -1
      _Value: 0.8666667
    - _RefKeyIndex: -1
      _Value: 0.93333334
    - _RefKeyIndex: 1
      _Value: 0
    TransValues:
    - _RefKeyIndex: 0
      _Value: 0
    - _RefKeyIndex: 0
      _Value: 0
    - _RefKeyIndex: 0
      _Value: 0
    - _RefKeyIndex: 0
      _Value: 0
    - _RefKeyIndex: 0
      _Value: 0
    - _RefKeyIndex: -1
      _Value: 1
    - _RefKeyIndex: -1
      _Value: 0.93333334
    - _RefKeyIndex: -1
      _Value: 0.8666667
    - _RefKeyIndex: -1
      _Value: 0.8
    - _RefKeyIndex: -1
      _Value: 0.73333335
    - _RefKeyIndex: -1
      _Value: 0.6666666
    - _RefKeyIndex: -1
      _Value: 0.6
    - _RefKeyIndex: -1
      _Value: 0.5333333
    - _RefKeyIndex: -1
      _Value: 0.46666664
    - _RefKeyIndex: -1
      _Value: 0.39999998
    - _RefKeyIndex: -1
      _Value: 0.3333333
    - _RefKeyIndex: -1
      _Value: 0.26666665
    - _RefKeyIndex: -1
      _Value: 0.19999999
    - _RefKeyIndex: -1
      _Value: 0.13333333
    - _RefKeyIndex: -1
      _Value: 0.06666666
    - _RefKeyIndex: 1
      _Value: 0
    PrioValues: []
    FlipHValues: []
    FlipVValues: []
    HideValues:
    - _RefKeyIndex: 0
      _Value: 0
    PartsColValues: []
    PartsPalValues: []
    VertexValues: []
    UserValues: []
    SoundValues: []
    ImageOffsetXValues: []
    ImageOffsetYValues: []
    ImageOffsetWValues: []
    ImageOffsetHValues: []
    OriginOffsetXValues:
    - _RefKeyIndex: 0
      _Value: 0
    OriginOffsetYValues: []
    _hasAttrFlags: 524863
    HasTrancparency: 1
    FrameNum: 21
    imageFile:
      path: Assets/Resources/Atlas/PuzzleTile/PuzzleTile.png
      texture: {fileID: 2800000, guid: 00051aac90314b34982a652bd7ab76c2, type: 3}
      materials:
      - {fileID: 0}
      - {fileID: 0}
      - {fileID: 0}
      - {fileID: 0}
      - {fileID: 0}
      - {fileID: 2100000, guid: 68105edfbfe10654394bdef14d2d41d0, type: 2}
      - {fileID: 0}
      - {fileID: 0}
      - {fileID: 0}
      - {fileID: 0}
      - {fileID: 0}
      - {fileID: 0}
      - {fileID: 0}
      - {fileID: 0}
      - {fileID: 0}
      - {fileID: 0}
      - {fileID: 0}
      - {fileID: 0}
      - {fileID: 0}
      - {fileID: 0}
      - {fileID: 0}
      - {fileID: 0}
      - {fileID: 0}
      - {fileID: 0}
      - {fileID: 0}
      - {fileID: 0}
      - {fileID: 0}
      - {fileID: 0}
      - {fileID: 0}
      - {fileID: 0}
      - {fileID: 0}
      - {fileID: 0}
      - {fileID: 0}
      - {fileID: 0}
      - {fileID: 0}
      - {fileID: 0}
      - {fileID: 0}
      - {fileID: 0}
      - {fileID: 0}
      - {fileID: 0}
      - {fileID: 0}
      - {fileID: 0}
      - {fileID: 0}
      - {fileID: 0}
      - {fileID: 0}
      - {fileID: 0}
      - {fileID: 0}
      - {fileID: 0}
      - {fileID: 0}
      - {fileID: 0}
      width: 1024
      height: 2048
      bpp: 0
    UVs:
    - {x: 0.18457031, y: 0.74902344}
    - {x: 0.28515625, y: 0.74902344}
    - {x: 0.28515625, y: 0.71972656}
    - {x: 0.18457031, y: 0.71972656}
    OrgVertices:
    - {x: -51, y: 30, z: 0}
    - {x: 52, y: 30, z: 0}
    - {x: 52, y: -30, z: 0}
    - {x: -51, y: -30, z: 0}
  - AnimeRes: {fileID: 11400000}
    Name: shine02
    Type: 0
    PicArea:
      Left: 189
      Top: 514
      Right: 292
      Bottom: 574
    OriginX: 51
    OriginY: 30
    MyId: 4
    ParentId: 0
    ChildNum: 0
    SrcObjId: 0
    SrcObjType: 0
    AlphaBlendType: 1
    InheritState:
      Type: 0
      Values:
      - Use: 1
        Rate: 1
      - Use: 1
        Rate: 1
      - Use: 1
        Rate: 1
      - Use: 1
        Rate: 1
      - Use: 1
        Rate: 1
      - Use: 1
        Rate: 1
      - Use: 1
        Rate: 1
      - Use: 0
        Rate: 0
      - Use: 0
        Rate: 0
      - Use: 0
        Rate: 0
      - Use: 1
        Rate: 1
      - Use: 1
        Rate: 1
      - Use: 1
        Rate: 1
      - Use: 1
        Rate: 1
      - Use: 1
        Rate: 1
      - Use: 1
        Rate: 1
      - Use: 1
        Rate: 1
      - Use: 1
        Rate: 1
      - Use: 1
        Rate: 1
      - Use: 1
        Rate: 1
      - Use: 1
        Rate: 1
    PosXKeys:
    - Value: 0
      _Time: 0
      _ValueType: 0
      _Curve:
        Type: 1
        StartT: 0
        StartV: 0
        EndT: 0
        EndV: 0
    - Value: 0
      _Time: 16
      _ValueType: 0
      _Curve:
        Type: 1
        StartT: 0
        StartV: 0
        EndT: 0
        EndV: 0
    PosYKeys:
    - Value: 0
      _Time: 0
      _ValueType: 0
      _Curve:
        Type: 1
        StartT: 0
        StartV: 0
        EndT: 0
        EndV: 0
    - Value: 0
      _Time: 16
      _ValueType: 0
      _Curve:
        Type: 1
        StartT: 0
        StartV: 0
        EndT: 0
        EndV: 0
    AngleKeys:
    - Value: -135
      _Time: 0
      _ValueType: 0
      _Curve:
        Type: 1
        StartT: 0
        StartV: 0
        EndT: 0
        EndV: 0
    - Value: -240
      _Time: 16
      _ValueType: 0
      _Curve:
        Type: 1
        StartT: 0
        StartV: 0
        EndT: 0
        EndV: 0
    ScaleXKeys:
    - Value: 0.2
      _Time: 0
      _ValueType: 0
      _Curve:
        Type: 1
        StartT: 0
        StartV: 0
        EndT: 0
        EndV: 0
    - Value: 1.2
      _Time: 16
      _ValueType: 0
      _Curve:
        Type: 1
        StartT: 0
        StartV: 0
        EndT: 0
        EndV: 0
    ScaleYKeys:
    - Value: 0
      _Time: 0
      _ValueType: 0
      _Curve:
        Type: 1
        StartT: 0
        StartV: 0
        EndT: 0
        EndV: 0
    - Value: 1.5
      _Time: 16
      _ValueType: 0
      _Curve:
        Type: 1
        StartT: 0
        StartV: 0
        EndT: 0
        EndV: 0
    TransKeys:
    - Value: 1
      _Time: 0
      _ValueType: 0
      _Curve:
        Type: 1
        StartT: 0
        StartV: 0
        EndT: 0
        EndV: 0
    - Value: 0
      _Time: 16
      _ValueType: 0
      _Curve:
        Type: 1
        StartT: 0
        StartV: 0
        EndT: 0
        EndV: 0
    PrioKeys: []
    FlipHKeys: []
    FlipVKeys: []
    HideKeys:
    - Value: 0
      _Time: 0
      _ValueType: 1
      _Curve:
        Type: 0
        StartT: 0
        StartV: 0
        EndT: 0
        EndV: 0
    - Value: 0
      _Time: 16
      _ValueType: 1
      _Curve:
        Type: 0
        StartT: 0
        StartV: 0
        EndT: 0
        EndV: 0
    PartsColKeys: []
    PartsPalKeys: []
    VertexKeys: []
    UserKeys: []
    SoundKeys: []
    ImageOffsetXKeys: []
    ImageOffsetYKeys: []
    ImageOffsetWKeys: []
    ImageOffsetHKeys: []
    OriginOffsetXKeys:
    - Value: 51
      _Time: 0
      _ValueType: 0
      _Curve:
        Type: 1
        StartT: 0
        StartV: 0
        EndT: 0
        EndV: 0
    - Value: 51
      _Time: 16
      _ValueType: 0
      _Curve:
        Type: 1
        StartT: 0
        StartV: 0
        EndT: 0
        EndV: 0
    OriginOffsetYKeys: []
    PosXValues:
    - _RefKeyIndex: -1
      _Value: 0
    PosYValues:
    - _RefKeyIndex: -1
      _Value: 0
    AngleValues:
    - _RefKeyIndex: -1
      _Value: -135
    - _RefKeyIndex: -1
      _Value: -141.5625
    - _RefKeyIndex: -1
      _Value: -148.125
    - _RefKeyIndex: -1
      _Value: -154.6875
    - _RefKeyIndex: -1
      _Value: -161.25
    - _RefKeyIndex: -1
      _Value: -167.8125
    - _RefKeyIndex: -1
      _Value: -174.375
    - _RefKeyIndex: -1
      _Value: -180.9375
    - _RefKeyIndex: -1
      _Value: -187.5
    - _RefKeyIndex: -1
      _Value: -194.0625
    - _RefKeyIndex: -1
      _Value: -200.625
    - _RefKeyIndex: -1
      _Value: -207.1875
    - _RefKeyIndex: -1
      _Value: -213.75
    - _RefKeyIndex: -1
      _Value: -220.3125
    - _RefKeyIndex: -1
      _Value: -226.875
    - _RefKeyIndex: -1
      _Value: -233.4375
    - _RefKeyIndex: 1
      _Value: 0
    - _RefKeyIndex: 1
      _Value: 0
    - _RefKeyIndex: 1
      _Value: 0
    - _RefKeyIndex: 1
      _Value: 0
    - _RefKeyIndex: 1
      _Value: 0
    ScaleXValues:
    - _RefKeyIndex: -1
      _Value: 0.2
    - _RefKeyIndex: -1
      _Value: 0.26250002
    - _RefKeyIndex: -1
      _Value: 0.32500002
    - _RefKeyIndex: -1
      _Value: 0.38750002
    - _RefKeyIndex: -1
      _Value: 0.45000002
    - _RefKeyIndex: -1
      _Value: 0.5125
    - _RefKeyIndex: -1
      _Value: 0.57500005
    - _RefKeyIndex: -1
      _Value: 0.63750005
    - _RefKeyIndex: -1
      _Value: 0.70000005
    - _RefKeyIndex: -1
      _Value: 0.76250005
    - _RefKeyIndex: -1
      _Value: 0.82500005
    - _RefKeyIndex: -1
      _Value: 0.88750005
    - _RefKeyIndex: -1
      _Value: 0.95000005
    - _RefKeyIndex: -1
      _Value: 1.0125
    - _RefKeyIndex: -1
      _Value: 1.075
    - _RefKeyIndex: -1
      _Value: 1.1375
    - _RefKeyIndex: 1
      _Value: 0
    - _RefKeyIndex: 1
      _Value: 0
    - _RefKeyIndex: 1
      _Value: 0
    - _RefKeyIndex: 1
      _Value: 0
    - _RefKeyIndex: 1
      _Value: 0
    ScaleYValues:
    - _RefKeyIndex: -1
      _Value: 0
    - _RefKeyIndex: -1
      _Value: 0.09375
    - _RefKeyIndex: -1
      _Value: 0.1875
    - _RefKeyIndex: -1
      _Value: 0.28125
    - _RefKeyIndex: -1
      _Value: 0.375
    - _RefKeyIndex: -1
      _Value: 0.46875
    - _RefKeyIndex: -1
      _Value: 0.5625
    - _RefKeyIndex: -1
      _Value: 0.65625
    - _RefKeyIndex: -1
      _Value: 0.75
    - _RefKeyIndex: -1
      _Value: 0.84375
    - _RefKeyIndex: -1
      _Value: 0.9375
    - _RefKeyIndex: -1
      _Value: 1.03125
    - _RefKeyIndex: -1
      _Value: 1.125
    - _RefKeyIndex: -1
      _Value: 1.21875
    - _RefKeyIndex: -1
      _Value: 1.3125
    - _RefKeyIndex: -1
      _Value: 1.40625
    - _RefKeyIndex: 1
      _Value: 0
    - _RefKeyIndex: 1
      _Value: 0
    - _RefKeyIndex: 1
      _Value: 0
    - _RefKeyIndex: 1
      _Value: 0
    - _RefKeyIndex: 1
      _Value: 0
    TransValues:
    - _RefKeyIndex: -1
      _Value: 1
    - _RefKeyIndex: -1
      _Value: 0.9375
    - _RefKeyIndex: -1
      _Value: 0.875
    - _RefKeyIndex: -1
      _Value: 0.8125
    - _RefKeyIndex: -1
      _Value: 0.75
    - _RefKeyIndex: -1
      _Value: 0.6875
    - _RefKeyIndex: -1
      _Value: 0.625
    - _RefKeyIndex: -1
      _Value: 0.5625
    - _RefKeyIndex: -1
      _Value: 0.5
    - _RefKeyIndex: -1
      _Value: 0.4375
    - _RefKeyIndex: -1
      _Value: 0.375
    - _RefKeyIndex: -1
      _Value: 0.3125
    - _RefKeyIndex: -1
      _Value: 0.25
    - _RefKeyIndex: -1
      _Value: 0.1875
    - _RefKeyIndex: -1
      _Value: 0.125
    - _RefKeyIndex: -1
      _Value: 0.0625
    - _RefKeyIndex: 1
      _Value: 0
    - _RefKeyIndex: 1
      _Value: 0
    - _RefKeyIndex: 1
      _Value: 0
    - _RefKeyIndex: 1
      _Value: 0
    - _RefKeyIndex: 1
      _Value: 0
    PrioValues: []
    FlipHValues: []
    FlipVValues: []
    HideValues:
    - _RefKeyIndex: 0
      _Value: 0
    PartsColValues: []
    PartsPalValues: []
    VertexValues: []
    UserValues: []
    SoundValues: []
    ImageOffsetXValues: []
    ImageOffsetYValues: []
    ImageOffsetWValues: []
    ImageOffsetHValues: []
    OriginOffsetXValues:
    - _RefKeyIndex: -1
      _Value: 51
    OriginOffsetYValues: []
    _hasAttrFlags: 524863
    HasTrancparency: 1
    FrameNum: 21
    imageFile:
      path: Assets/Resources/Atlas/PuzzleTile/PuzzleTile.png
      texture: {fileID: 2800000, guid: 00051aac90314b34982a652bd7ab76c2, type: 3}
      materials:
      - {fileID: 0}
      - {fileID: 0}
      - {fileID: 0}
      - {fileID: 0}
      - {fileID: 0}
      - {fileID: 2100000, guid: 68105edfbfe10654394bdef14d2d41d0, type: 2}
      - {fileID: 0}
      - {fileID: 0}
      - {fileID: 0}
      - {fileID: 0}
      - {fileID: 0}
      - {fileID: 0}
      - {fileID: 0}
      - {fileID: 0}
      - {fileID: 0}
      - {fileID: 0}
      - {fileID: 0}
      - {fileID: 0}
      - {fileID: 0}
      - {fileID: 0}
      - {fileID: 0}
      - {fileID: 0}
      - {fileID: 0}
      - {fileID: 0}
      - {fileID: 0}
      - {fileID: 0}
      - {fileID: 0}
      - {fileID: 0}
      - {fileID: 0}
      - {fileID: 0}
      - {fileID: 0}
      - {fileID: 0}
      - {fileID: 0}
      - {fileID: 0}
      - {fileID: 0}
      - {fileID: 0}
      - {fileID: 0}
      - {fileID: 0}
      - {fileID: 0}
      - {fileID: 0}
      - {fileID: 0}
      - {fileID: 0}
      - {fileID: 0}
      - {fileID: 0}
      - {fileID: 0}
      - {fileID: 0}
      - {fileID: 0}
      - {fileID: 0}
      - {fileID: 0}
      - {fileID: 0}
      width: 1024
      height: 2048
      bpp: 0
    UVs:
    - {x: 0.18457031, y: 0.74902344}
    - {x: 0.28515625, y: 0.74902344}
    - {x: 0.28515625, y: 0.71972656}
    - {x: 0.18457031, y: 0.71972656}
    OrgVertices:
    - {x: -51, y: 30, z: 0}
    - {x: 52, y: 30, z: 0}
    - {x: 52, y: -30, z: 0}
    - {x: -51, y: -30, z: 0}
  - AnimeRes: {fileID: 11400000}
    Name: shine03
    Type: 0
    PicArea:
      Left: 189
      Top: 514
      Right: 292
      Bottom: 574
    OriginX: 51
    OriginY: 30
    MyId: 5
    ParentId: 0
    ChildNum: 0
    SrcObjId: 0
    SrcObjType: 0
    AlphaBlendType: 1
    InheritState:
      Type: 0
      Values:
      - Use: 1
        Rate: 1
      - Use: 1
        Rate: 1
      - Use: 1
        Rate: 1
      - Use: 1
        Rate: 1
      - Use: 1
        Rate: 1
      - Use: 1
        Rate: 1
      - Use: 1
        Rate: 1
      - Use: 0
        Rate: 0
      - Use: 0
        Rate: 0
      - Use: 0
        Rate: 0
      - Use: 1
        Rate: 1
      - Use: 1
        Rate: 1
      - Use: 1
        Rate: 1
      - Use: 1
        Rate: 1
      - Use: 1
        Rate: 1
      - Use: 1
        Rate: 1
      - Use: 1
        Rate: 1
      - Use: 1
        Rate: 1
      - Use: 1
        Rate: 1
      - Use: 1
        Rate: 1
      - Use: 1
        Rate: 1
    PosXKeys:
    - Value: 0
      _Time: 3
      _ValueType: 0
      _Curve:
        Type: 1
        StartT: 0
        StartV: 0
        EndT: 0
        EndV: 0
    - Value: 0
      _Time: 20
      _ValueType: 0
      _Curve:
        Type: 1
        StartT: 0
        StartV: 0
        EndT: 0
        EndV: 0
    PosYKeys:
    - Value: 0
      _Time: 3
      _ValueType: 0
      _Curve:
        Type: 1
        StartT: 0
        StartV: 0
        EndT: 0
        EndV: 0
    - Value: 0
      _Time: 20
      _ValueType: 0
      _Curve:
        Type: 1
        StartT: 0
        StartV: 0
        EndT: 0
        EndV: 0
    AngleKeys:
    - Value: -80
      _Time: 3
      _ValueType: 0
      _Curve:
        Type: 1
        StartT: 0
        StartV: 0
        EndT: 0
        EndV: 0
    - Value: -160
      _Time: 20
      _ValueType: 0
      _Curve:
        Type: 1
        StartT: 0
        StartV: 0
        EndT: 0
        EndV: 0
    ScaleXKeys:
    - Value: 0.2
      _Time: 3
      _ValueType: 0
      _Curve:
        Type: 1
        StartT: 0
        StartV: 0
        EndT: 0
        EndV: 0
    - Value: 1.2
      _Time: 20
      _ValueType: 0
      _Curve:
        Type: 1
        StartT: 0
        StartV: 0
        EndT: 0
        EndV: 0
    ScaleYKeys:
    - Value: 0
      _Time: 3
      _ValueType: 0
      _Curve:
        Type: 1
        StartT: 0
        StartV: 0
        EndT: 0
        EndV: 0
    - Value: 1.3
      _Time: 20
      _ValueType: 0
      _Curve:
        Type: 1
        StartT: 0
        StartV: 0
        EndT: 0
        EndV: 0
    TransKeys:
    - Value: 1
      _Time: 3
      _ValueType: 0
      _Curve:
        Type: 1
        StartT: 0
        StartV: 0
        EndT: 0
        EndV: 0
    - Value: 0
      _Time: 20
      _ValueType: 0
      _Curve:
        Type: 1
        StartT: 0
        StartV: 0
        EndT: 0
        EndV: 0
    PrioKeys: []
    FlipHKeys: []
    FlipVKeys: []
    HideKeys:
    - Value: 0
      _Time: 3
      _ValueType: 1
      _Curve:
        Type: 0
        StartT: 0
        StartV: 0
        EndT: 0
        EndV: 0
    - Value: 0
      _Time: 20
      _ValueType: 1
      _Curve:
        Type: 0
        StartT: 0
        StartV: 0
        EndT: 0
        EndV: 0
    PartsColKeys: []
    PartsPalKeys: []
    VertexKeys: []
    UserKeys: []
    SoundKeys: []
    ImageOffsetXKeys: []
    ImageOffsetYKeys: []
    ImageOffsetWKeys: []
    ImageOffsetHKeys: []
    OriginOffsetXKeys:
    - Value: 51
      _Time: 3
      _ValueType: 0
      _Curve:
        Type: 1
        StartT: 0
        StartV: 0
        EndT: 0
        EndV: 0
    - Value: 51
      _Time: 20
      _ValueType: 0
      _Curve:
        Type: 1
        StartT: 0
        StartV: 0
        EndT: 0
        EndV: 0
    OriginOffsetYKeys: []
    PosXValues:
    - _RefKeyIndex: 0
      _Value: 0
    PosYValues:
    - _RefKeyIndex: 0
      _Value: 0
    AngleValues:
    - _RefKeyIndex: 0
      _Value: 0
    - _RefKeyIndex: 0
      _Value: 0
    - _RefKeyIndex: 0
      _Value: 0
    - _RefKeyIndex: -1
      _Value: -80
    - _RefKeyIndex: -1
      _Value: -84.70588
    - _RefKeyIndex: -1
      _Value: -89.411766
    - _RefKeyIndex: -1
      _Value: -94.117645
    - _RefKeyIndex: -1
      _Value: -98.82353
    - _RefKeyIndex: -1
      _Value: -103.52941
    - _RefKeyIndex: -1
      _Value: -108.2353
    - _RefKeyIndex: -1
      _Value: -112.94118
    - _RefKeyIndex: -1
      _Value: -117.64706
    - _RefKeyIndex: -1
      _Value: -122.35294
    - _RefKeyIndex: -1
      _Value: -127.05882
    - _RefKeyIndex: -1
      _Value: -131.76471
    - _RefKeyIndex: -1
      _Value: -136.4706
    - _RefKeyIndex: -1
      _Value: -141.17647
    - _RefKeyIndex: -1
      _Value: -145.88235
    - _RefKeyIndex: -1
      _Value: -150.58824
    - _RefKeyIndex: -1
      _Value: -155.29411
    - _RefKeyIndex: 1
      _Value: 0
    ScaleXValues:
    - _RefKeyIndex: 0
      _Value: 0
    - _RefKeyIndex: 0
      _Value: 0
    - _RefKeyIndex: 0
      _Value: 0
    - _RefKeyIndex: -1
      _Value: 0.2
    - _RefKeyIndex: -1
      _Value: 0.25882354
    - _RefKeyIndex: -1
      _Value: 0.31764707
    - _RefKeyIndex: -1
      _Value: 0.3764706
    - _RefKeyIndex: -1
      _Value: 0.43529412
    - _RefKeyIndex: -1
      _Value: 0.49411768
    - _RefKeyIndex: -1
      _Value: 0.5529412
    - _RefKeyIndex: -1
      _Value: 0.6117647
    - _RefKeyIndex: -1
      _Value: 0.67058825
    - _RefKeyIndex: -1
      _Value: 0.72941184
    - _RefKeyIndex: -1
      _Value: 0.78823537
    - _RefKeyIndex: -1
      _Value: 0.8470589
    - _RefKeyIndex: -1
      _Value: 0.9058824
    - _RefKeyIndex: -1
      _Value: 0.96470594
    - _RefKeyIndex: -1
      _Value: 1.0235294
    - _RefKeyIndex: -1
      _Value: 1.082353
    - _RefKeyIndex: -1
      _Value: 1.1411765
    - _RefKeyIndex: 1
      _Value: 0
    ScaleYValues:
    - _RefKeyIndex: 0
      _Value: 0
    - _RefKeyIndex: 0
      _Value: 0
    - _RefKeyIndex: 0
      _Value: 0
    - _RefKeyIndex: -1
      _Value: 0
    - _RefKeyIndex: -1
      _Value: 0.07647058
    - _RefKeyIndex: -1
      _Value: 0.15294117
    - _RefKeyIndex: -1
      _Value: 0.22941177
    - _RefKeyIndex: -1
      _Value: 0.30588233
    - _RefKeyIndex: -1
      _Value: 0.38235295
    - _RefKeyIndex: -1
      _Value: 0.45882353
    - _RefKeyIndex: -1
      _Value: 0.5352941
    - _RefKeyIndex: -1
      _Value: 0.61176467
    - _RefKeyIndex: -1
      _Value: 0.6882353
    - _RefKeyIndex: -1
      _Value: 0.7647059
    - _RefKeyIndex: -1
      _Value: 0.84117645
    - _RefKeyIndex: -1
      _Value: 0.91764706
    - _RefKeyIndex: -1
      _Value: 0.9941176
    - _RefKeyIndex: -1
      _Value: 1.0705882
    - _RefKeyIndex: -1
      _Value: 1.1470588
    - _RefKeyIndex: -1
      _Value: 1.2235293
    - _RefKeyIndex: 1
      _Value: 0
    TransValues:
    - _RefKeyIndex: 0
      _Value: 0
    - _RefKeyIndex: 0
      _Value: 0
    - _RefKeyIndex: 0
      _Value: 0
    - _RefKeyIndex: -1
      _Value: 1
    - _RefKeyIndex: -1
      _Value: 0.9411765
    - _RefKeyIndex: -1
      _Value: 0.88235295
    - _RefKeyIndex: -1
      _Value: 0.8235294
    - _RefKeyIndex: -1
      _Value: 0.7647059
    - _RefKeyIndex: -1
      _Value: 0.7058823
    - _RefKeyIndex: -1
      _Value: 0.64705884
    - _RefKeyIndex: -1
      _Value: 0.58823526
    - _RefKeyIndex: -1
      _Value: 0.5294118
    - _RefKeyIndex: -1
      _Value: 0.4705882
    - _RefKeyIndex: -1
      _Value: 0.41176468
    - _RefKeyIndex: -1
      _Value: 0.35294116
    - _RefKeyIndex: -1
      _Value: 0.29411763
    - _RefKeyIndex: -1
      _Value: 0.2352941
    - _RefKeyIndex: -1
      _Value: 0.17647058
    - _RefKeyIndex: -1
      _Value: 0.11764705
    - _RefKeyIndex: -1
      _Value: 0.058823526
    - _RefKeyIndex: 1
      _Value: 0
    PrioValues: []
    FlipHValues: []
    FlipVValues: []
    HideValues:
    - _RefKeyIndex: 0
      _Value: 0
    PartsColValues: []
    PartsPalValues: []
    VertexValues: []
    UserValues: []
    SoundValues: []
    ImageOffsetXValues: []
    ImageOffsetYValues: []
    ImageOffsetWValues: []
    ImageOffsetHValues: []
    OriginOffsetXValues:
    - _RefKeyIndex: 0
      _Value: 0
    OriginOffsetYValues: []
    _hasAttrFlags: 524863
    HasTrancparency: 1
    FrameNum: 21
    imageFile:
      path: Assets/Resources/Atlas/PuzzleTile/PuzzleTile.png
      texture: {fileID: 2800000, guid: 00051aac90314b34982a652bd7ab76c2, type: 3}
      materials:
      - {fileID: 0}
      - {fileID: 0}
      - {fileID: 0}
      - {fileID: 0}
      - {fileID: 0}
      - {fileID: 2100000, guid: 68105edfbfe10654394bdef14d2d41d0, type: 2}
      - {fileID: 0}
      - {fileID: 0}
      - {fileID: 0}
      - {fileID: 0}
      - {fileID: 0}
      - {fileID: 0}
      - {fileID: 0}
      - {fileID: 0}
      - {fileID: 0}
      - {fileID: 0}
      - {fileID: 0}
      - {fileID: 0}
      - {fileID: 0}
      - {fileID: 0}
      - {fileID: 0}
      - {fileID: 0}
      - {fileID: 0}
      - {fileID: 0}
      - {fileID: 0}
      - {fileID: 0}
      - {fileID: 0}
      - {fileID: 0}
      - {fileID: 0}
      - {fileID: 0}
      - {fileID: 0}
      - {fileID: 0}
      - {fileID: 0}
      - {fileID: 0}
      - {fileID: 0}
      - {fileID: 0}
      - {fileID: 0}
      - {fileID: 0}
      - {fileID: 0}
      - {fileID: 0}
      - {fileID: 0}
      - {fileID: 0}
      - {fileID: 0}
      - {fileID: 0}
      - {fileID: 0}
      - {fileID: 0}
      - {fileID: 0}
      - {fileID: 0}
      - {fileID: 0}
      - {fileID: 0}
      width: 1024
      height: 2048
      bpp: 0
    UVs:
    - {x: 0.18457031, y: 0.74902344}
    - {x: 0.28515625, y: 0.74902344}
    - {x: 0.28515625, y: 0.71972656}
    - {x: 0.18457031, y: 0.71972656}
    OrgVertices:
    - {x: -51, y: 30, z: 0}
    - {x: 52, y: 30, z: 0}
    - {x: 52, y: -30, z: 0}
    - {x: -51, y: -30, z: 0}
  ImportedTime: 1235682658
  ImportedTimeHigh: -1999271361
