%YAML 1.1
%TAG !u! tag:unity3d.com,2011:
--- !u!114 &11400000
MonoBehaviour:
  m_ObjectHideFlags: 0
  m_PrefabParentObject: {fileID: 0}
  m_PrefabInternal: {fileID: 0}
  m_GameObject: {fileID: 0}
  m_Enabled: 1
  m_EditorHideFlags: 0
  m_Script: {fileID: 11500000, guid: 0ae895f3348548989f1b4caf6cca149f, type: 3}
  m_Name: efc_paint_beam_red_anim_ssa
  m_EditorClassIdentifier:
  OriginalPath: Assets/Resources/Atlas/PuzzleTile/efc_paint_beam_red_anim.ssax
  UseScaleFactor: 0
  ScaleFactor: 1
  FPS: 30
  EndFrame: 19
  hvFlipForImageOnly: 1
  ImageList:
  - path: Assets/Resources/Atlas/PuzzleTile/PuzzleTile.png
    texture: {fileID: 2800000, guid: 00051aac90314b34982a652bd7ab76c2, type: 3}
    materials:
    - {fileID: 0}
    - {fileID: 0}
    - {fileID: 0}
    - {fileID: 0}
    - {fileID: 0}
    - {fileID: 2100000, guid: 68105edfbfe10654394bdef14d2d41d0, type: 2}
    - {fileID: 2100000, guid: 2879c887f9fc9614e9af0ab0d188f79a, type: 2}
    - {fileID: 0}
    - {fileID: 0}
    - {fileID: 0}
    - {fileID: 0}
    - {fileID: 0}
    - {fileID: 0}
    - {fileID: 0}
    - {fileID: 0}
    - {fileID: 0}
    - {fileID: 0}
    - {fileID: 0}
    - {fileID: 0}
    - {fileID: 0}
    - {fileID: 0}
    - {fileID: 0}
    - {fileID: 0}
    - {fileID: 0}
    - {fileID: 0}
    - {fileID: 0}
    - {fileID: 0}
    - {fileID: 0}
    - {fileID: 0}
    - {fileID: 0}
    - {fileID: 0}
    - {fileID: 0}
    - {fileID: 0}
    - {fileID: 0}
    - {fileID: 0}
    - {fileID: 0}
    - {fileID: 0}
    - {fileID: 0}
    - {fileID: 0}
    - {fileID: 0}
    - {fileID: 0}
    - {fileID: 0}
    - {fileID: 0}
    - {fileID: 0}
    - {fileID: 0}
    - {fileID: 0}
    - {fileID: 0}
    - {fileID: 0}
    - {fileID: 0}
    - {fileID: 0}
    width: 1024
    height: 2048
    bpp: 0
  PartList:
  - AnimeRes: {fileID: 11400000}
    Name: root
    Type: 1
    PicArea:
      Left: 0
      Top: 0
      Right: 0
      Bottom: 0
    OriginX: 0
    OriginY: 0
    MyId: 0
    ParentId: -1
    ChildNum: 0
    SrcObjId: 0
    SrcObjType: 0
    AlphaBlendType: 0
    InheritState:
      Type: 0
      Values:
      - Use: 1
        Rate: 1
      - Use: 1
        Rate: 1
      - Use: 1
        Rate: 1
      - Use: 1
        Rate: 1
      - Use: 1
        Rate: 1
      - Use: 1
        Rate: 1
      - Use: 1
        Rate: 1
      - Use: 0
        Rate: 0
      - Use: 0
        Rate: 0
      - Use: 0
        Rate: 0
      - Use: 1
        Rate: 1
      - Use: 1
        Rate: 1
      - Use: 1
        Rate: 1
      - Use: 1
        Rate: 1
      - Use: 1
        Rate: 1
      - Use: 1
        Rate: 1
      - Use: 1
        Rate: 1
      - Use: 1
        Rate: 1
      - Use: 1
        Rate: 1
      - Use: 1
        Rate: 1
      - Use: 1
        Rate: 1
    PosXKeys: []
    PosYKeys: []
    AngleKeys: []
    ScaleXKeys: []
    ScaleYKeys: []
    TransKeys: []
    PrioKeys: []
    FlipHKeys: []
    FlipVKeys: []
    HideKeys:
    - Value: 0
      _Time: 0
      _ValueType: 1
      _Curve:
        Type: 0
        StartT: 0
        StartV: 0
        EndT: 0
        EndV: 0
    PartsColKeys: []
    PartsPalKeys: []
    VertexKeys: []
    UserKeys: []
    SoundKeys: []
    ImageOffsetXKeys: []
    ImageOffsetYKeys: []
    ImageOffsetWKeys: []
    ImageOffsetHKeys: []
    OriginOffsetXKeys: []
    OriginOffsetYKeys: []
    PosXValues: []
    PosYValues: []
    AngleValues: []
    ScaleXValues: []
    ScaleYValues: []
    TransValues: []
    PrioValues: []
    FlipHValues: []
    FlipVValues: []
    HideValues:
    - _RefKeyIndex: 0
      _Value: 0
    - _RefKeyIndex: 0
      _Value: 0
    - _RefKeyIndex: 0
      _Value: 0
    - _RefKeyIndex: 0
      _Value: 0
    - _RefKeyIndex: 0
      _Value: 0
    - _RefKeyIndex: 0
      _Value: 0
    - _RefKeyIndex: 0
      _Value: 0
    - _RefKeyIndex: 0
      _Value: 0
    - _RefKeyIndex: 0
      _Value: 0
    - _RefKeyIndex: 0
      _Value: 0
    - _RefKeyIndex: 0
      _Value: 0
    - _RefKeyIndex: 0
      _Value: 0
    - _RefKeyIndex: 0
      _Value: 0
    - _RefKeyIndex: 0
      _Value: 0
    - _RefKeyIndex: 0
      _Value: 0
    - _RefKeyIndex: 0
      _Value: 0
    - _RefKeyIndex: 0
      _Value: 0
    - _RefKeyIndex: 0
      _Value: 0
    - _RefKeyIndex: 0
      _Value: 0
    - _RefKeyIndex: 0
      _Value: 0
    PartsColValues: []
    PartsPalValues: []
    VertexValues: []
    UserValues: []
    SoundValues: []
    ImageOffsetXValues: []
    ImageOffsetYValues: []
    ImageOffsetWValues: []
    ImageOffsetHValues: []
    OriginOffsetXValues: []
    OriginOffsetYValues: []
    _hasAttrFlags: 512
    HasTrancparency: 0
    FrameNum: 20
    imageFile:
      path:
      texture: {fileID: 0}
      materials: []
      width: 0
      height: 0
      bpp: 0
    UVs: []
    OrgVertices:
    - {x: -0, y: 0, z: 0}
    - {x: 0, y: 0, z: 0}
    - {x: 0, y: -0, z: 0}
    - {x: -0, y: -0, z: 0}
  - AnimeRes: {fileID: 11400000}
    Name: beam
    Type: 0
    PicArea:
      Left: 163
      Top: 1778
      Right: 243
      Bottom: 1800
    OriginX: 0
    OriginY: 11
    MyId: 1
    ParentId: 0
    ChildNum: 0
    SrcObjId: 0
    SrcObjType: 0
    AlphaBlendType: 1
    InheritState:
      Type: 0
      Values:
      - Use: 1
        Rate: 1
      - Use: 1
        Rate: 1
      - Use: 1
        Rate: 1
      - Use: 1
        Rate: 1
      - Use: 1
        Rate: 1
      - Use: 1
        Rate: 1
      - Use: 1
        Rate: 1
      - Use: 0
        Rate: 0
      - Use: 0
        Rate: 0
      - Use: 0
        Rate: 0
      - Use: 1
        Rate: 1
      - Use: 1
        Rate: 1
      - Use: 1
        Rate: 1
      - Use: 1
        Rate: 1
      - Use: 1
        Rate: 1
      - Use: 1
        Rate: 1
      - Use: 1
        Rate: 1
      - Use: 1
        Rate: 1
      - Use: 1
        Rate: 1
      - Use: 1
        Rate: 1
      - Use: 1
        Rate: 1
    PosXKeys:
    - Value: 0
      _Time: 0
      _ValueType: 0
      _Curve:
        Type: 1
        StartT: 0
        StartV: 0
        EndT: 0
        EndV: 0
    - Value: 0
      _Time: 10
      _ValueType: 0
      _Curve:
        Type: 1
        StartT: 0
        StartV: 0
        EndT: 0
        EndV: 0
    - Value: 80
      _Time: 19
      _ValueType: 0
      _Curve:
        Type: 1
        StartT: 0
        StartV: 0
        EndT: 0
        EndV: 0
    PosYKeys:
    - Value: 0
      _Time: 0
      _ValueType: 0
      _Curve:
        Type: 1
        StartT: 0
        StartV: 0
        EndT: 0
        EndV: 0
    AngleKeys:
    - Value: 0
      _Time: 0
      _ValueType: 0
      _Curve:
        Type: 1
        StartT: 0
        StartV: 0
        EndT: 0
        EndV: 0
    ScaleXKeys:
    - Value: 0.3
      _Time: 0
      _ValueType: 0
      _Curve:
        Type: 1
        StartT: 0
        StartV: 0
        EndT: 0
        EndV: 0
    - Value: 1
      _Time: 10
      _ValueType: 0
      _Curve:
        Type: 1
        StartT: 0
        StartV: 0
        EndT: 0
        EndV: 0
    - Value: 0
      _Time: 19
      _ValueType: 0
      _Curve:
        Type: 1
        StartT: 0
        StartV: 0
        EndT: 0
        EndV: 0
    ScaleYKeys:
    - Value: 0.5
      _Time: 0
      _ValueType: 0
      _Curve:
        Type: 1
        StartT: 0
        StartV: 0
        EndT: 0
        EndV: 0
    - Value: 0.875
      _Time: 10
      _ValueType: 0
      _Curve:
        Type: 1
        StartT: 0
        StartV: 0
        EndT: 0
        EndV: 0
    - Value: 0
      _Time: 19
      _ValueType: 0
      _Curve:
        Type: 1
        StartT: 0
        StartV: 0
        EndT: 0
        EndV: 0
    TransKeys:
    - Value: 0
      _Time: 0
      _ValueType: 0
      _Curve:
        Type: 1
        StartT: 0
        StartV: 0
        EndT: 0
        EndV: 0
    - Value: 1
      _Time: 10
      _ValueType: 0
      _Curve:
        Type: 1
        StartT: 0
        StartV: 0
        EndT: 0
        EndV: 0
    - Value: 1
      _Time: 15
      _ValueType: 0
      _Curve:
        Type: 1
        StartT: 0
        StartV: 0
        EndT: 0
        EndV: 0
    - Value: 0
      _Time: 19
      _ValueType: 0
      _Curve:
        Type: 1
        StartT: 0
        StartV: 0
        EndT: 0
        EndV: 0
    PrioKeys: []
    FlipHKeys: []
    FlipVKeys: []
    HideKeys:
    - Value: 0
      _Time: 0
      _ValueType: 1
      _Curve:
        Type: 0
        StartT: 0
        StartV: 0
        EndT: 0
        EndV: 0
    PartsColKeys:
    - Value:
        Target: 1
        Operation: 1
        Colors:
        - R: 255
          G: 255
          B: 255
          A: 255
        - R: 255
          G: 255
          B: 255
          A: 255
        - R: 255
          G: 255
          B: 255
          A: 255
        - R: 255
          G: 255
          B: 255
          A: 255
      _Time: 0
      _ValueType: 4
      _Curve:
        Type: 1
        StartT: 0
        StartV: 0
        EndT: 0
        EndV: 0
    - Value:
        Target: 1
        Operation: 1
        Colors:
        - R: 255
          G: 25
          B: 25
          A: 255
        - R: 255
          G: 25
          B: 25
          A: 255
        - R: 255
          G: 25
          B: 25
          A: 255
        - R: 255
          G: 25
          B: 25
          A: 255
      _Time: 19
      _ValueType: 4
      _Curve:
        Type: 1
        StartT: 0
        StartV: 0
        EndT: 0
        EndV: 0
    PartsPalKeys: []
    VertexKeys: []
    UserKeys: []
    SoundKeys: []
    ImageOffsetXKeys: []
    ImageOffsetYKeys: []
    ImageOffsetWKeys: []
    ImageOffsetHKeys: []
    OriginOffsetXKeys: []
    OriginOffsetYKeys: []
    PosXValues:
    - _RefKeyIndex: -1
      _Value: 0
    - _RefKeyIndex: -1
      _Value: 0
    - _RefKeyIndex: -1
      _Value: 0
    - _RefKeyIndex: -1
      _Value: 0
    - _RefKeyIndex: -1
      _Value: 0
    - _RefKeyIndex: -1
      _Value: 0
    - _RefKeyIndex: -1
      _Value: 0
    - _RefKeyIndex: -1
      _Value: 0
    - _RefKeyIndex: -1
      _Value: 0
    - _RefKeyIndex: -1
      _Value: 0
    - _RefKeyIndex: -1
      _Value: 0
    - _RefKeyIndex: -1
      _Value: 8.888889
    - _RefKeyIndex: -1
      _Value: 17.777779
    - _RefKeyIndex: -1
      _Value: 26.666668
    - _RefKeyIndex: -1
      _Value: 35.555557
    - _RefKeyIndex: -1
      _Value: 44.444447
    - _RefKeyIndex: -1
      _Value: 53.333336
    - _RefKeyIndex: -1
      _Value: 62.22222
    - _RefKeyIndex: -1
      _Value: 71.111115
    - _RefKeyIndex: 2
      _Value: 0
    PosYValues:
    - _RefKeyIndex: 0
      _Value: 0
    AngleValues:
    - _RefKeyIndex: 0
      _Value: 0
    ScaleXValues:
    - _RefKeyIndex: -1
      _Value: 0.3
    - _RefKeyIndex: -1
      _Value: 0.37
    - _RefKeyIndex: -1
      _Value: 0.44
    - _RefKeyIndex: -1
      _Value: 0.51
    - _RefKeyIndex: -1
      _Value: 0.58
    - _RefKeyIndex: -1
      _Value: 0.65
    - _RefKeyIndex: -1
      _Value: 0.72
    - _RefKeyIndex: -1
      _Value: 0.79
    - _RefKeyIndex: -1
      _Value: 0.86
    - _RefKeyIndex: -1
      _Value: 0.93
    - _RefKeyIndex: -1
      _Value: 1
    - _RefKeyIndex: -1
      _Value: 0.8888889
    - _RefKeyIndex: -1
      _Value: 0.7777778
    - _RefKeyIndex: -1
      _Value: 0.6666666
    - _RefKeyIndex: -1
      _Value: 0.5555556
    - _RefKeyIndex: -1
      _Value: 0.44444442
    - _RefKeyIndex: -1
      _Value: 0.3333333
    - _RefKeyIndex: -1
      _Value: 0.22222221
    - _RefKeyIndex: -1
      _Value: 0.111111104
    - _RefKeyIndex: 2
      _Value: 0
    ScaleYValues:
    - _RefKeyIndex: -1
      _Value: 0.5
    - _RefKeyIndex: -1
      _Value: 0.5375
    - _RefKeyIndex: -1
      _Value: 0.575
    - _RefKeyIndex: -1
      _Value: 0.6125
    - _RefKeyIndex: -1
      _Value: 0.65
    - _RefKeyIndex: -1
      _Value: 0.6875
    - _RefKeyIndex: -1
      _Value: 0.725
    - _RefKeyIndex: -1
      _Value: 0.7625
    - _RefKeyIndex: -1
      _Value: 0.8
    - _RefKeyIndex: -1
      _Value: 0.8375
    - _RefKeyIndex: -1
      _Value: 0.875
    - _RefKeyIndex: -1
      _Value: 0.7777778
    - _RefKeyIndex: -1
      _Value: 0.6805556
    - _RefKeyIndex: -1
      _Value: 0.5833333
    - _RefKeyIndex: -1
      _Value: 0.4861111
    - _RefKeyIndex: -1
      _Value: 0.38888887
    - _RefKeyIndex: -1
      _Value: 0.29166666
    - _RefKeyIndex: -1
      _Value: 0.19444443
    - _RefKeyIndex: -1
      _Value: 0.09722222
    - _RefKeyIndex: 2
      _Value: 0
    TransValues:
    - _RefKeyIndex: -1
      _Value: 0
    - _RefKeyIndex: -1
      _Value: 0.1
    - _RefKeyIndex: -1
      _Value: 0.2
    - _RefKeyIndex: -1
      _Value: 0.3
    - _RefKeyIndex: -1
      _Value: 0.4
    - _RefKeyIndex: -1
      _Value: 0.5
    - _RefKeyIndex: -1
      _Value: 0.6
    - _RefKeyIndex: -1
      _Value: 0.7
    - _RefKeyIndex: -1
      _Value: 0.8
    - _RefKeyIndex: -1
      _Value: 0.9
    - _RefKeyIndex: -1
      _Value: 1
    - _RefKeyIndex: -1
      _Value: 1
    - _RefKeyIndex: -1
      _Value: 1
    - _RefKeyIndex: -1
      _Value: 1
    - _RefKeyIndex: -1
      _Value: 1
    - _RefKeyIndex: -1
      _Value: 1
    - _RefKeyIndex: -1
      _Value: 0.75
    - _RefKeyIndex: -1
      _Value: 0.5
    - _RefKeyIndex: -1
      _Value: 0.25
    - _RefKeyIndex: 3
      _Value: 0
    PrioValues: []
    FlipHValues: []
    FlipVValues: []
    HideValues:
    - _RefKeyIndex: 0
      _Value: 0
    - _RefKeyIndex: 0
      _Value: 0
    - _RefKeyIndex: 0
      _Value: 0
    - _RefKeyIndex: 0
      _Value: 0
    - _RefKeyIndex: 0
      _Value: 0
    - _RefKeyIndex: 0
      _Value: 0
    - _RefKeyIndex: 0
      _Value: 0
    - _RefKeyIndex: 0
      _Value: 0
    - _RefKeyIndex: 0
      _Value: 0
    - _RefKeyIndex: 0
      _Value: 0
    - _RefKeyIndex: 0
      _Value: 0
    - _RefKeyIndex: 0
      _Value: 0
    - _RefKeyIndex: 0
      _Value: 0
    - _RefKeyIndex: 0
      _Value: 0
    - _RefKeyIndex: 0
      _Value: 0
    - _RefKeyIndex: 0
      _Value: 0
    - _RefKeyIndex: 0
      _Value: 0
    - _RefKeyIndex: 0
      _Value: 0
    - _RefKeyIndex: 0
      _Value: 0
    - _RefKeyIndex: 0
      _Value: 0
    PartsColValues:
    - _RefKeyIndex: -1
      _Value:
        Target: 1
        Operation: 1
        Colors:
        - R: 255
          G: 255
          B: 255
          A: 255
        - R: 255
          G: 255
          B: 255
          A: 255
        - R: 255
          G: 255
          B: 255
          A: 255
        - R: 255
          G: 255
          B: 255
          A: 255
    - _RefKeyIndex: -1
      _Value:
        Target: 1
        Operation: 1
        Colors:
        - R: 255
          G: 242
          B: 242
          A: 255
        - R: 255
          G: 242
          B: 242
          A: 255
        - R: 255
          G: 242
          B: 242
          A: 255
        - R: 255
          G: 242
          B: 242
          A: 255
    - _RefKeyIndex: -1
      _Value:
        Target: 1
        Operation: 1
        Colors:
        - R: 255
          G: 230
          B: 230
          A: 255
        - R: 255
          G: 230
          B: 230
          A: 255
        - R: 255
          G: 230
          B: 230
          A: 255
        - R: 255
          G: 230
          B: 230
          A: 255
    - _RefKeyIndex: -1
      _Value:
        Target: 1
        Operation: 1
        Colors:
        - R: 255
          G: 218
          B: 218
          A: 255
        - R: 255
          G: 218
          B: 218
          A: 255
        - R: 255
          G: 218
          B: 218
          A: 255
        - R: 255
          G: 218
          B: 218
          A: 255
    - _RefKeyIndex: -1
      _Value:
        Target: 1
        Operation: 1
        Colors:
        - R: 255
          G: 206
          B: 206
          A: 255
        - R: 255
          G: 206
          B: 206
          A: 255
        - R: 255
          G: 206
          B: 206
          A: 255
        - R: 255
          G: 206
          B: 206
          A: 255
    - _RefKeyIndex: -1
      _Value:
        Target: 1
        Operation: 1
        Colors:
        - R: 255
          G: 194
          B: 194
          A: 255
        - R: 255
          G: 194
          B: 194
          A: 255
        - R: 255
          G: 194
          B: 194
          A: 255
        - R: 255
          G: 194
          B: 194
          A: 255
    - _RefKeyIndex: -1
      _Value:
        Target: 1
        Operation: 1
        Colors:
        - R: 255
          G: 182
          B: 182
          A: 255
        - R: 255
          G: 182
          B: 182
          A: 255
        - R: 255
          G: 182
          B: 182
          A: 255
        - R: 255
          G: 182
          B: 182
          A: 255
    - _RefKeyIndex: -1
      _Value:
        Target: 1
        Operation: 1
        Colors:
        - R: 255
          G: 170
          B: 170
          A: 255
        - R: 255
          G: 170
          B: 170
          A: 255
        - R: 255
          G: 170
          B: 170
          A: 255
        - R: 255
          G: 170
          B: 170
          A: 255
    - _RefKeyIndex: -1
      _Value:
        Target: 1
        Operation: 1
        Colors:
        - R: 255
          G: 158
          B: 158
          A: 255
        - R: 255
          G: 158
          B: 158
          A: 255
        - R: 255
          G: 158
          B: 158
          A: 255
        - R: 255
          G: 158
          B: 158
          A: 255
    - _RefKeyIndex: -1
      _Value:
        Target: 1
        Operation: 1
        Colors:
        - R: 255
          G: 146
          B: 146
          A: 255
        - R: 255
          G: 146
          B: 146
          A: 255
        - R: 255
          G: 146
          B: 146
          A: 255
        - R: 255
          G: 146
          B: 146
          A: 255
    - _RefKeyIndex: -1
      _Value:
        Target: 1
        Operation: 1
        Colors:
        - R: 255
          G: 133
          B: 133
          A: 255
        - R: 255
          G: 133
          B: 133
          A: 255
        - R: 255
          G: 133
          B: 133
          A: 255
        - R: 255
          G: 133
          B: 133
          A: 255
    - _RefKeyIndex: -1
      _Value:
        Target: 1
        Operation: 1
        Colors:
        - R: 255
          G: 121
          B: 121
          A: 255
        - R: 255
          G: 121
          B: 121
          A: 255
        - R: 255
          G: 121
          B: 121
          A: 255
        - R: 255
          G: 121
          B: 121
          A: 255
    - _RefKeyIndex: -1
      _Value:
        Target: 1
        Operation: 1
        Colors:
        - R: 255
          G: 109
          B: 109
          A: 255
        - R: 255
          G: 109
          B: 109
          A: 255
        - R: 255
          G: 109
          B: 109
          A: 255
        - R: 255
          G: 109
          B: 109
          A: 255
    - _RefKeyIndex: -1
      _Value:
        Target: 1
        Operation: 1
        Colors:
        - R: 255
          G: 97
          B: 97
          A: 255
        - R: 255
          G: 97
          B: 97
          A: 255
        - R: 255
          G: 97
          B: 97
          A: 255
        - R: 255
          G: 97
          B: 97
          A: 255
    - _RefKeyIndex: -1
      _Value:
        Target: 1
        Operation: 1
        Colors:
        - R: 255
          G: 85
          B: 85
          A: 255
        - R: 255
          G: 85
          B: 85
          A: 255
        - R: 255
          G: 85
          B: 85
          A: 255
        - R: 255
          G: 85
          B: 85
          A: 255
    - _RefKeyIndex: -1
      _Value:
        Target: 1
        Operation: 1
        Colors:
        - R: 255
          G: 73
          B: 73
          A: 255
        - R: 255
          G: 73
          B: 73
          A: 255
        - R: 255
          G: 73
          B: 73
          A: 255
        - R: 255
          G: 73
          B: 73
          A: 255
    - _RefKeyIndex: -1
      _Value:
        Target: 1
        Operation: 1
        Colors:
        - R: 255
          G: 61
          B: 61
          A: 255
        - R: 255
          G: 61
          B: 61
          A: 255
        - R: 255
          G: 61
          B: 61
          A: 255
        - R: 255
          G: 61
          B: 61
          A: 255
    - _RefKeyIndex: -1
      _Value:
        Target: 1
        Operation: 1
        Colors:
        - R: 255
          G: 49
          B: 49
          A: 255
        - R: 255
          G: 49
          B: 49
          A: 255
        - R: 255
          G: 49
          B: 49
          A: 255
        - R: 255
          G: 49
          B: 49
          A: 255
    - _RefKeyIndex: -1
      _Value:
        Target: 1
        Operation: 1
        Colors:
        - R: 255
          G: 37
          B: 37
          A: 255
        - R: 255
          G: 37
          B: 37
          A: 255
        - R: 255
          G: 37
          B: 37
          A: 255
        - R: 255
          G: 37
          B: 37
          A: 255
    - _RefKeyIndex: 1
      _Value:
        Target: 0
        Operation: 0
        Colors: []
    PartsPalValues: []
    VertexValues: []
    UserValues: []
    SoundValues: []
    ImageOffsetXValues: []
    ImageOffsetYValues: []
    ImageOffsetWValues: []
    ImageOffsetHValues: []
    OriginOffsetXValues: []
    OriginOffsetYValues: []
    _hasAttrFlags: 1599
    HasTrancparency: 1
    FrameNum: 20
    imageFile:
      path: Assets/Resources/Atlas/PuzzleTile/PuzzleTile.png
      texture: {fileID: 2800000, guid: 00051aac90314b34982a652bd7ab76c2, type: 3}
      materials:
      - {fileID: 0}
      - {fileID: 0}
      - {fileID: 0}
      - {fileID: 0}
      - {fileID: 0}
      - {fileID: 2100000, guid: 68105edfbfe10654394bdef14d2d41d0, type: 2}
      - {fileID: 2100000, guid: 2879c887f9fc9614e9af0ab0d188f79a, type: 2}
      - {fileID: 0}
      - {fileID: 0}
      - {fileID: 0}
      - {fileID: 0}
      - {fileID: 0}
      - {fileID: 0}
      - {fileID: 0}
      - {fileID: 0}
      - {fileID: 0}
      - {fileID: 0}
      - {fileID: 0}
      - {fileID: 0}
      - {fileID: 0}
      - {fileID: 0}
      - {fileID: 0}
      - {fileID: 0}
      - {fileID: 0}
      - {fileID: 0}
      - {fileID: 0}
      - {fileID: 0}
      - {fileID: 0}
      - {fileID: 0}
      - {fileID: 0}
      - {fileID: 0}
      - {fileID: 0}
      - {fileID: 0}
      - {fileID: 0}
      - {fileID: 0}
      - {fileID: 0}
      - {fileID: 0}
      - {fileID: 0}
      - {fileID: 0}
      - {fileID: 0}
      - {fileID: 0}
      - {fileID: 0}
      - {fileID: 0}
      - {fileID: 0}
      - {fileID: 0}
      - {fileID: 0}
      - {fileID: 0}
      - {fileID: 0}
      - {fileID: 0}
      - {fileID: 0}
      width: 1024
      height: 2048
      bpp: 0
    UVs:
    - {x: 0.15917969, y: 0.13183594}
    - {x: 0.23730469, y: 0.13183594}
    - {x: 0.23730469, y: 0.12109375}
    - {x: 0.15917969, y: 0.12109375}
    OrgVertices:
    - {x: -0, y: 11, z: 0}
    - {x: 80, y: 11, z: 0}
    - {x: 80, y: -11, z: 0}
    - {x: -0, y: -11, z: 0}
  ImportedTime: 1115981449
  ImportedTimeHigh: -1999271361
