%YAML 1.1
%TAG !u! tag:unity3d.com,2011:
--- !u!114 &11400000
MonoBehaviour:
  m_ObjectHideFlags: 0
  m_PrefabParentObject: {fileID: 0}
  m_PrefabInternal: {fileID: 0}
  m_GameObject: {fileID: 0}
  m_Enabled: 1
  m_EditorHideFlags: 0
  m_Script: {fileID: 11500000, guid: 0ae895f3348548989f1b4caf6cca149f, type: 3}
  m_Name: orb1_anim_ssa
  m_EditorClassIdentifier:
  OriginalPath: Assets/Resources/Atlas/PuzzleTile/orb1_anim.ssax
  UseScaleFactor: 0
  ScaleFactor: 1
  FPS: 30
  EndFrame: 79
  hvFlipForImageOnly: 1
  ImageList:
  - path: Assets/Resources/Atlas/PuzzleTile/PuzzleTile.png
    texture: {fileID: 2800000, guid: 00051aac90314b34982a652bd7ab76c2, type: 3}
    materials:
    - {fileID: 0}
    - {fileID: 0}
    - {fileID: 0}
    - {fileID: 0}
    - {fileID: 0}
    - {fileID: 2100000, guid: 68105edfbfe10654394bdef14d2d41d0, type: 2}
    - {fileID: 0}
    - {fileID: 0}
    - {fileID: 0}
    - {fileID: 0}
    - {fileID: 0}
    - {fileID: 0}
    - {fileID: 0}
    - {fileID: 0}
    - {fileID: 0}
    - {fileID: 0}
    - {fileID: 0}
    - {fileID: 0}
    - {fileID: 0}
    - {fileID: 0}
    - {fileID: 0}
    - {fileID: 0}
    - {fileID: 0}
    - {fileID: 0}
    - {fileID: 0}
    - {fileID: 0}
    - {fileID: 0}
    - {fileID: 0}
    - {fileID: 0}
    - {fileID: 0}
    - {fileID: 0}
    - {fileID: 0}
    - {fileID: 0}
    - {fileID: 0}
    - {fileID: 0}
    - {fileID: 0}
    - {fileID: 0}
    - {fileID: 0}
    - {fileID: 0}
    - {fileID: 0}
    - {fileID: 0}
    - {fileID: 0}
    - {fileID: 0}
    - {fileID: 0}
    - {fileID: 0}
    - {fileID: 0}
    - {fileID: 0}
    - {fileID: 0}
    - {fileID: 0}
    - {fileID: 0}
    width: 1024
    height: 2048
    bpp: 0
  PartList:
  - AnimeRes: {fileID: 11400000}
    Name: root
    Type: 1
    PicArea:
      Left: 0
      Top: 0
      Right: 0
      Bottom: 0
    OriginX: 0
    OriginY: 0
    MyId: 0
    ParentId: -1
    ChildNum: 0
    SrcObjId: 0
    SrcObjType: 0
    AlphaBlendType: 0
    InheritState:
      Type: 0
      Values:
      - Use: 1
        Rate: 1
      - Use: 1
        Rate: 1
      - Use: 1
        Rate: 1
      - Use: 1
        Rate: 1
      - Use: 1
        Rate: 1
      - Use: 1
        Rate: 1
      - Use: 1
        Rate: 1
      - Use: 0
        Rate: 0
      - Use: 0
        Rate: 0
      - Use: 0
        Rate: 0
      - Use: 1
        Rate: 1
      - Use: 1
        Rate: 1
      - Use: 1
        Rate: 1
      - Use: 1
        Rate: 1
      - Use: 1
        Rate: 1
      - Use: 1
        Rate: 1
      - Use: 1
        Rate: 1
      - Use: 1
        Rate: 1
      - Use: 1
        Rate: 1
      - Use: 1
        Rate: 1
      - Use: 1
        Rate: 1
    PosXKeys: []
    PosYKeys: []
    AngleKeys: []
    ScaleXKeys: []
    ScaleYKeys: []
    TransKeys: []
    PrioKeys: []
    FlipHKeys: []
    FlipVKeys: []
    HideKeys:
    - Value: 0
      _Time: 0
      _ValueType: 1
      _Curve:
        Type: 0
        StartT: 0
        StartV: 0
        EndT: 0
        EndV: 0
    PartsColKeys: []
    PartsPalKeys: []
    VertexKeys: []
    UserKeys: []
    SoundKeys: []
    ImageOffsetXKeys: []
    ImageOffsetYKeys: []
    ImageOffsetWKeys: []
    ImageOffsetHKeys: []
    OriginOffsetXKeys: []
    OriginOffsetYKeys: []
    PosXValues: []
    PosYValues: []
    AngleValues: []
    ScaleXValues: []
    ScaleYValues: []
    TransValues: []
    PrioValues: []
    FlipHValues: []
    FlipVValues: []
    HideValues:
    - _RefKeyIndex: 0
      _Value: 0
    - _RefKeyIndex: 0
      _Value: 0
    - _RefKeyIndex: 0
      _Value: 0
    - _RefKeyIndex: 0
      _Value: 0
    - _RefKeyIndex: 0
      _Value: 0
    - _RefKeyIndex: 0
      _Value: 0
    - _RefKeyIndex: 0
      _Value: 0
    - _RefKeyIndex: 0
      _Value: 0
    - _RefKeyIndex: 0
      _Value: 0
    - _RefKeyIndex: 0
      _Value: 0
    - _RefKeyIndex: 0
      _Value: 0
    - _RefKeyIndex: 0
      _Value: 0
    - _RefKeyIndex: 0
      _Value: 0
    - _RefKeyIndex: 0
      _Value: 0
    - _RefKeyIndex: 0
      _Value: 0
    - _RefKeyIndex: 0
      _Value: 0
    - _RefKeyIndex: 0
      _Value: 0
    - _RefKeyIndex: 0
      _Value: 0
    - _RefKeyIndex: 0
      _Value: 0
    - _RefKeyIndex: 0
      _Value: 0
    - _RefKeyIndex: 0
      _Value: 0
    - _RefKeyIndex: 0
      _Value: 0
    - _RefKeyIndex: 0
      _Value: 0
    - _RefKeyIndex: 0
      _Value: 0
    - _RefKeyIndex: 0
      _Value: 0
    - _RefKeyIndex: 0
      _Value: 0
    - _RefKeyIndex: 0
      _Value: 0
    - _RefKeyIndex: 0
      _Value: 0
    - _RefKeyIndex: 0
      _Value: 0
    - _RefKeyIndex: 0
      _Value: 0
    - _RefKeyIndex: 0
      _Value: 0
    - _RefKeyIndex: 0
      _Value: 0
    - _RefKeyIndex: 0
      _Value: 0
    - _RefKeyIndex: 0
      _Value: 0
    - _RefKeyIndex: 0
      _Value: 0
    - _RefKeyIndex: 0
      _Value: 0
    - _RefKeyIndex: 0
      _Value: 0
    - _RefKeyIndex: 0
      _Value: 0
    - _RefKeyIndex: 0
      _Value: 0
    - _RefKeyIndex: 0
      _Value: 0
    - _RefKeyIndex: 0
      _Value: 0
    - _RefKeyIndex: 0
      _Value: 0
    - _RefKeyIndex: 0
      _Value: 0
    - _RefKeyIndex: 0
      _Value: 0
    - _RefKeyIndex: 0
      _Value: 0
    - _RefKeyIndex: 0
      _Value: 0
    - _RefKeyIndex: 0
      _Value: 0
    - _RefKeyIndex: 0
      _Value: 0
    - _RefKeyIndex: 0
      _Value: 0
    - _RefKeyIndex: 0
      _Value: 0
    - _RefKeyIndex: 0
      _Value: 0
    - _RefKeyIndex: 0
      _Value: 0
    - _RefKeyIndex: 0
      _Value: 0
    - _RefKeyIndex: 0
      _Value: 0
    - _RefKeyIndex: 0
      _Value: 0
    - _RefKeyIndex: 0
      _Value: 0
    - _RefKeyIndex: 0
      _Value: 0
    - _RefKeyIndex: 0
      _Value: 0
    - _RefKeyIndex: 0
      _Value: 0
    - _RefKeyIndex: 0
      _Value: 0
    - _RefKeyIndex: 0
      _Value: 0
    - _RefKeyIndex: 0
      _Value: 0
    - _RefKeyIndex: 0
      _Value: 0
    - _RefKeyIndex: 0
      _Value: 0
    - _RefKeyIndex: 0
      _Value: 0
    - _RefKeyIndex: 0
      _Value: 0
    - _RefKeyIndex: 0
      _Value: 0
    - _RefKeyIndex: 0
      _Value: 0
    - _RefKeyIndex: 0
      _Value: 0
    - _RefKeyIndex: 0
      _Value: 0
    - _RefKeyIndex: 0
      _Value: 0
    - _RefKeyIndex: 0
      _Value: 0
    - _RefKeyIndex: 0
      _Value: 0
    - _RefKeyIndex: 0
      _Value: 0
    - _RefKeyIndex: 0
      _Value: 0
    - _RefKeyIndex: 0
      _Value: 0
    - _RefKeyIndex: 0
      _Value: 0
    - _RefKeyIndex: 0
      _Value: 0
    - _RefKeyIndex: 0
      _Value: 0
    - _RefKeyIndex: 0
      _Value: 0
    PartsColValues: []
    PartsPalValues: []
    VertexValues: []
    UserValues: []
    SoundValues: []
    ImageOffsetXValues: []
    ImageOffsetYValues: []
    ImageOffsetWValues: []
    ImageOffsetHValues: []
    OriginOffsetXValues: []
    OriginOffsetYValues: []
    _hasAttrFlags: 512
    HasTrancparency: 0
    FrameNum: 80
    imageFile:
      path:
      texture: {fileID: 0}
      materials: []
      width: 0
      height: 0
      bpp: 0
    UVs: []
    OrgVertices:
    - {x: -0, y: 0, z: 0}
    - {x: 0, y: 0, z: 0}
    - {x: 0, y: -0, z: 0}
    - {x: -0, y: -0, z: 0}
  - AnimeRes: {fileID: 11400000}
    Name: change_000
    Type: 0
    PicArea:
      Left: 1021
      Top: 1
      Right: 1022
      Bottom: 2
    OriginX: 0
    OriginY: 0
    MyId: 1
    ParentId: 0
    ChildNum: 0
    SrcObjId: 0
    SrcObjType: 0
    AlphaBlendType: 1
    InheritState:
      Type: 0
      Values:
      - Use: 1
        Rate: 1
      - Use: 1
        Rate: 1
      - Use: 1
        Rate: 1
      - Use: 1
        Rate: 1
      - Use: 1
        Rate: 1
      - Use: 1
        Rate: 1
      - Use: 1
        Rate: 1
      - Use: 0
        Rate: 0
      - Use: 0
        Rate: 0
      - Use: 0
        Rate: 0
      - Use: 1
        Rate: 1
      - Use: 1
        Rate: 1
      - Use: 1
        Rate: 1
      - Use: 1
        Rate: 1
      - Use: 1
        Rate: 1
      - Use: 1
        Rate: 1
      - Use: 1
        Rate: 1
      - Use: 1
        Rate: 1
      - Use: 1
        Rate: 1
      - Use: 1
        Rate: 1
      - Use: 1
        Rate: 1
    PosXKeys:
    - Value: 0
      _Time: 0
      _ValueType: 0
      _Curve:
        Type: 1
        StartT: 0
        StartV: 0
        EndT: 0
        EndV: 0
    PosYKeys:
    - Value: 0
      _Time: 0
      _ValueType: 0
      _Curve:
        Type: 1
        StartT: 0
        StartV: 0
        EndT: 0
        EndV: 0
    AngleKeys:
    - Value: 0
      _Time: 0
      _ValueType: 0
      _Curve:
        Type: 1
        StartT: 0
        StartV: 0
        EndT: 0
        EndV: 0
    ScaleXKeys: []
    ScaleYKeys: []
    TransKeys: []
    PrioKeys: []
    FlipHKeys: []
    FlipVKeys: []
    HideKeys:
    - Value: 0
      _Time: 0
      _ValueType: 1
      _Curve:
        Type: 0
        StartT: 0
        StartV: 0
        EndT: 0
        EndV: 0
    PartsColKeys: []
    PartsPalKeys: []
    VertexKeys: []
    UserKeys: []
    SoundKeys: []
    ImageOffsetXKeys: []
    ImageOffsetYKeys: []
    ImageOffsetWKeys: []
    ImageOffsetHKeys: []
    OriginOffsetXKeys: []
    OriginOffsetYKeys: []
    PosXValues:
    - _RefKeyIndex: 0
      _Value: 0
    PosYValues:
    - _RefKeyIndex: 0
      _Value: 0
    AngleValues:
    - _RefKeyIndex: 0
      _Value: 0
    ScaleXValues: []
    ScaleYValues: []
    TransValues: []
    PrioValues: []
    FlipHValues: []
    FlipVValues: []
    HideValues:
    - _RefKeyIndex: 0
      _Value: 0
    - _RefKeyIndex: 0
      _Value: 0
    - _RefKeyIndex: 0
      _Value: 0
    - _RefKeyIndex: 0
      _Value: 0
    - _RefKeyIndex: 0
      _Value: 0
    - _RefKeyIndex: 0
      _Value: 0
    - _RefKeyIndex: 0
      _Value: 0
    - _RefKeyIndex: 0
      _Value: 0
    - _RefKeyIndex: 0
      _Value: 0
    - _RefKeyIndex: 0
      _Value: 0
    - _RefKeyIndex: 0
      _Value: 0
    - _RefKeyIndex: 0
      _Value: 0
    - _RefKeyIndex: 0
      _Value: 0
    - _RefKeyIndex: 0
      _Value: 0
    - _RefKeyIndex: 0
      _Value: 0
    - _RefKeyIndex: 0
      _Value: 0
    - _RefKeyIndex: 0
      _Value: 0
    - _RefKeyIndex: 0
      _Value: 0
    - _RefKeyIndex: 0
      _Value: 0
    - _RefKeyIndex: 0
      _Value: 0
    - _RefKeyIndex: 0
      _Value: 0
    - _RefKeyIndex: 0
      _Value: 0
    - _RefKeyIndex: 0
      _Value: 0
    - _RefKeyIndex: 0
      _Value: 0
    - _RefKeyIndex: 0
      _Value: 0
    - _RefKeyIndex: 0
      _Value: 0
    - _RefKeyIndex: 0
      _Value: 0
    - _RefKeyIndex: 0
      _Value: 0
    - _RefKeyIndex: 0
      _Value: 0
    - _RefKeyIndex: 0
      _Value: 0
    - _RefKeyIndex: 0
      _Value: 0
    - _RefKeyIndex: 0
      _Value: 0
    - _RefKeyIndex: 0
      _Value: 0
    - _RefKeyIndex: 0
      _Value: 0
    - _RefKeyIndex: 0
      _Value: 0
    - _RefKeyIndex: 0
      _Value: 0
    - _RefKeyIndex: 0
      _Value: 0
    - _RefKeyIndex: 0
      _Value: 0
    - _RefKeyIndex: 0
      _Value: 0
    - _RefKeyIndex: 0
      _Value: 0
    - _RefKeyIndex: 0
      _Value: 0
    - _RefKeyIndex: 0
      _Value: 0
    - _RefKeyIndex: 0
      _Value: 0
    - _RefKeyIndex: 0
      _Value: 0
    - _RefKeyIndex: 0
      _Value: 0
    - _RefKeyIndex: 0
      _Value: 0
    - _RefKeyIndex: 0
      _Value: 0
    - _RefKeyIndex: 0
      _Value: 0
    - _RefKeyIndex: 0
      _Value: 0
    - _RefKeyIndex: 0
      _Value: 0
    - _RefKeyIndex: 0
      _Value: 0
    - _RefKeyIndex: 0
      _Value: 0
    - _RefKeyIndex: 0
      _Value: 0
    - _RefKeyIndex: 0
      _Value: 0
    - _RefKeyIndex: 0
      _Value: 0
    - _RefKeyIndex: 0
      _Value: 0
    - _RefKeyIndex: 0
      _Value: 0
    - _RefKeyIndex: 0
      _Value: 0
    - _RefKeyIndex: 0
      _Value: 0
    - _RefKeyIndex: 0
      _Value: 0
    - _RefKeyIndex: 0
      _Value: 0
    - _RefKeyIndex: 0
      _Value: 0
    - _RefKeyIndex: 0
      _Value: 0
    - _RefKeyIndex: 0
      _Value: 0
    - _RefKeyIndex: 0
      _Value: 0
    - _RefKeyIndex: 0
      _Value: 0
    - _RefKeyIndex: 0
      _Value: 0
    - _RefKeyIndex: 0
      _Value: 0
    - _RefKeyIndex: 0
      _Value: 0
    - _RefKeyIndex: 0
      _Value: 0
    - _RefKeyIndex: 0
      _Value: 0
    - _RefKeyIndex: 0
      _Value: 0
    - _RefKeyIndex: 0
      _Value: 0
    - _RefKeyIndex: 0
      _Value: 0
    - _RefKeyIndex: 0
      _Value: 0
    - _RefKeyIndex: 0
      _Value: 0
    - _RefKeyIndex: 0
      _Value: 0
    - _RefKeyIndex: 0
      _Value: 0
    - _RefKeyIndex: 0
      _Value: 0
    - _RefKeyIndex: 0
      _Value: 0
    PartsColValues: []
    PartsPalValues: []
    VertexValues: []
    UserValues: []
    SoundValues: []
    ImageOffsetXValues: []
    ImageOffsetYValues: []
    ImageOffsetWValues: []
    ImageOffsetHValues: []
    OriginOffsetXValues: []
    OriginOffsetYValues: []
    _hasAttrFlags: 519
    HasTrancparency: 0
    FrameNum: 80
    imageFile:
      path: Assets/Resources/Atlas/PuzzleTile/PuzzleTile.png
      texture: {fileID: 2800000, guid: 00051aac90314b34982a652bd7ab76c2, type: 3}
      materials:
      - {fileID: 0}
      - {fileID: 0}
      - {fileID: 0}
      - {fileID: 0}
      - {fileID: 0}
      - {fileID: 2100000, guid: 68105edfbfe10654394bdef14d2d41d0, type: 2}
      - {fileID: 0}
      - {fileID: 0}
      - {fileID: 0}
      - {fileID: 0}
      - {fileID: 0}
      - {fileID: 0}
      - {fileID: 0}
      - {fileID: 0}
      - {fileID: 0}
      - {fileID: 0}
      - {fileID: 0}
      - {fileID: 0}
      - {fileID: 0}
      - {fileID: 0}
      - {fileID: 0}
      - {fileID: 0}
      - {fileID: 0}
      - {fileID: 0}
      - {fileID: 0}
      - {fileID: 0}
      - {fileID: 0}
      - {fileID: 0}
      - {fileID: 0}
      - {fileID: 0}
      - {fileID: 0}
      - {fileID: 0}
      - {fileID: 0}
      - {fileID: 0}
      - {fileID: 0}
      - {fileID: 0}
      - {fileID: 0}
      - {fileID: 0}
      - {fileID: 0}
      - {fileID: 0}
      - {fileID: 0}
      - {fileID: 0}
      - {fileID: 0}
      - {fileID: 0}
      - {fileID: 0}
      - {fileID: 0}
      - {fileID: 0}
      - {fileID: 0}
      - {fileID: 0}
      - {fileID: 0}
      width: 1024
      height: 2048
      bpp: 0
    UVs:
    - {x: 0.9970703, y: 0.9995117}
    - {x: 0.9980469, y: 0.9995117}
    - {x: 0.9980469, y: 0.99902344}
    - {x: 0.9970703, y: 0.99902344}
    OrgVertices:
    - {x: -0, y: 0, z: 0}
    - {x: 1, y: 0, z: 0}
    - {x: 1, y: -1, z: 0}
    - {x: -0, y: -1, z: 0}
  - AnimeRes: {fileID: 11400000}
    Name: ef_ring1
    Type: 0
    PicArea:
      Left: 581
      Top: 961
      Right: 661
      Bottom: 1041
    OriginX: 40
    OriginY: 40
    MyId: 2
    ParentId: 0
    ChildNum: 0
    SrcObjId: 0
    SrcObjType: 0
    AlphaBlendType: 1
    InheritState:
      Type: 0
      Values:
      - Use: 1
        Rate: 1
      - Use: 1
        Rate: 1
      - Use: 1
        Rate: 1
      - Use: 1
        Rate: 1
      - Use: 1
        Rate: 1
      - Use: 1
        Rate: 1
      - Use: 1
        Rate: 1
      - Use: 0
        Rate: 0
      - Use: 0
        Rate: 0
      - Use: 0
        Rate: 0
      - Use: 1
        Rate: 1
      - Use: 1
        Rate: 1
      - Use: 1
        Rate: 1
      - Use: 1
        Rate: 1
      - Use: 1
        Rate: 1
      - Use: 1
        Rate: 1
      - Use: 1
        Rate: 1
      - Use: 1
        Rate: 1
      - Use: 1
        Rate: 1
      - Use: 1
        Rate: 1
      - Use: 1
        Rate: 1
    PosXKeys:
    - Value: 0
      _Time: 0
      _ValueType: 0
      _Curve:
        Type: 1
        StartT: 0
        StartV: 0
        EndT: 0
        EndV: 0
    PosYKeys:
    - Value: 0
      _Time: 0
      _ValueType: 0
      _Curve:
        Type: 1
        StartT: 0
        StartV: 0
        EndT: 0
        EndV: 0
    AngleKeys:
    - Value: 0
      _Time: 0
      _ValueType: 0
      _Curve:
        Type: 1
        StartT: 0
        StartV: 0
        EndT: 0
        EndV: 0
    ScaleXKeys:
    - Value: 0.2
      _Time: 0
      _ValueType: 0
      _Curve:
        Type: 1
        StartT: 0
        StartV: 0
        EndT: 0
        EndV: 0
    - Value: 0.5
      _Time: 16
      _ValueType: 0
      _Curve:
        Type: 1
        StartT: 0
        StartV: 0
        EndT: 0
        EndV: 0
    - Value: 0.9
      _Time: 60
      _ValueType: 0
      _Curve:
        Type: 1
        StartT: 0
        StartV: 0
        EndT: 0
        EndV: 0
    ScaleYKeys:
    - Value: 0.2
      _Time: 0
      _ValueType: 0
      _Curve:
        Type: 1
        StartT: 0
        StartV: 0
        EndT: 0
        EndV: 0
    - Value: 0.5
      _Time: 16
      _ValueType: 0
      _Curve:
        Type: 1
        StartT: 0
        StartV: 0
        EndT: 0
        EndV: 0
    - Value: 0.9
      _Time: 60
      _ValueType: 0
      _Curve:
        Type: 1
        StartT: 0
        StartV: 0
        EndT: 0
        EndV: 0
    TransKeys:
    - Value: 0
      _Time: 0
      _ValueType: 0
      _Curve:
        Type: 1
        StartT: 0
        StartV: 0
        EndT: 0
        EndV: 0
    - Value: 0.5
      _Time: 16
      _ValueType: 0
      _Curve:
        Type: 1
        StartT: 0
        StartV: 0
        EndT: 0
        EndV: 0
    - Value: 0
      _Time: 60
      _ValueType: 0
      _Curve:
        Type: 1
        StartT: 0
        StartV: 0
        EndT: 0
        EndV: 0
    PrioKeys: []
    FlipHKeys: []
    FlipVKeys: []
    HideKeys:
    - Value: 0
      _Time: 0
      _ValueType: 1
      _Curve:
        Type: 0
        StartT: 0
        StartV: 0
        EndT: 0
        EndV: 0
    - Value: 0
      _Time: 16
      _ValueType: 1
      _Curve:
        Type: 0
        StartT: 0
        StartV: 0
        EndT: 0
        EndV: 0
    PartsColKeys: []
    PartsPalKeys: []
    VertexKeys: []
    UserKeys: []
    SoundKeys: []
    ImageOffsetXKeys: []
    ImageOffsetYKeys: []
    ImageOffsetWKeys: []
    ImageOffsetHKeys: []
    OriginOffsetXKeys: []
    OriginOffsetYKeys: []
    PosXValues:
    - _RefKeyIndex: 0
      _Value: 0
    PosYValues:
    - _RefKeyIndex: 0
      _Value: 0
    AngleValues:
    - _RefKeyIndex: 0
      _Value: 0
    ScaleXValues:
    - _RefKeyIndex: -1
      _Value: 0.2
    - _RefKeyIndex: -1
      _Value: 0.21875
    - _RefKeyIndex: -1
      _Value: 0.2375
    - _RefKeyIndex: -1
      _Value: 0.25625
    - _RefKeyIndex: -1
      _Value: 0.275
    - _RefKeyIndex: -1
      _Value: 0.29375
    - _RefKeyIndex: -1
      _Value: 0.3125
    - _RefKeyIndex: -1
      _Value: 0.33125
    - _RefKeyIndex: -1
      _Value: 0.35
    - _RefKeyIndex: -1
      _Value: 0.36875
    - _RefKeyIndex: -1
      _Value: 0.3875
    - _RefKeyIndex: -1
      _Value: 0.40625
    - _RefKeyIndex: -1
      _Value: 0.425
    - _RefKeyIndex: -1
      _Value: 0.44375
    - _RefKeyIndex: -1
      _Value: 0.4625
    - _RefKeyIndex: -1
      _Value: 0.48125
    - _RefKeyIndex: -1
      _Value: 0.5
    - _RefKeyIndex: -1
      _Value: 0.5090909
    - _RefKeyIndex: -1
      _Value: 0.5181818
    - _RefKeyIndex: -1
      _Value: 0.5272727
    - _RefKeyIndex: -1
      _Value: 0.53636366
    - _RefKeyIndex: -1
      _Value: 0.54545456
    - _RefKeyIndex: -1
      _Value: 0.55454546
    - _RefKeyIndex: -1
      _Value: 0.56363636
    - _RefKeyIndex: -1
      _Value: 0.57272726
    - _RefKeyIndex: -1
      _Value: 0.58181816
    - _RefKeyIndex: -1
      _Value: 0.59090906
    - _RefKeyIndex: -1
      _Value: 0.6
    - _RefKeyIndex: -1
      _Value: 0.6090909
    - _RefKeyIndex: -1
      _Value: 0.6181818
    - _RefKeyIndex: -1
      _Value: 0.6272727
    - _RefKeyIndex: -1
      _Value: 0.6363636
    - _RefKeyIndex: -1
      _Value: 0.6454545
    - _RefKeyIndex: -1
      _Value: 0.6545454
    - _RefKeyIndex: -1
      _Value: 0.6636363
    - _RefKeyIndex: -1
      _Value: 0.6727273
    - _RefKeyIndex: -1
      _Value: 0.6818182
    - _RefKeyIndex: -1
      _Value: 0.6909091
    - _RefKeyIndex: -1
      _Value: 0.7
    - _RefKeyIndex: -1
      _Value: 0.7090909
    - _RefKeyIndex: -1
      _Value: 0.7181818
    - _RefKeyIndex: -1
      _Value: 0.7272727
    - _RefKeyIndex: -1
      _Value: 0.7363636
    - _RefKeyIndex: -1
      _Value: 0.74545455
    - _RefKeyIndex: -1
      _Value: 0.75454545
    - _RefKeyIndex: -1
      _Value: 0.76363635
    - _RefKeyIndex: -1
      _Value: 0.77272725
    - _RefKeyIndex: -1
      _Value: 0.78181815
    - _RefKeyIndex: -1
      _Value: 0.7909091
    - _RefKeyIndex: -1
      _Value: 0.79999995
    - _RefKeyIndex: -1
      _Value: 0.80909085
    - _RefKeyIndex: -1
      _Value: 0.8181818
    - _RefKeyIndex: -1
      _Value: 0.8272727
    - _RefKeyIndex: -1
      _Value: 0.8363636
    - _RefKeyIndex: -1
      _Value: 0.8454545
    - _RefKeyIndex: -1
      _Value: 0.8545454
    - _RefKeyIndex: -1
      _Value: 0.8636364
    - _RefKeyIndex: -1
      _Value: 0.8727273
    - _RefKeyIndex: -1
      _Value: 0.8818182
    - _RefKeyIndex: -1
      _Value: 0.8909091
    - _RefKeyIndex: 2
      _Value: 0
    - _RefKeyIndex: 2
      _Value: 0
    - _RefKeyIndex: 2
      _Value: 0
    - _RefKeyIndex: 2
      _Value: 0
    - _RefKeyIndex: 2
      _Value: 0
    - _RefKeyIndex: 2
      _Value: 0
    - _RefKeyIndex: 2
      _Value: 0
    - _RefKeyIndex: 2
      _Value: 0
    - _RefKeyIndex: 2
      _Value: 0
    - _RefKeyIndex: 2
      _Value: 0
    - _RefKeyIndex: 2
      _Value: 0
    - _RefKeyIndex: 2
      _Value: 0
    - _RefKeyIndex: 2
      _Value: 0
    - _RefKeyIndex: 2
      _Value: 0
    - _RefKeyIndex: 2
      _Value: 0
    - _RefKeyIndex: 2
      _Value: 0
    - _RefKeyIndex: 2
      _Value: 0
    - _RefKeyIndex: 2
      _Value: 0
    - _RefKeyIndex: 2
      _Value: 0
    - _RefKeyIndex: 2
      _Value: 0
    ScaleYValues:
    - _RefKeyIndex: -1
      _Value: 0.2
    - _RefKeyIndex: -1
      _Value: 0.21875
    - _RefKeyIndex: -1
      _Value: 0.2375
    - _RefKeyIndex: -1
      _Value: 0.25625
    - _RefKeyIndex: -1
      _Value: 0.275
    - _RefKeyIndex: -1
      _Value: 0.29375
    - _RefKeyIndex: -1
      _Value: 0.3125
    - _RefKeyIndex: -1
      _Value: 0.33125
    - _RefKeyIndex: -1
      _Value: 0.35
    - _RefKeyIndex: -1
      _Value: 0.36875
    - _RefKeyIndex: -1
      _Value: 0.3875
    - _RefKeyIndex: -1
      _Value: 0.40625
    - _RefKeyIndex: -1
      _Value: 0.425
    - _RefKeyIndex: -1
      _Value: 0.44375
    - _RefKeyIndex: -1
      _Value: 0.4625
    - _RefKeyIndex: -1
      _Value: 0.48125
    - _RefKeyIndex: -1
      _Value: 0.5
    - _RefKeyIndex: -1
      _Value: 0.5090909
    - _RefKeyIndex: -1
      _Value: 0.5181818
    - _RefKeyIndex: -1
      _Value: 0.5272727
    - _RefKeyIndex: -1
      _Value: 0.53636366
    - _RefKeyIndex: -1
      _Value: 0.54545456
    - _RefKeyIndex: -1
      _Value: 0.55454546
    - _RefKeyIndex: -1
      _Value: 0.56363636
    - _RefKeyIndex: -1
      _Value: 0.57272726
    - _RefKeyIndex: -1
      _Value: 0.58181816
    - _RefKeyIndex: -1
      _Value: 0.59090906
    - _RefKeyIndex: -1
      _Value: 0.6
    - _RefKeyIndex: -1
      _Value: 0.6090909
    - _RefKeyIndex: -1
      _Value: 0.6181818
    - _RefKeyIndex: -1
      _Value: 0.6272727
    - _RefKeyIndex: -1
      _Value: 0.6363636
    - _RefKeyIndex: -1
      _Value: 0.6454545
    - _RefKeyIndex: -1
      _Value: 0.6545454
    - _RefKeyIndex: -1
      _Value: 0.6636363
    - _RefKeyIndex: -1
      _Value: 0.6727273
    - _RefKeyIndex: -1
      _Value: 0.6818182
    - _RefKeyIndex: -1
      _Value: 0.6909091
    - _RefKeyIndex: -1
      _Value: 0.7
    - _RefKeyIndex: -1
      _Value: 0.7090909
    - _RefKeyIndex: -1
      _Value: 0.7181818
    - _RefKeyIndex: -1
      _Value: 0.7272727
    - _RefKeyIndex: -1
      _Value: 0.7363636
    - _RefKeyIndex: -1
      _Value: 0.74545455
    - _RefKeyIndex: -1
      _Value: 0.75454545
    - _RefKeyIndex: -1
      _Value: 0.76363635
    - _RefKeyIndex: -1
      _Value: 0.77272725
    - _RefKeyIndex: -1
      _Value: 0.78181815
    - _RefKeyIndex: -1
      _Value: 0.7909091
    - _RefKeyIndex: -1
      _Value: 0.79999995
    - _RefKeyIndex: -1
      _Value: 0.80909085
    - _RefKeyIndex: -1
      _Value: 0.8181818
    - _RefKeyIndex: -1
      _Value: 0.8272727
    - _RefKeyIndex: -1
      _Value: 0.8363636
    - _RefKeyIndex: -1
      _Value: 0.8454545
    - _RefKeyIndex: -1
      _Value: 0.8545454
    - _RefKeyIndex: -1
      _Value: 0.8636364
    - _RefKeyIndex: -1
      _Value: 0.8727273
    - _RefKeyIndex: -1
      _Value: 0.8818182
    - _RefKeyIndex: -1
      _Value: 0.8909091
    - _RefKeyIndex: 2
      _Value: 0
    - _RefKeyIndex: 2
      _Value: 0
    - _RefKeyIndex: 2
      _Value: 0
    - _RefKeyIndex: 2
      _Value: 0
    - _RefKeyIndex: 2
      _Value: 0
    - _RefKeyIndex: 2
      _Value: 0
    - _RefKeyIndex: 2
      _Value: 0
    - _RefKeyIndex: 2
      _Value: 0
    - _RefKeyIndex: 2
      _Value: 0
    - _RefKeyIndex: 2
      _Value: 0
    - _RefKeyIndex: 2
      _Value: 0
    - _RefKeyIndex: 2
      _Value: 0
    - _RefKeyIndex: 2
      _Value: 0
    - _RefKeyIndex: 2
      _Value: 0
    - _RefKeyIndex: 2
      _Value: 0
    - _RefKeyIndex: 2
      _Value: 0
    - _RefKeyIndex: 2
      _Value: 0
    - _RefKeyIndex: 2
      _Value: 0
    - _RefKeyIndex: 2
      _Value: 0
    - _RefKeyIndex: 2
      _Value: 0
    TransValues:
    - _RefKeyIndex: -1
      _Value: 0
    - _RefKeyIndex: -1
      _Value: 0.03125
    - _RefKeyIndex: -1
      _Value: 0.0625
    - _RefKeyIndex: -1
      _Value: 0.09375
    - _RefKeyIndex: -1
      _Value: 0.125
    - _RefKeyIndex: -1
      _Value: 0.15625
    - _RefKeyIndex: -1
      _Value: 0.1875
    - _RefKeyIndex: -1
      _Value: 0.21875
    - _RefKeyIndex: -1
      _Value: 0.25
    - _RefKeyIndex: -1
      _Value: 0.28125
    - _RefKeyIndex: -1
      _Value: 0.3125
    - _RefKeyIndex: -1
      _Value: 0.34375
    - _RefKeyIndex: -1
      _Value: 0.375
    - _RefKeyIndex: -1
      _Value: 0.40625
    - _RefKeyIndex: -1
      _Value: 0.4375
    - _RefKeyIndex: -1
      _Value: 0.46875
    - _RefKeyIndex: -1
      _Value: 0.5
    - _RefKeyIndex: -1
      _Value: 0.48863637
    - _RefKeyIndex: -1
      _Value: 0.47727272
    - _RefKeyIndex: -1
      _Value: 0.4659091
    - _RefKeyIndex: -1
      _Value: 0.45454544
    - _RefKeyIndex: -1
      _Value: 0.4431818
    - _RefKeyIndex: -1
      _Value: 0.4318182
    - _RefKeyIndex: -1
      _Value: 0.42045456
    - _RefKeyIndex: -1
      _Value: 0.4090909
    - _RefKeyIndex: -1
      _Value: 0.39772728
    - _RefKeyIndex: -1
      _Value: 0.38636363
    - _RefKeyIndex: -1
      _Value: 0.375
    - _RefKeyIndex: -1
      _Value: 0.36363637
    - _RefKeyIndex: -1
      _Value: 0.35227275
    - _RefKeyIndex: -1
      _Value: 0.3409091
    - _RefKeyIndex: -1
      _Value: 0.32954544
    - _RefKeyIndex: -1
      _Value: 0.3181818
    - _RefKeyIndex: -1
      _Value: 0.3068182
    - _RefKeyIndex: -1
      _Value: 0.29545456
    - _RefKeyIndex: -1
      _Value: 0.2840909
    - _RefKeyIndex: -1
      _Value: 0.27272725
    - _RefKeyIndex: -1
      _Value: 0.26136363
    - _RefKeyIndex: -1
      _Value: 0.25
    - _RefKeyIndex: -1
      _Value: 0.23863637
    - _RefKeyIndex: -1
      _Value: 0.22727272
    - _RefKeyIndex: -1
      _Value: 0.2159091
    - _RefKeyIndex: -1
      _Value: 0.20454547
    - _RefKeyIndex: -1
      _Value: 0.19318181
    - _RefKeyIndex: -1
      _Value: 0.18181819
    - _RefKeyIndex: -1
      _Value: 0.17045453
    - _RefKeyIndex: -1
      _Value: 0.1590909
    - _RefKeyIndex: -1
      _Value: 0.14772728
    - _RefKeyIndex: -1
      _Value: 0.13636363
    - _RefKeyIndex: -1
      _Value: 0.125
    - _RefKeyIndex: -1
      _Value: 0.113636374
    - _RefKeyIndex: -1
      _Value: 0.10227272
    - _RefKeyIndex: -1
      _Value: 0.09090909
    - _RefKeyIndex: -1
      _Value: 0.07954547
    - _RefKeyIndex: -1
      _Value: 0.06818181
    - _RefKeyIndex: -1
      _Value: 0.056818187
    - _RefKeyIndex: -1
      _Value: 0.045454532
    - _RefKeyIndex: -1
      _Value: 0.034090906
    - _RefKeyIndex: -1
      _Value: 0.02272728
    - _RefKeyIndex: -1
      _Value: 0.0113636255
    - _RefKeyIndex: 2
      _Value: 0
    - _RefKeyIndex: 2
      _Value: 0
    - _RefKeyIndex: 2
      _Value: 0
    - _RefKeyIndex: 2
      _Value: 0
    - _RefKeyIndex: 2
      _Value: 0
    - _RefKeyIndex: 2
      _Value: 0
    - _RefKeyIndex: 2
      _Value: 0
    - _RefKeyIndex: 2
      _Value: 0
    - _RefKeyIndex: 2
      _Value: 0
    - _RefKeyIndex: 2
      _Value: 0
    - _RefKeyIndex: 2
      _Value: 0
    - _RefKeyIndex: 2
      _Value: 0
    - _RefKeyIndex: 2
      _Value: 0
    - _RefKeyIndex: 2
      _Value: 0
    - _RefKeyIndex: 2
      _Value: 0
    - _RefKeyIndex: 2
      _Value: 0
    - _RefKeyIndex: 2
      _Value: 0
    - _RefKeyIndex: 2
      _Value: 0
    - _RefKeyIndex: 2
      _Value: 0
    - _RefKeyIndex: 2
      _Value: 0
    PrioValues: []
    FlipHValues: []
    FlipVValues: []
    HideValues:
    - _RefKeyIndex: 0
      _Value: 0
    PartsColValues: []
    PartsPalValues: []
    VertexValues: []
    UserValues: []
    SoundValues: []
    ImageOffsetXValues: []
    ImageOffsetYValues: []
    ImageOffsetWValues: []
    ImageOffsetHValues: []
    OriginOffsetXValues: []
    OriginOffsetYValues: []
    _hasAttrFlags: 575
    HasTrancparency: 1
    FrameNum: 80
    imageFile:
      path: Assets/Resources/Atlas/PuzzleTile/PuzzleTile.png
      texture: {fileID: 2800000, guid: 00051aac90314b34982a652bd7ab76c2, type: 3}
      materials:
      - {fileID: 0}
      - {fileID: 0}
      - {fileID: 0}
      - {fileID: 0}
      - {fileID: 0}
      - {fileID: 2100000, guid: 68105edfbfe10654394bdef14d2d41d0, type: 2}
      - {fileID: 0}
      - {fileID: 0}
      - {fileID: 0}
      - {fileID: 0}
      - {fileID: 0}
      - {fileID: 0}
      - {fileID: 0}
      - {fileID: 0}
      - {fileID: 0}
      - {fileID: 0}
      - {fileID: 0}
      - {fileID: 0}
      - {fileID: 0}
      - {fileID: 0}
      - {fileID: 0}
      - {fileID: 0}
      - {fileID: 0}
      - {fileID: 0}
      - {fileID: 0}
      - {fileID: 0}
      - {fileID: 0}
      - {fileID: 0}
      - {fileID: 0}
      - {fileID: 0}
      - {fileID: 0}
      - {fileID: 0}
      - {fileID: 0}
      - {fileID: 0}
      - {fileID: 0}
      - {fileID: 0}
      - {fileID: 0}
      - {fileID: 0}
      - {fileID: 0}
      - {fileID: 0}
      - {fileID: 0}
      - {fileID: 0}
      - {fileID: 0}
      - {fileID: 0}
      - {fileID: 0}
      - {fileID: 0}
      - {fileID: 0}
      - {fileID: 0}
      - {fileID: 0}
      - {fileID: 0}
      width: 1024
      height: 2048
      bpp: 0
    UVs:
    - {x: 0.5673828, y: 0.5307617}
    - {x: 0.6455078, y: 0.5307617}
    - {x: 0.6455078, y: 0.49169922}
    - {x: 0.5673828, y: 0.49169922}
    OrgVertices:
    - {x: -40, y: 40, z: 0}
    - {x: 40, y: 40, z: 0}
    - {x: 40, y: -40, z: 0}
    - {x: -40, y: -40, z: 0}
  ImportedTime: 604651438
  ImportedTimeHigh: -1999271361
