%YAML 1.1
%TAG !u! tag:unity3d.com,2011:
--- !u!114 &11400000
MonoBehaviour:
  m_ObjectHideFlags: 0
  m_PrefabParentObject: {fileID: 0}
  m_PrefabInternal: {fileID: 0}
  m_GameObject: {fileID: 0}
  m_Enabled: 1
  m_EditorHideFlags: 0
  m_Script: {fileID: 11500000, guid: 0ae895f3348548989f1b4caf6cca149f, type: 3}
  m_Name: orb_plus_anim_ssa
  m_EditorClassIdentifier:
  OriginalPath: Assets/Resources/Atlas/PuzzleTile/orb_plus_anim.ssax
  UseScaleFactor: 0
  ScaleFactor: 1
  FPS: 30
  EndFrame: 39
  hvFlipForImageOnly: 1
  ImageList:
  - path: Assets/Resources/Atlas/PuzzleTile/PuzzleTile.png
    texture: {fileID: 2800000, guid: 00051aac90314b34982a652bd7ab76c2, type: 3}
    materials:
    - {fileID: 0}
    - {fileID: 0}
    - {fileID: 0}
    - {fileID: 0}
    - {fileID: 0}
    - {fileID: 2100000, guid: 68105edfbfe10654394bdef14d2d41d0, type: 2}
    - {fileID: 0}
    - {fileID: 0}
    - {fileID: 0}
    - {fileID: 0}
    - {fileID: 0}
    - {fileID: 0}
    - {fileID: 0}
    - {fileID: 0}
    - {fileID: 0}
    - {fileID: 0}
    - {fileID: 0}
    - {fileID: 0}
    - {fileID: 0}
    - {fileID: 0}
    - {fileID: 0}
    - {fileID: 0}
    - {fileID: 0}
    - {fileID: 0}
    - {fileID: 0}
    - {fileID: 0}
    - {fileID: 0}
    - {fileID: 0}
    - {fileID: 0}
    - {fileID: 0}
    - {fileID: 0}
    - {fileID: 0}
    - {fileID: 0}
    - {fileID: 0}
    - {fileID: 0}
    - {fileID: 0}
    - {fileID: 0}
    - {fileID: 0}
    - {fileID: 0}
    - {fileID: 0}
    - {fileID: 0}
    - {fileID: 0}
    - {fileID: 0}
    - {fileID: 0}
    - {fileID: 0}
    - {fileID: 0}
    - {fileID: 0}
    - {fileID: 0}
    - {fileID: 0}
    - {fileID: 0}
    width: 1024
    height: 2048
    bpp: 0
  PartList:
  - AnimeRes: {fileID: 11400000}
    Name: root
    Type: 1
    PicArea:
      Left: 0
      Top: 0
      Right: 0
      Bottom: 0
    OriginX: 0
    OriginY: 0
    MyId: 0
    ParentId: -1
    ChildNum: 0
    SrcObjId: 0
    SrcObjType: 0
    AlphaBlendType: 0
    InheritState:
      Type: 0
      Values:
      - Use: 1
        Rate: 1
      - Use: 1
        Rate: 1
      - Use: 1
        Rate: 1
      - Use: 1
        Rate: 1
      - Use: 1
        Rate: 1
      - Use: 1
        Rate: 1
      - Use: 1
        Rate: 1
      - Use: 0
        Rate: 0
      - Use: 0
        Rate: 0
      - Use: 0
        Rate: 0
      - Use: 1
        Rate: 1
      - Use: 1
        Rate: 1
      - Use: 1
        Rate: 1
      - Use: 1
        Rate: 1
      - Use: 1
        Rate: 1
      - Use: 1
        Rate: 1
      - Use: 1
        Rate: 1
      - Use: 1
        Rate: 1
      - Use: 1
        Rate: 1
      - Use: 1
        Rate: 1
      - Use: 1
        Rate: 1
    PosXKeys: []
    PosYKeys: []
    AngleKeys: []
    ScaleXKeys: []
    ScaleYKeys: []
    TransKeys: []
    PrioKeys: []
    FlipHKeys: []
    FlipVKeys: []
    HideKeys:
    - Value: 0
      _Time: 0
      _ValueType: 1
      _Curve:
        Type: 0
        StartT: 0
        StartV: 0
        EndT: 0
        EndV: 0
    PartsColKeys: []
    PartsPalKeys: []
    VertexKeys: []
    UserKeys: []
    SoundKeys: []
    ImageOffsetXKeys: []
    ImageOffsetYKeys: []
    ImageOffsetWKeys: []
    ImageOffsetHKeys: []
    OriginOffsetXKeys: []
    OriginOffsetYKeys: []
    PosXValues: []
    PosYValues: []
    AngleValues: []
    ScaleXValues: []
    ScaleYValues: []
    TransValues: []
    PrioValues: []
    FlipHValues: []
    FlipVValues: []
    HideValues:
    - _RefKeyIndex: 0
      _Value: 0
    - _RefKeyIndex: 0
      _Value: 0
    - _RefKeyIndex: 0
      _Value: 0
    - _RefKeyIndex: 0
      _Value: 0
    - _RefKeyIndex: 0
      _Value: 0
    - _RefKeyIndex: 0
      _Value: 0
    - _RefKeyIndex: 0
      _Value: 0
    - _RefKeyIndex: 0
      _Value: 0
    - _RefKeyIndex: 0
      _Value: 0
    - _RefKeyIndex: 0
      _Value: 0
    - _RefKeyIndex: 0
      _Value: 0
    - _RefKeyIndex: 0
      _Value: 0
    - _RefKeyIndex: 0
      _Value: 0
    - _RefKeyIndex: 0
      _Value: 0
    - _RefKeyIndex: 0
      _Value: 0
    - _RefKeyIndex: 0
      _Value: 0
    - _RefKeyIndex: 0
      _Value: 0
    - _RefKeyIndex: 0
      _Value: 0
    - _RefKeyIndex: 0
      _Value: 0
    - _RefKeyIndex: 0
      _Value: 0
    - _RefKeyIndex: 0
      _Value: 0
    - _RefKeyIndex: 0
      _Value: 0
    - _RefKeyIndex: 0
      _Value: 0
    - _RefKeyIndex: 0
      _Value: 0
    - _RefKeyIndex: 0
      _Value: 0
    - _RefKeyIndex: 0
      _Value: 0
    - _RefKeyIndex: 0
      _Value: 0
    - _RefKeyIndex: 0
      _Value: 0
    - _RefKeyIndex: 0
      _Value: 0
    - _RefKeyIndex: 0
      _Value: 0
    - _RefKeyIndex: 0
      _Value: 0
    - _RefKeyIndex: 0
      _Value: 0
    - _RefKeyIndex: 0
      _Value: 0
    - _RefKeyIndex: 0
      _Value: 0
    - _RefKeyIndex: 0
      _Value: 0
    - _RefKeyIndex: 0
      _Value: 0
    - _RefKeyIndex: 0
      _Value: 0
    - _RefKeyIndex: 0
      _Value: 0
    - _RefKeyIndex: 0
      _Value: 0
    - _RefKeyIndex: 0
      _Value: 0
    PartsColValues: []
    PartsPalValues: []
    VertexValues: []
    UserValues: []
    SoundValues: []
    ImageOffsetXValues: []
    ImageOffsetYValues: []
    ImageOffsetWValues: []
    ImageOffsetHValues: []
    OriginOffsetXValues: []
    OriginOffsetYValues: []
    _hasAttrFlags: 512
    HasTrancparency: 0
    FrameNum: 40
    imageFile:
      path:
      texture: {fileID: 0}
      materials: []
      width: 0
      height: 0
      bpp: 0
    UVs: []
    OrgVertices:
    - {x: -0, y: 0, z: 0}
    - {x: 0, y: 0, z: 0}
    - {x: 0, y: -0, z: 0}
    - {x: -0, y: -0, z: 0}
  - AnimeRes: {fileID: 11400000}
    Name: change_001
    Type: 0
    PicArea:
      Left: 1021
      Top: 1
      Right: 1022
      Bottom: 2
    OriginX: 0
    OriginY: 0
    MyId: 1
    ParentId: 0
    ChildNum: 0
    SrcObjId: 0
    SrcObjType: 0
    AlphaBlendType: 1
    InheritState:
      Type: 0
      Values:
      - Use: 1
        Rate: 1
      - Use: 1
        Rate: 1
      - Use: 1
        Rate: 1
      - Use: 1
        Rate: 1
      - Use: 1
        Rate: 1
      - Use: 1
        Rate: 1
      - Use: 1
        Rate: 1
      - Use: 0
        Rate: 0
      - Use: 0
        Rate: 0
      - Use: 0
        Rate: 0
      - Use: 1
        Rate: 1
      - Use: 1
        Rate: 1
      - Use: 1
        Rate: 1
      - Use: 1
        Rate: 1
      - Use: 1
        Rate: 1
      - Use: 1
        Rate: 1
      - Use: 1
        Rate: 1
      - Use: 1
        Rate: 1
      - Use: 1
        Rate: 1
      - Use: 1
        Rate: 1
      - Use: 1
        Rate: 1
    PosXKeys:
    - Value: 0
      _Time: 0
      _ValueType: 0
      _Curve:
        Type: 1
        StartT: 0
        StartV: 0
        EndT: 0
        EndV: 0
    - Value: 0
      _Time: 39
      _ValueType: 0
      _Curve:
        Type: 1
        StartT: 0
        StartV: 0
        EndT: 0
        EndV: 0
    PosYKeys:
    - Value: 0
      _Time: 0
      _ValueType: 0
      _Curve:
        Type: 1
        StartT: 0
        StartV: 0
        EndT: 0
        EndV: 0
    - Value: 0
      _Time: 39
      _ValueType: 0
      _Curve:
        Type: 1
        StartT: 0
        StartV: 0
        EndT: 0
        EndV: 0
    AngleKeys:
    - Value: 0
      _Time: 0
      _ValueType: 0
      _Curve:
        Type: 1
        StartT: 0
        StartV: 0
        EndT: 0
        EndV: 0
    - Value: 0
      _Time: 39
      _ValueType: 0
      _Curve:
        Type: 1
        StartT: 0
        StartV: 0
        EndT: 0
        EndV: 0
    ScaleXKeys:
    - Value: 1
      _Time: 0
      _ValueType: 0
      _Curve:
        Type: 1
        StartT: 0
        StartV: 0
        EndT: 0
        EndV: 0
    - Value: 1.6
      _Time: 6
      _ValueType: 0
      _Curve:
        Type: 1
        StartT: 0
        StartV: 0
        EndT: 0
        EndV: 0
    - Value: 1
      _Time: 9
      _ValueType: 0
      _Curve:
        Type: 1
        StartT: 0
        StartV: 0
        EndT: 0
        EndV: 0
    - Value: 1.5
      _Time: 31
      _ValueType: 0
      _Curve:
        Type: 1
        StartT: 0
        StartV: 0
        EndT: 0
        EndV: 0
    ScaleYKeys:
    - Value: 1
      _Time: 0
      _ValueType: 0
      _Curve:
        Type: 1
        StartT: 0
        StartV: 0
        EndT: 0
        EndV: 0
    - Value: 1.6
      _Time: 6
      _ValueType: 0
      _Curve:
        Type: 1
        StartT: 0
        StartV: 0
        EndT: 0
        EndV: 0
    - Value: 1
      _Time: 9
      _ValueType: 0
      _Curve:
        Type: 1
        StartT: 0
        StartV: 0
        EndT: 0
        EndV: 0
    - Value: 1.5
      _Time: 31
      _ValueType: 0
      _Curve:
        Type: 1
        StartT: 0
        StartV: 0
        EndT: 0
        EndV: 0
    TransKeys:
    - Value: 1
      _Time: 9
      _ValueType: 0
      _Curve:
        Type: 1
        StartT: 0
        StartV: 0
        EndT: 0
        EndV: 0
    - Value: 0.7
      _Time: 13
      _ValueType: 0
      _Curve:
        Type: 1
        StartT: 0
        StartV: 0
        EndT: 0
        EndV: 0
    - Value: 0
      _Time: 31
      _ValueType: 0
      _Curve:
        Type: 1
        StartT: 0
        StartV: 0
        EndT: 0
        EndV: 0
    PrioKeys: []
    FlipHKeys: []
    FlipVKeys: []
    HideKeys:
    - Value: 0
      _Time: 0
      _ValueType: 1
      _Curve:
        Type: 0
        StartT: 0
        StartV: 0
        EndT: 0
        EndV: 0
    - Value: 0
      _Time: 9
      _ValueType: 1
      _Curve:
        Type: 0
        StartT: 0
        StartV: 0
        EndT: 0
        EndV: 0
    - Value: 0
      _Time: 39
      _ValueType: 1
      _Curve:
        Type: 0
        StartT: 0
        StartV: 0
        EndT: 0
        EndV: 0
    PartsColKeys: []
    PartsPalKeys: []
    VertexKeys: []
    UserKeys: []
    SoundKeys: []
    ImageOffsetXKeys: []
    ImageOffsetYKeys: []
    ImageOffsetWKeys: []
    ImageOffsetHKeys: []
    OriginOffsetXKeys: []
    OriginOffsetYKeys: []
    PosXValues:
    - _RefKeyIndex: -1
      _Value: 0
    PosYValues:
    - _RefKeyIndex: -1
      _Value: 0
    AngleValues:
    - _RefKeyIndex: -1
      _Value: 0
    ScaleXValues:
    - _RefKeyIndex: -1
      _Value: 1
    - _RefKeyIndex: -1
      _Value: 1.1
    - _RefKeyIndex: -1
      _Value: 1.2
    - _RefKeyIndex: -1
      _Value: 1.3
    - _RefKeyIndex: -1
      _Value: 1.4
    - _RefKeyIndex: -1
      _Value: 1.5
    - _RefKeyIndex: -1
      _Value: 1.6
    - _RefKeyIndex: -1
      _Value: 1.4
    - _RefKeyIndex: -1
      _Value: 1.2
    - _RefKeyIndex: -1
      _Value: 1
    - _RefKeyIndex: -1
      _Value: 1.0227273
    - _RefKeyIndex: -1
      _Value: 1.0454545
    - _RefKeyIndex: -1
      _Value: 1.0681819
    - _RefKeyIndex: -1
      _Value: 1.0909091
    - _RefKeyIndex: -1
      _Value: 1.1136364
    - _RefKeyIndex: -1
      _Value: 1.1363636
    - _RefKeyIndex: -1
      _Value: 1.1590909
    - _RefKeyIndex: -1
      _Value: 1.1818182
    - _RefKeyIndex: -1
      _Value: 1.2045455
    - _RefKeyIndex: -1
      _Value: 1.2272727
    - _RefKeyIndex: -1
      _Value: 1.25
    - _RefKeyIndex: -1
      _Value: 1.2727273
    - _RefKeyIndex: -1
      _Value: 1.2954545
    - _RefKeyIndex: -1
      _Value: 1.3181818
    - _RefKeyIndex: -1
      _Value: 1.3409091
    - _RefKeyIndex: -1
      _Value: 1.3636364
    - _RefKeyIndex: -1
      _Value: 1.3863636
    - _RefKeyIndex: -1
      _Value: 1.4090909
    - _RefKeyIndex: -1
      _Value: 1.4318182
    - _RefKeyIndex: -1
      _Value: 1.4545455
    - _RefKeyIndex: -1
      _Value: 1.4772727
    - _RefKeyIndex: 3
      _Value: 0
    - _RefKeyIndex: 3
      _Value: 0
    - _RefKeyIndex: 3
      _Value: 0
    - _RefKeyIndex: 3
      _Value: 0
    - _RefKeyIndex: 3
      _Value: 0
    - _RefKeyIndex: 3
      _Value: 0
    - _RefKeyIndex: 3
      _Value: 0
    - _RefKeyIndex: 3
      _Value: 0
    - _RefKeyIndex: 3
      _Value: 0
    ScaleYValues:
    - _RefKeyIndex: -1
      _Value: 1
    - _RefKeyIndex: -1
      _Value: 1.1
    - _RefKeyIndex: -1
      _Value: 1.2
    - _RefKeyIndex: -1
      _Value: 1.3
    - _RefKeyIndex: -1
      _Value: 1.4
    - _RefKeyIndex: -1
      _Value: 1.5
    - _RefKeyIndex: -1
      _Value: 1.6
    - _RefKeyIndex: -1
      _Value: 1.4
    - _RefKeyIndex: -1
      _Value: 1.2
    - _RefKeyIndex: -1
      _Value: 1
    - _RefKeyIndex: -1
      _Value: 1.0227273
    - _RefKeyIndex: -1
      _Value: 1.0454545
    - _RefKeyIndex: -1
      _Value: 1.0681819
    - _RefKeyIndex: -1
      _Value: 1.0909091
    - _RefKeyIndex: -1
      _Value: 1.1136364
    - _RefKeyIndex: -1
      _Value: 1.1363636
    - _RefKeyIndex: -1
      _Value: 1.1590909
    - _RefKeyIndex: -1
      _Value: 1.1818182
    - _RefKeyIndex: -1
      _Value: 1.2045455
    - _RefKeyIndex: -1
      _Value: 1.2272727
    - _RefKeyIndex: -1
      _Value: 1.25
    - _RefKeyIndex: -1
      _Value: 1.2727273
    - _RefKeyIndex: -1
      _Value: 1.2954545
    - _RefKeyIndex: -1
      _Value: 1.3181818
    - _RefKeyIndex: -1
      _Value: 1.3409091
    - _RefKeyIndex: -1
      _Value: 1.3636364
    - _RefKeyIndex: -1
      _Value: 1.3863636
    - _RefKeyIndex: -1
      _Value: 1.4090909
    - _RefKeyIndex: -1
      _Value: 1.4318182
    - _RefKeyIndex: -1
      _Value: 1.4545455
    - _RefKeyIndex: -1
      _Value: 1.4772727
    - _RefKeyIndex: 3
      _Value: 0
    - _RefKeyIndex: 3
      _Value: 0
    - _RefKeyIndex: 3
      _Value: 0
    - _RefKeyIndex: 3
      _Value: 0
    - _RefKeyIndex: 3
      _Value: 0
    - _RefKeyIndex: 3
      _Value: 0
    - _RefKeyIndex: 3
      _Value: 0
    - _RefKeyIndex: 3
      _Value: 0
    - _RefKeyIndex: 3
      _Value: 0
    TransValues:
    - _RefKeyIndex: 0
      _Value: 0
    - _RefKeyIndex: 0
      _Value: 0
    - _RefKeyIndex: 0
      _Value: 0
    - _RefKeyIndex: 0
      _Value: 0
    - _RefKeyIndex: 0
      _Value: 0
    - _RefKeyIndex: 0
      _Value: 0
    - _RefKeyIndex: 0
      _Value: 0
    - _RefKeyIndex: 0
      _Value: 0
    - _RefKeyIndex: 0
      _Value: 0
    - _RefKeyIndex: -1
      _Value: 1
    - _RefKeyIndex: -1
      _Value: 0.925
    - _RefKeyIndex: -1
      _Value: 0.85
    - _RefKeyIndex: -1
      _Value: 0.775
    - _RefKeyIndex: -1
      _Value: 0.7
    - _RefKeyIndex: -1
      _Value: 0.6611111
    - _RefKeyIndex: -1
      _Value: 0.6222222
    - _RefKeyIndex: -1
      _Value: 0.5833333
    - _RefKeyIndex: -1
      _Value: 0.54444444
    - _RefKeyIndex: -1
      _Value: 0.5055555
    - _RefKeyIndex: -1
      _Value: 0.46666664
    - _RefKeyIndex: -1
      _Value: 0.42777777
    - _RefKeyIndex: -1
      _Value: 0.38888887
    - _RefKeyIndex: -1
      _Value: 0.35
    - _RefKeyIndex: -1
      _Value: 0.3111111
    - _RefKeyIndex: -1
      _Value: 0.27222222
    - _RefKeyIndex: -1
      _Value: 0.23333332
    - _RefKeyIndex: -1
      _Value: 0.19444445
    - _RefKeyIndex: -1
      _Value: 0.15555555
    - _RefKeyIndex: -1
      _Value: 0.11666668
    - _RefKeyIndex: -1
      _Value: 0.07777777
    - _RefKeyIndex: -1
      _Value: 0.038888905
    - _RefKeyIndex: 2
      _Value: 0
    - _RefKeyIndex: 2
      _Value: 0
    - _RefKeyIndex: 2
      _Value: 0
    - _RefKeyIndex: 2
      _Value: 0
    - _RefKeyIndex: 2
      _Value: 0
    - _RefKeyIndex: 2
      _Value: 0
    - _RefKeyIndex: 2
      _Value: 0
    - _RefKeyIndex: 2
      _Value: 0
    - _RefKeyIndex: 2
      _Value: 0
    PrioValues: []
    FlipHValues: []
    FlipVValues: []
    HideValues:
    - _RefKeyIndex: 0
      _Value: 0
    PartsColValues: []
    PartsPalValues: []
    VertexValues: []
    UserValues: []
    SoundValues: []
    ImageOffsetXValues: []
    ImageOffsetYValues: []
    ImageOffsetWValues: []
    ImageOffsetHValues: []
    OriginOffsetXValues: []
    OriginOffsetYValues: []
    _hasAttrFlags: 575
    HasTrancparency: 1
    FrameNum: 40
    imageFile:
      path: Assets/Resources/Atlas/PuzzleTile/PuzzleTile.png
      texture: {fileID: 2800000, guid: 00051aac90314b34982a652bd7ab76c2, type: 3}
      materials:
      - {fileID: 0}
      - {fileID: 0}
      - {fileID: 0}
      - {fileID: 0}
      - {fileID: 0}
      - {fileID: 2100000, guid: 68105edfbfe10654394bdef14d2d41d0, type: 2}
      - {fileID: 0}
      - {fileID: 0}
      - {fileID: 0}
      - {fileID: 0}
      - {fileID: 0}
      - {fileID: 0}
      - {fileID: 0}
      - {fileID: 0}
      - {fileID: 0}
      - {fileID: 0}
      - {fileID: 0}
      - {fileID: 0}
      - {fileID: 0}
      - {fileID: 0}
      - {fileID: 0}
      - {fileID: 0}
      - {fileID: 0}
      - {fileID: 0}
      - {fileID: 0}
      - {fileID: 0}
      - {fileID: 0}
      - {fileID: 0}
      - {fileID: 0}
      - {fileID: 0}
      - {fileID: 0}
      - {fileID: 0}
      - {fileID: 0}
      - {fileID: 0}
      - {fileID: 0}
      - {fileID: 0}
      - {fileID: 0}
      - {fileID: 0}
      - {fileID: 0}
      - {fileID: 0}
      - {fileID: 0}
      - {fileID: 0}
      - {fileID: 0}
      - {fileID: 0}
      - {fileID: 0}
      - {fileID: 0}
      - {fileID: 0}
      - {fileID: 0}
      - {fileID: 0}
      - {fileID: 0}
      width: 1024
      height: 2048
      bpp: 0
    UVs:
    - {x: 0.9970703, y: 0.9995117}
    - {x: 0.9980469, y: 0.9995117}
    - {x: 0.9980469, y: 0.99902344}
    - {x: 0.9970703, y: 0.99902344}
    OrgVertices:
    - {x: -0, y: 0, z: 0}
    - {x: 1, y: 0, z: 0}
    - {x: 1, y: -1, z: 0}
    - {x: -0, y: -1, z: 0}
  - AnimeRes: {fileID: 11400000}
    Name: change_000
    Type: 0
    PicArea:
      Left: 1021
      Top: 1
      Right: 1022
      Bottom: 2
    OriginX: 0
    OriginY: 0
    MyId: 2
    ParentId: 0
    ChildNum: 0
    SrcObjId: 0
    SrcObjType: 0
    AlphaBlendType: 1
    InheritState:
      Type: 0
      Values:
      - Use: 1
        Rate: 1
      - Use: 1
        Rate: 1
      - Use: 1
        Rate: 1
      - Use: 1
        Rate: 1
      - Use: 1
        Rate: 1
      - Use: 1
        Rate: 1
      - Use: 1
        Rate: 1
      - Use: 0
        Rate: 0
      - Use: 0
        Rate: 0
      - Use: 0
        Rate: 0
      - Use: 1
        Rate: 1
      - Use: 1
        Rate: 1
      - Use: 1
        Rate: 1
      - Use: 1
        Rate: 1
      - Use: 1
        Rate: 1
      - Use: 1
        Rate: 1
      - Use: 1
        Rate: 1
      - Use: 1
        Rate: 1
      - Use: 1
        Rate: 1
      - Use: 1
        Rate: 1
      - Use: 1
        Rate: 1
    PosXKeys:
    - Value: 0
      _Time: 0
      _ValueType: 0
      _Curve:
        Type: 1
        StartT: 0
        StartV: 0
        EndT: 0
        EndV: 0
    - Value: 0
      _Time: 39
      _ValueType: 0
      _Curve:
        Type: 1
        StartT: 0
        StartV: 0
        EndT: 0
        EndV: 0
    PosYKeys:
    - Value: 0
      _Time: 0
      _ValueType: 0
      _Curve:
        Type: 1
        StartT: 0
        StartV: 0
        EndT: 0
        EndV: 0
    - Value: 0
      _Time: 39
      _ValueType: 0
      _Curve:
        Type: 1
        StartT: 0
        StartV: 0
        EndT: 0
        EndV: 0
    AngleKeys:
    - Value: 0
      _Time: 0
      _ValueType: 0
      _Curve:
        Type: 1
        StartT: 0
        StartV: 0
        EndT: 0
        EndV: 0
    - Value: 0
      _Time: 39
      _ValueType: 0
      _Curve:
        Type: 1
        StartT: 0
        StartV: 0
        EndT: 0
        EndV: 0
    ScaleXKeys:
    - Value: 1
      _Time: 0
      _ValueType: 0
      _Curve:
        Type: 1
        StartT: 0
        StartV: 0
        EndT: 0
        EndV: 0
    - Value: 1.6
      _Time: 6
      _ValueType: 0
      _Curve:
        Type: 1
        StartT: 0
        StartV: 0
        EndT: 0
        EndV: 0
    - Value: 1
      _Time: 9
      _ValueType: 0
      _Curve:
        Type: 1
        StartT: 0
        StartV: 0
        EndT: 0
        EndV: 0
    ScaleYKeys:
    - Value: 1
      _Time: 0
      _ValueType: 0
      _Curve:
        Type: 1
        StartT: 0
        StartV: 0
        EndT: 0
        EndV: 0
    - Value: 1.6
      _Time: 6
      _ValueType: 0
      _Curve:
        Type: 1
        StartT: 0
        StartV: 0
        EndT: 0
        EndV: 0
    - Value: 1
      _Time: 9
      _ValueType: 0
      _Curve:
        Type: 1
        StartT: 0
        StartV: 0
        EndT: 0
        EndV: 0
    TransKeys:
    - Value: 1
      _Time: 9
      _ValueType: 0
      _Curve:
        Type: 1
        StartT: 0
        StartV: 0
        EndT: 0
        EndV: 0
    - Value: 0
      _Time: 13
      _ValueType: 0
      _Curve:
        Type: 1
        StartT: 0
        StartV: 0
        EndT: 0
        EndV: 0
    PrioKeys: []
    FlipHKeys: []
    FlipVKeys: []
    HideKeys:
    - Value: 0
      _Time: 0
      _ValueType: 1
      _Curve:
        Type: 0
        StartT: 0
        StartV: 0
        EndT: 0
        EndV: 0
    - Value: 0
      _Time: 9
      _ValueType: 1
      _Curve:
        Type: 0
        StartT: 0
        StartV: 0
        EndT: 0
        EndV: 0
    - Value: 0
      _Time: 39
      _ValueType: 1
      _Curve:
        Type: 0
        StartT: 0
        StartV: 0
        EndT: 0
        EndV: 0
    PartsColKeys: []
    PartsPalKeys: []
    VertexKeys: []
    UserKeys: []
    SoundKeys: []
    ImageOffsetXKeys: []
    ImageOffsetYKeys: []
    ImageOffsetWKeys: []
    ImageOffsetHKeys: []
    OriginOffsetXKeys: []
    OriginOffsetYKeys: []
    PosXValues:
    - _RefKeyIndex: -1
      _Value: 0
    PosYValues:
    - _RefKeyIndex: -1
      _Value: 0
    AngleValues:
    - _RefKeyIndex: -1
      _Value: 0
    ScaleXValues:
    - _RefKeyIndex: -1
      _Value: 1
    - _RefKeyIndex: -1
      _Value: 1.1
    - _RefKeyIndex: -1
      _Value: 1.2
    - _RefKeyIndex: -1
      _Value: 1.3
    - _RefKeyIndex: -1
      _Value: 1.4
    - _RefKeyIndex: -1
      _Value: 1.5
    - _RefKeyIndex: -1
      _Value: 1.6
    - _RefKeyIndex: -1
      _Value: 1.4
    - _RefKeyIndex: -1
      _Value: 1.2
    - _RefKeyIndex: 2
      _Value: 0
    - _RefKeyIndex: 2
      _Value: 0
    - _RefKeyIndex: 2
      _Value: 0
    - _RefKeyIndex: 2
      _Value: 0
    - _RefKeyIndex: 2
      _Value: 0
    - _RefKeyIndex: 2
      _Value: 0
    - _RefKeyIndex: 2
      _Value: 0
    - _RefKeyIndex: 2
      _Value: 0
    - _RefKeyIndex: 2
      _Value: 0
    - _RefKeyIndex: 2
      _Value: 0
    - _RefKeyIndex: 2
      _Value: 0
    - _RefKeyIndex: 2
      _Value: 0
    - _RefKeyIndex: 2
      _Value: 0
    - _RefKeyIndex: 2
      _Value: 0
    - _RefKeyIndex: 2
      _Value: 0
    - _RefKeyIndex: 2
      _Value: 0
    - _RefKeyIndex: 2
      _Value: 0
    - _RefKeyIndex: 2
      _Value: 0
    - _RefKeyIndex: 2
      _Value: 0
    - _RefKeyIndex: 2
      _Value: 0
    - _RefKeyIndex: 2
      _Value: 0
    - _RefKeyIndex: 2
      _Value: 0
    - _RefKeyIndex: 2
      _Value: 0
    - _RefKeyIndex: 2
      _Value: 0
    - _RefKeyIndex: 2
      _Value: 0
    - _RefKeyIndex: 2
      _Value: 0
    - _RefKeyIndex: 2
      _Value: 0
    - _RefKeyIndex: 2
      _Value: 0
    - _RefKeyIndex: 2
      _Value: 0
    - _RefKeyIndex: 2
      _Value: 0
    - _RefKeyIndex: 2
      _Value: 0
    ScaleYValues:
    - _RefKeyIndex: -1
      _Value: 1
    - _RefKeyIndex: -1
      _Value: 1.1
    - _RefKeyIndex: -1
      _Value: 1.2
    - _RefKeyIndex: -1
      _Value: 1.3
    - _RefKeyIndex: -1
      _Value: 1.4
    - _RefKeyIndex: -1
      _Value: 1.5
    - _RefKeyIndex: -1
      _Value: 1.6
    - _RefKeyIndex: -1
      _Value: 1.4
    - _RefKeyIndex: -1
      _Value: 1.2
    - _RefKeyIndex: 2
      _Value: 0
    - _RefKeyIndex: 2
      _Value: 0
    - _RefKeyIndex: 2
      _Value: 0
    - _RefKeyIndex: 2
      _Value: 0
    - _RefKeyIndex: 2
      _Value: 0
    - _RefKeyIndex: 2
      _Value: 0
    - _RefKeyIndex: 2
      _Value: 0
    - _RefKeyIndex: 2
      _Value: 0
    - _RefKeyIndex: 2
      _Value: 0
    - _RefKeyIndex: 2
      _Value: 0
    - _RefKeyIndex: 2
      _Value: 0
    - _RefKeyIndex: 2
      _Value: 0
    - _RefKeyIndex: 2
      _Value: 0
    - _RefKeyIndex: 2
      _Value: 0
    - _RefKeyIndex: 2
      _Value: 0
    - _RefKeyIndex: 2
      _Value: 0
    - _RefKeyIndex: 2
      _Value: 0
    - _RefKeyIndex: 2
      _Value: 0
    - _RefKeyIndex: 2
      _Value: 0
    - _RefKeyIndex: 2
      _Value: 0
    - _RefKeyIndex: 2
      _Value: 0
    - _RefKeyIndex: 2
      _Value: 0
    - _RefKeyIndex: 2
      _Value: 0
    - _RefKeyIndex: 2
      _Value: 0
    - _RefKeyIndex: 2
      _Value: 0
    - _RefKeyIndex: 2
      _Value: 0
    - _RefKeyIndex: 2
      _Value: 0
    - _RefKeyIndex: 2
      _Value: 0
    - _RefKeyIndex: 2
      _Value: 0
    - _RefKeyIndex: 2
      _Value: 0
    - _RefKeyIndex: 2
      _Value: 0
    TransValues:
    - _RefKeyIndex: 0
      _Value: 0
    - _RefKeyIndex: 0
      _Value: 0
    - _RefKeyIndex: 0
      _Value: 0
    - _RefKeyIndex: 0
      _Value: 0
    - _RefKeyIndex: 0
      _Value: 0
    - _RefKeyIndex: 0
      _Value: 0
    - _RefKeyIndex: 0
      _Value: 0
    - _RefKeyIndex: 0
      _Value: 0
    - _RefKeyIndex: 0
      _Value: 0
    - _RefKeyIndex: -1
      _Value: 1
    - _RefKeyIndex: -1
      _Value: 0.75
    - _RefKeyIndex: -1
      _Value: 0.5
    - _RefKeyIndex: -1
      _Value: 0.25
    - _RefKeyIndex: 1
      _Value: 0
    - _RefKeyIndex: 1
      _Value: 0
    - _RefKeyIndex: 1
      _Value: 0
    - _RefKeyIndex: 1
      _Value: 0
    - _RefKeyIndex: 1
      _Value: 0
    - _RefKeyIndex: 1
      _Value: 0
    - _RefKeyIndex: 1
      _Value: 0
    - _RefKeyIndex: 1
      _Value: 0
    - _RefKeyIndex: 1
      _Value: 0
    - _RefKeyIndex: 1
      _Value: 0
    - _RefKeyIndex: 1
      _Value: 0
    - _RefKeyIndex: 1
      _Value: 0
    - _RefKeyIndex: 1
      _Value: 0
    - _RefKeyIndex: 1
      _Value: 0
    - _RefKeyIndex: 1
      _Value: 0
    - _RefKeyIndex: 1
      _Value: 0
    - _RefKeyIndex: 1
      _Value: 0
    - _RefKeyIndex: 1
      _Value: 0
    - _RefKeyIndex: 1
      _Value: 0
    - _RefKeyIndex: 1
      _Value: 0
    - _RefKeyIndex: 1
      _Value: 0
    - _RefKeyIndex: 1
      _Value: 0
    - _RefKeyIndex: 1
      _Value: 0
    - _RefKeyIndex: 1
      _Value: 0
    - _RefKeyIndex: 1
      _Value: 0
    - _RefKeyIndex: 1
      _Value: 0
    - _RefKeyIndex: 1
      _Value: 0
    PrioValues: []
    FlipHValues: []
    FlipVValues: []
    HideValues:
    - _RefKeyIndex: 0
      _Value: 0
    PartsColValues: []
    PartsPalValues: []
    VertexValues: []
    UserValues: []
    SoundValues: []
    ImageOffsetXValues: []
    ImageOffsetYValues: []
    ImageOffsetWValues: []
    ImageOffsetHValues: []
    OriginOffsetXValues: []
    OriginOffsetYValues: []
    _hasAttrFlags: 575
    HasTrancparency: 1
    FrameNum: 40
    imageFile:
      path: Assets/Resources/Atlas/PuzzleTile/PuzzleTile.png
      texture: {fileID: 2800000, guid: 00051aac90314b34982a652bd7ab76c2, type: 3}
      materials:
      - {fileID: 0}
      - {fileID: 0}
      - {fileID: 0}
      - {fileID: 0}
      - {fileID: 0}
      - {fileID: 2100000, guid: 68105edfbfe10654394bdef14d2d41d0, type: 2}
      - {fileID: 0}
      - {fileID: 0}
      - {fileID: 0}
      - {fileID: 0}
      - {fileID: 0}
      - {fileID: 0}
      - {fileID: 0}
      - {fileID: 0}
      - {fileID: 0}
      - {fileID: 0}
      - {fileID: 0}
      - {fileID: 0}
      - {fileID: 0}
      - {fileID: 0}
      - {fileID: 0}
      - {fileID: 0}
      - {fileID: 0}
      - {fileID: 0}
      - {fileID: 0}
      - {fileID: 0}
      - {fileID: 0}
      - {fileID: 0}
      - {fileID: 0}
      - {fileID: 0}
      - {fileID: 0}
      - {fileID: 0}
      - {fileID: 0}
      - {fileID: 0}
      - {fileID: 0}
      - {fileID: 0}
      - {fileID: 0}
      - {fileID: 0}
      - {fileID: 0}
      - {fileID: 0}
      - {fileID: 0}
      - {fileID: 0}
      - {fileID: 0}
      - {fileID: 0}
      - {fileID: 0}
      - {fileID: 0}
      - {fileID: 0}
      - {fileID: 0}
      - {fileID: 0}
      - {fileID: 0}
      width: 1024
      height: 2048
      bpp: 0
    UVs:
    - {x: 0.9970703, y: 0.9995117}
    - {x: 0.9980469, y: 0.9995117}
    - {x: 0.9980469, y: 0.99902344}
    - {x: 0.9970703, y: 0.99902344}
    OrgVertices:
    - {x: -0, y: 0, z: 0}
    - {x: 1, y: 0, z: 0}
    - {x: 1, y: -1, z: 0}
    - {x: -0, y: -1, z: 0}
  - AnimeRes: {fileID: 11400000}
    Name: circle_huta
    Type: 0
    PicArea:
      Left: 188
      Top: 758
      Right: 268
      Bottom: 838
    OriginX: 40
    OriginY: 40
    MyId: 3
    ParentId: 0
    ChildNum: 0
    SrcObjId: 0
    SrcObjType: 0
    AlphaBlendType: 1
    InheritState:
      Type: 0
      Values:
      - Use: 1
        Rate: 1
      - Use: 1
        Rate: 1
      - Use: 1
        Rate: 1
      - Use: 1
        Rate: 1
      - Use: 1
        Rate: 1
      - Use: 1
        Rate: 1
      - Use: 1
        Rate: 1
      - Use: 0
        Rate: 0
      - Use: 0
        Rate: 0
      - Use: 0
        Rate: 0
      - Use: 1
        Rate: 1
      - Use: 1
        Rate: 1
      - Use: 1
        Rate: 1
      - Use: 1
        Rate: 1
      - Use: 1
        Rate: 1
      - Use: 1
        Rate: 1
      - Use: 1
        Rate: 1
      - Use: 1
        Rate: 1
      - Use: 1
        Rate: 1
      - Use: 1
        Rate: 1
      - Use: 1
        Rate: 1
    PosXKeys:
    - Value: 0
      _Time: 9
      _ValueType: 0
      _Curve:
        Type: 1
        StartT: 0
        StartV: 0
        EndT: 0
        EndV: 0
    PosYKeys:
    - Value: 0
      _Time: 9
      _ValueType: 0
      _Curve:
        Type: 1
        StartT: 0
        StartV: 0
        EndT: 0
        EndV: 0
    AngleKeys:
    - Value: 0
      _Time: 9
      _ValueType: 0
      _Curve:
        Type: 1
        StartT: 0
        StartV: 0
        EndT: 0
        EndV: 0
    ScaleXKeys:
    - Value: 1.4
      _Time: 9
      _ValueType: 0
      _Curve:
        Type: 1
        StartT: 0
        StartV: 0
        EndT: 0
        EndV: 0
    - Value: 2
      _Time: 26
      _ValueType: 0
      _Curve:
        Type: 1
        StartT: 0
        StartV: 0
        EndT: 0
        EndV: 0
    ScaleYKeys:
    - Value: 1.4
      _Time: 9
      _ValueType: 0
      _Curve:
        Type: 1
        StartT: 0
        StartV: 0
        EndT: 0
        EndV: 0
    - Value: 2
      _Time: 26
      _ValueType: 0
      _Curve:
        Type: 1
        StartT: 0
        StartV: 0
        EndT: 0
        EndV: 0
    TransKeys:
    - Value: 0
      _Time: 6
      _ValueType: 0
      _Curve:
        Type: 1
        StartT: 0
        StartV: 0
        EndT: 0
        EndV: 0
    - Value: 1
      _Time: 9
      _ValueType: 0
      _Curve:
        Type: 1
        StartT: 0
        StartV: 0
        EndT: 0
        EndV: 0
    - Value: 1
      _Time: 17
      _ValueType: 0
      _Curve:
        Type: 1
        StartT: 0
        StartV: 0
        EndT: 0
        EndV: 0
    - Value: 0
      _Time: 26
      _ValueType: 0
      _Curve:
        Type: 1
        StartT: 0
        StartV: 0
        EndT: 0
        EndV: 0
    PrioKeys: []
    FlipHKeys: []
    FlipVKeys: []
    HideKeys:
    - Value: 0
      _Time: 6
      _ValueType: 1
      _Curve:
        Type: 0
        StartT: 0
        StartV: 0
        EndT: 0
        EndV: 0
    PartsColKeys: []
    PartsPalKeys: []
    VertexKeys: []
    UserKeys: []
    SoundKeys: []
    ImageOffsetXKeys: []
    ImageOffsetYKeys: []
    ImageOffsetWKeys: []
    ImageOffsetHKeys: []
    OriginOffsetXKeys: []
    OriginOffsetYKeys: []
    PosXValues:
    - _RefKeyIndex: 0
      _Value: 0
    PosYValues:
    - _RefKeyIndex: 0
      _Value: 0
    AngleValues:
    - _RefKeyIndex: 0
      _Value: 0
    ScaleXValues:
    - _RefKeyIndex: 0
      _Value: 0
    - _RefKeyIndex: 0
      _Value: 0
    - _RefKeyIndex: 0
      _Value: 0
    - _RefKeyIndex: 0
      _Value: 0
    - _RefKeyIndex: 0
      _Value: 0
    - _RefKeyIndex: 0
      _Value: 0
    - _RefKeyIndex: 0
      _Value: 0
    - _RefKeyIndex: 0
      _Value: 0
    - _RefKeyIndex: 0
      _Value: 0
    - _RefKeyIndex: -1
      _Value: 1.4
    - _RefKeyIndex: -1
      _Value: 1.4352942
    - _RefKeyIndex: -1
      _Value: 1.4705882
    - _RefKeyIndex: -1
      _Value: 1.5058824
    - _RefKeyIndex: -1
      _Value: 1.5411764
    - _RefKeyIndex: -1
      _Value: 1.5764706
    - _RefKeyIndex: -1
      _Value: 1.6117647
    - _RefKeyIndex: -1
      _Value: 1.6470588
    - _RefKeyIndex: -1
      _Value: 1.6823529
    - _RefKeyIndex: -1
      _Value: 1.7176471
    - _RefKeyIndex: -1
      _Value: 1.7529411
    - _RefKeyIndex: -1
      _Value: 1.7882353
    - _RefKeyIndex: -1
      _Value: 1.8235294
    - _RefKeyIndex: -1
      _Value: 1.8588235
    - _RefKeyIndex: -1
      _Value: 1.8941176
    - _RefKeyIndex: -1
      _Value: 1.9294118
    - _RefKeyIndex: -1
      _Value: 1.9647058
    - _RefKeyIndex: 1
      _Value: 0
    - _RefKeyIndex: 1
      _Value: 0
    - _RefKeyIndex: 1
      _Value: 0
    - _RefKeyIndex: 1
      _Value: 0
    - _RefKeyIndex: 1
      _Value: 0
    - _RefKeyIndex: 1
      _Value: 0
    - _RefKeyIndex: 1
      _Value: 0
    - _RefKeyIndex: 1
      _Value: 0
    - _RefKeyIndex: 1
      _Value: 0
    - _RefKeyIndex: 1
      _Value: 0
    - _RefKeyIndex: 1
      _Value: 0
    - _RefKeyIndex: 1
      _Value: 0
    - _RefKeyIndex: 1
      _Value: 0
    - _RefKeyIndex: 1
      _Value: 0
    ScaleYValues:
    - _RefKeyIndex: 0
      _Value: 0
    - _RefKeyIndex: 0
      _Value: 0
    - _RefKeyIndex: 0
      _Value: 0
    - _RefKeyIndex: 0
      _Value: 0
    - _RefKeyIndex: 0
      _Value: 0
    - _RefKeyIndex: 0
      _Value: 0
    - _RefKeyIndex: 0
      _Value: 0
    - _RefKeyIndex: 0
      _Value: 0
    - _RefKeyIndex: 0
      _Value: 0
    - _RefKeyIndex: -1
      _Value: 1.4
    - _RefKeyIndex: -1
      _Value: 1.4352942
    - _RefKeyIndex: -1
      _Value: 1.4705882
    - _RefKeyIndex: -1
      _Value: 1.5058824
    - _RefKeyIndex: -1
      _Value: 1.5411764
    - _RefKeyIndex: -1
      _Value: 1.5764706
    - _RefKeyIndex: -1
      _Value: 1.6117647
    - _RefKeyIndex: -1
      _Value: 1.6470588
    - _RefKeyIndex: -1
      _Value: 1.6823529
    - _RefKeyIndex: -1
      _Value: 1.7176471
    - _RefKeyIndex: -1
      _Value: 1.7529411
    - _RefKeyIndex: -1
      _Value: 1.7882353
    - _RefKeyIndex: -1
      _Value: 1.8235294
    - _RefKeyIndex: -1
      _Value: 1.8588235
    - _RefKeyIndex: -1
      _Value: 1.8941176
    - _RefKeyIndex: -1
      _Value: 1.9294118
    - _RefKeyIndex: -1
      _Value: 1.9647058
    - _RefKeyIndex: 1
      _Value: 0
    - _RefKeyIndex: 1
      _Value: 0
    - _RefKeyIndex: 1
      _Value: 0
    - _RefKeyIndex: 1
      _Value: 0
    - _RefKeyIndex: 1
      _Value: 0
    - _RefKeyIndex: 1
      _Value: 0
    - _RefKeyIndex: 1
      _Value: 0
    - _RefKeyIndex: 1
      _Value: 0
    - _RefKeyIndex: 1
      _Value: 0
    - _RefKeyIndex: 1
      _Value: 0
    - _RefKeyIndex: 1
      _Value: 0
    - _RefKeyIndex: 1
      _Value: 0
    - _RefKeyIndex: 1
      _Value: 0
    - _RefKeyIndex: 1
      _Value: 0
    TransValues:
    - _RefKeyIndex: 0
      _Value: 0
    - _RefKeyIndex: 0
      _Value: 0
    - _RefKeyIndex: 0
      _Value: 0
    - _RefKeyIndex: 0
      _Value: 0
    - _RefKeyIndex: 0
      _Value: 0
    - _RefKeyIndex: 0
      _Value: 0
    - _RefKeyIndex: -1
      _Value: 0
    - _RefKeyIndex: -1
      _Value: 0.33333334
    - _RefKeyIndex: -1
      _Value: 0.6666667
    - _RefKeyIndex: -1
      _Value: 1
    - _RefKeyIndex: -1
      _Value: 1
    - _RefKeyIndex: -1
      _Value: 1
    - _RefKeyIndex: -1
      _Value: 1
    - _RefKeyIndex: -1
      _Value: 1
    - _RefKeyIndex: -1
      _Value: 1
    - _RefKeyIndex: -1
      _Value: 1
    - _RefKeyIndex: -1
      _Value: 1
    - _RefKeyIndex: -1
      _Value: 1
    - _RefKeyIndex: -1
      _Value: 0.8888889
    - _RefKeyIndex: -1
      _Value: 0.7777778
    - _RefKeyIndex: -1
      _Value: 0.6666666
    - _RefKeyIndex: -1
      _Value: 0.5555556
    - _RefKeyIndex: -1
      _Value: 0.44444442
    - _RefKeyIndex: -1
      _Value: 0.3333333
    - _RefKeyIndex: -1
      _Value: 0.22222221
    - _RefKeyIndex: -1
      _Value: 0.111111104
    - _RefKeyIndex: 3
      _Value: 0
    - _RefKeyIndex: 3
      _Value: 0
    - _RefKeyIndex: 3
      _Value: 0
    - _RefKeyIndex: 3
      _Value: 0
    - _RefKeyIndex: 3
      _Value: 0
    - _RefKeyIndex: 3
      _Value: 0
    - _RefKeyIndex: 3
      _Value: 0
    - _RefKeyIndex: 3
      _Value: 0
    - _RefKeyIndex: 3
      _Value: 0
    - _RefKeyIndex: 3
      _Value: 0
    - _RefKeyIndex: 3
      _Value: 0
    - _RefKeyIndex: 3
      _Value: 0
    - _RefKeyIndex: 3
      _Value: 0
    - _RefKeyIndex: 3
      _Value: 0
    PrioValues: []
    FlipHValues: []
    FlipVValues: []
    HideValues:
    - _RefKeyIndex: 0
      _Value: 0
    - _RefKeyIndex: 0
      _Value: 0
    - _RefKeyIndex: 0
      _Value: 0
    - _RefKeyIndex: 0
      _Value: 0
    - _RefKeyIndex: 0
      _Value: 0
    - _RefKeyIndex: 0
      _Value: 0
    - _RefKeyIndex: 0
      _Value: 0
    - _RefKeyIndex: 0
      _Value: 0
    - _RefKeyIndex: 0
      _Value: 0
    - _RefKeyIndex: 0
      _Value: 0
    - _RefKeyIndex: 0
      _Value: 0
    - _RefKeyIndex: 0
      _Value: 0
    - _RefKeyIndex: 0
      _Value: 0
    - _RefKeyIndex: 0
      _Value: 0
    - _RefKeyIndex: 0
      _Value: 0
    - _RefKeyIndex: 0
      _Value: 0
    - _RefKeyIndex: 0
      _Value: 0
    - _RefKeyIndex: 0
      _Value: 0
    - _RefKeyIndex: 0
      _Value: 0
    - _RefKeyIndex: 0
      _Value: 0
    - _RefKeyIndex: 0
      _Value: 0
    - _RefKeyIndex: 0
      _Value: 0
    - _RefKeyIndex: 0
      _Value: 0
    - _RefKeyIndex: 0
      _Value: 0
    - _RefKeyIndex: 0
      _Value: 0
    - _RefKeyIndex: 0
      _Value: 0
    - _RefKeyIndex: 0
      _Value: 0
    - _RefKeyIndex: 0
      _Value: 0
    - _RefKeyIndex: 0
      _Value: 0
    - _RefKeyIndex: 0
      _Value: 0
    - _RefKeyIndex: 0
      _Value: 0
    - _RefKeyIndex: 0
      _Value: 0
    - _RefKeyIndex: 0
      _Value: 0
    - _RefKeyIndex: 0
      _Value: 0
    - _RefKeyIndex: 0
      _Value: 0
    - _RefKeyIndex: 0
      _Value: 0
    - _RefKeyIndex: 0
      _Value: 0
    - _RefKeyIndex: 0
      _Value: 0
    - _RefKeyIndex: 0
      _Value: 0
    - _RefKeyIndex: 0
      _Value: 0
    PartsColValues: []
    PartsPalValues: []
    VertexValues: []
    UserValues: []
    SoundValues: []
    ImageOffsetXValues: []
    ImageOffsetYValues: []
    ImageOffsetWValues: []
    ImageOffsetHValues: []
    OriginOffsetXValues: []
    OriginOffsetYValues: []
    _hasAttrFlags: 575
    HasTrancparency: 1
    FrameNum: 40
    imageFile:
      path: Assets/Resources/Atlas/PuzzleTile/PuzzleTile.png
      texture: {fileID: 2800000, guid: 00051aac90314b34982a652bd7ab76c2, type: 3}
      materials:
      - {fileID: 0}
      - {fileID: 0}
      - {fileID: 0}
      - {fileID: 0}
      - {fileID: 0}
      - {fileID: 2100000, guid: 68105edfbfe10654394bdef14d2d41d0, type: 2}
      - {fileID: 0}
      - {fileID: 0}
      - {fileID: 0}
      - {fileID: 0}
      - {fileID: 0}
      - {fileID: 0}
      - {fileID: 0}
      - {fileID: 0}
      - {fileID: 0}
      - {fileID: 0}
      - {fileID: 0}
      - {fileID: 0}
      - {fileID: 0}
      - {fileID: 0}
      - {fileID: 0}
      - {fileID: 0}
      - {fileID: 0}
      - {fileID: 0}
      - {fileID: 0}
      - {fileID: 0}
      - {fileID: 0}
      - {fileID: 0}
      - {fileID: 0}
      - {fileID: 0}
      - {fileID: 0}
      - {fileID: 0}
      - {fileID: 0}
      - {fileID: 0}
      - {fileID: 0}
      - {fileID: 0}
      - {fileID: 0}
      - {fileID: 0}
      - {fileID: 0}
      - {fileID: 0}
      - {fileID: 0}
      - {fileID: 0}
      - {fileID: 0}
      - {fileID: 0}
      - {fileID: 0}
      - {fileID: 0}
      - {fileID: 0}
      - {fileID: 0}
      - {fileID: 0}
      - {fileID: 0}
      width: 1024
      height: 2048
      bpp: 0
    UVs:
    - {x: 0.18359375, y: 0.6298828}
    - {x: 0.26171875, y: 0.6298828}
    - {x: 0.26171875, y: 0.5908203}
    - {x: 0.18359375, y: 0.5908203}
    OrgVertices:
    - {x: -40, y: 40, z: 0}
    - {x: 40, y: 40, z: 0}
    - {x: 40, y: -40, z: 0}
    - {x: -40, y: -40, z: 0}
  ImportedTime: 719682035
  ImportedTimeHigh: -1999271361
