%YAML 1.1
%TAG !u! tag:unity3d.com,2011:
--- !u!114 &11400000
MonoBehaviour:
  m_ObjectHideFlags: 0
  m_PrefabParentObject: {fileID: 0}
  m_PrefabInternal: {fileID: 0}
  m_GameObject: {fileID: 0}
  m_Enabled: 1
  m_EditorHideFlags: 0
  m_Script: {fileID: 11500000, guid: 0ae895f3348548989f1b4caf6cca149f, type: 3}
  m_Name: obj_SSmoon_anim_ssa
  m_EditorClassIdentifier:
  OriginalPath: Assets/Resources/Atlas/SS_Map01/obj_SSmoon_anim.ssax
  UseScaleFactor: 0
  ScaleFactor: 1
  FPS: 30
  EndFrame: 60
  hvFlipForImageOnly: 1
  ImageList:
  - path: Assets/Resources/Atlas/SS_Map01/SS_Map01.png
    texture: {fileID: 2800000, guid: bc9a51c6428c8204c817775406391f67, type: 3}
    materials:
    - {fileID: 0}
    - {fileID: 0}
    - {fileID: 0}
    - {fileID: 0}
    - {fileID: 0}
    - {fileID: 2100000, guid: dd91cce9a5028504d83b734706fa5a80, type: 2}
    - {fileID: 0}
    - {fileID: 0}
    - {fileID: 0}
    - {fileID: 0}
    - {fileID: 0}
    - {fileID: 0}
    - {fileID: 0}
    - {fileID: 0}
    - {fileID: 0}
    - {fileID: 0}
    - {fileID: 0}
    - {fileID: 0}
    - {fileID: 0}
    - {fileID: 0}
    - {fileID: 0}
    - {fileID: 0}
    - {fileID: 0}
    - {fileID: 0}
    - {fileID: 0}
    - {fileID: 0}
    - {fileID: 0}
    - {fileID: 0}
    - {fileID: 0}
    - {fileID: 0}
    - {fileID: 0}
    - {fileID: 0}
    - {fileID: 0}
    - {fileID: 0}
    - {fileID: 0}
    - {fileID: 0}
    - {fileID: 0}
    - {fileID: 0}
    - {fileID: 0}
    - {fileID: 0}
    - {fileID: 0}
    - {fileID: 0}
    - {fileID: 0}
    - {fileID: 0}
    - {fileID: 0}
    - {fileID: 0}
    - {fileID: 0}
    - {fileID: 0}
    - {fileID: 0}
    - {fileID: 0}
    width: 2048
    height: 2048
    bpp: 0
  PartList:
  - AnimeRes: {fileID: 11400000}
    Name: root
    Type: 1
    PicArea:
      Left: 0
      Top: 0
      Right: 0
      Bottom: 0
    OriginX: 0
    OriginY: 0
    MyId: 0
    ParentId: -1
    ChildNum: 0
    SrcObjId: 0
    SrcObjType: 0
    AlphaBlendType: 0
    InheritState:
      Type: 0
      Values:
      - Use: 1
        Rate: 1
      - Use: 1
        Rate: 1
      - Use: 1
        Rate: 1
      - Use: 1
        Rate: 1
      - Use: 1
        Rate: 1
      - Use: 1
        Rate: 1
      - Use: 1
        Rate: 1
      - Use: 0
        Rate: 0
      - Use: 0
        Rate: 0
      - Use: 0
        Rate: 0
      - Use: 1
        Rate: 1
      - Use: 1
        Rate: 1
      - Use: 1
        Rate: 1
      - Use: 1
        Rate: 1
      - Use: 1
        Rate: 1
      - Use: 1
        Rate: 1
      - Use: 1
        Rate: 1
      - Use: 1
        Rate: 1
      - Use: 1
        Rate: 1
      - Use: 1
        Rate: 1
      - Use: 1
        Rate: 1
    PosXKeys: []
    PosYKeys: []
    AngleKeys: []
    ScaleXKeys: []
    ScaleYKeys: []
    TransKeys: []
    PrioKeys: []
    FlipHKeys: []
    FlipVKeys: []
    HideKeys:
    - Value: 0
      _Time: 0
      _ValueType: 1
      _Curve:
        Type: 0
        StartT: 0
        StartV: 0
        EndT: 0
        EndV: 0
    PartsColKeys: []
    PartsPalKeys: []
    VertexKeys: []
    UserKeys: []
    SoundKeys: []
    ImageOffsetXKeys: []
    ImageOffsetYKeys: []
    ImageOffsetWKeys: []
    ImageOffsetHKeys: []
    OriginOffsetXKeys: []
    OriginOffsetYKeys: []
    PosXValues: []
    PosYValues: []
    AngleValues: []
    ScaleXValues: []
    ScaleYValues: []
    TransValues: []
    PrioValues: []
    FlipHValues: []
    FlipVValues: []
    HideValues:
    - _RefKeyIndex: 0
      _Value: 0
    - _RefKeyIndex: 0
      _Value: 0
    - _RefKeyIndex: 0
      _Value: 0
    - _RefKeyIndex: 0
      _Value: 0
    - _RefKeyIndex: 0
      _Value: 0
    - _RefKeyIndex: 0
      _Value: 0
    - _RefKeyIndex: 0
      _Value: 0
    - _RefKeyIndex: 0
      _Value: 0
    - _RefKeyIndex: 0
      _Value: 0
    - _RefKeyIndex: 0
      _Value: 0
    - _RefKeyIndex: 0
      _Value: 0
    - _RefKeyIndex: 0
      _Value: 0
    - _RefKeyIndex: 0
      _Value: 0
    - _RefKeyIndex: 0
      _Value: 0
    - _RefKeyIndex: 0
      _Value: 0
    - _RefKeyIndex: 0
      _Value: 0
    - _RefKeyIndex: 0
      _Value: 0
    - _RefKeyIndex: 0
      _Value: 0
    - _RefKeyIndex: 0
      _Value: 0
    - _RefKeyIndex: 0
      _Value: 0
    - _RefKeyIndex: 0
      _Value: 0
    - _RefKeyIndex: 0
      _Value: 0
    - _RefKeyIndex: 0
      _Value: 0
    - _RefKeyIndex: 0
      _Value: 0
    - _RefKeyIndex: 0
      _Value: 0
    - _RefKeyIndex: 0
      _Value: 0
    - _RefKeyIndex: 0
      _Value: 0
    - _RefKeyIndex: 0
      _Value: 0
    - _RefKeyIndex: 0
      _Value: 0
    - _RefKeyIndex: 0
      _Value: 0
    - _RefKeyIndex: 0
      _Value: 0
    - _RefKeyIndex: 0
      _Value: 0
    - _RefKeyIndex: 0
      _Value: 0
    - _RefKeyIndex: 0
      _Value: 0
    - _RefKeyIndex: 0
      _Value: 0
    - _RefKeyIndex: 0
      _Value: 0
    - _RefKeyIndex: 0
      _Value: 0
    - _RefKeyIndex: 0
      _Value: 0
    - _RefKeyIndex: 0
      _Value: 0
    - _RefKeyIndex: 0
      _Value: 0
    - _RefKeyIndex: 0
      _Value: 0
    - _RefKeyIndex: 0
      _Value: 0
    - _RefKeyIndex: 0
      _Value: 0
    - _RefKeyIndex: 0
      _Value: 0
    - _RefKeyIndex: 0
      _Value: 0
    - _RefKeyIndex: 0
      _Value: 0
    - _RefKeyIndex: 0
      _Value: 0
    - _RefKeyIndex: 0
      _Value: 0
    - _RefKeyIndex: 0
      _Value: 0
    - _RefKeyIndex: 0
      _Value: 0
    - _RefKeyIndex: 0
      _Value: 0
    - _RefKeyIndex: 0
      _Value: 0
    - _RefKeyIndex: 0
      _Value: 0
    - _RefKeyIndex: 0
      _Value: 0
    - _RefKeyIndex: 0
      _Value: 0
    - _RefKeyIndex: 0
      _Value: 0
    - _RefKeyIndex: 0
      _Value: 0
    - _RefKeyIndex: 0
      _Value: 0
    - _RefKeyIndex: 0
      _Value: 0
    - _RefKeyIndex: 0
      _Value: 0
    - _RefKeyIndex: 0
      _Value: 0
    PartsColValues: []
    PartsPalValues: []
    VertexValues: []
    UserValues: []
    SoundValues: []
    ImageOffsetXValues: []
    ImageOffsetYValues: []
    ImageOffsetWValues: []
    ImageOffsetHValues: []
    OriginOffsetXValues: []
    OriginOffsetYValues: []
    _hasAttrFlags: 512
    HasTrancparency: 0
    FrameNum: 61
    imageFile:
      path:
      texture: {fileID: 0}
      materials: []
      width: 0
      height: 0
      bpp: 0
    UVs: []
    OrgVertices:
    - {x: -0, y: 0, z: 0}
    - {x: 0, y: 0, z: 0}
    - {x: 0, y: -0, z: 0}
    - {x: -0, y: -0, z: 0}
  - AnimeRes: {fileID: 11400000}
    Name: moon
    Type: 0
    PicArea:
      Left: 250
      Top: 1766
      Right: 442
      Bottom: 1966
    OriginX: 96
    OriginY: 100
    MyId: 1
    ParentId: 0
    ChildNum: 0
    SrcObjId: 0
    SrcObjType: 0
    AlphaBlendType: 1
    InheritState:
      Type: 0
      Values:
      - Use: 1
        Rate: 1
      - Use: 1
        Rate: 1
      - Use: 1
        Rate: 1
      - Use: 1
        Rate: 1
      - Use: 1
        Rate: 1
      - Use: 1
        Rate: 1
      - Use: 1
        Rate: 1
      - Use: 0
        Rate: 0
      - Use: 0
        Rate: 0
      - Use: 0
        Rate: 0
      - Use: 1
        Rate: 1
      - Use: 1
        Rate: 1
      - Use: 1
        Rate: 1
      - Use: 1
        Rate: 1
      - Use: 1
        Rate: 1
      - Use: 1
        Rate: 1
      - Use: 1
        Rate: 1
      - Use: 1
        Rate: 1
      - Use: 1
        Rate: 1
      - Use: 1
        Rate: 1
      - Use: 1
        Rate: 1
    PosXKeys:
    - Value: 146
      _Time: 0
      _ValueType: 0
      _Curve:
        Type: 1
        StartT: 0
        StartV: 0
        EndT: 0
        EndV: 0
    PosYKeys:
    - Value: 256
      _Time: 0
      _ValueType: 0
      _Curve:
        Type: 1
        StartT: 0
        StartV: 0
        EndT: 0
        EndV: 0
    AngleKeys:
    - Value: 0
      _Time: 0
      _ValueType: 0
      _Curve:
        Type: 1
        StartT: 0
        StartV: 0
        EndT: 0
        EndV: 0
    ScaleXKeys:
    - Value: 2.499
      _Time: 0
      _ValueType: 0
      _Curve:
        Type: 1
        StartT: 0
        StartV: 0
        EndT: 0
        EndV: 0
    ScaleYKeys:
    - Value: 2.499
      _Time: 0
      _ValueType: 0
      _Curve:
        Type: 1
        StartT: 0
        StartV: 0
        EndT: 0
        EndV: 0
    TransKeys:
    - Value: 0
      _Time: 0
      _ValueType: 0
      _Curve:
        Type: 1
        StartT: 0
        StartV: 0
        EndT: 0
        EndV: 0
    - Value: 1
      _Time: 30
      _ValueType: 0
      _Curve:
        Type: 1
        StartT: 0
        StartV: 0
        EndT: 0
        EndV: 0
    - Value: 0
      _Time: 60
      _ValueType: 0
      _Curve:
        Type: 1
        StartT: 0
        StartV: 0
        EndT: 0
        EndV: 0
    PrioKeys: []
    FlipHKeys: []
    FlipVKeys: []
    HideKeys:
    - Value: 0
      _Time: 0
      _ValueType: 1
      _Curve:
        Type: 0
        StartT: 0
        StartV: 0
        EndT: 0
        EndV: 0
    PartsColKeys: []
    PartsPalKeys: []
    VertexKeys: []
    UserKeys: []
    SoundKeys: []
    ImageOffsetXKeys: []
    ImageOffsetYKeys: []
    ImageOffsetWKeys: []
    ImageOffsetHKeys: []
    OriginOffsetXKeys: []
    OriginOffsetYKeys: []
    PosXValues:
    - _RefKeyIndex: 0
      _Value: 0
    PosYValues:
    - _RefKeyIndex: 0
      _Value: 0
    AngleValues:
    - _RefKeyIndex: 0
      _Value: 0
    ScaleXValues:
    - _RefKeyIndex: 0
      _Value: 0
    ScaleYValues:
    - _RefKeyIndex: 0
      _Value: 0
    TransValues:
    - _RefKeyIndex: -1
      _Value: 0
    - _RefKeyIndex: -1
      _Value: 0.033333335
    - _RefKeyIndex: -1
      _Value: 0.06666667
    - _RefKeyIndex: -1
      _Value: 0.1
    - _RefKeyIndex: -1
      _Value: 0.13333334
    - _RefKeyIndex: -1
      _Value: 0.16666667
    - _RefKeyIndex: -1
      _Value: 0.2
    - _RefKeyIndex: -1
      _Value: 0.23333333
    - _RefKeyIndex: -1
      _Value: 0.26666668
    - _RefKeyIndex: -1
      _Value: 0.3
    - _RefKeyIndex: -1
      _Value: 0.33333334
    - _RefKeyIndex: -1
      _Value: 0.36666667
    - _RefKeyIndex: -1
      _Value: 0.4
    - _RefKeyIndex: -1
      _Value: 0.43333334
    - _RefKeyIndex: -1
      _Value: 0.46666667
    - _RefKeyIndex: -1
      _Value: 0.5
    - _RefKeyIndex: -1
      _Value: 0.53333336
    - _RefKeyIndex: -1
      _Value: 0.56666666
    - _RefKeyIndex: -1
      _Value: 0.6
    - _RefKeyIndex: -1
      _Value: 0.6333333
    - _RefKeyIndex: -1
      _Value: 0.6666667
    - _RefKeyIndex: -1
      _Value: 0.7
    - _RefKeyIndex: -1
      _Value: 0.73333335
    - _RefKeyIndex: -1
      _Value: 0.76666665
    - _RefKeyIndex: -1
      _Value: 0.8
    - _RefKeyIndex: -1
      _Value: 0.8333333
    - _RefKeyIndex: -1
      _Value: 0.8666667
    - _RefKeyIndex: -1
      _Value: 0.9
    - _RefKeyIndex: -1
      _Value: 0.93333334
    - _RefKeyIndex: -1
      _Value: 0.96666664
    - _RefKeyIndex: -1
      _Value: 1
    - _RefKeyIndex: -1
      _Value: 0.96666664
    - _RefKeyIndex: -1
      _Value: 0.93333334
    - _RefKeyIndex: -1
      _Value: 0.9
    - _RefKeyIndex: -1
      _Value: 0.8666667
    - _RefKeyIndex: -1
      _Value: 0.8333333
    - _RefKeyIndex: -1
      _Value: 0.8
    - _RefKeyIndex: -1
      _Value: 0.76666665
    - _RefKeyIndex: -1
      _Value: 0.73333335
    - _RefKeyIndex: -1
      _Value: 0.7
    - _RefKeyIndex: -1
      _Value: 0.6666666
    - _RefKeyIndex: -1
      _Value: 0.6333333
    - _RefKeyIndex: -1
      _Value: 0.6
    - _RefKeyIndex: -1
      _Value: 0.56666666
    - _RefKeyIndex: -1
      _Value: 0.5333333
    - _RefKeyIndex: -1
      _Value: 0.5
    - _RefKeyIndex: -1
      _Value: 0.46666664
    - _RefKeyIndex: -1
      _Value: 0.43333334
    - _RefKeyIndex: -1
      _Value: 0.39999998
    - _RefKeyIndex: -1
      _Value: 0.36666667
    - _RefKeyIndex: -1
      _Value: 0.3333333
    - _RefKeyIndex: -1
      _Value: 0.3
    - _RefKeyIndex: -1
      _Value: 0.26666665
    - _RefKeyIndex: -1
      _Value: 0.23333335
    - _RefKeyIndex: -1
      _Value: 0.19999999
    - _RefKeyIndex: -1
      _Value: 0.16666669
    - _RefKeyIndex: -1
      _Value: 0.13333333
    - _RefKeyIndex: -1
      _Value: 0.100000024
    - _RefKeyIndex: -1
      _Value: 0.06666666
    - _RefKeyIndex: -1
      _Value: 0.03333336
    - _RefKeyIndex: 2
      _Value: 0
    PrioValues: []
    FlipHValues: []
    FlipVValues: []
    HideValues:
    - _RefKeyIndex: 0
      _Value: 0
    - _RefKeyIndex: 0
      _Value: 0
    - _RefKeyIndex: 0
      _Value: 0
    - _RefKeyIndex: 0
      _Value: 0
    - _RefKeyIndex: 0
      _Value: 0
    - _RefKeyIndex: 0
      _Value: 0
    - _RefKeyIndex: 0
      _Value: 0
    - _RefKeyIndex: 0
      _Value: 0
    - _RefKeyIndex: 0
      _Value: 0
    - _RefKeyIndex: 0
      _Value: 0
    - _RefKeyIndex: 0
      _Value: 0
    - _RefKeyIndex: 0
      _Value: 0
    - _RefKeyIndex: 0
      _Value: 0
    - _RefKeyIndex: 0
      _Value: 0
    - _RefKeyIndex: 0
      _Value: 0
    - _RefKeyIndex: 0
      _Value: 0
    - _RefKeyIndex: 0
      _Value: 0
    - _RefKeyIndex: 0
      _Value: 0
    - _RefKeyIndex: 0
      _Value: 0
    - _RefKeyIndex: 0
      _Value: 0
    - _RefKeyIndex: 0
      _Value: 0
    - _RefKeyIndex: 0
      _Value: 0
    - _RefKeyIndex: 0
      _Value: 0
    - _RefKeyIndex: 0
      _Value: 0
    - _RefKeyIndex: 0
      _Value: 0
    - _RefKeyIndex: 0
      _Value: 0
    - _RefKeyIndex: 0
      _Value: 0
    - _RefKeyIndex: 0
      _Value: 0
    - _RefKeyIndex: 0
      _Value: 0
    - _RefKeyIndex: 0
      _Value: 0
    - _RefKeyIndex: 0
      _Value: 0
    - _RefKeyIndex: 0
      _Value: 0
    - _RefKeyIndex: 0
      _Value: 0
    - _RefKeyIndex: 0
      _Value: 0
    - _RefKeyIndex: 0
      _Value: 0
    - _RefKeyIndex: 0
      _Value: 0
    - _RefKeyIndex: 0
      _Value: 0
    - _RefKeyIndex: 0
      _Value: 0
    - _RefKeyIndex: 0
      _Value: 0
    - _RefKeyIndex: 0
      _Value: 0
    - _RefKeyIndex: 0
      _Value: 0
    - _RefKeyIndex: 0
      _Value: 0
    - _RefKeyIndex: 0
      _Value: 0
    - _RefKeyIndex: 0
      _Value: 0
    - _RefKeyIndex: 0
      _Value: 0
    - _RefKeyIndex: 0
      _Value: 0
    - _RefKeyIndex: 0
      _Value: 0
    - _RefKeyIndex: 0
      _Value: 0
    - _RefKeyIndex: 0
      _Value: 0
    - _RefKeyIndex: 0
      _Value: 0
    - _RefKeyIndex: 0
      _Value: 0
    - _RefKeyIndex: 0
      _Value: 0
    - _RefKeyIndex: 0
      _Value: 0
    - _RefKeyIndex: 0
      _Value: 0
    - _RefKeyIndex: 0
      _Value: 0
    - _RefKeyIndex: 0
      _Value: 0
    - _RefKeyIndex: 0
      _Value: 0
    - _RefKeyIndex: 0
      _Value: 0
    - _RefKeyIndex: 0
      _Value: 0
    - _RefKeyIndex: 0
      _Value: 0
    - _RefKeyIndex: 0
      _Value: 0
    PartsColValues: []
    PartsPalValues: []
    VertexValues: []
    UserValues: []
    SoundValues: []
    ImageOffsetXValues: []
    ImageOffsetYValues: []
    ImageOffsetWValues: []
    ImageOffsetHValues: []
    OriginOffsetXValues: []
    OriginOffsetYValues: []
    _hasAttrFlags: 575
    HasTrancparency: 1
    FrameNum: 61
    imageFile:
      path: Assets/Resources/Atlas/SS_Map01/SS_Map01.png
      texture: {fileID: 2800000, guid: bc9a51c6428c8204c817775406391f67, type: 3}
      materials:
      - {fileID: 0}
      - {fileID: 0}
      - {fileID: 0}
      - {fileID: 0}
      - {fileID: 0}
      - {fileID: 2100000, guid: dd91cce9a5028504d83b734706fa5a80, type: 2}
      - {fileID: 0}
      - {fileID: 0}
      - {fileID: 0}
      - {fileID: 0}
      - {fileID: 0}
      - {fileID: 0}
      - {fileID: 0}
      - {fileID: 0}
      - {fileID: 0}
      - {fileID: 0}
      - {fileID: 0}
      - {fileID: 0}
      - {fileID: 0}
      - {fileID: 0}
      - {fileID: 0}
      - {fileID: 0}
      - {fileID: 0}
      - {fileID: 0}
      - {fileID: 0}
      - {fileID: 0}
      - {fileID: 0}
      - {fileID: 0}
      - {fileID: 0}
      - {fileID: 0}
      - {fileID: 0}
      - {fileID: 0}
      - {fileID: 0}
      - {fileID: 0}
      - {fileID: 0}
      - {fileID: 0}
      - {fileID: 0}
      - {fileID: 0}
      - {fileID: 0}
      - {fileID: 0}
      - {fileID: 0}
      - {fileID: 0}
      - {fileID: 0}
      - {fileID: 0}
      - {fileID: 0}
      - {fileID: 0}
      - {fileID: 0}
      - {fileID: 0}
      - {fileID: 0}
      - {fileID: 0}
      width: 2048
      height: 2048
      bpp: 0
    UVs:
    - {x: 0.12207031, y: 0.13769531}
    - {x: 0.21582031, y: 0.13769531}
    - {x: 0.21582031, y: 0.040039062}
    - {x: 0.12207031, y: 0.040039062}
    OrgVertices:
    - {x: -96, y: 100, z: 0}
    - {x: 96, y: 100, z: 0}
    - {x: 96, y: -100, z: 0}
    - {x: -96, y: -100, z: 0}
  - AnimeRes: {fileID: 11400000}
    Name: ef00
    Type: 0
    PicArea:
      Left: 1296
      Top: 1766
      Right: 1444
      Bottom: 1914
    OriginX: 74
    OriginY: 74
    MyId: 2
    ParentId: 0
    ChildNum: 0
    SrcObjId: 0
    SrcObjType: 0
    AlphaBlendType: 1
    InheritState:
      Type: 0
      Values:
      - Use: 1
        Rate: 1
      - Use: 1
        Rate: 1
      - Use: 1
        Rate: 1
      - Use: 1
        Rate: 1
      - Use: 1
        Rate: 1
      - Use: 1
        Rate: 1
      - Use: 1
        Rate: 1
      - Use: 0
        Rate: 0
      - Use: 0
        Rate: 0
      - Use: 0
        Rate: 0
      - Use: 1
        Rate: 1
      - Use: 1
        Rate: 1
      - Use: 1
        Rate: 1
      - Use: 1
        Rate: 1
      - Use: 1
        Rate: 1
      - Use: 1
        Rate: 1
      - Use: 1
        Rate: 1
      - Use: 1
        Rate: 1
      - Use: 1
        Rate: 1
      - Use: 1
        Rate: 1
      - Use: 1
        Rate: 1
    PosXKeys:
    - Value: -285
      _Time: 0
      _ValueType: 0
      _Curve:
        Type: 1
        StartT: 0
        StartV: 0
        EndT: 0
        EndV: 0
    - Value: -285
      _Time: 10
      _ValueType: 0
      _Curve:
        Type: 1
        StartT: 0
        StartV: 0
        EndT: 0
        EndV: 0
    - Value: -285
      _Time: 20
      _ValueType: 0
      _Curve:
        Type: 1
        StartT: 0
        StartV: 0
        EndT: 0
        EndV: 0
    - Value: -50
      _Time: 31
      _ValueType: 0
      _Curve:
        Type: 1
        StartT: 0
        StartV: 0
        EndT: 0
        EndV: 0
    - Value: -50
      _Time: 41
      _ValueType: 0
      _Curve:
        Type: 1
        StartT: 0
        StartV: 0
        EndT: 0
        EndV: 0
    - Value: -50
      _Time: 51
      _ValueType: 0
      _Curve:
        Type: 1
        StartT: 0
        StartV: 0
        EndT: 0
        EndV: 0
    PosYKeys:
    - Value: -99
      _Time: 0
      _ValueType: 0
      _Curve:
        Type: 1
        StartT: 0
        StartV: 0
        EndT: 0
        EndV: 0
    - Value: -99
      _Time: 10
      _ValueType: 0
      _Curve:
        Type: 1
        StartT: 0
        StartV: 0
        EndT: 0
        EndV: 0
    - Value: -99
      _Time: 20
      _ValueType: 0
      _Curve:
        Type: 1
        StartT: 0
        StartV: 0
        EndT: 0
        EndV: 0
    - Value: -132
      _Time: 31
      _ValueType: 0
      _Curve:
        Type: 1
        StartT: 0
        StartV: 0
        EndT: 0
        EndV: 0
    - Value: -132
      _Time: 41
      _ValueType: 0
      _Curve:
        Type: 1
        StartT: 0
        StartV: 0
        EndT: 0
        EndV: 0
    - Value: -132
      _Time: 51
      _ValueType: 0
      _Curve:
        Type: 1
        StartT: 0
        StartV: 0
        EndT: 0
        EndV: 0
    AngleKeys: []
    ScaleXKeys:
    - Value: 0.9
      _Time: 0
      _ValueType: 0
      _Curve:
        Type: 1
        StartT: 0
        StartV: 0
        EndT: 0
        EndV: 0
    - Value: 0.9
      _Time: 30
      _ValueType: 0
      _Curve:
        Type: 1
        StartT: 0
        StartV: 0
        EndT: 0
        EndV: 0
    - Value: 0.6
      _Time: 31
      _ValueType: 0
      _Curve:
        Type: 1
        StartT: 0
        StartV: 0
        EndT: 0
        EndV: 0
    - Value: 0.6
      _Time: 51
      _ValueType: 0
      _Curve:
        Type: 1
        StartT: 0
        StartV: 0
        EndT: 0
        EndV: 0
    ScaleYKeys:
    - Value: 0.9
      _Time: 0
      _ValueType: 0
      _Curve:
        Type: 1
        StartT: 0
        StartV: 0
        EndT: 0
        EndV: 0
    - Value: 0.9
      _Time: 30
      _ValueType: 0
      _Curve:
        Type: 1
        StartT: 0
        StartV: 0
        EndT: 0
        EndV: 0
    - Value: 0.6
      _Time: 31
      _ValueType: 0
      _Curve:
        Type: 1
        StartT: 0
        StartV: 0
        EndT: 0
        EndV: 0
    - Value: 0.6
      _Time: 51
      _ValueType: 0
      _Curve:
        Type: 1
        StartT: 0
        StartV: 0
        EndT: 0
        EndV: 0
    TransKeys:
    - Value: 0
      _Time: 0
      _ValueType: 0
      _Curve:
        Type: 1
        StartT: 0
        StartV: 0
        EndT: 0
        EndV: 0
    - Value: 1
      _Time: 10
      _ValueType: 0
      _Curve:
        Type: 1
        StartT: 0
        StartV: 0
        EndT: 0
        EndV: 0
    - Value: 0
      _Time: 20
      _ValueType: 0
      _Curve:
        Type: 1
        StartT: 0
        StartV: 0
        EndT: 0
        EndV: 0
    - Value: 0
      _Time: 30
      _ValueType: 0
      _Curve:
        Type: 1
        StartT: 0
        StartV: 0
        EndT: 0
        EndV: 0
    - Value: 0
      _Time: 31
      _ValueType: 0
      _Curve:
        Type: 1
        StartT: 0
        StartV: 0
        EndT: 0
        EndV: 0
    - Value: 1
      _Time: 41
      _ValueType: 0
      _Curve:
        Type: 1
        StartT: 0
        StartV: 0
        EndT: 0
        EndV: 0
    - Value: 0
      _Time: 51
      _ValueType: 0
      _Curve:
        Type: 1
        StartT: 0
        StartV: 0
        EndT: 0
        EndV: 0
    PrioKeys: []
    FlipHKeys: []
    FlipVKeys: []
    HideKeys:
    - Value: 0
      _Time: 0
      _ValueType: 1
      _Curve:
        Type: 0
        StartT: 0
        StartV: 0
        EndT: 0
        EndV: 0
    - Value: 0
      _Time: 31
      _ValueType: 1
      _Curve:
        Type: 0
        StartT: 0
        StartV: 0
        EndT: 0
        EndV: 0
    - Value: 0
      _Time: 51
      _ValueType: 1
      _Curve:
        Type: 0
        StartT: 0
        StartV: 0
        EndT: 0
        EndV: 0
    PartsColKeys: []
    PartsPalKeys: []
    VertexKeys: []
    UserKeys: []
    SoundKeys: []
    ImageOffsetXKeys: []
    ImageOffsetYKeys: []
    ImageOffsetWKeys: []
    ImageOffsetHKeys: []
    OriginOffsetXKeys: []
    OriginOffsetYKeys: []
    PosXValues:
    - _RefKeyIndex: -1
      _Value: -285
    - _RefKeyIndex: -1
      _Value: -285
    - _RefKeyIndex: -1
      _Value: -285
    - _RefKeyIndex: -1
      _Value: -285
    - _RefKeyIndex: -1
      _Value: -285
    - _RefKeyIndex: -1
      _Value: -285
    - _RefKeyIndex: -1
      _Value: -285
    - _RefKeyIndex: -1
      _Value: -285
    - _RefKeyIndex: -1
      _Value: -285
    - _RefKeyIndex: -1
      _Value: -285
    - _RefKeyIndex: -1
      _Value: -285
    - _RefKeyIndex: -1
      _Value: -285
    - _RefKeyIndex: -1
      _Value: -285
    - _RefKeyIndex: -1
      _Value: -285
    - _RefKeyIndex: -1
      _Value: -285
    - _RefKeyIndex: -1
      _Value: -285
    - _RefKeyIndex: -1
      _Value: -285
    - _RefKeyIndex: -1
      _Value: -285
    - _RefKeyIndex: -1
      _Value: -285
    - _RefKeyIndex: -1
      _Value: -285
    - _RefKeyIndex: -1
      _Value: -285
    - _RefKeyIndex: -1
      _Value: -263.63635
    - _RefKeyIndex: -1
      _Value: -242.27272
    - _RefKeyIndex: -1
      _Value: -220.90909
    - _RefKeyIndex: -1
      _Value: -199.54546
    - _RefKeyIndex: -1
      _Value: -178.18181
    - _RefKeyIndex: -1
      _Value: -156.81818
    - _RefKeyIndex: -1
      _Value: -135.45454
    - _RefKeyIndex: -1
      _Value: -114.090904
    - _RefKeyIndex: -1
      _Value: -92.72727
    - _RefKeyIndex: -1
      _Value: -71.36363
    - _RefKeyIndex: -1
      _Value: -50
    - _RefKeyIndex: -1
      _Value: -50
    - _RefKeyIndex: -1
      _Value: -50
    - _RefKeyIndex: -1
      _Value: -50
    - _RefKeyIndex: -1
      _Value: -50
    - _RefKeyIndex: -1
      _Value: -50
    - _RefKeyIndex: -1
      _Value: -50
    - _RefKeyIndex: -1
      _Value: -50
    - _RefKeyIndex: -1
      _Value: -50
    - _RefKeyIndex: -1
      _Value: -50
    - _RefKeyIndex: -1
      _Value: -50
    - _RefKeyIndex: -1
      _Value: -50
    - _RefKeyIndex: -1
      _Value: -50
    - _RefKeyIndex: -1
      _Value: -50
    - _RefKeyIndex: -1
      _Value: -50
    - _RefKeyIndex: -1
      _Value: -50
    - _RefKeyIndex: -1
      _Value: -50
    - _RefKeyIndex: -1
      _Value: -50
    - _RefKeyIndex: -1
      _Value: -50
    - _RefKeyIndex: -1
      _Value: -50
    - _RefKeyIndex: 5
      _Value: 0
    - _RefKeyIndex: 5
      _Value: 0
    - _RefKeyIndex: 5
      _Value: 0
    - _RefKeyIndex: 5
      _Value: 0
    - _RefKeyIndex: 5
      _Value: 0
    - _RefKeyIndex: 5
      _Value: 0
    - _RefKeyIndex: 5
      _Value: 0
    - _RefKeyIndex: 5
      _Value: 0
    - _RefKeyIndex: 5
      _Value: 0
    - _RefKeyIndex: 5
      _Value: 0
    PosYValues:
    - _RefKeyIndex: -1
      _Value: -99
    - _RefKeyIndex: -1
      _Value: -99
    - _RefKeyIndex: -1
      _Value: -99
    - _RefKeyIndex: -1
      _Value: -99
    - _RefKeyIndex: -1
      _Value: -99
    - _RefKeyIndex: -1
      _Value: -99
    - _RefKeyIndex: -1
      _Value: -99
    - _RefKeyIndex: -1
      _Value: -99
    - _RefKeyIndex: -1
      _Value: -99
    - _RefKeyIndex: -1
      _Value: -99
    - _RefKeyIndex: -1
      _Value: -99
    - _RefKeyIndex: -1
      _Value: -99
    - _RefKeyIndex: -1
      _Value: -99
    - _RefKeyIndex: -1
      _Value: -99
    - _RefKeyIndex: -1
      _Value: -99
    - _RefKeyIndex: -1
      _Value: -99
    - _RefKeyIndex: -1
      _Value: -99
    - _RefKeyIndex: -1
      _Value: -99
    - _RefKeyIndex: -1
      _Value: -99
    - _RefKeyIndex: -1
      _Value: -99
    - _RefKeyIndex: -1
      _Value: -99
    - _RefKeyIndex: -1
      _Value: -102
    - _RefKeyIndex: -1
      _Value: -105
    - _RefKeyIndex: -1
      _Value: -108
    - _RefKeyIndex: -1
      _Value: -111
    - _RefKeyIndex: -1
      _Value: -114
    - _RefKeyIndex: -1
      _Value: -117
    - _RefKeyIndex: -1
      _Value: -120
    - _RefKeyIndex: -1
      _Value: -123
    - _RefKeyIndex: -1
      _Value: -126
    - _RefKeyIndex: -1
      _Value: -129
    - _RefKeyIndex: -1
      _Value: -132
    - _RefKeyIndex: -1
      _Value: -132
    - _RefKeyIndex: -1
      _Value: -132
    - _RefKeyIndex: -1
      _Value: -132
    - _RefKeyIndex: -1
      _Value: -132
    - _RefKeyIndex: -1
      _Value: -132
    - _RefKeyIndex: -1
      _Value: -132
    - _RefKeyIndex: -1
      _Value: -132
    - _RefKeyIndex: -1
      _Value: -132
    - _RefKeyIndex: -1
      _Value: -132
    - _RefKeyIndex: -1
      _Value: -132
    - _RefKeyIndex: -1
      _Value: -132
    - _RefKeyIndex: -1
      _Value: -132
    - _RefKeyIndex: -1
      _Value: -132
    - _RefKeyIndex: -1
      _Value: -132
    - _RefKeyIndex: -1
      _Value: -132
    - _RefKeyIndex: -1
      _Value: -132
    - _RefKeyIndex: -1
      _Value: -132
    - _RefKeyIndex: -1
      _Value: -132
    - _RefKeyIndex: -1
      _Value: -132
    - _RefKeyIndex: 5
      _Value: 0
    - _RefKeyIndex: 5
      _Value: 0
    - _RefKeyIndex: 5
      _Value: 0
    - _RefKeyIndex: 5
      _Value: 0
    - _RefKeyIndex: 5
      _Value: 0
    - _RefKeyIndex: 5
      _Value: 0
    - _RefKeyIndex: 5
      _Value: 0
    - _RefKeyIndex: 5
      _Value: 0
    - _RefKeyIndex: 5
      _Value: 0
    - _RefKeyIndex: 5
      _Value: 0
    AngleValues: []
    ScaleXValues:
    - _RefKeyIndex: -1
      _Value: 0.9
    - _RefKeyIndex: -1
      _Value: 0.9
    - _RefKeyIndex: -1
      _Value: 0.9
    - _RefKeyIndex: -1
      _Value: 0.9
    - _RefKeyIndex: -1
      _Value: 0.9
    - _RefKeyIndex: -1
      _Value: 0.9
    - _RefKeyIndex: -1
      _Value: 0.9
    - _RefKeyIndex: -1
      _Value: 0.9
    - _RefKeyIndex: -1
      _Value: 0.9
    - _RefKeyIndex: -1
      _Value: 0.9
    - _RefKeyIndex: -1
      _Value: 0.9
    - _RefKeyIndex: -1
      _Value: 0.9
    - _RefKeyIndex: -1
      _Value: 0.9
    - _RefKeyIndex: -1
      _Value: 0.9
    - _RefKeyIndex: -1
      _Value: 0.9
    - _RefKeyIndex: -1
      _Value: 0.9
    - _RefKeyIndex: -1
      _Value: 0.9
    - _RefKeyIndex: -1
      _Value: 0.9
    - _RefKeyIndex: -1
      _Value: 0.9
    - _RefKeyIndex: -1
      _Value: 0.9
    - _RefKeyIndex: -1
      _Value: 0.9
    - _RefKeyIndex: -1
      _Value: 0.9
    - _RefKeyIndex: -1
      _Value: 0.9
    - _RefKeyIndex: -1
      _Value: 0.9
    - _RefKeyIndex: -1
      _Value: 0.9
    - _RefKeyIndex: -1
      _Value: 0.9
    - _RefKeyIndex: -1
      _Value: 0.9
    - _RefKeyIndex: -1
      _Value: 0.9
    - _RefKeyIndex: -1
      _Value: 0.9
    - _RefKeyIndex: -1
      _Value: 0.9
    - _RefKeyIndex: -1
      _Value: 0.9
    - _RefKeyIndex: -1
      _Value: 0.6
    - _RefKeyIndex: -1
      _Value: 0.6
    - _RefKeyIndex: -1
      _Value: 0.6
    - _RefKeyIndex: -1
      _Value: 0.6
    - _RefKeyIndex: -1
      _Value: 0.6
    - _RefKeyIndex: -1
      _Value: 0.6
    - _RefKeyIndex: -1
      _Value: 0.6
    - _RefKeyIndex: -1
      _Value: 0.6
    - _RefKeyIndex: -1
      _Value: 0.6
    - _RefKeyIndex: -1
      _Value: 0.6
    - _RefKeyIndex: -1
      _Value: 0.6
    - _RefKeyIndex: -1
      _Value: 0.6
    - _RefKeyIndex: -1
      _Value: 0.6
    - _RefKeyIndex: -1
      _Value: 0.6
    - _RefKeyIndex: -1
      _Value: 0.6
    - _RefKeyIndex: -1
      _Value: 0.6
    - _RefKeyIndex: -1
      _Value: 0.6
    - _RefKeyIndex: -1
      _Value: 0.6
    - _RefKeyIndex: -1
      _Value: 0.6
    - _RefKeyIndex: -1
      _Value: 0.6
    - _RefKeyIndex: 3
      _Value: 0
    - _RefKeyIndex: 3
      _Value: 0
    - _RefKeyIndex: 3
      _Value: 0
    - _RefKeyIndex: 3
      _Value: 0
    - _RefKeyIndex: 3
      _Value: 0
    - _RefKeyIndex: 3
      _Value: 0
    - _RefKeyIndex: 3
      _Value: 0
    - _RefKeyIndex: 3
      _Value: 0
    - _RefKeyIndex: 3
      _Value: 0
    - _RefKeyIndex: 3
      _Value: 0
    ScaleYValues:
    - _RefKeyIndex: -1
      _Value: 0.9
    - _RefKeyIndex: -1
      _Value: 0.9
    - _RefKeyIndex: -1
      _Value: 0.9
    - _RefKeyIndex: -1
      _Value: 0.9
    - _RefKeyIndex: -1
      _Value: 0.9
    - _RefKeyIndex: -1
      _Value: 0.9
    - _RefKeyIndex: -1
      _Value: 0.9
    - _RefKeyIndex: -1
      _Value: 0.9
    - _RefKeyIndex: -1
      _Value: 0.9
    - _RefKeyIndex: -1
      _Value: 0.9
    - _RefKeyIndex: -1
      _Value: 0.9
    - _RefKeyIndex: -1
      _Value: 0.9
    - _RefKeyIndex: -1
      _Value: 0.9
    - _RefKeyIndex: -1
      _Value: 0.9
    - _RefKeyIndex: -1
      _Value: 0.9
    - _RefKeyIndex: -1
      _Value: 0.9
    - _RefKeyIndex: -1
      _Value: 0.9
    - _RefKeyIndex: -1
      _Value: 0.9
    - _RefKeyIndex: -1
      _Value: 0.9
    - _RefKeyIndex: -1
      _Value: 0.9
    - _RefKeyIndex: -1
      _Value: 0.9
    - _RefKeyIndex: -1
      _Value: 0.9
    - _RefKeyIndex: -1
      _Value: 0.9
    - _RefKeyIndex: -1
      _Value: 0.9
    - _RefKeyIndex: -1
      _Value: 0.9
    - _RefKeyIndex: -1
      _Value: 0.9
    - _RefKeyIndex: -1
      _Value: 0.9
    - _RefKeyIndex: -1
      _Value: 0.9
    - _RefKeyIndex: -1
      _Value: 0.9
    - _RefKeyIndex: -1
      _Value: 0.9
    - _RefKeyIndex: -1
      _Value: 0.9
    - _RefKeyIndex: -1
      _Value: 0.6
    - _RefKeyIndex: -1
      _Value: 0.6
    - _RefKeyIndex: -1
      _Value: 0.6
    - _RefKeyIndex: -1
      _Value: 0.6
    - _RefKeyIndex: -1
      _Value: 0.6
    - _RefKeyIndex: -1
      _Value: 0.6
    - _RefKeyIndex: -1
      _Value: 0.6
    - _RefKeyIndex: -1
      _Value: 0.6
    - _RefKeyIndex: -1
      _Value: 0.6
    - _RefKeyIndex: -1
      _Value: 0.6
    - _RefKeyIndex: -1
      _Value: 0.6
    - _RefKeyIndex: -1
      _Value: 0.6
    - _RefKeyIndex: -1
      _Value: 0.6
    - _RefKeyIndex: -1
      _Value: 0.6
    - _RefKeyIndex: -1
      _Value: 0.6
    - _RefKeyIndex: -1
      _Value: 0.6
    - _RefKeyIndex: -1
      _Value: 0.6
    - _RefKeyIndex: -1
      _Value: 0.6
    - _RefKeyIndex: -1
      _Value: 0.6
    - _RefKeyIndex: -1
      _Value: 0.6
    - _RefKeyIndex: 3
      _Value: 0
    - _RefKeyIndex: 3
      _Value: 0
    - _RefKeyIndex: 3
      _Value: 0
    - _RefKeyIndex: 3
      _Value: 0
    - _RefKeyIndex: 3
      _Value: 0
    - _RefKeyIndex: 3
      _Value: 0
    - _RefKeyIndex: 3
      _Value: 0
    - _RefKeyIndex: 3
      _Value: 0
    - _RefKeyIndex: 3
      _Value: 0
    - _RefKeyIndex: 3
      _Value: 0
    TransValues:
    - _RefKeyIndex: -1
      _Value: 0
    - _RefKeyIndex: -1
      _Value: 0.1
    - _RefKeyIndex: -1
      _Value: 0.2
    - _RefKeyIndex: -1
      _Value: 0.3
    - _RefKeyIndex: -1
      _Value: 0.4
    - _RefKeyIndex: -1
      _Value: 0.5
    - _RefKeyIndex: -1
      _Value: 0.6
    - _RefKeyIndex: -1
      _Value: 0.7
    - _RefKeyIndex: -1
      _Value: 0.8
    - _RefKeyIndex: -1
      _Value: 0.9
    - _RefKeyIndex: -1
      _Value: 1
    - _RefKeyIndex: -1
      _Value: 0.9
    - _RefKeyIndex: -1
      _Value: 0.8
    - _RefKeyIndex: -1
      _Value: 0.7
    - _RefKeyIndex: -1
      _Value: 0.6
    - _RefKeyIndex: -1
      _Value: 0.5
    - _RefKeyIndex: -1
      _Value: 0.39999998
    - _RefKeyIndex: -1
      _Value: 0.3
    - _RefKeyIndex: -1
      _Value: 0.19999999
    - _RefKeyIndex: -1
      _Value: 0.100000024
    - _RefKeyIndex: -1
      _Value: 0
    - _RefKeyIndex: -1
      _Value: 0
    - _RefKeyIndex: -1
      _Value: 0
    - _RefKeyIndex: -1
      _Value: 0
    - _RefKeyIndex: -1
      _Value: 0
    - _RefKeyIndex: -1
      _Value: 0
    - _RefKeyIndex: -1
      _Value: 0
    - _RefKeyIndex: -1
      _Value: 0
    - _RefKeyIndex: -1
      _Value: 0
    - _RefKeyIndex: -1
      _Value: 0
    - _RefKeyIndex: -1
      _Value: 0
    - _RefKeyIndex: -1
      _Value: 0
    - _RefKeyIndex: -1
      _Value: 0.1
    - _RefKeyIndex: -1
      _Value: 0.2
    - _RefKeyIndex: -1
      _Value: 0.3
    - _RefKeyIndex: -1
      _Value: 0.4
    - _RefKeyIndex: -1
      _Value: 0.5
    - _RefKeyIndex: -1
      _Value: 0.6
    - _RefKeyIndex: -1
      _Value: 0.7
    - _RefKeyIndex: -1
      _Value: 0.8
    - _RefKeyIndex: -1
      _Value: 0.9
    - _RefKeyIndex: -1
      _Value: 1
    - _RefKeyIndex: -1
      _Value: 0.9
    - _RefKeyIndex: -1
      _Value: 0.8
    - _RefKeyIndex: -1
      _Value: 0.7
    - _RefKeyIndex: -1
      _Value: 0.6
    - _RefKeyIndex: -1
      _Value: 0.5
    - _RefKeyIndex: -1
      _Value: 0.39999998
    - _RefKeyIndex: -1
      _Value: 0.3
    - _RefKeyIndex: -1
      _Value: 0.19999999
    - _RefKeyIndex: -1
      _Value: 0.100000024
    - _RefKeyIndex: 6
      _Value: 0
    - _RefKeyIndex: 6
      _Value: 0
    - _RefKeyIndex: 6
      _Value: 0
    - _RefKeyIndex: 6
      _Value: 0
    - _RefKeyIndex: 6
      _Value: 0
    - _RefKeyIndex: 6
      _Value: 0
    - _RefKeyIndex: 6
      _Value: 0
    - _RefKeyIndex: 6
      _Value: 0
    - _RefKeyIndex: 6
      _Value: 0
    - _RefKeyIndex: 6
      _Value: 0
    PrioValues: []
    FlipHValues: []
    FlipVValues: []
    HideValues:
    - _RefKeyIndex: 0
      _Value: 0
    PartsColValues: []
    PartsPalValues: []
    VertexValues: []
    UserValues: []
    SoundValues: []
    ImageOffsetXValues: []
    ImageOffsetYValues: []
    ImageOffsetWValues: []
    ImageOffsetHValues: []
    OriginOffsetXValues: []
    OriginOffsetYValues: []
    _hasAttrFlags: 571
    HasTrancparency: 1
    FrameNum: 61
    imageFile:
      path: Assets/Resources/Atlas/SS_Map01/SS_Map01.png
      texture: {fileID: 2800000, guid: bc9a51c6428c8204c817775406391f67, type: 3}
      materials:
      - {fileID: 0}
      - {fileID: 0}
      - {fileID: 0}
      - {fileID: 0}
      - {fileID: 0}
      - {fileID: 2100000, guid: dd91cce9a5028504d83b734706fa5a80, type: 2}
      - {fileID: 0}
      - {fileID: 0}
      - {fileID: 0}
      - {fileID: 0}
      - {fileID: 0}
      - {fileID: 0}
      - {fileID: 0}
      - {fileID: 0}
      - {fileID: 0}
      - {fileID: 0}
      - {fileID: 0}
      - {fileID: 0}
      - {fileID: 0}
      - {fileID: 0}
      - {fileID: 0}
      - {fileID: 0}
      - {fileID: 0}
      - {fileID: 0}
      - {fileID: 0}
      - {fileID: 0}
      - {fileID: 0}
      - {fileID: 0}
      - {fileID: 0}
      - {fileID: 0}
      - {fileID: 0}
      - {fileID: 0}
      - {fileID: 0}
      - {fileID: 0}
      - {fileID: 0}
      - {fileID: 0}
      - {fileID: 0}
      - {fileID: 0}
      - {fileID: 0}
      - {fileID: 0}
      - {fileID: 0}
      - {fileID: 0}
      - {fileID: 0}
      - {fileID: 0}
      - {fileID: 0}
      - {fileID: 0}
      - {fileID: 0}
      - {fileID: 0}
      - {fileID: 0}
      - {fileID: 0}
      width: 2048
      height: 2048
      bpp: 0
    UVs:
    - {x: 0.6328125, y: 0.13769531}
    - {x: 0.7050781, y: 0.13769531}
    - {x: 0.7050781, y: 0.06542969}
    - {x: 0.6328125, y: 0.06542969}
    OrgVertices:
    - {x: -74, y: 74, z: 0}
    - {x: 74, y: 74, z: 0}
    - {x: 74, y: -74, z: 0}
    - {x: -74, y: -74, z: 0}
  - AnimeRes: {fileID: 11400000}
    Name: ef01
    Type: 0
    PicArea:
      Left: 1296
      Top: 1766
      Right: 1444
      Bottom: 1914
    OriginX: 74
    OriginY: 74
    MyId: 3
    ParentId: 0
    ChildNum: 0
    SrcObjId: 0
    SrcObjType: 0
    AlphaBlendType: 1
    InheritState:
      Type: 0
      Values:
      - Use: 1
        Rate: 1
      - Use: 1
        Rate: 1
      - Use: 1
        Rate: 1
      - Use: 1
        Rate: 1
      - Use: 1
        Rate: 1
      - Use: 1
        Rate: 1
      - Use: 1
        Rate: 1
      - Use: 0
        Rate: 0
      - Use: 0
        Rate: 0
      - Use: 0
        Rate: 0
      - Use: 1
        Rate: 1
      - Use: 1
        Rate: 1
      - Use: 1
        Rate: 1
      - Use: 1
        Rate: 1
      - Use: 1
        Rate: 1
      - Use: 1
        Rate: 1
      - Use: 1
        Rate: 1
      - Use: 1
        Rate: 1
      - Use: 1
        Rate: 1
      - Use: 1
        Rate: 1
      - Use: 1
        Rate: 1
    PosXKeys:
    - Value: -100
      _Time: 9
      _ValueType: 0
      _Curve:
        Type: 1
        StartT: 0
        StartV: 0
        EndT: 0
        EndV: 0
    - Value: -100
      _Time: 29
      _ValueType: 0
      _Curve:
        Type: 1
        StartT: 0
        StartV: 0
        EndT: 0
        EndV: 0
    - Value: 108
      _Time: 40
      _ValueType: 0
      _Curve:
        Type: 1
        StartT: 0
        StartV: 0
        EndT: 0
        EndV: 0
    - Value: 108
      _Time: 60
      _ValueType: 0
      _Curve:
        Type: 1
        StartT: 0
        StartV: 0
        EndT: 0
        EndV: 0
    PosYKeys:
    - Value: -26
      _Time: 9
      _ValueType: 0
      _Curve:
        Type: 1
        StartT: 0
        StartV: 0
        EndT: 0
        EndV: 0
    - Value: -26
      _Time: 29
      _ValueType: 0
      _Curve:
        Type: 1
        StartT: 0
        StartV: 0
        EndT: 0
        EndV: 0
    - Value: -222
      _Time: 40
      _ValueType: 0
      _Curve:
        Type: 1
        StartT: 0
        StartV: 0
        EndT: 0
        EndV: 0
    - Value: -222
      _Time: 60
      _ValueType: 0
      _Curve:
        Type: 1
        StartT: 0
        StartV: 0
        EndT: 0
        EndV: 0
    AngleKeys: []
    ScaleXKeys:
    - Value: 1.1
      _Time: 50
      _ValueType: 0
      _Curve:
        Type: 1
        StartT: 0
        StartV: 0
        EndT: 0
        EndV: 0
    ScaleYKeys:
    - Value: 1.1
      _Time: 50
      _ValueType: 0
      _Curve:
        Type: 1
        StartT: 0
        StartV: 0
        EndT: 0
        EndV: 0
    TransKeys:
    - Value: 0
      _Time: 9
      _ValueType: 0
      _Curve:
        Type: 1
        StartT: 0
        StartV: 0
        EndT: 0
        EndV: 0
    - Value: 1
      _Time: 19
      _ValueType: 0
      _Curve:
        Type: 1
        StartT: 0
        StartV: 0
        EndT: 0
        EndV: 0
    - Value: 0
      _Time: 29
      _ValueType: 0
      _Curve:
        Type: 1
        StartT: 0
        StartV: 0
        EndT: 0
        EndV: 0
    - Value: 0
      _Time: 39
      _ValueType: 0
      _Curve:
        Type: 1
        StartT: 0
        StartV: 0
        EndT: 0
        EndV: 0
    - Value: 0
      _Time: 40
      _ValueType: 0
      _Curve:
        Type: 1
        StartT: 0
        StartV: 0
        EndT: 0
        EndV: 0
    - Value: 1
      _Time: 50
      _ValueType: 0
      _Curve:
        Type: 1
        StartT: 0
        StartV: 0
        EndT: 0
        EndV: 0
    - Value: 0
      _Time: 60
      _ValueType: 0
      _Curve:
        Type: 1
        StartT: 0
        StartV: 0
        EndT: 0
        EndV: 0
    PrioKeys: []
    FlipHKeys: []
    FlipVKeys: []
    HideKeys:
    - Value: 0
      _Time: 9
      _ValueType: 1
      _Curve:
        Type: 0
        StartT: 0
        StartV: 0
        EndT: 0
        EndV: 0
    - Value: 0
      _Time: 40
      _ValueType: 1
      _Curve:
        Type: 0
        StartT: 0
        StartV: 0
        EndT: 0
        EndV: 0
    - Value: 0
      _Time: 60
      _ValueType: 1
      _Curve:
        Type: 0
        StartT: 0
        StartV: 0
        EndT: 0
        EndV: 0
    PartsColKeys: []
    PartsPalKeys: []
    VertexKeys: []
    UserKeys: []
    SoundKeys: []
    ImageOffsetXKeys: []
    ImageOffsetYKeys: []
    ImageOffsetWKeys: []
    ImageOffsetHKeys: []
    OriginOffsetXKeys: []
    OriginOffsetYKeys: []
    PosXValues:
    - _RefKeyIndex: 0
      _Value: 0
    - _RefKeyIndex: 0
      _Value: 0
    - _RefKeyIndex: 0
      _Value: 0
    - _RefKeyIndex: 0
      _Value: 0
    - _RefKeyIndex: 0
      _Value: 0
    - _RefKeyIndex: 0
      _Value: 0
    - _RefKeyIndex: 0
      _Value: 0
    - _RefKeyIndex: 0
      _Value: 0
    - _RefKeyIndex: 0
      _Value: 0
    - _RefKeyIndex: -1
      _Value: -100
    - _RefKeyIndex: -1
      _Value: -100
    - _RefKeyIndex: -1
      _Value: -100
    - _RefKeyIndex: -1
      _Value: -100
    - _RefKeyIndex: -1
      _Value: -100
    - _RefKeyIndex: -1
      _Value: -100
    - _RefKeyIndex: -1
      _Value: -100
    - _RefKeyIndex: -1
      _Value: -100
    - _RefKeyIndex: -1
      _Value: -100
    - _RefKeyIndex: -1
      _Value: -100
    - _RefKeyIndex: -1
      _Value: -100
    - _RefKeyIndex: -1
      _Value: -100
    - _RefKeyIndex: -1
      _Value: -100
    - _RefKeyIndex: -1
      _Value: -100
    - _RefKeyIndex: -1
      _Value: -100
    - _RefKeyIndex: -1
      _Value: -100
    - _RefKeyIndex: -1
      _Value: -100
    - _RefKeyIndex: -1
      _Value: -100
    - _RefKeyIndex: -1
      _Value: -100
    - _RefKeyIndex: -1
      _Value: -100
    - _RefKeyIndex: -1
      _Value: -100
    - _RefKeyIndex: -1
      _Value: -81.09091
    - _RefKeyIndex: -1
      _Value: -62.181816
    - _RefKeyIndex: -1
      _Value: -43.272724
    - _RefKeyIndex: -1
      _Value: -24.363634
    - _RefKeyIndex: -1
      _Value: -5.4545426
    - _RefKeyIndex: -1
      _Value: 13.454549
    - _RefKeyIndex: -1
      _Value: 32.363632
    - _RefKeyIndex: -1
      _Value: 51.27273
    - _RefKeyIndex: -1
      _Value: 70.181816
    - _RefKeyIndex: -1
      _Value: 89.09091
    - _RefKeyIndex: -1
      _Value: 108
    - _RefKeyIndex: -1
      _Value: 108
    - _RefKeyIndex: -1
      _Value: 108
    - _RefKeyIndex: -1
      _Value: 108
    - _RefKeyIndex: -1
      _Value: 108
    - _RefKeyIndex: -1
      _Value: 108
    - _RefKeyIndex: -1
      _Value: 108
    - _RefKeyIndex: -1
      _Value: 108
    - _RefKeyIndex: -1
      _Value: 108
    - _RefKeyIndex: -1
      _Value: 108
    - _RefKeyIndex: -1
      _Value: 108
    - _RefKeyIndex: -1
      _Value: 108
    - _RefKeyIndex: -1
      _Value: 108
    - _RefKeyIndex: -1
      _Value: 108
    - _RefKeyIndex: -1
      _Value: 108
    - _RefKeyIndex: -1
      _Value: 108
    - _RefKeyIndex: -1
      _Value: 108
    - _RefKeyIndex: -1
      _Value: 108
    - _RefKeyIndex: -1
      _Value: 108
    - _RefKeyIndex: -1
      _Value: 108
    - _RefKeyIndex: 3
      _Value: 0
    PosYValues:
    - _RefKeyIndex: 0
      _Value: 0
    - _RefKeyIndex: 0
      _Value: 0
    - _RefKeyIndex: 0
      _Value: 0
    - _RefKeyIndex: 0
      _Value: 0
    - _RefKeyIndex: 0
      _Value: 0
    - _RefKeyIndex: 0
      _Value: 0
    - _RefKeyIndex: 0
      _Value: 0
    - _RefKeyIndex: 0
      _Value: 0
    - _RefKeyIndex: 0
      _Value: 0
    - _RefKeyIndex: -1
      _Value: -26
    - _RefKeyIndex: -1
      _Value: -26
    - _RefKeyIndex: -1
      _Value: -26
    - _RefKeyIndex: -1
      _Value: -26
    - _RefKeyIndex: -1
      _Value: -26
    - _RefKeyIndex: -1
      _Value: -26
    - _RefKeyIndex: -1
      _Value: -26
    - _RefKeyIndex: -1
      _Value: -26
    - _RefKeyIndex: -1
      _Value: -26
    - _RefKeyIndex: -1
      _Value: -26
    - _RefKeyIndex: -1
      _Value: -26
    - _RefKeyIndex: -1
      _Value: -26
    - _RefKeyIndex: -1
      _Value: -26
    - _RefKeyIndex: -1
      _Value: -26
    - _RefKeyIndex: -1
      _Value: -26
    - _RefKeyIndex: -1
      _Value: -26
    - _RefKeyIndex: -1
      _Value: -26
    - _RefKeyIndex: -1
      _Value: -26
    - _RefKeyIndex: -1
      _Value: -26
    - _RefKeyIndex: -1
      _Value: -26
    - _RefKeyIndex: -1
      _Value: -26
    - _RefKeyIndex: -1
      _Value: -43.818184
    - _RefKeyIndex: -1
      _Value: -61.636364
    - _RefKeyIndex: -1
      _Value: -79.454544
    - _RefKeyIndex: -1
      _Value: -97.27273
    - _RefKeyIndex: -1
      _Value: -115.09091
    - _RefKeyIndex: -1
      _Value: -132.90909
    - _RefKeyIndex: -1
      _Value: -150.72726
    - _RefKeyIndex: -1
      _Value: -168.54546
    - _RefKeyIndex: -1
      _Value: -186.36363
    - _RefKeyIndex: -1
      _Value: -204.18182
    - _RefKeyIndex: -1
      _Value: -222
    - _RefKeyIndex: -1
      _Value: -222
    - _RefKeyIndex: -1
      _Value: -222
    - _RefKeyIndex: -1
      _Value: -222
    - _RefKeyIndex: -1
      _Value: -222
    - _RefKeyIndex: -1
      _Value: -222
    - _RefKeyIndex: -1
      _Value: -222
    - _RefKeyIndex: -1
      _Value: -222
    - _RefKeyIndex: -1
      _Value: -222
    - _RefKeyIndex: -1
      _Value: -222
    - _RefKeyIndex: -1
      _Value: -222
    - _RefKeyIndex: -1
      _Value: -222
    - _RefKeyIndex: -1
      _Value: -222
    - _RefKeyIndex: -1
      _Value: -222
    - _RefKeyIndex: -1
      _Value: -222
    - _RefKeyIndex: -1
      _Value: -222
    - _RefKeyIndex: -1
      _Value: -222
    - _RefKeyIndex: -1
      _Value: -222
    - _RefKeyIndex: -1
      _Value: -222
    - _RefKeyIndex: -1
      _Value: -222
    - _RefKeyIndex: 3
      _Value: 0
    AngleValues: []
    ScaleXValues:
    - _RefKeyIndex: 0
      _Value: 0
    ScaleYValues:
    - _RefKeyIndex: 0
      _Value: 0
    TransValues:
    - _RefKeyIndex: 0
      _Value: 0
    - _RefKeyIndex: 0
      _Value: 0
    - _RefKeyIndex: 0
      _Value: 0
    - _RefKeyIndex: 0
      _Value: 0
    - _RefKeyIndex: 0
      _Value: 0
    - _RefKeyIndex: 0
      _Value: 0
    - _RefKeyIndex: 0
      _Value: 0
    - _RefKeyIndex: 0
      _Value: 0
    - _RefKeyIndex: 0
      _Value: 0
    - _RefKeyIndex: -1
      _Value: 0
    - _RefKeyIndex: -1
      _Value: 0.1
    - _RefKeyIndex: -1
      _Value: 0.2
    - _RefKeyIndex: -1
      _Value: 0.3
    - _RefKeyIndex: -1
      _Value: 0.4
    - _RefKeyIndex: -1
      _Value: 0.5
    - _RefKeyIndex: -1
      _Value: 0.6
    - _RefKeyIndex: -1
      _Value: 0.7
    - _RefKeyIndex: -1
      _Value: 0.8
    - _RefKeyIndex: -1
      _Value: 0.9
    - _RefKeyIndex: -1
      _Value: 1
    - _RefKeyIndex: -1
      _Value: 0.9
    - _RefKeyIndex: -1
      _Value: 0.8
    - _RefKeyIndex: -1
      _Value: 0.7
    - _RefKeyIndex: -1
      _Value: 0.6
    - _RefKeyIndex: -1
      _Value: 0.5
    - _RefKeyIndex: -1
      _Value: 0.39999998
    - _RefKeyIndex: -1
      _Value: 0.3
    - _RefKeyIndex: -1
      _Value: 0.19999999
    - _RefKeyIndex: -1
      _Value: 0.100000024
    - _RefKeyIndex: -1
      _Value: 0
    - _RefKeyIndex: -1
      _Value: 0
    - _RefKeyIndex: -1
      _Value: 0
    - _RefKeyIndex: -1
      _Value: 0
    - _RefKeyIndex: -1
      _Value: 0
    - _RefKeyIndex: -1
      _Value: 0
    - _RefKeyIndex: -1
      _Value: 0
    - _RefKeyIndex: -1
      _Value: 0
    - _RefKeyIndex: -1
      _Value: 0
    - _RefKeyIndex: -1
      _Value: 0
    - _RefKeyIndex: -1
      _Value: 0
    - _RefKeyIndex: -1
      _Value: 0
    - _RefKeyIndex: -1
      _Value: 0.1
    - _RefKeyIndex: -1
      _Value: 0.2
    - _RefKeyIndex: -1
      _Value: 0.3
    - _RefKeyIndex: -1
      _Value: 0.4
    - _RefKeyIndex: -1
      _Value: 0.5
    - _RefKeyIndex: -1
      _Value: 0.6
    - _RefKeyIndex: -1
      _Value: 0.7
    - _RefKeyIndex: -1
      _Value: 0.8
    - _RefKeyIndex: -1
      _Value: 0.9
    - _RefKeyIndex: -1
      _Value: 1
    - _RefKeyIndex: -1
      _Value: 0.9
    - _RefKeyIndex: -1
      _Value: 0.8
    - _RefKeyIndex: -1
      _Value: 0.7
    - _RefKeyIndex: -1
      _Value: 0.6
    - _RefKeyIndex: -1
      _Value: 0.5
    - _RefKeyIndex: -1
      _Value: 0.39999998
    - _RefKeyIndex: -1
      _Value: 0.3
    - _RefKeyIndex: -1
      _Value: 0.19999999
    - _RefKeyIndex: -1
      _Value: 0.100000024
    - _RefKeyIndex: 6
      _Value: 0
    PrioValues: []
    FlipHValues: []
    FlipVValues: []
    HideValues:
    - _RefKeyIndex: 0
      _Value: 0
    PartsColValues: []
    PartsPalValues: []
    VertexValues: []
    UserValues: []
    SoundValues: []
    ImageOffsetXValues: []
    ImageOffsetYValues: []
    ImageOffsetWValues: []
    ImageOffsetHValues: []
    OriginOffsetXValues: []
    OriginOffsetYValues: []
    _hasAttrFlags: 571
    HasTrancparency: 1
    FrameNum: 61
    imageFile:
      path: Assets/Resources/Atlas/SS_Map01/SS_Map01.png
      texture: {fileID: 2800000, guid: bc9a51c6428c8204c817775406391f67, type: 3}
      materials:
      - {fileID: 0}
      - {fileID: 0}
      - {fileID: 0}
      - {fileID: 0}
      - {fileID: 0}
      - {fileID: 2100000, guid: dd91cce9a5028504d83b734706fa5a80, type: 2}
      - {fileID: 0}
      - {fileID: 0}
      - {fileID: 0}
      - {fileID: 0}
      - {fileID: 0}
      - {fileID: 0}
      - {fileID: 0}
      - {fileID: 0}
      - {fileID: 0}
      - {fileID: 0}
      - {fileID: 0}
      - {fileID: 0}
      - {fileID: 0}
      - {fileID: 0}
      - {fileID: 0}
      - {fileID: 0}
      - {fileID: 0}
      - {fileID: 0}
      - {fileID: 0}
      - {fileID: 0}
      - {fileID: 0}
      - {fileID: 0}
      - {fileID: 0}
      - {fileID: 0}
      - {fileID: 0}
      - {fileID: 0}
      - {fileID: 0}
      - {fileID: 0}
      - {fileID: 0}
      - {fileID: 0}
      - {fileID: 0}
      - {fileID: 0}
      - {fileID: 0}
      - {fileID: 0}
      - {fileID: 0}
      - {fileID: 0}
      - {fileID: 0}
      - {fileID: 0}
      - {fileID: 0}
      - {fileID: 0}
      - {fileID: 0}
      - {fileID: 0}
      - {fileID: 0}
      - {fileID: 0}
      width: 2048
      height: 2048
      bpp: 0
    UVs:
    - {x: 0.6328125, y: 0.13769531}
    - {x: 0.7050781, y: 0.13769531}
    - {x: 0.7050781, y: 0.06542969}
    - {x: 0.6328125, y: 0.06542969}
    OrgVertices:
    - {x: -74, y: 74, z: 0}
    - {x: 74, y: 74, z: 0}
    - {x: 74, y: -74, z: 0}
    - {x: -74, y: -74, z: 0}
  - AnimeRes: {fileID: 11400000}
    Name: ef02
    Type: 0
    PicArea:
      Left: 1296
      Top: 1766
      Right: 1444
      Bottom: 1914
    OriginX: 74
    OriginY: 74
    MyId: 4
    ParentId: 0
    ChildNum: 0
    SrcObjId: 0
    SrcObjType: 0
    AlphaBlendType: 1
    InheritState:
      Type: 0
      Values:
      - Use: 1
        Rate: 1
      - Use: 1
        Rate: 1
      - Use: 1
        Rate: 1
      - Use: 1
        Rate: 1
      - Use: 1
        Rate: 1
      - Use: 1
        Rate: 1
      - Use: 1
        Rate: 1
      - Use: 0
        Rate: 0
      - Use: 0
        Rate: 0
      - Use: 0
        Rate: 0
      - Use: 1
        Rate: 1
      - Use: 1
        Rate: 1
      - Use: 1
        Rate: 1
      - Use: 1
        Rate: 1
      - Use: 1
        Rate: 1
      - Use: 1
        Rate: 1
      - Use: 1
        Rate: 1
      - Use: 1
        Rate: 1
      - Use: 1
        Rate: 1
      - Use: 1
        Rate: 1
      - Use: 1
        Rate: 1
    PosXKeys:
    - Value: 230
      _Time: 3
      _ValueType: 0
      _Curve:
        Type: 1
        StartT: 0
        StartV: 0
        EndT: 0
        EndV: 0
    - Value: 230
      _Time: 23
      _ValueType: 0
      _Curve:
        Type: 1
        StartT: 0
        StartV: 0
        EndT: 0
        EndV: 0
    - Value: -220
      _Time: 35
      _ValueType: 0
      _Curve:
        Type: 1
        StartT: 0
        StartV: 0
        EndT: 0
        EndV: 0
    PosYKeys:
    - Value: -124
      _Time: 3
      _ValueType: 0
      _Curve:
        Type: 1
        StartT: 0
        StartV: 0
        EndT: 0
        EndV: 0
    - Value: -124
      _Time: 23
      _ValueType: 0
      _Curve:
        Type: 1
        StartT: 0
        StartV: 0
        EndT: 0
        EndV: 0
    - Value: 22
      _Time: 35
      _ValueType: 0
      _Curve:
        Type: 1
        StartT: 0
        StartV: 0
        EndT: 0
        EndV: 0
    AngleKeys: []
    ScaleXKeys:
    - Value: 1
      _Time: 35
      _ValueType: 0
      _Curve:
        Type: 1
        StartT: 0
        StartV: 0
        EndT: 0
        EndV: 0
    ScaleYKeys:
    - Value: 1
      _Time: 35
      _ValueType: 0
      _Curve:
        Type: 1
        StartT: 0
        StartV: 0
        EndT: 0
        EndV: 0
    TransKeys:
    - Value: 0
      _Time: 3
      _ValueType: 0
      _Curve:
        Type: 1
        StartT: 0
        StartV: 0
        EndT: 0
        EndV: 0
    - Value: 1
      _Time: 13
      _ValueType: 0
      _Curve:
        Type: 1
        StartT: 0
        StartV: 0
        EndT: 0
        EndV: 0
    - Value: 0
      _Time: 23
      _ValueType: 0
      _Curve:
        Type: 1
        StartT: 0
        StartV: 0
        EndT: 0
        EndV: 0
    - Value: 0
      _Time: 34
      _ValueType: 0
      _Curve:
        Type: 1
        StartT: 0
        StartV: 0
        EndT: 0
        EndV: 0
    - Value: 0
      _Time: 35
      _ValueType: 0
      _Curve:
        Type: 1
        StartT: 0
        StartV: 0
        EndT: 0
        EndV: 0
    - Value: 1
      _Time: 45
      _ValueType: 0
      _Curve:
        Type: 1
        StartT: 0
        StartV: 0
        EndT: 0
        EndV: 0
    - Value: 0
      _Time: 55
      _ValueType: 0
      _Curve:
        Type: 1
        StartT: 0
        StartV: 0
        EndT: 0
        EndV: 0
    PrioKeys: []
    FlipHKeys: []
    FlipVKeys: []
    HideKeys:
    - Value: 0
      _Time: 3
      _ValueType: 1
      _Curve:
        Type: 0
        StartT: 0
        StartV: 0
        EndT: 0
        EndV: 0
    - Value: 0
      _Time: 35
      _ValueType: 1
      _Curve:
        Type: 0
        StartT: 0
        StartV: 0
        EndT: 0
        EndV: 0
    - Value: 0
      _Time: 55
      _ValueType: 1
      _Curve:
        Type: 0
        StartT: 0
        StartV: 0
        EndT: 0
        EndV: 0
    PartsColKeys: []
    PartsPalKeys: []
    VertexKeys: []
    UserKeys: []
    SoundKeys: []
    ImageOffsetXKeys: []
    ImageOffsetYKeys: []
    ImageOffsetWKeys: []
    ImageOffsetHKeys: []
    OriginOffsetXKeys: []
    OriginOffsetYKeys: []
    PosXValues:
    - _RefKeyIndex: 0
      _Value: 0
    - _RefKeyIndex: 0
      _Value: 0
    - _RefKeyIndex: 0
      _Value: 0
    - _RefKeyIndex: -1
      _Value: 230
    - _RefKeyIndex: -1
      _Value: 230
    - _RefKeyIndex: -1
      _Value: 230
    - _RefKeyIndex: -1
      _Value: 230
    - _RefKeyIndex: -1
      _Value: 230
    - _RefKeyIndex: -1
      _Value: 230
    - _RefKeyIndex: -1
      _Value: 230
    - _RefKeyIndex: -1
      _Value: 230
    - _RefKeyIndex: -1
      _Value: 230
    - _RefKeyIndex: -1
      _Value: 230
    - _RefKeyIndex: -1
      _Value: 230
    - _RefKeyIndex: -1
      _Value: 230
    - _RefKeyIndex: -1
      _Value: 230
    - _RefKeyIndex: -1
      _Value: 230
    - _RefKeyIndex: -1
      _Value: 230
    - _RefKeyIndex: -1
      _Value: 230
    - _RefKeyIndex: -1
      _Value: 230
    - _RefKeyIndex: -1
      _Value: 230
    - _RefKeyIndex: -1
      _Value: 230
    - _RefKeyIndex: -1
      _Value: 230
    - _RefKeyIndex: -1
      _Value: 230
    - _RefKeyIndex: -1
      _Value: 192.5
    - _RefKeyIndex: -1
      _Value: 155
    - _RefKeyIndex: -1
      _Value: 117.5
    - _RefKeyIndex: -1
      _Value: 79.99999
    - _RefKeyIndex: -1
      _Value: 42.500004
    - _RefKeyIndex: -1
      _Value: 5
    - _RefKeyIndex: -1
      _Value: -32.499992
    - _RefKeyIndex: -1
      _Value: -70.00001
    - _RefKeyIndex: -1
      _Value: -107.5
    - _RefKeyIndex: -1
      _Value: -144.99998
    - _RefKeyIndex: -1
      _Value: -182.50002
    - _RefKeyIndex: 2
      _Value: 0
    - _RefKeyIndex: 2
      _Value: 0
    - _RefKeyIndex: 2
      _Value: 0
    - _RefKeyIndex: 2
      _Value: 0
    - _RefKeyIndex: 2
      _Value: 0
    - _RefKeyIndex: 2
      _Value: 0
    - _RefKeyIndex: 2
      _Value: 0
    - _RefKeyIndex: 2
      _Value: 0
    - _RefKeyIndex: 2
      _Value: 0
    - _RefKeyIndex: 2
      _Value: 0
    - _RefKeyIndex: 2
      _Value: 0
    - _RefKeyIndex: 2
      _Value: 0
    - _RefKeyIndex: 2
      _Value: 0
    - _RefKeyIndex: 2
      _Value: 0
    - _RefKeyIndex: 2
      _Value: 0
    - _RefKeyIndex: 2
      _Value: 0
    - _RefKeyIndex: 2
      _Value: 0
    - _RefKeyIndex: 2
      _Value: 0
    - _RefKeyIndex: 2
      _Value: 0
    - _RefKeyIndex: 2
      _Value: 0
    - _RefKeyIndex: 2
      _Value: 0
    - _RefKeyIndex: 2
      _Value: 0
    - _RefKeyIndex: 2
      _Value: 0
    - _RefKeyIndex: 2
      _Value: 0
    - _RefKeyIndex: 2
      _Value: 0
    - _RefKeyIndex: 2
      _Value: 0
    PosYValues:
    - _RefKeyIndex: 0
      _Value: 0
    - _RefKeyIndex: 0
      _Value: 0
    - _RefKeyIndex: 0
      _Value: 0
    - _RefKeyIndex: -1
      _Value: -124
    - _RefKeyIndex: -1
      _Value: -124
    - _RefKeyIndex: -1
      _Value: -124
    - _RefKeyIndex: -1
      _Value: -124
    - _RefKeyIndex: -1
      _Value: -124
    - _RefKeyIndex: -1
      _Value: -124
    - _RefKeyIndex: -1
      _Value: -124
    - _RefKeyIndex: -1
      _Value: -124
    - _RefKeyIndex: -1
      _Value: -124
    - _RefKeyIndex: -1
      _Value: -124
    - _RefKeyIndex: -1
      _Value: -124
    - _RefKeyIndex: -1
      _Value: -124
    - _RefKeyIndex: -1
      _Value: -124
    - _RefKeyIndex: -1
      _Value: -124
    - _RefKeyIndex: -1
      _Value: -124
    - _RefKeyIndex: -1
      _Value: -124
    - _RefKeyIndex: -1
      _Value: -124
    - _RefKeyIndex: -1
      _Value: -124
    - _RefKeyIndex: -1
      _Value: -124
    - _RefKeyIndex: -1
      _Value: -124
    - _RefKeyIndex: -1
      _Value: -124
    - _RefKeyIndex: -1
      _Value: -111.833336
    - _RefKeyIndex: -1
      _Value: -99.666664
    - _RefKeyIndex: -1
      _Value: -87.5
    - _RefKeyIndex: -1
      _Value: -75.33333
    - _RefKeyIndex: -1
      _Value: -63.166668
    - _RefKeyIndex: -1
      _Value: -51
    - _RefKeyIndex: -1
      _Value: -38.833336
    - _RefKeyIndex: -1
      _Value: -26.666664
    - _RefKeyIndex: -1
      _Value: -14.5
    - _RefKeyIndex: -1
      _Value: -2.3333364
    - _RefKeyIndex: -1
      _Value: 9.833336
    - _RefKeyIndex: 2
      _Value: 0
    - _RefKeyIndex: 2
      _Value: 0
    - _RefKeyIndex: 2
      _Value: 0
    - _RefKeyIndex: 2
      _Value: 0
    - _RefKeyIndex: 2
      _Value: 0
    - _RefKeyIndex: 2
      _Value: 0
    - _RefKeyIndex: 2
      _Value: 0
    - _RefKeyIndex: 2
      _Value: 0
    - _RefKeyIndex: 2
      _Value: 0
    - _RefKeyIndex: 2
      _Value: 0
    - _RefKeyIndex: 2
      _Value: 0
    - _RefKeyIndex: 2
      _Value: 0
    - _RefKeyIndex: 2
      _Value: 0
    - _RefKeyIndex: 2
      _Value: 0
    - _RefKeyIndex: 2
      _Value: 0
    - _RefKeyIndex: 2
      _Value: 0
    - _RefKeyIndex: 2
      _Value: 0
    - _RefKeyIndex: 2
      _Value: 0
    - _RefKeyIndex: 2
      _Value: 0
    - _RefKeyIndex: 2
      _Value: 0
    - _RefKeyIndex: 2
      _Value: 0
    - _RefKeyIndex: 2
      _Value: 0
    - _RefKeyIndex: 2
      _Value: 0
    - _RefKeyIndex: 2
      _Value: 0
    - _RefKeyIndex: 2
      _Value: 0
    - _RefKeyIndex: 2
      _Value: 0
    AngleValues: []
    ScaleXValues:
    - _RefKeyIndex: 0
      _Value: 0
    ScaleYValues:
    - _RefKeyIndex: 0
      _Value: 0
    TransValues:
    - _RefKeyIndex: 0
      _Value: 0
    - _RefKeyIndex: 0
      _Value: 0
    - _RefKeyIndex: 0
      _Value: 0
    - _RefKeyIndex: -1
      _Value: 0
    - _RefKeyIndex: -1
      _Value: 0.1
    - _RefKeyIndex: -1
      _Value: 0.2
    - _RefKeyIndex: -1
      _Value: 0.3
    - _RefKeyIndex: -1
      _Value: 0.4
    - _RefKeyIndex: -1
      _Value: 0.5
    - _RefKeyIndex: -1
      _Value: 0.6
    - _RefKeyIndex: -1
      _Value: 0.7
    - _RefKeyIndex: -1
      _Value: 0.8
    - _RefKeyIndex: -1
      _Value: 0.9
    - _RefKeyIndex: -1
      _Value: 1
    - _RefKeyIndex: -1
      _Value: 0.9
    - _RefKeyIndex: -1
      _Value: 0.8
    - _RefKeyIndex: -1
      _Value: 0.7
    - _RefKeyIndex: -1
      _Value: 0.6
    - _RefKeyIndex: -1
      _Value: 0.5
    - _RefKeyIndex: -1
      _Value: 0.39999998
    - _RefKeyIndex: -1
      _Value: 0.3
    - _RefKeyIndex: -1
      _Value: 0.19999999
    - _RefKeyIndex: -1
      _Value: 0.100000024
    - _RefKeyIndex: -1
      _Value: 0
    - _RefKeyIndex: -1
      _Value: 0
    - _RefKeyIndex: -1
      _Value: 0
    - _RefKeyIndex: -1
      _Value: 0
    - _RefKeyIndex: -1
      _Value: 0
    - _RefKeyIndex: -1
      _Value: 0
    - _RefKeyIndex: -1
      _Value: 0
    - _RefKeyIndex: -1
      _Value: 0
    - _RefKeyIndex: -1
      _Value: 0
    - _RefKeyIndex: -1
      _Value: 0
    - _RefKeyIndex: -1
      _Value: 0
    - _RefKeyIndex: -1
      _Value: 0
    - _RefKeyIndex: -1
      _Value: 0
    - _RefKeyIndex: -1
      _Value: 0.1
    - _RefKeyIndex: -1
      _Value: 0.2
    - _RefKeyIndex: -1
      _Value: 0.3
    - _RefKeyIndex: -1
      _Value: 0.4
    - _RefKeyIndex: -1
      _Value: 0.5
    - _RefKeyIndex: -1
      _Value: 0.6
    - _RefKeyIndex: -1
      _Value: 0.7
    - _RefKeyIndex: -1
      _Value: 0.8
    - _RefKeyIndex: -1
      _Value: 0.9
    - _RefKeyIndex: -1
      _Value: 1
    - _RefKeyIndex: -1
      _Value: 0.9
    - _RefKeyIndex: -1
      _Value: 0.8
    - _RefKeyIndex: -1
      _Value: 0.7
    - _RefKeyIndex: -1
      _Value: 0.6
    - _RefKeyIndex: -1
      _Value: 0.5
    - _RefKeyIndex: -1
      _Value: 0.39999998
    - _RefKeyIndex: -1
      _Value: 0.3
    - _RefKeyIndex: -1
      _Value: 0.19999999
    - _RefKeyIndex: -1
      _Value: 0.100000024
    - _RefKeyIndex: 6
      _Value: 0
    - _RefKeyIndex: 6
      _Value: 0
    - _RefKeyIndex: 6
      _Value: 0
    - _RefKeyIndex: 6
      _Value: 0
    - _RefKeyIndex: 6
      _Value: 0
    - _RefKeyIndex: 6
      _Value: 0
    PrioValues: []
    FlipHValues: []
    FlipVValues: []
    HideValues:
    - _RefKeyIndex: 0
      _Value: 0
    PartsColValues: []
    PartsPalValues: []
    VertexValues: []
    UserValues: []
    SoundValues: []
    ImageOffsetXValues: []
    ImageOffsetYValues: []
    ImageOffsetWValues: []
    ImageOffsetHValues: []
    OriginOffsetXValues: []
    OriginOffsetYValues: []
    _hasAttrFlags: 571
    HasTrancparency: 1
    FrameNum: 61
    imageFile:
      path: Assets/Resources/Atlas/SS_Map01/SS_Map01.png
      texture: {fileID: 2800000, guid: bc9a51c6428c8204c817775406391f67, type: 3}
      materials:
      - {fileID: 0}
      - {fileID: 0}
      - {fileID: 0}
      - {fileID: 0}
      - {fileID: 0}
      - {fileID: 2100000, guid: dd91cce9a5028504d83b734706fa5a80, type: 2}
      - {fileID: 0}
      - {fileID: 0}
      - {fileID: 0}
      - {fileID: 0}
      - {fileID: 0}
      - {fileID: 0}
      - {fileID: 0}
      - {fileID: 0}
      - {fileID: 0}
      - {fileID: 0}
      - {fileID: 0}
      - {fileID: 0}
      - {fileID: 0}
      - {fileID: 0}
      - {fileID: 0}
      - {fileID: 0}
      - {fileID: 0}
      - {fileID: 0}
      - {fileID: 0}
      - {fileID: 0}
      - {fileID: 0}
      - {fileID: 0}
      - {fileID: 0}
      - {fileID: 0}
      - {fileID: 0}
      - {fileID: 0}
      - {fileID: 0}
      - {fileID: 0}
      - {fileID: 0}
      - {fileID: 0}
      - {fileID: 0}
      - {fileID: 0}
      - {fileID: 0}
      - {fileID: 0}
      - {fileID: 0}
      - {fileID: 0}
      - {fileID: 0}
      - {fileID: 0}
      - {fileID: 0}
      - {fileID: 0}
      - {fileID: 0}
      - {fileID: 0}
      - {fileID: 0}
      - {fileID: 0}
      width: 2048
      height: 2048
      bpp: 0
    UVs:
    - {x: 0.6328125, y: 0.13769531}
    - {x: 0.7050781, y: 0.13769531}
    - {x: 0.7050781, y: 0.06542969}
    - {x: 0.6328125, y: 0.06542969}
    OrgVertices:
    - {x: -74, y: 74, z: 0}
    - {x: 74, y: 74, z: 0}
    - {x: 74, y: -74, z: 0}
    - {x: -74, y: -74, z: 0}
  - AnimeRes: {fileID: 11400000}
    Name: ef03
    Type: 0
    PicArea:
      Left: 1296
      Top: 1766
      Right: 1444
      Bottom: 1914
    OriginX: 74
    OriginY: 74
    MyId: 5
    ParentId: 0
    ChildNum: 0
    SrcObjId: 0
    SrcObjType: 0
    AlphaBlendType: 1
    InheritState:
      Type: 0
      Values:
      - Use: 1
        Rate: 1
      - Use: 1
        Rate: 1
      - Use: 1
        Rate: 1
      - Use: 1
        Rate: 1
      - Use: 1
        Rate: 1
      - Use: 1
        Rate: 1
      - Use: 1
        Rate: 1
      - Use: 0
        Rate: 0
      - Use: 0
        Rate: 0
      - Use: 0
        Rate: 0
      - Use: 1
        Rate: 1
      - Use: 1
        Rate: 1
      - Use: 1
        Rate: 1
      - Use: 1
        Rate: 1
      - Use: 1
        Rate: 1
      - Use: 1
        Rate: 1
      - Use: 1
        Rate: 1
      - Use: 1
        Rate: 1
      - Use: 1
        Rate: 1
      - Use: 1
        Rate: 1
      - Use: 1
        Rate: 1
    PosXKeys:
    - Value: 64
      _Time: 0
      _ValueType: 0
      _Curve:
        Type: 1
        StartT: 0
        StartV: 0
        EndT: 0
        EndV: 0
    - Value: 64
      _Time: 20
      _ValueType: 0
      _Curve:
        Type: 1
        StartT: 0
        StartV: 0
        EndT: 0
        EndV: 0
    - Value: 32
      _Time: 21
      _ValueType: 0
      _Curve:
        Type: 1
        StartT: 0
        StartV: 0
        EndT: 0
        EndV: 0
    PosYKeys:
    - Value: -234
      _Time: 0
      _ValueType: 0
      _Curve:
        Type: 1
        StartT: 0
        StartV: 0
        EndT: 0
        EndV: 0
    - Value: -234
      _Time: 20
      _ValueType: 0
      _Curve:
        Type: 1
        StartT: 0
        StartV: 0
        EndT: 0
        EndV: 0
    - Value: -172
      _Time: 21
      _ValueType: 0
      _Curve:
        Type: 1
        StartT: 0
        StartV: 0
        EndT: 0
        EndV: 0
    AngleKeys: []
    ScaleXKeys:
    - Value: 0.8
      _Time: 0
      _ValueType: 0
      _Curve:
        Type: 1
        StartT: 0
        StartV: 0
        EndT: 0
        EndV: 0
    - Value: 0.8
      _Time: 21
      _ValueType: 0
      _Curve:
        Type: 1
        StartT: 0
        StartV: 0
        EndT: 0
        EndV: 0
    ScaleYKeys:
    - Value: 0.8
      _Time: 0
      _ValueType: 0
      _Curve:
        Type: 1
        StartT: 0
        StartV: 0
        EndT: 0
        EndV: 0
    - Value: 0.8
      _Time: 21
      _ValueType: 0
      _Curve:
        Type: 1
        StartT: 0
        StartV: 0
        EndT: 0
        EndV: 0
    TransKeys:
    - Value: 0
      _Time: 0
      _ValueType: 0
      _Curve:
        Type: 1
        StartT: 0
        StartV: 0
        EndT: 0
        EndV: 0
    - Value: 1
      _Time: 10
      _ValueType: 0
      _Curve:
        Type: 1
        StartT: 0
        StartV: 0
        EndT: 0
        EndV: 0
    - Value: 0
      _Time: 20
      _ValueType: 0
      _Curve:
        Type: 1
        StartT: 0
        StartV: 0
        EndT: 0
        EndV: 0
    - Value: 0
      _Time: 21
      _ValueType: 0
      _Curve:
        Type: 1
        StartT: 0
        StartV: 0
        EndT: 0
        EndV: 0
    - Value: 1
      _Time: 31
      _ValueType: 0
      _Curve:
        Type: 1
        StartT: 0
        StartV: 0
        EndT: 0
        EndV: 0
    - Value: 0
      _Time: 41
      _ValueType: 0
      _Curve:
        Type: 1
        StartT: 0
        StartV: 0
        EndT: 0
        EndV: 0
    PrioKeys: []
    FlipHKeys: []
    FlipVKeys: []
    HideKeys:
    - Value: 0
      _Time: 0
      _ValueType: 1
      _Curve:
        Type: 0
        StartT: 0
        StartV: 0
        EndT: 0
        EndV: 0
    - Value: 0
      _Time: 21
      _ValueType: 1
      _Curve:
        Type: 0
        StartT: 0
        StartV: 0
        EndT: 0
        EndV: 0
    PartsColKeys: []
    PartsPalKeys: []
    VertexKeys: []
    UserKeys: []
    SoundKeys: []
    ImageOffsetXKeys: []
    ImageOffsetYKeys: []
    ImageOffsetWKeys: []
    ImageOffsetHKeys: []
    OriginOffsetXKeys: []
    OriginOffsetYKeys: []
    PosXValues:
    - _RefKeyIndex: -1
      _Value: 64
    - _RefKeyIndex: -1
      _Value: 64
    - _RefKeyIndex: -1
      _Value: 64
    - _RefKeyIndex: -1
      _Value: 64
    - _RefKeyIndex: -1
      _Value: 64
    - _RefKeyIndex: -1
      _Value: 64
    - _RefKeyIndex: -1
      _Value: 64
    - _RefKeyIndex: -1
      _Value: 64
    - _RefKeyIndex: -1
      _Value: 64
    - _RefKeyIndex: -1
      _Value: 64
    - _RefKeyIndex: -1
      _Value: 64
    - _RefKeyIndex: -1
      _Value: 64
    - _RefKeyIndex: -1
      _Value: 64
    - _RefKeyIndex: -1
      _Value: 64
    - _RefKeyIndex: -1
      _Value: 64
    - _RefKeyIndex: -1
      _Value: 64
    - _RefKeyIndex: -1
      _Value: 64
    - _RefKeyIndex: -1
      _Value: 64
    - _RefKeyIndex: -1
      _Value: 64
    - _RefKeyIndex: -1
      _Value: 64
    - _RefKeyIndex: -1
      _Value: 64
    - _RefKeyIndex: 2
      _Value: 0
    - _RefKeyIndex: 2
      _Value: 0
    - _RefKeyIndex: 2
      _Value: 0
    - _RefKeyIndex: 2
      _Value: 0
    - _RefKeyIndex: 2
      _Value: 0
    - _RefKeyIndex: 2
      _Value: 0
    - _RefKeyIndex: 2
      _Value: 0
    - _RefKeyIndex: 2
      _Value: 0
    - _RefKeyIndex: 2
      _Value: 0
    - _RefKeyIndex: 2
      _Value: 0
    - _RefKeyIndex: 2
      _Value: 0
    - _RefKeyIndex: 2
      _Value: 0
    - _RefKeyIndex: 2
      _Value: 0
    - _RefKeyIndex: 2
      _Value: 0
    - _RefKeyIndex: 2
      _Value: 0
    - _RefKeyIndex: 2
      _Value: 0
    - _RefKeyIndex: 2
      _Value: 0
    - _RefKeyIndex: 2
      _Value: 0
    - _RefKeyIndex: 2
      _Value: 0
    - _RefKeyIndex: 2
      _Value: 0
    - _RefKeyIndex: 2
      _Value: 0
    - _RefKeyIndex: 2
      _Value: 0
    - _RefKeyIndex: 2
      _Value: 0
    - _RefKeyIndex: 2
      _Value: 0
    - _RefKeyIndex: 2
      _Value: 0
    - _RefKeyIndex: 2
      _Value: 0
    - _RefKeyIndex: 2
      _Value: 0
    - _RefKeyIndex: 2
      _Value: 0
    - _RefKeyIndex: 2
      _Value: 0
    - _RefKeyIndex: 2
      _Value: 0
    - _RefKeyIndex: 2
      _Value: 0
    - _RefKeyIndex: 2
      _Value: 0
    - _RefKeyIndex: 2
      _Value: 0
    - _RefKeyIndex: 2
      _Value: 0
    - _RefKeyIndex: 2
      _Value: 0
    - _RefKeyIndex: 2
      _Value: 0
    - _RefKeyIndex: 2
      _Value: 0
    - _RefKeyIndex: 2
      _Value: 0
    - _RefKeyIndex: 2
      _Value: 0
    - _RefKeyIndex: 2
      _Value: 0
    PosYValues:
    - _RefKeyIndex: -1
      _Value: -234
    - _RefKeyIndex: -1
      _Value: -234
    - _RefKeyIndex: -1
      _Value: -234
    - _RefKeyIndex: -1
      _Value: -234
    - _RefKeyIndex: -1
      _Value: -234
    - _RefKeyIndex: -1
      _Value: -234
    - _RefKeyIndex: -1
      _Value: -234
    - _RefKeyIndex: -1
      _Value: -234
    - _RefKeyIndex: -1
      _Value: -234
    - _RefKeyIndex: -1
      _Value: -234
    - _RefKeyIndex: -1
      _Value: -234
    - _RefKeyIndex: -1
      _Value: -234
    - _RefKeyIndex: -1
      _Value: -234
    - _RefKeyIndex: -1
      _Value: -234
    - _RefKeyIndex: -1
      _Value: -234
    - _RefKeyIndex: -1
      _Value: -234
    - _RefKeyIndex: -1
      _Value: -234
    - _RefKeyIndex: -1
      _Value: -234
    - _RefKeyIndex: -1
      _Value: -234
    - _RefKeyIndex: -1
      _Value: -234
    - _RefKeyIndex: -1
      _Value: -234
    - _RefKeyIndex: 2
      _Value: 0
    - _RefKeyIndex: 2
      _Value: 0
    - _RefKeyIndex: 2
      _Value: 0
    - _RefKeyIndex: 2
      _Value: 0
    - _RefKeyIndex: 2
      _Value: 0
    - _RefKeyIndex: 2
      _Value: 0
    - _RefKeyIndex: 2
      _Value: 0
    - _RefKeyIndex: 2
      _Value: 0
    - _RefKeyIndex: 2
      _Value: 0
    - _RefKeyIndex: 2
      _Value: 0
    - _RefKeyIndex: 2
      _Value: 0
    - _RefKeyIndex: 2
      _Value: 0
    - _RefKeyIndex: 2
      _Value: 0
    - _RefKeyIndex: 2
      _Value: 0
    - _RefKeyIndex: 2
      _Value: 0
    - _RefKeyIndex: 2
      _Value: 0
    - _RefKeyIndex: 2
      _Value: 0
    - _RefKeyIndex: 2
      _Value: 0
    - _RefKeyIndex: 2
      _Value: 0
    - _RefKeyIndex: 2
      _Value: 0
    - _RefKeyIndex: 2
      _Value: 0
    - _RefKeyIndex: 2
      _Value: 0
    - _RefKeyIndex: 2
      _Value: 0
    - _RefKeyIndex: 2
      _Value: 0
    - _RefKeyIndex: 2
      _Value: 0
    - _RefKeyIndex: 2
      _Value: 0
    - _RefKeyIndex: 2
      _Value: 0
    - _RefKeyIndex: 2
      _Value: 0
    - _RefKeyIndex: 2
      _Value: 0
    - _RefKeyIndex: 2
      _Value: 0
    - _RefKeyIndex: 2
      _Value: 0
    - _RefKeyIndex: 2
      _Value: 0
    - _RefKeyIndex: 2
      _Value: 0
    - _RefKeyIndex: 2
      _Value: 0
    - _RefKeyIndex: 2
      _Value: 0
    - _RefKeyIndex: 2
      _Value: 0
    - _RefKeyIndex: 2
      _Value: 0
    - _RefKeyIndex: 2
      _Value: 0
    - _RefKeyIndex: 2
      _Value: 0
    - _RefKeyIndex: 2
      _Value: 0
    AngleValues: []
    ScaleXValues:
    - _RefKeyIndex: -1
      _Value: 0.8
    ScaleYValues:
    - _RefKeyIndex: -1
      _Value: 0.8
    TransValues:
    - _RefKeyIndex: -1
      _Value: 0
    - _RefKeyIndex: -1
      _Value: 0.1
    - _RefKeyIndex: -1
      _Value: 0.2
    - _RefKeyIndex: -1
      _Value: 0.3
    - _RefKeyIndex: -1
      _Value: 0.4
    - _RefKeyIndex: -1
      _Value: 0.5
    - _RefKeyIndex: -1
      _Value: 0.6
    - _RefKeyIndex: -1
      _Value: 0.7
    - _RefKeyIndex: -1
      _Value: 0.8
    - _RefKeyIndex: -1
      _Value: 0.9
    - _RefKeyIndex: -1
      _Value: 1
    - _RefKeyIndex: -1
      _Value: 0.9
    - _RefKeyIndex: -1
      _Value: 0.8
    - _RefKeyIndex: -1
      _Value: 0.7
    - _RefKeyIndex: -1
      _Value: 0.6
    - _RefKeyIndex: -1
      _Value: 0.5
    - _RefKeyIndex: -1
      _Value: 0.39999998
    - _RefKeyIndex: -1
      _Value: 0.3
    - _RefKeyIndex: -1
      _Value: 0.19999999
    - _RefKeyIndex: -1
      _Value: 0.100000024
    - _RefKeyIndex: -1
      _Value: 0
    - _RefKeyIndex: -1
      _Value: 0
    - _RefKeyIndex: -1
      _Value: 0.1
    - _RefKeyIndex: -1
      _Value: 0.2
    - _RefKeyIndex: -1
      _Value: 0.3
    - _RefKeyIndex: -1
      _Value: 0.4
    - _RefKeyIndex: -1
      _Value: 0.5
    - _RefKeyIndex: -1
      _Value: 0.6
    - _RefKeyIndex: -1
      _Value: 0.7
    - _RefKeyIndex: -1
      _Value: 0.8
    - _RefKeyIndex: -1
      _Value: 0.9
    - _RefKeyIndex: -1
      _Value: 1
    - _RefKeyIndex: -1
      _Value: 0.9
    - _RefKeyIndex: -1
      _Value: 0.8
    - _RefKeyIndex: -1
      _Value: 0.7
    - _RefKeyIndex: -1
      _Value: 0.6
    - _RefKeyIndex: -1
      _Value: 0.5
    - _RefKeyIndex: -1
      _Value: 0.39999998
    - _RefKeyIndex: -1
      _Value: 0.3
    - _RefKeyIndex: -1
      _Value: 0.19999999
    - _RefKeyIndex: -1
      _Value: 0.100000024
    - _RefKeyIndex: 5
      _Value: 0
    - _RefKeyIndex: 5
      _Value: 0
    - _RefKeyIndex: 5
      _Value: 0
    - _RefKeyIndex: 5
      _Value: 0
    - _RefKeyIndex: 5
      _Value: 0
    - _RefKeyIndex: 5
      _Value: 0
    - _RefKeyIndex: 5
      _Value: 0
    - _RefKeyIndex: 5
      _Value: 0
    - _RefKeyIndex: 5
      _Value: 0
    - _RefKeyIndex: 5
      _Value: 0
    - _RefKeyIndex: 5
      _Value: 0
    - _RefKeyIndex: 5
      _Value: 0
    - _RefKeyIndex: 5
      _Value: 0
    - _RefKeyIndex: 5
      _Value: 0
    - _RefKeyIndex: 5
      _Value: 0
    - _RefKeyIndex: 5
      _Value: 0
    - _RefKeyIndex: 5
      _Value: 0
    - _RefKeyIndex: 5
      _Value: 0
    - _RefKeyIndex: 5
      _Value: 0
    - _RefKeyIndex: 5
      _Value: 0
    PrioValues: []
    FlipHValues: []
    FlipVValues: []
    HideValues:
    - _RefKeyIndex: 0
      _Value: 0
    PartsColValues: []
    PartsPalValues: []
    VertexValues: []
    UserValues: []
    SoundValues: []
    ImageOffsetXValues: []
    ImageOffsetYValues: []
    ImageOffsetWValues: []
    ImageOffsetHValues: []
    OriginOffsetXValues: []
    OriginOffsetYValues: []
    _hasAttrFlags: 571
    HasTrancparency: 1
    FrameNum: 61
    imageFile:
      path: Assets/Resources/Atlas/SS_Map01/SS_Map01.png
      texture: {fileID: 2800000, guid: bc9a51c6428c8204c817775406391f67, type: 3}
      materials:
      - {fileID: 0}
      - {fileID: 0}
      - {fileID: 0}
      - {fileID: 0}
      - {fileID: 0}
      - {fileID: 2100000, guid: dd91cce9a5028504d83b734706fa5a80, type: 2}
      - {fileID: 0}
      - {fileID: 0}
      - {fileID: 0}
      - {fileID: 0}
      - {fileID: 0}
      - {fileID: 0}
      - {fileID: 0}
      - {fileID: 0}
      - {fileID: 0}
      - {fileID: 0}
      - {fileID: 0}
      - {fileID: 0}
      - {fileID: 0}
      - {fileID: 0}
      - {fileID: 0}
      - {fileID: 0}
      - {fileID: 0}
      - {fileID: 0}
      - {fileID: 0}
      - {fileID: 0}
      - {fileID: 0}
      - {fileID: 0}
      - {fileID: 0}
      - {fileID: 0}
      - {fileID: 0}
      - {fileID: 0}
      - {fileID: 0}
      - {fileID: 0}
      - {fileID: 0}
      - {fileID: 0}
      - {fileID: 0}
      - {fileID: 0}
      - {fileID: 0}
      - {fileID: 0}
      - {fileID: 0}
      - {fileID: 0}
      - {fileID: 0}
      - {fileID: 0}
      - {fileID: 0}
      - {fileID: 0}
      - {fileID: 0}
      - {fileID: 0}
      - {fileID: 0}
      - {fileID: 0}
      width: 2048
      height: 2048
      bpp: 0
    UVs:
    - {x: 0.6328125, y: 0.13769531}
    - {x: 0.7050781, y: 0.13769531}
    - {x: 0.7050781, y: 0.06542969}
    - {x: 0.6328125, y: 0.06542969}
    OrgVertices:
    - {x: -74, y: 74, z: 0}
    - {x: 74, y: 74, z: 0}
    - {x: 74, y: -74, z: 0}
    - {x: -74, y: -74, z: 0}
  - AnimeRes: {fileID: 11400000}
    Name: ef04
    Type: 0
    PicArea:
      Left: 1296
      Top: 1766
      Right: 1444
      Bottom: 1914
    OriginX: 74
    OriginY: 74
    MyId: 6
    ParentId: 0
    ChildNum: 0
    SrcObjId: 0
    SrcObjType: 0
    AlphaBlendType: 1
    InheritState:
      Type: 0
      Values:
      - Use: 1
        Rate: 1
      - Use: 1
        Rate: 1
      - Use: 1
        Rate: 1
      - Use: 1
        Rate: 1
      - Use: 1
        Rate: 1
      - Use: 1
        Rate: 1
      - Use: 1
        Rate: 1
      - Use: 0
        Rate: 0
      - Use: 0
        Rate: 0
      - Use: 0
        Rate: 0
      - Use: 1
        Rate: 1
      - Use: 1
        Rate: 1
      - Use: 1
        Rate: 1
      - Use: 1
        Rate: 1
      - Use: 1
        Rate: 1
      - Use: 1
        Rate: 1
      - Use: 1
        Rate: 1
      - Use: 1
        Rate: 1
      - Use: 1
        Rate: 1
      - Use: 1
        Rate: 1
      - Use: 1
        Rate: 1
    PosXKeys:
    - Value: -342
      _Time: 5
      _ValueType: 0
      _Curve:
        Type: 1
        StartT: 0
        StartV: 0
        EndT: 0
        EndV: 0
    - Value: -342
      _Time: 25
      _ValueType: 0
      _Curve:
        Type: 1
        StartT: 0
        StartV: 0
        EndT: 0
        EndV: 0
    - Value: 356
      _Time: 26
      _ValueType: 0
      _Curve:
        Type: 1
        StartT: 0
        StartV: 0
        EndT: 0
        EndV: 0
    PosYKeys:
    - Value: -168
      _Time: 5
      _ValueType: 0
      _Curve:
        Type: 1
        StartT: 0
        StartV: 0
        EndT: 0
        EndV: 0
    - Value: -168
      _Time: 25
      _ValueType: 0
      _Curve:
        Type: 1
        StartT: 0
        StartV: 0
        EndT: 0
        EndV: 0
    - Value: -96
      _Time: 26
      _ValueType: 0
      _Curve:
        Type: 1
        StartT: 0
        StartV: 0
        EndT: 0
        EndV: 0
    AngleKeys: []
    ScaleXKeys:
    - Value: 0.8
      _Time: 5
      _ValueType: 0
      _Curve:
        Type: 1
        StartT: 0
        StartV: 0
        EndT: 0
        EndV: 0
    - Value: 0.8
      _Time: 26
      _ValueType: 0
      _Curve:
        Type: 1
        StartT: 0
        StartV: 0
        EndT: 0
        EndV: 0
    ScaleYKeys:
    - Value: 0.8
      _Time: 5
      _ValueType: 0
      _Curve:
        Type: 1
        StartT: 0
        StartV: 0
        EndT: 0
        EndV: 0
    - Value: 0.8
      _Time: 26
      _ValueType: 0
      _Curve:
        Type: 1
        StartT: 0
        StartV: 0
        EndT: 0
        EndV: 0
    TransKeys:
    - Value: 0
      _Time: 5
      _ValueType: 0
      _Curve:
        Type: 1
        StartT: 0
        StartV: 0
        EndT: 0
        EndV: 0
    - Value: 1
      _Time: 15
      _ValueType: 0
      _Curve:
        Type: 1
        StartT: 0
        StartV: 0
        EndT: 0
        EndV: 0
    - Value: 0
      _Time: 25
      _ValueType: 0
      _Curve:
        Type: 1
        StartT: 0
        StartV: 0
        EndT: 0
        EndV: 0
    - Value: 0
      _Time: 26
      _ValueType: 0
      _Curve:
        Type: 1
        StartT: 0
        StartV: 0
        EndT: 0
        EndV: 0
    - Value: 1
      _Time: 36
      _ValueType: 0
      _Curve:
        Type: 1
        StartT: 0
        StartV: 0
        EndT: 0
        EndV: 0
    - Value: 0
      _Time: 46
      _ValueType: 0
      _Curve:
        Type: 1
        StartT: 0
        StartV: 0
        EndT: 0
        EndV: 0
    PrioKeys: []
    FlipHKeys: []
    FlipVKeys: []
    HideKeys:
    - Value: 0
      _Time: 5
      _ValueType: 1
      _Curve:
        Type: 0
        StartT: 0
        StartV: 0
        EndT: 0
        EndV: 0
    - Value: 0
      _Time: 26
      _ValueType: 1
      _Curve:
        Type: 0
        StartT: 0
        StartV: 0
        EndT: 0
        EndV: 0
    PartsColKeys: []
    PartsPalKeys: []
    VertexKeys: []
    UserKeys: []
    SoundKeys: []
    ImageOffsetXKeys: []
    ImageOffsetYKeys: []
    ImageOffsetWKeys: []
    ImageOffsetHKeys: []
    OriginOffsetXKeys: []
    OriginOffsetYKeys: []
    PosXValues:
    - _RefKeyIndex: 0
      _Value: 0
    - _RefKeyIndex: 0
      _Value: 0
    - _RefKeyIndex: 0
      _Value: 0
    - _RefKeyIndex: 0
      _Value: 0
    - _RefKeyIndex: 0
      _Value: 0
    - _RefKeyIndex: -1
      _Value: -342
    - _RefKeyIndex: -1
      _Value: -342
    - _RefKeyIndex: -1
      _Value: -342
    - _RefKeyIndex: -1
      _Value: -342
    - _RefKeyIndex: -1
      _Value: -342
    - _RefKeyIndex: -1
      _Value: -342
    - _RefKeyIndex: -1
      _Value: -342
    - _RefKeyIndex: -1
      _Value: -342
    - _RefKeyIndex: -1
      _Value: -342
    - _RefKeyIndex: -1
      _Value: -342
    - _RefKeyIndex: -1
      _Value: -342
    - _RefKeyIndex: -1
      _Value: -342
    - _RefKeyIndex: -1
      _Value: -342
    - _RefKeyIndex: -1
      _Value: -342
    - _RefKeyIndex: -1
      _Value: -342
    - _RefKeyIndex: -1
      _Value: -342
    - _RefKeyIndex: -1
      _Value: -342
    - _RefKeyIndex: -1
      _Value: -342
    - _RefKeyIndex: -1
      _Value: -342
    - _RefKeyIndex: -1
      _Value: -342
    - _RefKeyIndex: -1
      _Value: -342
    - _RefKeyIndex: 2
      _Value: 0
    - _RefKeyIndex: 2
      _Value: 0
    - _RefKeyIndex: 2
      _Value: 0
    - _RefKeyIndex: 2
      _Value: 0
    - _RefKeyIndex: 2
      _Value: 0
    - _RefKeyIndex: 2
      _Value: 0
    - _RefKeyIndex: 2
      _Value: 0
    - _RefKeyIndex: 2
      _Value: 0
    - _RefKeyIndex: 2
      _Value: 0
    - _RefKeyIndex: 2
      _Value: 0
    - _RefKeyIndex: 2
      _Value: 0
    - _RefKeyIndex: 2
      _Value: 0
    - _RefKeyIndex: 2
      _Value: 0
    - _RefKeyIndex: 2
      _Value: 0
    - _RefKeyIndex: 2
      _Value: 0
    - _RefKeyIndex: 2
      _Value: 0
    - _RefKeyIndex: 2
      _Value: 0
    - _RefKeyIndex: 2
      _Value: 0
    - _RefKeyIndex: 2
      _Value: 0
    - _RefKeyIndex: 2
      _Value: 0
    - _RefKeyIndex: 2
      _Value: 0
    - _RefKeyIndex: 2
      _Value: 0
    - _RefKeyIndex: 2
      _Value: 0
    - _RefKeyIndex: 2
      _Value: 0
    - _RefKeyIndex: 2
      _Value: 0
    - _RefKeyIndex: 2
      _Value: 0
    - _RefKeyIndex: 2
      _Value: 0
    - _RefKeyIndex: 2
      _Value: 0
    - _RefKeyIndex: 2
      _Value: 0
    - _RefKeyIndex: 2
      _Value: 0
    - _RefKeyIndex: 2
      _Value: 0
    - _RefKeyIndex: 2
      _Value: 0
    - _RefKeyIndex: 2
      _Value: 0
    - _RefKeyIndex: 2
      _Value: 0
    - _RefKeyIndex: 2
      _Value: 0
    PosYValues:
    - _RefKeyIndex: 0
      _Value: 0
    - _RefKeyIndex: 0
      _Value: 0
    - _RefKeyIndex: 0
      _Value: 0
    - _RefKeyIndex: 0
      _Value: 0
    - _RefKeyIndex: 0
      _Value: 0
    - _RefKeyIndex: -1
      _Value: -168
    - _RefKeyIndex: -1
      _Value: -168
    - _RefKeyIndex: -1
      _Value: -168
    - _RefKeyIndex: -1
      _Value: -168
    - _RefKeyIndex: -1
      _Value: -168
    - _RefKeyIndex: -1
      _Value: -168
    - _RefKeyIndex: -1
      _Value: -168
    - _RefKeyIndex: -1
      _Value: -168
    - _RefKeyIndex: -1
      _Value: -168
    - _RefKeyIndex: -1
      _Value: -168
    - _RefKeyIndex: -1
      _Value: -168
    - _RefKeyIndex: -1
      _Value: -168
    - _RefKeyIndex: -1
      _Value: -168
    - _RefKeyIndex: -1
      _Value: -168
    - _RefKeyIndex: -1
      _Value: -168
    - _RefKeyIndex: -1
      _Value: -168
    - _RefKeyIndex: -1
      _Value: -168
    - _RefKeyIndex: -1
      _Value: -168
    - _RefKeyIndex: -1
      _Value: -168
    - _RefKeyIndex: -1
      _Value: -168
    - _RefKeyIndex: -1
      _Value: -168
    - _RefKeyIndex: 2
      _Value: 0
    - _RefKeyIndex: 2
      _Value: 0
    - _RefKeyIndex: 2
      _Value: 0
    - _RefKeyIndex: 2
      _Value: 0
    - _RefKeyIndex: 2
      _Value: 0
    - _RefKeyIndex: 2
      _Value: 0
    - _RefKeyIndex: 2
      _Value: 0
    - _RefKeyIndex: 2
      _Value: 0
    - _RefKeyIndex: 2
      _Value: 0
    - _RefKeyIndex: 2
      _Value: 0
    - _RefKeyIndex: 2
      _Value: 0
    - _RefKeyIndex: 2
      _Value: 0
    - _RefKeyIndex: 2
      _Value: 0
    - _RefKeyIndex: 2
      _Value: 0
    - _RefKeyIndex: 2
      _Value: 0
    - _RefKeyIndex: 2
      _Value: 0
    - _RefKeyIndex: 2
      _Value: 0
    - _RefKeyIndex: 2
      _Value: 0
    - _RefKeyIndex: 2
      _Value: 0
    - _RefKeyIndex: 2
      _Value: 0
    - _RefKeyIndex: 2
      _Value: 0
    - _RefKeyIndex: 2
      _Value: 0
    - _RefKeyIndex: 2
      _Value: 0
    - _RefKeyIndex: 2
      _Value: 0
    - _RefKeyIndex: 2
      _Value: 0
    - _RefKeyIndex: 2
      _Value: 0
    - _RefKeyIndex: 2
      _Value: 0
    - _RefKeyIndex: 2
      _Value: 0
    - _RefKeyIndex: 2
      _Value: 0
    - _RefKeyIndex: 2
      _Value: 0
    - _RefKeyIndex: 2
      _Value: 0
    - _RefKeyIndex: 2
      _Value: 0
    - _RefKeyIndex: 2
      _Value: 0
    - _RefKeyIndex: 2
      _Value: 0
    - _RefKeyIndex: 2
      _Value: 0
    AngleValues: []
    ScaleXValues:
    - _RefKeyIndex: 0
      _Value: 0
    ScaleYValues:
    - _RefKeyIndex: 0
      _Value: 0
    TransValues:
    - _RefKeyIndex: 0
      _Value: 0
    - _RefKeyIndex: 0
      _Value: 0
    - _RefKeyIndex: 0
      _Value: 0
    - _RefKeyIndex: 0
      _Value: 0
    - _RefKeyIndex: 0
      _Value: 0
    - _RefKeyIndex: -1
      _Value: 0
    - _RefKeyIndex: -1
      _Value: 0.1
    - _RefKeyIndex: -1
      _Value: 0.2
    - _RefKeyIndex: -1
      _Value: 0.3
    - _RefKeyIndex: -1
      _Value: 0.4
    - _RefKeyIndex: -1
      _Value: 0.5
    - _RefKeyIndex: -1
      _Value: 0.6
    - _RefKeyIndex: -1
      _Value: 0.7
    - _RefKeyIndex: -1
      _Value: 0.8
    - _RefKeyIndex: -1
      _Value: 0.9
    - _RefKeyIndex: -1
      _Value: 1
    - _RefKeyIndex: -1
      _Value: 0.9
    - _RefKeyIndex: -1
      _Value: 0.8
    - _RefKeyIndex: -1
      _Value: 0.7
    - _RefKeyIndex: -1
      _Value: 0.6
    - _RefKeyIndex: -1
      _Value: 0.5
    - _RefKeyIndex: -1
      _Value: 0.39999998
    - _RefKeyIndex: -1
      _Value: 0.3
    - _RefKeyIndex: -1
      _Value: 0.19999999
    - _RefKeyIndex: -1
      _Value: 0.100000024
    - _RefKeyIndex: -1
      _Value: 0
    - _RefKeyIndex: -1
      _Value: 0
    - _RefKeyIndex: -1
      _Value: 0.1
    - _RefKeyIndex: -1
      _Value: 0.2
    - _RefKeyIndex: -1
      _Value: 0.3
    - _RefKeyIndex: -1
      _Value: 0.4
    - _RefKeyIndex: -1
      _Value: 0.5
    - _RefKeyIndex: -1
      _Value: 0.6
    - _RefKeyIndex: -1
      _Value: 0.7
    - _RefKeyIndex: -1
      _Value: 0.8
    - _RefKeyIndex: -1
      _Value: 0.9
    - _RefKeyIndex: -1
      _Value: 1
    - _RefKeyIndex: -1
      _Value: 0.9
    - _RefKeyIndex: -1
      _Value: 0.8
    - _RefKeyIndex: -1
      _Value: 0.7
    - _RefKeyIndex: -1
      _Value: 0.6
    - _RefKeyIndex: -1
      _Value: 0.5
    - _RefKeyIndex: -1
      _Value: 0.39999998
    - _RefKeyIndex: -1
      _Value: 0.3
    - _RefKeyIndex: -1
      _Value: 0.19999999
    - _RefKeyIndex: -1
      _Value: 0.100000024
    - _RefKeyIndex: 5
      _Value: 0
    - _RefKeyIndex: 5
      _Value: 0
    - _RefKeyIndex: 5
      _Value: 0
    - _RefKeyIndex: 5
      _Value: 0
    - _RefKeyIndex: 5
      _Value: 0
    - _RefKeyIndex: 5
      _Value: 0
    - _RefKeyIndex: 5
      _Value: 0
    - _RefKeyIndex: 5
      _Value: 0
    - _RefKeyIndex: 5
      _Value: 0
    - _RefKeyIndex: 5
      _Value: 0
    - _RefKeyIndex: 5
      _Value: 0
    - _RefKeyIndex: 5
      _Value: 0
    - _RefKeyIndex: 5
      _Value: 0
    - _RefKeyIndex: 5
      _Value: 0
    - _RefKeyIndex: 5
      _Value: 0
    PrioValues: []
    FlipHValues: []
    FlipVValues: []
    HideValues:
    - _RefKeyIndex: 0
      _Value: 0
    PartsColValues: []
    PartsPalValues: []
    VertexValues: []
    UserValues: []
    SoundValues: []
    ImageOffsetXValues: []
    ImageOffsetYValues: []
    ImageOffsetWValues: []
    ImageOffsetHValues: []
    OriginOffsetXValues: []
    OriginOffsetYValues: []
    _hasAttrFlags: 571
    HasTrancparency: 1
    FrameNum: 61
    imageFile:
      path: Assets/Resources/Atlas/SS_Map01/SS_Map01.png
      texture: {fileID: 2800000, guid: bc9a51c6428c8204c817775406391f67, type: 3}
      materials:
      - {fileID: 0}
      - {fileID: 0}
      - {fileID: 0}
      - {fileID: 0}
      - {fileID: 0}
      - {fileID: 2100000, guid: dd91cce9a5028504d83b734706fa5a80, type: 2}
      - {fileID: 0}
      - {fileID: 0}
      - {fileID: 0}
      - {fileID: 0}
      - {fileID: 0}
      - {fileID: 0}
      - {fileID: 0}
      - {fileID: 0}
      - {fileID: 0}
      - {fileID: 0}
      - {fileID: 0}
      - {fileID: 0}
      - {fileID: 0}
      - {fileID: 0}
      - {fileID: 0}
      - {fileID: 0}
      - {fileID: 0}
      - {fileID: 0}
      - {fileID: 0}
      - {fileID: 0}
      - {fileID: 0}
      - {fileID: 0}
      - {fileID: 0}
      - {fileID: 0}
      - {fileID: 0}
      - {fileID: 0}
      - {fileID: 0}
      - {fileID: 0}
      - {fileID: 0}
      - {fileID: 0}
      - {fileID: 0}
      - {fileID: 0}
      - {fileID: 0}
      - {fileID: 0}
      - {fileID: 0}
      - {fileID: 0}
      - {fileID: 0}
      - {fileID: 0}
      - {fileID: 0}
      - {fileID: 0}
      - {fileID: 0}
      - {fileID: 0}
      - {fileID: 0}
      - {fileID: 0}
      width: 2048
      height: 2048
      bpp: 0
    UVs:
    - {x: 0.6328125, y: 0.13769531}
    - {x: 0.7050781, y: 0.13769531}
    - {x: 0.7050781, y: 0.06542969}
    - {x: 0.6328125, y: 0.06542969}
    OrgVertices:
    - {x: -74, y: 74, z: 0}
    - {x: 74, y: 74, z: 0}
    - {x: 74, y: -74, z: 0}
    - {x: -74, y: -74, z: 0}
  - AnimeRes: {fileID: 11400000}
    Name: ef05
    Type: 0
    PicArea:
      Left: 1296
      Top: 1766
      Right: 1444
      Bottom: 1914
    OriginX: 74
    OriginY: 74
    MyId: 7
    ParentId: 0
    ChildNum: 0
    SrcObjId: 0
    SrcObjType: 0
    AlphaBlendType: 1
    InheritState:
      Type: 0
      Values:
      - Use: 1
        Rate: 1
      - Use: 1
        Rate: 1
      - Use: 1
        Rate: 1
      - Use: 1
        Rate: 1
      - Use: 1
        Rate: 1
      - Use: 1
        Rate: 1
      - Use: 1
        Rate: 1
      - Use: 0
        Rate: 0
      - Use: 0
        Rate: 0
      - Use: 0
        Rate: 0
      - Use: 1
        Rate: 1
      - Use: 1
        Rate: 1
      - Use: 1
        Rate: 1
      - Use: 1
        Rate: 1
      - Use: 1
        Rate: 1
      - Use: 1
        Rate: 1
      - Use: 1
        Rate: 1
      - Use: 1
        Rate: 1
      - Use: 1
        Rate: 1
      - Use: 1
        Rate: 1
      - Use: 1
        Rate: 1
    PosXKeys:
    - Value: -150
      _Time: 0
      _ValueType: 0
      _Curve:
        Type: 1
        StartT: 0
        StartV: 0
        EndT: 0
        EndV: 0
    PosYKeys:
    - Value: -116
      _Time: 0
      _ValueType: 0
      _Curve:
        Type: 1
        StartT: 0
        StartV: 0
        EndT: 0
        EndV: 0
    AngleKeys: []
    ScaleXKeys: []
    ScaleYKeys: []
    TransKeys:
    - Value: 0.9
      _Time: 0
      _ValueType: 0
      _Curve:
        Type: 1
        StartT: 0
        StartV: 0
        EndT: 0
        EndV: 0
    - Value: 0
      _Time: 9
      _ValueType: 0
      _Curve:
        Type: 1
        StartT: 0
        StartV: 0
        EndT: 0
        EndV: 0
    - Value: 0
      _Time: 50
      _ValueType: 0
      _Curve:
        Type: 1
        StartT: 0
        StartV: 0
        EndT: 0
        EndV: 0
    - Value: 1
      _Time: 60
      _ValueType: 0
      _Curve:
        Type: 1
        StartT: 0
        StartV: 0
        EndT: 0
        EndV: 0
    PrioKeys: []
    FlipHKeys: []
    FlipVKeys: []
    HideKeys:
    - Value: 0
      _Time: 0
      _ValueType: 1
      _Curve:
        Type: 0
        StartT: 0
        StartV: 0
        EndT: 0
        EndV: 0
    - Value: 0
      _Time: 50
      _ValueType: 1
      _Curve:
        Type: 0
        StartT: 0
        StartV: 0
        EndT: 0
        EndV: 0
    PartsColKeys: []
    PartsPalKeys: []
    VertexKeys: []
    UserKeys: []
    SoundKeys: []
    ImageOffsetXKeys: []
    ImageOffsetYKeys: []
    ImageOffsetWKeys: []
    ImageOffsetHKeys: []
    OriginOffsetXKeys: []
    OriginOffsetYKeys: []
    PosXValues:
    - _RefKeyIndex: 0
      _Value: 0
    PosYValues:
    - _RefKeyIndex: 0
      _Value: 0
    AngleValues: []
    ScaleXValues: []
    ScaleYValues: []
    TransValues:
    - _RefKeyIndex: -1
      _Value: 0.9
    - _RefKeyIndex: -1
      _Value: 0.79999995
    - _RefKeyIndex: -1
      _Value: 0.7
    - _RefKeyIndex: -1
      _Value: 0.59999996
    - _RefKeyIndex: -1
      _Value: 0.49999997
    - _RefKeyIndex: -1
      _Value: 0.39999998
    - _RefKeyIndex: -1
      _Value: 0.29999998
    - _RefKeyIndex: -1
      _Value: 0.19999999
    - _RefKeyIndex: -1
      _Value: 0.099999994
    - _RefKeyIndex: -1
      _Value: 0
    - _RefKeyIndex: -1
      _Value: 0
    - _RefKeyIndex: -1
      _Value: 0
    - _RefKeyIndex: -1
      _Value: 0
    - _RefKeyIndex: -1
      _Value: 0
    - _RefKeyIndex: -1
      _Value: 0
    - _RefKeyIndex: -1
      _Value: 0
    - _RefKeyIndex: -1
      _Value: 0
    - _RefKeyIndex: -1
      _Value: 0
    - _RefKeyIndex: -1
      _Value: 0
    - _RefKeyIndex: -1
      _Value: 0
    - _RefKeyIndex: -1
      _Value: 0
    - _RefKeyIndex: -1
      _Value: 0
    - _RefKeyIndex: -1
      _Value: 0
    - _RefKeyIndex: -1
      _Value: 0
    - _RefKeyIndex: -1
      _Value: 0
    - _RefKeyIndex: -1
      _Value: 0
    - _RefKeyIndex: -1
      _Value: 0
    - _RefKeyIndex: -1
      _Value: 0
    - _RefKeyIndex: -1
      _Value: 0
    - _RefKeyIndex: -1
      _Value: 0
    - _RefKeyIndex: -1
      _Value: 0
    - _RefKeyIndex: -1
      _Value: 0
    - _RefKeyIndex: -1
      _Value: 0
    - _RefKeyIndex: -1
      _Value: 0
    - _RefKeyIndex: -1
      _Value: 0
    - _RefKeyIndex: -1
      _Value: 0
    - _RefKeyIndex: -1
      _Value: 0
    - _RefKeyIndex: -1
      _Value: 0
    - _RefKeyIndex: -1
      _Value: 0
    - _RefKeyIndex: -1
      _Value: 0
    - _RefKeyIndex: -1
      _Value: 0
    - _RefKeyIndex: -1
      _Value: 0
    - _RefKeyIndex: -1
      _Value: 0
    - _RefKeyIndex: -1
      _Value: 0
    - _RefKeyIndex: -1
      _Value: 0
    - _RefKeyIndex: -1
      _Value: 0
    - _RefKeyIndex: -1
      _Value: 0
    - _RefKeyIndex: -1
      _Value: 0
    - _RefKeyIndex: -1
      _Value: 0
    - _RefKeyIndex: -1
      _Value: 0
    - _RefKeyIndex: -1
      _Value: 0
    - _RefKeyIndex: -1
      _Value: 0.1
    - _RefKeyIndex: -1
      _Value: 0.2
    - _RefKeyIndex: -1
      _Value: 0.3
    - _RefKeyIndex: -1
      _Value: 0.4
    - _RefKeyIndex: -1
      _Value: 0.5
    - _RefKeyIndex: -1
      _Value: 0.6
    - _RefKeyIndex: -1
      _Value: 0.7
    - _RefKeyIndex: -1
      _Value: 0.8
    - _RefKeyIndex: -1
      _Value: 0.9
    - _RefKeyIndex: 3
      _Value: 0
    PrioValues: []
    FlipHValues: []
    FlipVValues: []
    HideValues:
    - _RefKeyIndex: 0
      _Value: 0
    PartsColValues: []
    PartsPalValues: []
    VertexValues: []
    UserValues: []
    SoundValues: []
    ImageOffsetXValues: []
    ImageOffsetYValues: []
    ImageOffsetWValues: []
    ImageOffsetHValues: []
    OriginOffsetXValues: []
    OriginOffsetYValues: []
    _hasAttrFlags: 547
    HasTrancparency: 1
    FrameNum: 61
    imageFile:
      path: Assets/Resources/Atlas/SS_Map01/SS_Map01.png
      texture: {fileID: 2800000, guid: bc9a51c6428c8204c817775406391f67, type: 3}
      materials:
      - {fileID: 0}
      - {fileID: 0}
      - {fileID: 0}
      - {fileID: 0}
      - {fileID: 0}
      - {fileID: 2100000, guid: dd91cce9a5028504d83b734706fa5a80, type: 2}
      - {fileID: 0}
      - {fileID: 0}
      - {fileID: 0}
      - {fileID: 0}
      - {fileID: 0}
      - {fileID: 0}
      - {fileID: 0}
      - {fileID: 0}
      - {fileID: 0}
      - {fileID: 0}
      - {fileID: 0}
      - {fileID: 0}
      - {fileID: 0}
      - {fileID: 0}
      - {fileID: 0}
      - {fileID: 0}
      - {fileID: 0}
      - {fileID: 0}
      - {fileID: 0}
      - {fileID: 0}
      - {fileID: 0}
      - {fileID: 0}
      - {fileID: 0}
      - {fileID: 0}
      - {fileID: 0}
      - {fileID: 0}
      - {fileID: 0}
      - {fileID: 0}
      - {fileID: 0}
      - {fileID: 0}
      - {fileID: 0}
      - {fileID: 0}
      - {fileID: 0}
      - {fileID: 0}
      - {fileID: 0}
      - {fileID: 0}
      - {fileID: 0}
      - {fileID: 0}
      - {fileID: 0}
      - {fileID: 0}
      - {fileID: 0}
      - {fileID: 0}
      - {fileID: 0}
      - {fileID: 0}
      width: 2048
      height: 2048
      bpp: 0
    UVs:
    - {x: 0.6328125, y: 0.13769531}
    - {x: 0.7050781, y: 0.13769531}
    - {x: 0.7050781, y: 0.06542969}
    - {x: 0.6328125, y: 0.06542969}
    OrgVertices:
    - {x: -74, y: 74, z: 0}
    - {x: 74, y: 74, z: 0}
    - {x: 74, y: -74, z: 0}
    - {x: -74, y: -74, z: 0}
  ImportedTime: -298109396
  ImportedTimeHigh: -1999323430
