%YAML 1.1
%TAG !u! tag:unity3d.com,2011:
--- !u!114 &11400000
MonoBehaviour:
  m_ObjectHideFlags: 0
  m_PrefabParentObject: {fileID: 0}
  m_PrefabInternal: {fileID: 0}
  m_GameObject: {fileID: 0}
  m_Enabled: 1
  m_EditorHideFlags: 0
  m_Script: {fileID: 11500000, guid: 0ae895f3348548989f1b4caf6cca149f, type: 3}
  m_Name: obj_SSmirror_anim_ssa
  m_EditorClassIdentifier:
  OriginalPath: Assets/Resources/Atlas/SS_Map01/obj_SSmirror_anim.ssax
  UseScaleFactor: 0
  ScaleFactor: 1
  FPS: 30
  EndFrame: 60
  hvFlipForImageOnly: 1
  ImageList:
  - path: Assets/Resources/Atlas/SS_Map01/SS_Map01.png
    texture: {fileID: 2800000, guid: bc9a51c6428c8204c817775406391f67, type: 3}
    materials:
    - {fileID: 0}
    - {fileID: 0}
    - {fileID: 0}
    - {fileID: 0}
    - {fileID: 0}
    - {fileID: 2100000, guid: dd91cce9a5028504d83b734706fa5a80, type: 2}
    - {fileID: 0}
    - {fileID: 0}
    - {fileID: 0}
    - {fileID: 0}
    - {fileID: 0}
    - {fileID: 0}
    - {fileID: 0}
    - {fileID: 0}
    - {fileID: 0}
    - {fileID: 0}
    - {fileID: 0}
    - {fileID: 0}
    - {fileID: 0}
    - {fileID: 0}
    - {fileID: 0}
    - {fileID: 0}
    - {fileID: 0}
    - {fileID: 0}
    - {fileID: 0}
    - {fileID: 0}
    - {fileID: 0}
    - {fileID: 0}
    - {fileID: 0}
    - {fileID: 0}
    - {fileID: 0}
    - {fileID: 0}
    - {fileID: 0}
    - {fileID: 0}
    - {fileID: 0}
    - {fileID: 0}
    - {fileID: 0}
    - {fileID: 0}
    - {fileID: 0}
    - {fileID: 0}
    - {fileID: 0}
    - {fileID: 0}
    - {fileID: 0}
    - {fileID: 0}
    - {fileID: 0}
    - {fileID: 0}
    - {fileID: 0}
    - {fileID: 0}
    - {fileID: 0}
    - {fileID: 0}
    width: 2048
    height: 2048
    bpp: 0
  PartList:
  - AnimeRes: {fileID: 11400000}
    Name: root
    Type: 1
    PicArea:
      Left: 0
      Top: 0
      Right: 0
      Bottom: 0
    OriginX: 0
    OriginY: 0
    MyId: 0
    ParentId: -1
    ChildNum: 0
    SrcObjId: 0
    SrcObjType: 0
    AlphaBlendType: 0
    InheritState:
      Type: 0
      Values:
      - Use: 1
        Rate: 1
      - Use: 1
        Rate: 1
      - Use: 1
        Rate: 1
      - Use: 1
        Rate: 1
      - Use: 1
        Rate: 1
      - Use: 1
        Rate: 1
      - Use: 1
        Rate: 1
      - Use: 0
        Rate: 0
      - Use: 0
        Rate: 0
      - Use: 0
        Rate: 0
      - Use: 1
        Rate: 1
      - Use: 1
        Rate: 1
      - Use: 1
        Rate: 1
      - Use: 1
        Rate: 1
      - Use: 1
        Rate: 1
      - Use: 1
        Rate: 1
      - Use: 1
        Rate: 1
      - Use: 1
        Rate: 1
      - Use: 1
        Rate: 1
      - Use: 1
        Rate: 1
      - Use: 1
        Rate: 1
    PosXKeys: []
    PosYKeys: []
    AngleKeys: []
    ScaleXKeys: []
    ScaleYKeys: []
    TransKeys: []
    PrioKeys: []
    FlipHKeys: []
    FlipVKeys: []
    HideKeys:
    - Value: 0
      _Time: 0
      _ValueType: 1
      _Curve:
        Type: 0
        StartT: 0
        StartV: 0
        EndT: 0
        EndV: 0
    PartsColKeys: []
    PartsPalKeys: []
    VertexKeys: []
    UserKeys: []
    SoundKeys: []
    ImageOffsetXKeys: []
    ImageOffsetYKeys: []
    ImageOffsetWKeys: []
    ImageOffsetHKeys: []
    OriginOffsetXKeys: []
    OriginOffsetYKeys: []
    PosXValues: []
    PosYValues: []
    AngleValues: []
    ScaleXValues: []
    ScaleYValues: []
    TransValues: []
    PrioValues: []
    FlipHValues: []
    FlipVValues: []
    HideValues:
    - _RefKeyIndex: 0
      _Value: 0
    - _RefKeyIndex: 0
      _Value: 0
    - _RefKeyIndex: 0
      _Value: 0
    - _RefKeyIndex: 0
      _Value: 0
    - _RefKeyIndex: 0
      _Value: 0
    - _RefKeyIndex: 0
      _Value: 0
    - _RefKeyIndex: 0
      _Value: 0
    - _RefKeyIndex: 0
      _Value: 0
    - _RefKeyIndex: 0
      _Value: 0
    - _RefKeyIndex: 0
      _Value: 0
    - _RefKeyIndex: 0
      _Value: 0
    - _RefKeyIndex: 0
      _Value: 0
    - _RefKeyIndex: 0
      _Value: 0
    - _RefKeyIndex: 0
      _Value: 0
    - _RefKeyIndex: 0
      _Value: 0
    - _RefKeyIndex: 0
      _Value: 0
    - _RefKeyIndex: 0
      _Value: 0
    - _RefKeyIndex: 0
      _Value: 0
    - _RefKeyIndex: 0
      _Value: 0
    - _RefKeyIndex: 0
      _Value: 0
    - _RefKeyIndex: 0
      _Value: 0
    - _RefKeyIndex: 0
      _Value: 0
    - _RefKeyIndex: 0
      _Value: 0
    - _RefKeyIndex: 0
      _Value: 0
    - _RefKeyIndex: 0
      _Value: 0
    - _RefKeyIndex: 0
      _Value: 0
    - _RefKeyIndex: 0
      _Value: 0
    - _RefKeyIndex: 0
      _Value: 0
    - _RefKeyIndex: 0
      _Value: 0
    - _RefKeyIndex: 0
      _Value: 0
    - _RefKeyIndex: 0
      _Value: 0
    - _RefKeyIndex: 0
      _Value: 0
    - _RefKeyIndex: 0
      _Value: 0
    - _RefKeyIndex: 0
      _Value: 0
    - _RefKeyIndex: 0
      _Value: 0
    - _RefKeyIndex: 0
      _Value: 0
    - _RefKeyIndex: 0
      _Value: 0
    - _RefKeyIndex: 0
      _Value: 0
    - _RefKeyIndex: 0
      _Value: 0
    - _RefKeyIndex: 0
      _Value: 0
    - _RefKeyIndex: 0
      _Value: 0
    - _RefKeyIndex: 0
      _Value: 0
    - _RefKeyIndex: 0
      _Value: 0
    - _RefKeyIndex: 0
      _Value: 0
    - _RefKeyIndex: 0
      _Value: 0
    - _RefKeyIndex: 0
      _Value: 0
    - _RefKeyIndex: 0
      _Value: 0
    - _RefKeyIndex: 0
      _Value: 0
    - _RefKeyIndex: 0
      _Value: 0
    - _RefKeyIndex: 0
      _Value: 0
    - _RefKeyIndex: 0
      _Value: 0
    - _RefKeyIndex: 0
      _Value: 0
    - _RefKeyIndex: 0
      _Value: 0
    - _RefKeyIndex: 0
      _Value: 0
    - _RefKeyIndex: 0
      _Value: 0
    - _RefKeyIndex: 0
      _Value: 0
    - _RefKeyIndex: 0
      _Value: 0
    - _RefKeyIndex: 0
      _Value: 0
    - _RefKeyIndex: 0
      _Value: 0
    - _RefKeyIndex: 0
      _Value: 0
    - _RefKeyIndex: 0
      _Value: 0
    PartsColValues: []
    PartsPalValues: []
    VertexValues: []
    UserValues: []
    SoundValues: []
    ImageOffsetXValues: []
    ImageOffsetYValues: []
    ImageOffsetWValues: []
    ImageOffsetHValues: []
    OriginOffsetXValues: []
    OriginOffsetYValues: []
    _hasAttrFlags: 512
    HasTrancparency: 0
    FrameNum: 61
    imageFile:
      path:
      texture: {fileID: 0}
      materials: []
      width: 0
      height: 0
      bpp: 0
    UVs: []
    OrgVertices:
    - {x: -0, y: 0, z: 0}
    - {x: 0, y: 0, z: 0}
    - {x: 0, y: -0, z: 0}
    - {x: -0, y: -0, z: 0}
  - AnimeRes: {fileID: 11400000}
    Name: mirror
    Type: 0
    PicArea:
      Left: 1662
      Top: 1766
      Right: 1726
      Bottom: 1922
    OriginX: 32
    OriginY: 78
    MyId: 1
    ParentId: 0
    ChildNum: 0
    SrcObjId: 0
    SrcObjType: 0
    AlphaBlendType: 1
    InheritState:
      Type: 0
      Values:
      - Use: 1
        Rate: 1
      - Use: 1
        Rate: 1
      - Use: 1
        Rate: 1
      - Use: 1
        Rate: 1
      - Use: 1
        Rate: 1
      - Use: 1
        Rate: 1
      - Use: 1
        Rate: 1
      - Use: 0
        Rate: 0
      - Use: 0
        Rate: 0
      - Use: 0
        Rate: 0
      - Use: 1
        Rate: 1
      - Use: 1
        Rate: 1
      - Use: 1
        Rate: 1
      - Use: 1
        Rate: 1
      - Use: 1
        Rate: 1
      - Use: 1
        Rate: 1
      - Use: 1
        Rate: 1
      - Use: 1
        Rate: 1
      - Use: 1
        Rate: 1
      - Use: 1
        Rate: 1
      - Use: 1
        Rate: 1
    PosXKeys:
    - Value: 43
      _Time: 0
      _ValueType: 0
      _Curve:
        Type: 1
        StartT: 0
        StartV: 0
        EndT: 0
        EndV: 0
    PosYKeys:
    - Value: -22
      _Time: 0
      _ValueType: 0
      _Curve:
        Type: 1
        StartT: 0
        StartV: 0
        EndT: 0
        EndV: 0
    AngleKeys:
    - Value: 0
      _Time: 0
      _ValueType: 0
      _Curve:
        Type: 1
        StartT: 0
        StartV: 0
        EndT: 0
        EndV: 0
    ScaleXKeys:
    - Value: 1.4
      _Time: 0
      _ValueType: 0
      _Curve:
        Type: 1
        StartT: 0
        StartV: 0
        EndT: 0
        EndV: 0
    ScaleYKeys:
    - Value: 1.4
      _Time: 0
      _ValueType: 0
      _Curve:
        Type: 1
        StartT: 0
        StartV: 0
        EndT: 0
        EndV: 0
    TransKeys:
    - Value: 0.3
      _Time: 0
      _ValueType: 0
      _Curve:
        Type: 1
        StartT: 0
        StartV: 0
        EndT: 0
        EndV: 0
    - Value: 1
      _Time: 20
      _ValueType: 0
      _Curve:
        Type: 1
        StartT: 0
        StartV: 0
        EndT: 0
        EndV: 0
    - Value: 0.3
      _Time: 60
      _ValueType: 0
      _Curve:
        Type: 1
        StartT: 0
        StartV: 0
        EndT: 0
        EndV: 0
    PrioKeys: []
    FlipHKeys: []
    FlipVKeys: []
    HideKeys:
    - Value: 0
      _Time: 0
      _ValueType: 1
      _Curve:
        Type: 0
        StartT: 0
        StartV: 0
        EndT: 0
        EndV: 0
    PartsColKeys: []
    PartsPalKeys: []
    VertexKeys: []
    UserKeys: []
    SoundKeys: []
    ImageOffsetXKeys: []
    ImageOffsetYKeys: []
    ImageOffsetWKeys: []
    ImageOffsetHKeys: []
    OriginOffsetXKeys: []
    OriginOffsetYKeys: []
    PosXValues:
    - _RefKeyIndex: 0
      _Value: 0
    PosYValues:
    - _RefKeyIndex: 0
      _Value: 0
    AngleValues:
    - _RefKeyIndex: 0
      _Value: 0
    ScaleXValues:
    - _RefKeyIndex: 0
      _Value: 0
    ScaleYValues:
    - _RefKeyIndex: 0
      _Value: 0
    TransValues:
    - _RefKeyIndex: -1
      _Value: 0.3
    - _RefKeyIndex: -1
      _Value: 0.335
    - _RefKeyIndex: -1
      _Value: 0.37
    - _RefKeyIndex: -1
      _Value: 0.405
    - _RefKeyIndex: -1
      _Value: 0.44
    - _RefKeyIndex: -1
      _Value: 0.47500002
    - _RefKeyIndex: -1
      _Value: 0.51
    - _RefKeyIndex: -1
      _Value: 0.545
    - _RefKeyIndex: -1
      _Value: 0.58
    - _RefKeyIndex: -1
      _Value: 0.615
    - _RefKeyIndex: -1
      _Value: 0.65
    - _RefKeyIndex: -1
      _Value: 0.685
    - _RefKeyIndex: -1
      _Value: 0.72
    - _RefKeyIndex: -1
      _Value: 0.755
    - _RefKeyIndex: -1
      _Value: 0.79
    - _RefKeyIndex: -1
      _Value: 0.825
    - _RefKeyIndex: -1
      _Value: 0.86
    - _RefKeyIndex: -1
      _Value: 0.89500004
    - _RefKeyIndex: -1
      _Value: 0.93
    - _RefKeyIndex: -1
      _Value: 0.965
    - _RefKeyIndex: -1
      _Value: 1
    - _RefKeyIndex: -1
      _Value: 0.9825
    - _RefKeyIndex: -1
      _Value: 0.965
    - _RefKeyIndex: -1
      _Value: 0.9475
    - _RefKeyIndex: -1
      _Value: 0.93
    - _RefKeyIndex: -1
      _Value: 0.9125
    - _RefKeyIndex: -1
      _Value: 0.895
    - _RefKeyIndex: -1
      _Value: 0.8775
    - _RefKeyIndex: -1
      _Value: 0.86
    - _RefKeyIndex: -1
      _Value: 0.84250003
    - _RefKeyIndex: -1
      _Value: 0.825
    - _RefKeyIndex: -1
      _Value: 0.8075
    - _RefKeyIndex: -1
      _Value: 0.79
    - _RefKeyIndex: -1
      _Value: 0.77250004
    - _RefKeyIndex: -1
      _Value: 0.755
    - _RefKeyIndex: -1
      _Value: 0.7375
    - _RefKeyIndex: -1
      _Value: 0.72
    - _RefKeyIndex: -1
      _Value: 0.7025
    - _RefKeyIndex: -1
      _Value: 0.685
    - _RefKeyIndex: -1
      _Value: 0.6675
    - _RefKeyIndex: -1
      _Value: 0.65
    - _RefKeyIndex: -1
      _Value: 0.63250005
    - _RefKeyIndex: -1
      _Value: 0.615
    - _RefKeyIndex: -1
      _Value: 0.5975
    - _RefKeyIndex: -1
      _Value: 0.58
    - _RefKeyIndex: -1
      _Value: 0.5625
    - _RefKeyIndex: -1
      _Value: 0.545
    - _RefKeyIndex: -1
      _Value: 0.5275
    - _RefKeyIndex: -1
      _Value: 0.51
    - _RefKeyIndex: -1
      _Value: 0.49249998
    - _RefKeyIndex: -1
      _Value: 0.47500002
    - _RefKeyIndex: -1
      _Value: 0.45750004
    - _RefKeyIndex: -1
      _Value: 0.44
    - _RefKeyIndex: -1
      _Value: 0.4225
    - _RefKeyIndex: -1
      _Value: 0.405
    - _RefKeyIndex: -1
      _Value: 0.38750002
    - _RefKeyIndex: -1
      _Value: 0.37000003
    - _RefKeyIndex: -1
      _Value: 0.3525
    - _RefKeyIndex: -1
      _Value: 0.335
    - _RefKeyIndex: -1
      _Value: 0.3175
    - _RefKeyIndex: 2
      _Value: 0
    PrioValues: []
    FlipHValues: []
    FlipVValues: []
    HideValues:
    - _RefKeyIndex: 0
      _Value: 0
    - _RefKeyIndex: 0
      _Value: 0
    - _RefKeyIndex: 0
      _Value: 0
    - _RefKeyIndex: 0
      _Value: 0
    - _RefKeyIndex: 0
      _Value: 0
    - _RefKeyIndex: 0
      _Value: 0
    - _RefKeyIndex: 0
      _Value: 0
    - _RefKeyIndex: 0
      _Value: 0
    - _RefKeyIndex: 0
      _Value: 0
    - _RefKeyIndex: 0
      _Value: 0
    - _RefKeyIndex: 0
      _Value: 0
    - _RefKeyIndex: 0
      _Value: 0
    - _RefKeyIndex: 0
      _Value: 0
    - _RefKeyIndex: 0
      _Value: 0
    - _RefKeyIndex: 0
      _Value: 0
    - _RefKeyIndex: 0
      _Value: 0
    - _RefKeyIndex: 0
      _Value: 0
    - _RefKeyIndex: 0
      _Value: 0
    - _RefKeyIndex: 0
      _Value: 0
    - _RefKeyIndex: 0
      _Value: 0
    - _RefKeyIndex: 0
      _Value: 0
    - _RefKeyIndex: 0
      _Value: 0
    - _RefKeyIndex: 0
      _Value: 0
    - _RefKeyIndex: 0
      _Value: 0
    - _RefKeyIndex: 0
      _Value: 0
    - _RefKeyIndex: 0
      _Value: 0
    - _RefKeyIndex: 0
      _Value: 0
    - _RefKeyIndex: 0
      _Value: 0
    - _RefKeyIndex: 0
      _Value: 0
    - _RefKeyIndex: 0
      _Value: 0
    - _RefKeyIndex: 0
      _Value: 0
    - _RefKeyIndex: 0
      _Value: 0
    - _RefKeyIndex: 0
      _Value: 0
    - _RefKeyIndex: 0
      _Value: 0
    - _RefKeyIndex: 0
      _Value: 0
    - _RefKeyIndex: 0
      _Value: 0
    - _RefKeyIndex: 0
      _Value: 0
    - _RefKeyIndex: 0
      _Value: 0
    - _RefKeyIndex: 0
      _Value: 0
    - _RefKeyIndex: 0
      _Value: 0
    - _RefKeyIndex: 0
      _Value: 0
    - _RefKeyIndex: 0
      _Value: 0
    - _RefKeyIndex: 0
      _Value: 0
    - _RefKeyIndex: 0
      _Value: 0
    - _RefKeyIndex: 0
      _Value: 0
    - _RefKeyIndex: 0
      _Value: 0
    - _RefKeyIndex: 0
      _Value: 0
    - _RefKeyIndex: 0
      _Value: 0
    - _RefKeyIndex: 0
      _Value: 0
    - _RefKeyIndex: 0
      _Value: 0
    - _RefKeyIndex: 0
      _Value: 0
    - _RefKeyIndex: 0
      _Value: 0
    - _RefKeyIndex: 0
      _Value: 0
    - _RefKeyIndex: 0
      _Value: 0
    - _RefKeyIndex: 0
      _Value: 0
    - _RefKeyIndex: 0
      _Value: 0
    - _RefKeyIndex: 0
      _Value: 0
    - _RefKeyIndex: 0
      _Value: 0
    - _RefKeyIndex: 0
      _Value: 0
    - _RefKeyIndex: 0
      _Value: 0
    - _RefKeyIndex: 0
      _Value: 0
    PartsColValues: []
    PartsPalValues: []
    VertexValues: []
    UserValues: []
    SoundValues: []
    ImageOffsetXValues: []
    ImageOffsetYValues: []
    ImageOffsetWValues: []
    ImageOffsetHValues: []
    OriginOffsetXValues: []
    OriginOffsetYValues: []
    _hasAttrFlags: 575
    HasTrancparency: 1
    FrameNum: 61
    imageFile:
      path: Assets/Resources/Atlas/SS_Map01/SS_Map01.png
      texture: {fileID: 2800000, guid: bc9a51c6428c8204c817775406391f67, type: 3}
      materials:
      - {fileID: 0}
      - {fileID: 0}
      - {fileID: 0}
      - {fileID: 0}
      - {fileID: 0}
      - {fileID: 2100000, guid: dd91cce9a5028504d83b734706fa5a80, type: 2}
      - {fileID: 0}
      - {fileID: 0}
      - {fileID: 0}
      - {fileID: 0}
      - {fileID: 0}
      - {fileID: 0}
      - {fileID: 0}
      - {fileID: 0}
      - {fileID: 0}
      - {fileID: 0}
      - {fileID: 0}
      - {fileID: 0}
      - {fileID: 0}
      - {fileID: 0}
      - {fileID: 0}
      - {fileID: 0}
      - {fileID: 0}
      - {fileID: 0}
      - {fileID: 0}
      - {fileID: 0}
      - {fileID: 0}
      - {fileID: 0}
      - {fileID: 0}
      - {fileID: 0}
      - {fileID: 0}
      - {fileID: 0}
      - {fileID: 0}
      - {fileID: 0}
      - {fileID: 0}
      - {fileID: 0}
      - {fileID: 0}
      - {fileID: 0}
      - {fileID: 0}
      - {fileID: 0}
      - {fileID: 0}
      - {fileID: 0}
      - {fileID: 0}
      - {fileID: 0}
      - {fileID: 0}
      - {fileID: 0}
      - {fileID: 0}
      - {fileID: 0}
      - {fileID: 0}
      - {fileID: 0}
      width: 2048
      height: 2048
      bpp: 0
    UVs:
    - {x: 0.81152344, y: 0.13769531}
    - {x: 0.84277344, y: 0.13769531}
    - {x: 0.84277344, y: 0.061523438}
    - {x: 0.81152344, y: 0.061523438}
    OrgVertices:
    - {x: -32, y: 78, z: 0}
    - {x: 32, y: 78, z: 0}
    - {x: 32, y: -78, z: 0}
    - {x: -32, y: -78, z: 0}
  - AnimeRes: {fileID: 11400000}
    Name: SSst00
    Type: 0
    PicArea:
      Left: 1985
      Top: 8
      Right: 2033
      Bottom: 136
    OriginX: 24
    OriginY: 64
    MyId: 2
    ParentId: 0
    ChildNum: 0
    SrcObjId: 0
    SrcObjType: 0
    AlphaBlendType: 1
    InheritState:
      Type: 0
      Values:
      - Use: 1
        Rate: 1
      - Use: 1
        Rate: 1
      - Use: 1
        Rate: 1
      - Use: 1
        Rate: 1
      - Use: 1
        Rate: 1
      - Use: 1
        Rate: 1
      - Use: 1
        Rate: 1
      - Use: 0
        Rate: 0
      - Use: 0
        Rate: 0
      - Use: 0
        Rate: 0
      - Use: 1
        Rate: 1
      - Use: 1
        Rate: 1
      - Use: 1
        Rate: 1
      - Use: 1
        Rate: 1
      - Use: 1
        Rate: 1
      - Use: 1
        Rate: 1
      - Use: 1
        Rate: 1
      - Use: 1
        Rate: 1
      - Use: 1
        Rate: 1
      - Use: 1
        Rate: 1
      - Use: 1
        Rate: 1
    PosXKeys:
    - Value: -364
      _Time: 0
      _ValueType: 0
      _Curve:
        Type: 1
        StartT: 0
        StartV: 0
        EndT: 0
        EndV: 0
    - Value: -364
      _Time: 28
      _ValueType: 0
      _Curve:
        Type: 1
        StartT: 0
        StartV: 0
        EndT: 0
        EndV: 0
    - Value: -364
      _Time: 60
      _ValueType: 0
      _Curve:
        Type: 1
        StartT: 0
        StartV: 0
        EndT: 0
        EndV: 0
    PosYKeys:
    - Value: -240
      _Time: 0
      _ValueType: 0
      _Curve:
        Type: 1
        StartT: 0
        StartV: 0
        EndT: 0
        EndV: 0
    - Value: -258
      _Time: 28
      _ValueType: 0
      _Curve:
        Type: 1
        StartT: 0
        StartV: 0
        EndT: 0
        EndV: 0
    - Value: -240
      _Time: 60
      _ValueType: 0
      _Curve:
        Type: 1
        StartT: 0
        StartV: 0
        EndT: 0
        EndV: 0
    AngleKeys: []
    ScaleXKeys: []
    ScaleYKeys: []
    TransKeys: []
    PrioKeys: []
    FlipHKeys: []
    FlipVKeys: []
    HideKeys:
    - Value: 0
      _Time: 0
      _ValueType: 1
      _Curve:
        Type: 0
        StartT: 0
        StartV: 0
        EndT: 0
        EndV: 0
    - Value: 0
      _Time: 60
      _ValueType: 1
      _Curve:
        Type: 0
        StartT: 0
        StartV: 0
        EndT: 0
        EndV: 0
    PartsColKeys: []
    PartsPalKeys: []
    VertexKeys: []
    UserKeys: []
    SoundKeys: []
    ImageOffsetXKeys: []
    ImageOffsetYKeys: []
    ImageOffsetWKeys: []
    ImageOffsetHKeys: []
    OriginOffsetXKeys: []
    OriginOffsetYKeys: []
    PosXValues:
    - _RefKeyIndex: -1
      _Value: -364
    PosYValues:
    - _RefKeyIndex: -1
      _Value: -240
    - _RefKeyIndex: -1
      _Value: -240.64285
    - _RefKeyIndex: -1
      _Value: -241.28572
    - _RefKeyIndex: -1
      _Value: -241.92857
    - _RefKeyIndex: -1
      _Value: -242.57143
    - _RefKeyIndex: -1
      _Value: -243.21428
    - _RefKeyIndex: -1
      _Value: -243.85715
    - _RefKeyIndex: -1
      _Value: -244.5
    - _RefKeyIndex: -1
      _Value: -245.14285
    - _RefKeyIndex: -1
      _Value: -245.78572
    - _RefKeyIndex: -1
      _Value: -246.42857
    - _RefKeyIndex: -1
      _Value: -247.07143
    - _RefKeyIndex: -1
      _Value: -247.71428
    - _RefKeyIndex: -1
      _Value: -248.35715
    - _RefKeyIndex: -1
      _Value: -249
    - _RefKeyIndex: -1
      _Value: -249.64285
    - _RefKeyIndex: -1
      _Value: -250.28572
    - _RefKeyIndex: -1
      _Value: -250.92857
    - _RefKeyIndex: -1
      _Value: -251.57143
    - _RefKeyIndex: -1
      _Value: -252.21428
    - _RefKeyIndex: -1
      _Value: -252.85715
    - _RefKeyIndex: -1
      _Value: -253.5
    - _RefKeyIndex: -1
      _Value: -254.14285
    - _RefKeyIndex: -1
      _Value: -254.78572
    - _RefKeyIndex: -1
      _Value: -255.42857
    - _RefKeyIndex: -1
      _Value: -256.07144
    - _RefKeyIndex: -1
      _Value: -256.7143
    - _RefKeyIndex: -1
      _Value: -257.35715
    - _RefKeyIndex: -1
      _Value: -258
    - _RefKeyIndex: -1
      _Value: -257.4375
    - _RefKeyIndex: -1
      _Value: -256.875
    - _RefKeyIndex: -1
      _Value: -256.3125
    - _RefKeyIndex: -1
      _Value: -255.75
    - _RefKeyIndex: -1
      _Value: -255.1875
    - _RefKeyIndex: -1
      _Value: -254.625
    - _RefKeyIndex: -1
      _Value: -254.0625
    - _RefKeyIndex: -1
      _Value: -253.5
    - _RefKeyIndex: -1
      _Value: -252.9375
    - _RefKeyIndex: -1
      _Value: -252.375
    - _RefKeyIndex: -1
      _Value: -251.8125
    - _RefKeyIndex: -1
      _Value: -251.25
    - _RefKeyIndex: -1
      _Value: -250.6875
    - _RefKeyIndex: -1
      _Value: -250.125
    - _RefKeyIndex: -1
      _Value: -249.5625
    - _RefKeyIndex: -1
      _Value: -249
    - _RefKeyIndex: -1
      _Value: -248.4375
    - _RefKeyIndex: -1
      _Value: -247.875
    - _RefKeyIndex: -1
      _Value: -247.3125
    - _RefKeyIndex: -1
      _Value: -246.75
    - _RefKeyIndex: -1
      _Value: -246.1875
    - _RefKeyIndex: -1
      _Value: -245.625
    - _RefKeyIndex: -1
      _Value: -245.0625
    - _RefKeyIndex: -1
      _Value: -244.5
    - _RefKeyIndex: -1
      _Value: -243.9375
    - _RefKeyIndex: -1
      _Value: -243.375
    - _RefKeyIndex: -1
      _Value: -242.8125
    - _RefKeyIndex: -1
      _Value: -242.25
    - _RefKeyIndex: -1
      _Value: -241.6875
    - _RefKeyIndex: -1
      _Value: -241.125
    - _RefKeyIndex: -1
      _Value: -240.5625
    - _RefKeyIndex: 2
      _Value: 0
    AngleValues: []
    ScaleXValues: []
    ScaleYValues: []
    TransValues: []
    PrioValues: []
    FlipHValues: []
    FlipVValues: []
    HideValues:
    - _RefKeyIndex: 0
      _Value: 0
    PartsColValues: []
    PartsPalValues: []
    VertexValues: []
    UserValues: []
    SoundValues: []
    ImageOffsetXValues: []
    ImageOffsetYValues: []
    ImageOffsetWValues: []
    ImageOffsetHValues: []
    OriginOffsetXValues: []
    OriginOffsetYValues: []
    _hasAttrFlags: 515
    HasTrancparency: 0
    FrameNum: 61
    imageFile:
      path: Assets/Resources/Atlas/SS_Map01/SS_Map01.png
      texture: {fileID: 2800000, guid: bc9a51c6428c8204c817775406391f67, type: 3}
      materials:
      - {fileID: 0}
      - {fileID: 0}
      - {fileID: 0}
      - {fileID: 0}
      - {fileID: 0}
      - {fileID: 2100000, guid: dd91cce9a5028504d83b734706fa5a80, type: 2}
      - {fileID: 0}
      - {fileID: 0}
      - {fileID: 0}
      - {fileID: 0}
      - {fileID: 0}
      - {fileID: 0}
      - {fileID: 0}
      - {fileID: 0}
      - {fileID: 0}
      - {fileID: 0}
      - {fileID: 0}
      - {fileID: 0}
      - {fileID: 0}
      - {fileID: 0}
      - {fileID: 0}
      - {fileID: 0}
      - {fileID: 0}
      - {fileID: 0}
      - {fileID: 0}
      - {fileID: 0}
      - {fileID: 0}
      - {fileID: 0}
      - {fileID: 0}
      - {fileID: 0}
      - {fileID: 0}
      - {fileID: 0}
      - {fileID: 0}
      - {fileID: 0}
      - {fileID: 0}
      - {fileID: 0}
      - {fileID: 0}
      - {fileID: 0}
      - {fileID: 0}
      - {fileID: 0}
      - {fileID: 0}
      - {fileID: 0}
      - {fileID: 0}
      - {fileID: 0}
      - {fileID: 0}
      - {fileID: 0}
      - {fileID: 0}
      - {fileID: 0}
      - {fileID: 0}
      - {fileID: 0}
      width: 2048
      height: 2048
      bpp: 0
    UVs:
    - {x: 0.9692383, y: 0.99609375}
    - {x: 0.9926758, y: 0.99609375}
    - {x: 0.9926758, y: 0.93359375}
    - {x: 0.9692383, y: 0.93359375}
    OrgVertices:
    - {x: -24, y: 64, z: 0}
    - {x: 24, y: 64, z: 0}
    - {x: 24, y: -64, z: 0}
    - {x: -24, y: -64, z: 0}
  - AnimeRes: {fileID: 11400000}
    Name: SSst01
    Type: 0
    PicArea:
      Left: 1839
      Top: 1874
      Right: 1931
      Bottom: 1954
    OriginX: 46
    OriginY: 40
    MyId: 3
    ParentId: 0
    ChildNum: 0
    SrcObjId: 0
    SrcObjType: 0
    AlphaBlendType: 1
    InheritState:
      Type: 0
      Values:
      - Use: 1
        Rate: 1
      - Use: 1
        Rate: 1
      - Use: 1
        Rate: 1
      - Use: 1
        Rate: 1
      - Use: 1
        Rate: 1
      - Use: 1
        Rate: 1
      - Use: 1
        Rate: 1
      - Use: 0
        Rate: 0
      - Use: 0
        Rate: 0
      - Use: 0
        Rate: 0
      - Use: 1
        Rate: 1
      - Use: 1
        Rate: 1
      - Use: 1
        Rate: 1
      - Use: 1
        Rate: 1
      - Use: 1
        Rate: 1
      - Use: 1
        Rate: 1
      - Use: 1
        Rate: 1
      - Use: 1
        Rate: 1
      - Use: 1
        Rate: 1
      - Use: 1
        Rate: 1
      - Use: 1
        Rate: 1
    PosXKeys:
    - Value: -248
      _Time: 0
      _ValueType: 0
      _Curve:
        Type: 1
        StartT: 0
        StartV: 0
        EndT: 0
        EndV: 0
    - Value: -248
      _Time: 30
      _ValueType: 0
      _Curve:
        Type: 1
        StartT: 0
        StartV: 0
        EndT: 0
        EndV: 0
    - Value: -248
      _Time: 60
      _ValueType: 0
      _Curve:
        Type: 1
        StartT: 0
        StartV: 0
        EndT: 0
        EndV: 0
    PosYKeys:
    - Value: -174
      _Time: 0
      _ValueType: 0
      _Curve:
        Type: 1
        StartT: 0
        StartV: 0
        EndT: 0
        EndV: 0
    - Value: -166
      _Time: 30
      _ValueType: 0
      _Curve:
        Type: 1
        StartT: 0
        StartV: 0
        EndT: 0
        EndV: 0
    - Value: -174
      _Time: 60
      _ValueType: 0
      _Curve:
        Type: 1
        StartT: 0
        StartV: 0
        EndT: 0
        EndV: 0
    AngleKeys: []
    ScaleXKeys: []
    ScaleYKeys: []
    TransKeys: []
    PrioKeys: []
    FlipHKeys: []
    FlipVKeys: []
    HideKeys:
    - Value: 0
      _Time: 0
      _ValueType: 1
      _Curve:
        Type: 0
        StartT: 0
        StartV: 0
        EndT: 0
        EndV: 0
    - Value: 0
      _Time: 60
      _ValueType: 1
      _Curve:
        Type: 0
        StartT: 0
        StartV: 0
        EndT: 0
        EndV: 0
    PartsColKeys: []
    PartsPalKeys: []
    VertexKeys: []
    UserKeys: []
    SoundKeys: []
    ImageOffsetXKeys: []
    ImageOffsetYKeys: []
    ImageOffsetWKeys: []
    ImageOffsetHKeys: []
    OriginOffsetXKeys: []
    OriginOffsetYKeys: []
    PosXValues:
    - _RefKeyIndex: -1
      _Value: -248
    PosYValues:
    - _RefKeyIndex: -1
      _Value: -174
    - _RefKeyIndex: -1
      _Value: -173.73334
    - _RefKeyIndex: -1
      _Value: -173.46666
    - _RefKeyIndex: -1
      _Value: -173.2
    - _RefKeyIndex: -1
      _Value: -172.93333
    - _RefKeyIndex: -1
      _Value: -172.66667
    - _RefKeyIndex: -1
      _Value: -172.4
    - _RefKeyIndex: -1
      _Value: -172.13333
    - _RefKeyIndex: -1
      _Value: -171.86667
    - _RefKeyIndex: -1
      _Value: -171.6
    - _RefKeyIndex: -1
      _Value: -171.33333
    - _RefKeyIndex: -1
      _Value: -171.06667
    - _RefKeyIndex: -1
      _Value: -170.8
    - _RefKeyIndex: -1
      _Value: -170.53334
    - _RefKeyIndex: -1
      _Value: -170.26666
    - _RefKeyIndex: -1
      _Value: -170
    - _RefKeyIndex: -1
      _Value: -169.73334
    - _RefKeyIndex: -1
      _Value: -169.46666
    - _RefKeyIndex: -1
      _Value: -169.2
    - _RefKeyIndex: -1
      _Value: -168.93333
    - _RefKeyIndex: -1
      _Value: -168.66667
    - _RefKeyIndex: -1
      _Value: -168.4
    - _RefKeyIndex: -1
      _Value: -168.13333
    - _RefKeyIndex: -1
      _Value: -167.86667
    - _RefKeyIndex: -1
      _Value: -167.6
    - _RefKeyIndex: -1
      _Value: -167.33333
    - _RefKeyIndex: -1
      _Value: -167.06667
    - _RefKeyIndex: -1
      _Value: -166.8
    - _RefKeyIndex: -1
      _Value: -166.53334
    - _RefKeyIndex: -1
      _Value: -166.26666
    - _RefKeyIndex: -1
      _Value: -166
    - _RefKeyIndex: -1
      _Value: -166.26666
    - _RefKeyIndex: -1
      _Value: -166.53334
    - _RefKeyIndex: -1
      _Value: -166.8
    - _RefKeyIndex: -1
      _Value: -167.06667
    - _RefKeyIndex: -1
      _Value: -167.33333
    - _RefKeyIndex: -1
      _Value: -167.6
    - _RefKeyIndex: -1
      _Value: -167.86667
    - _RefKeyIndex: -1
      _Value: -168.13333
    - _RefKeyIndex: -1
      _Value: -168.4
    - _RefKeyIndex: -1
      _Value: -168.66667
    - _RefKeyIndex: -1
      _Value: -168.93333
    - _RefKeyIndex: -1
      _Value: -169.2
    - _RefKeyIndex: -1
      _Value: -169.46666
    - _RefKeyIndex: -1
      _Value: -169.73334
    - _RefKeyIndex: -1
      _Value: -170
    - _RefKeyIndex: -1
      _Value: -170.26666
    - _RefKeyIndex: -1
      _Value: -170.53334
    - _RefKeyIndex: -1
      _Value: -170.8
    - _RefKeyIndex: -1
      _Value: -171.06667
    - _RefKeyIndex: -1
      _Value: -171.33333
    - _RefKeyIndex: -1
      _Value: -171.6
    - _RefKeyIndex: -1
      _Value: -171.86667
    - _RefKeyIndex: -1
      _Value: -172.13333
    - _RefKeyIndex: -1
      _Value: -172.4
    - _RefKeyIndex: -1
      _Value: -172.66667
    - _RefKeyIndex: -1
      _Value: -172.93333
    - _RefKeyIndex: -1
      _Value: -173.2
    - _RefKeyIndex: -1
      _Value: -173.46666
    - _RefKeyIndex: -1
      _Value: -173.73334
    - _RefKeyIndex: 2
      _Value: 0
    AngleValues: []
    ScaleXValues: []
    ScaleYValues: []
    TransValues: []
    PrioValues: []
    FlipHValues: []
    FlipVValues: []
    HideValues:
    - _RefKeyIndex: 0
      _Value: 0
    PartsColValues: []
    PartsPalValues: []
    VertexValues: []
    UserValues: []
    SoundValues: []
    ImageOffsetXValues: []
    ImageOffsetYValues: []
    ImageOffsetWValues: []
    ImageOffsetHValues: []
    OriginOffsetXValues: []
    OriginOffsetYValues: []
    _hasAttrFlags: 515
    HasTrancparency: 0
    FrameNum: 61
    imageFile:
      path: Assets/Resources/Atlas/SS_Map01/SS_Map01.png
      texture: {fileID: 2800000, guid: bc9a51c6428c8204c817775406391f67, type: 3}
      materials:
      - {fileID: 0}
      - {fileID: 0}
      - {fileID: 0}
      - {fileID: 0}
      - {fileID: 0}
      - {fileID: 2100000, guid: dd91cce9a5028504d83b734706fa5a80, type: 2}
      - {fileID: 0}
      - {fileID: 0}
      - {fileID: 0}
      - {fileID: 0}
      - {fileID: 0}
      - {fileID: 0}
      - {fileID: 0}
      - {fileID: 0}
      - {fileID: 0}
      - {fileID: 0}
      - {fileID: 0}
      - {fileID: 0}
      - {fileID: 0}
      - {fileID: 0}
      - {fileID: 0}
      - {fileID: 0}
      - {fileID: 0}
      - {fileID: 0}
      - {fileID: 0}
      - {fileID: 0}
      - {fileID: 0}
      - {fileID: 0}
      - {fileID: 0}
      - {fileID: 0}
      - {fileID: 0}
      - {fileID: 0}
      - {fileID: 0}
      - {fileID: 0}
      - {fileID: 0}
      - {fileID: 0}
      - {fileID: 0}
      - {fileID: 0}
      - {fileID: 0}
      - {fileID: 0}
      - {fileID: 0}
      - {fileID: 0}
      - {fileID: 0}
      - {fileID: 0}
      - {fileID: 0}
      - {fileID: 0}
      - {fileID: 0}
      - {fileID: 0}
      - {fileID: 0}
      - {fileID: 0}
      width: 2048
      height: 2048
      bpp: 0
    UVs:
    - {x: 0.8979492, y: 0.08496094}
    - {x: 0.9428711, y: 0.08496094}
    - {x: 0.9428711, y: 0.045898438}
    - {x: 0.8979492, y: 0.045898438}
    OrgVertices:
    - {x: -46, y: 40, z: 0}
    - {x: 46, y: 40, z: 0}
    - {x: 46, y: -40, z: 0}
    - {x: -46, y: -40, z: 0}
  - AnimeRes: {fileID: 11400000}
    Name: SSst02
    Type: 0
    PicArea:
      Left: 625
      Top: 1981
      Right: 669
      Bottom: 2037
    OriginX: 22
    OriginY: 28
    MyId: 4
    ParentId: 0
    ChildNum: 0
    SrcObjId: 0
    SrcObjType: 0
    AlphaBlendType: 1
    InheritState:
      Type: 0
      Values:
      - Use: 1
        Rate: 1
      - Use: 1
        Rate: 1
      - Use: 1
        Rate: 1
      - Use: 1
        Rate: 1
      - Use: 1
        Rate: 1
      - Use: 1
        Rate: 1
      - Use: 1
        Rate: 1
      - Use: 0
        Rate: 0
      - Use: 0
        Rate: 0
      - Use: 0
        Rate: 0
      - Use: 1
        Rate: 1
      - Use: 1
        Rate: 1
      - Use: 1
        Rate: 1
      - Use: 1
        Rate: 1
      - Use: 1
        Rate: 1
      - Use: 1
        Rate: 1
      - Use: 1
        Rate: 1
      - Use: 1
        Rate: 1
      - Use: 1
        Rate: 1
      - Use: 1
        Rate: 1
      - Use: 1
        Rate: 1
    PosXKeys:
    - Value: -124
      _Time: 0
      _ValueType: 0
      _Curve:
        Type: 1
        StartT: 0
        StartV: 0
        EndT: 0
        EndV: 0
    - Value: -124
      _Time: 32
      _ValueType: 0
      _Curve:
        Type: 1
        StartT: 0
        StartV: 0
        EndT: 0
        EndV: 0
    PosYKeys:
    - Value: -106
      _Time: 0
      _ValueType: 0
      _Curve:
        Type: 1
        StartT: 0
        StartV: 0
        EndT: 0
        EndV: 0
    - Value: -73
      _Time: 32
      _ValueType: 0
      _Curve:
        Type: 1
        StartT: 0
        StartV: 0
        EndT: 0
        EndV: 0
    - Value: -106
      _Time: 60
      _ValueType: 0
      _Curve:
        Type: 1
        StartT: 0
        StartV: 0
        EndT: 0
        EndV: 0
    AngleKeys: []
    ScaleXKeys: []
    ScaleYKeys: []
    TransKeys: []
    PrioKeys: []
    FlipHKeys: []
    FlipVKeys: []
    HideKeys:
    - Value: 0
      _Time: 0
      _ValueType: 1
      _Curve:
        Type: 0
        StartT: 0
        StartV: 0
        EndT: 0
        EndV: 0
    - Value: 0
      _Time: 60
      _ValueType: 1
      _Curve:
        Type: 0
        StartT: 0
        StartV: 0
        EndT: 0
        EndV: 0
    PartsColKeys: []
    PartsPalKeys: []
    VertexKeys: []
    UserKeys: []
    SoundKeys: []
    ImageOffsetXKeys: []
    ImageOffsetYKeys: []
    ImageOffsetWKeys: []
    ImageOffsetHKeys: []
    OriginOffsetXKeys: []
    OriginOffsetYKeys: []
    PosXValues:
    - _RefKeyIndex: -1
      _Value: -124
    PosYValues:
    - _RefKeyIndex: -1
      _Value: -106
    - _RefKeyIndex: -1
      _Value: -104.96875
    - _RefKeyIndex: -1
      _Value: -103.9375
    - _RefKeyIndex: -1
      _Value: -102.90625
    - _RefKeyIndex: -1
      _Value: -101.875
    - _RefKeyIndex: -1
      _Value: -100.84375
    - _RefKeyIndex: -1
      _Value: -99.8125
    - _RefKeyIndex: -1
      _Value: -98.78125
    - _RefKeyIndex: -1
      _Value: -97.75
    - _RefKeyIndex: -1
      _Value: -96.71875
    - _RefKeyIndex: -1
      _Value: -95.6875
    - _RefKeyIndex: -1
      _Value: -94.65625
    - _RefKeyIndex: -1
      _Value: -93.625
    - _RefKeyIndex: -1
      _Value: -92.59375
    - _RefKeyIndex: -1
      _Value: -91.5625
    - _RefKeyIndex: -1
      _Value: -90.53125
    - _RefKeyIndex: -1
      _Value: -89.5
    - _RefKeyIndex: -1
      _Value: -88.46875
    - _RefKeyIndex: -1
      _Value: -87.4375
    - _RefKeyIndex: -1
      _Value: -86.40625
    - _RefKeyIndex: -1
      _Value: -85.375
    - _RefKeyIndex: -1
      _Value: -84.34375
    - _RefKeyIndex: -1
      _Value: -83.3125
    - _RefKeyIndex: -1
      _Value: -82.28125
    - _RefKeyIndex: -1
      _Value: -81.25
    - _RefKeyIndex: -1
      _Value: -80.21875
    - _RefKeyIndex: -1
      _Value: -79.1875
    - _RefKeyIndex: -1
      _Value: -78.15625
    - _RefKeyIndex: -1
      _Value: -77.125
    - _RefKeyIndex: -1
      _Value: -76.09375
    - _RefKeyIndex: -1
      _Value: -75.0625
    - _RefKeyIndex: -1
      _Value: -74.03125
    - _RefKeyIndex: -1
      _Value: -73
    - _RefKeyIndex: -1
      _Value: -74.17857
    - _RefKeyIndex: -1
      _Value: -75.35714
    - _RefKeyIndex: -1
      _Value: -76.53571
    - _RefKeyIndex: -1
      _Value: -77.71429
    - _RefKeyIndex: -1
      _Value: -78.89286
    - _RefKeyIndex: -1
      _Value: -80.07143
    - _RefKeyIndex: -1
      _Value: -81.25
    - _RefKeyIndex: -1
      _Value: -82.42857
    - _RefKeyIndex: -1
      _Value: -83.60714
    - _RefKeyIndex: -1
      _Value: -84.78571
    - _RefKeyIndex: -1
      _Value: -85.96429
    - _RefKeyIndex: -1
      _Value: -87.14286
    - _RefKeyIndex: -1
      _Value: -88.32143
    - _RefKeyIndex: -1
      _Value: -89.5
    - _RefKeyIndex: -1
      _Value: -90.67857
    - _RefKeyIndex: -1
      _Value: -91.85715
    - _RefKeyIndex: -1
      _Value: -93.03571
    - _RefKeyIndex: -1
      _Value: -94.21429
    - _RefKeyIndex: -1
      _Value: -95.39285
    - _RefKeyIndex: -1
      _Value: -96.57143
    - _RefKeyIndex: -1
      _Value: -97.75
    - _RefKeyIndex: -1
      _Value: -98.92857
    - _RefKeyIndex: -1
      _Value: -100.10715
    - _RefKeyIndex: -1
      _Value: -101.28571
    - _RefKeyIndex: -1
      _Value: -102.46429
    - _RefKeyIndex: -1
      _Value: -103.64285
    - _RefKeyIndex: -1
      _Value: -104.82143
    - _RefKeyIndex: 2
      _Value: 0
    AngleValues: []
    ScaleXValues: []
    ScaleYValues: []
    TransValues: []
    PrioValues: []
    FlipHValues: []
    FlipVValues: []
    HideValues:
    - _RefKeyIndex: 0
      _Value: 0
    PartsColValues: []
    PartsPalValues: []
    VertexValues: []
    UserValues: []
    SoundValues: []
    ImageOffsetXValues: []
    ImageOffsetYValues: []
    ImageOffsetWValues: []
    ImageOffsetHValues: []
    OriginOffsetXValues: []
    OriginOffsetYValues: []
    _hasAttrFlags: 515
    HasTrancparency: 0
    FrameNum: 61
    imageFile:
      path: Assets/Resources/Atlas/SS_Map01/SS_Map01.png
      texture: {fileID: 2800000, guid: bc9a51c6428c8204c817775406391f67, type: 3}
      materials:
      - {fileID: 0}
      - {fileID: 0}
      - {fileID: 0}
      - {fileID: 0}
      - {fileID: 0}
      - {fileID: 2100000, guid: dd91cce9a5028504d83b734706fa5a80, type: 2}
      - {fileID: 0}
      - {fileID: 0}
      - {fileID: 0}
      - {fileID: 0}
      - {fileID: 0}
      - {fileID: 0}
      - {fileID: 0}
      - {fileID: 0}
      - {fileID: 0}
      - {fileID: 0}
      - {fileID: 0}
      - {fileID: 0}
      - {fileID: 0}
      - {fileID: 0}
      - {fileID: 0}
      - {fileID: 0}
      - {fileID: 0}
      - {fileID: 0}
      - {fileID: 0}
      - {fileID: 0}
      - {fileID: 0}
      - {fileID: 0}
      - {fileID: 0}
      - {fileID: 0}
      - {fileID: 0}
      - {fileID: 0}
      - {fileID: 0}
      - {fileID: 0}
      - {fileID: 0}
      - {fileID: 0}
      - {fileID: 0}
      - {fileID: 0}
      - {fileID: 0}
      - {fileID: 0}
      - {fileID: 0}
      - {fileID: 0}
      - {fileID: 0}
      - {fileID: 0}
      - {fileID: 0}
      - {fileID: 0}
      - {fileID: 0}
      - {fileID: 0}
      - {fileID: 0}
      - {fileID: 0}
      width: 2048
      height: 2048
      bpp: 0
    UVs:
    - {x: 0.30517578, y: 0.032714844}
    - {x: 0.32666016, y: 0.032714844}
    - {x: 0.32666016, y: 0.0053710938}
    - {x: 0.30517578, y: 0.0053710938}
    OrgVertices:
    - {x: -22, y: 28, z: 0}
    - {x: 22, y: 28, z: 0}
    - {x: 22, y: -28, z: 0}
    - {x: -22, y: -28, z: 0}
  - AnimeRes: {fileID: 11400000}
    Name: SSst03
    Type: 0
    PicArea:
      Left: 1404
      Top: 1924
      Right: 1436
      Bottom: 1984
    OriginX: 16
    OriginY: 30
    MyId: 5
    ParentId: 0
    ChildNum: 0
    SrcObjId: 0
    SrcObjType: 0
    AlphaBlendType: 1
    InheritState:
      Type: 0
      Values:
      - Use: 1
        Rate: 1
      - Use: 1
        Rate: 1
      - Use: 1
        Rate: 1
      - Use: 1
        Rate: 1
      - Use: 1
        Rate: 1
      - Use: 1
        Rate: 1
      - Use: 1
        Rate: 1
      - Use: 0
        Rate: 0
      - Use: 0
        Rate: 0
      - Use: 0
        Rate: 0
      - Use: 1
        Rate: 1
      - Use: 1
        Rate: 1
      - Use: 1
        Rate: 1
      - Use: 1
        Rate: 1
      - Use: 1
        Rate: 1
      - Use: 1
        Rate: 1
      - Use: 1
        Rate: 1
      - Use: 1
        Rate: 1
      - Use: 1
        Rate: 1
      - Use: 1
        Rate: 1
      - Use: 1
        Rate: 1
    PosXKeys:
    - Value: -92
      _Time: 0
      _ValueType: 0
      _Curve:
        Type: 1
        StartT: 0
        StartV: 0
        EndT: 0
        EndV: 0
    - Value: -92
      _Time: 35
      _ValueType: 0
      _Curve:
        Type: 1
        StartT: 0
        StartV: 0
        EndT: 0
        EndV: 0
    - Value: -92
      _Time: 60
      _ValueType: 0
      _Curve:
        Type: 1
        StartT: 0
        StartV: 0
        EndT: 0
        EndV: 0
    PosYKeys:
    - Value: -228
      _Time: 0
      _ValueType: 0
      _Curve:
        Type: 1
        StartT: 0
        StartV: 0
        EndT: 0
        EndV: 0
    - Value: -240
      _Time: 35
      _ValueType: 0
      _Curve:
        Type: 1
        StartT: 0
        StartV: 0
        EndT: 0
        EndV: 0
    - Value: -228
      _Time: 60
      _ValueType: 0
      _Curve:
        Type: 1
        StartT: 0
        StartV: 0
        EndT: 0
        EndV: 0
    AngleKeys:
    - Value: 0
      _Time: 0
      _ValueType: 0
      _Curve:
        Type: 1
        StartT: 0
        StartV: 0
        EndT: 0
        EndV: 0
    - Value: 0
      _Time: 35
      _ValueType: 0
      _Curve:
        Type: 1
        StartT: 0
        StartV: 0
        EndT: 0
        EndV: 0
    - Value: 0
      _Time: 60
      _ValueType: 0
      _Curve:
        Type: 1
        StartT: 0
        StartV: 0
        EndT: 0
        EndV: 0
    ScaleXKeys: []
    ScaleYKeys: []
    TransKeys: []
    PrioKeys: []
    FlipHKeys: []
    FlipVKeys: []
    HideKeys:
    - Value: 0
      _Time: 0
      _ValueType: 1
      _Curve:
        Type: 0
        StartT: 0
        StartV: 0
        EndT: 0
        EndV: 0
    PartsColKeys: []
    PartsPalKeys: []
    VertexKeys: []
    UserKeys: []
    SoundKeys: []
    ImageOffsetXKeys: []
    ImageOffsetYKeys: []
    ImageOffsetWKeys: []
    ImageOffsetHKeys: []
    OriginOffsetXKeys: []
    OriginOffsetYKeys: []
    PosXValues:
    - _RefKeyIndex: -1
      _Value: -92
    PosYValues:
    - _RefKeyIndex: -1
      _Value: -228
    - _RefKeyIndex: -1
      _Value: -228.34285
    - _RefKeyIndex: -1
      _Value: -228.68571
    - _RefKeyIndex: -1
      _Value: -229.02856
    - _RefKeyIndex: -1
      _Value: -229.37143
    - _RefKeyIndex: -1
      _Value: -229.71428
    - _RefKeyIndex: -1
      _Value: -230.05714
    - _RefKeyIndex: -1
      _Value: -230.4
    - _RefKeyIndex: -1
      _Value: -230.74286
    - _RefKeyIndex: -1
      _Value: -231.08571
    - _RefKeyIndex: -1
      _Value: -231.42857
    - _RefKeyIndex: -1
      _Value: -231.77142
    - _RefKeyIndex: -1
      _Value: -232.11429
    - _RefKeyIndex: -1
      _Value: -232.45714
    - _RefKeyIndex: -1
      _Value: -232.8
    - _RefKeyIndex: -1
      _Value: -233.14285
    - _RefKeyIndex: -1
      _Value: -233.48572
    - _RefKeyIndex: -1
      _Value: -233.82857
    - _RefKeyIndex: -1
      _Value: -234.17143
    - _RefKeyIndex: -1
      _Value: -234.51428
    - _RefKeyIndex: -1
      _Value: -234.85715
    - _RefKeyIndex: -1
      _Value: -235.2
    - _RefKeyIndex: -1
      _Value: -235.54286
    - _RefKeyIndex: -1
      _Value: -235.88571
    - _RefKeyIndex: -1
      _Value: -236.22858
    - _RefKeyIndex: -1
      _Value: -236.57143
    - _RefKeyIndex: -1
      _Value: -236.91429
    - _RefKeyIndex: -1
      _Value: -237.25714
    - _RefKeyIndex: -1
      _Value: -237.6
    - _RefKeyIndex: -1
      _Value: -237.94286
    - _RefKeyIndex: -1
      _Value: -238.28572
    - _RefKeyIndex: -1
      _Value: -238.62857
    - _RefKeyIndex: -1
      _Value: -238.97144
    - _RefKeyIndex: -1
      _Value: -239.31429
    - _RefKeyIndex: -1
      _Value: -239.65715
    - _RefKeyIndex: -1
      _Value: -240
    - _RefKeyIndex: -1
      _Value: -239.52
    - _RefKeyIndex: -1
      _Value: -239.04
    - _RefKeyIndex: -1
      _Value: -238.56
    - _RefKeyIndex: -1
      _Value: -238.08
    - _RefKeyIndex: -1
      _Value: -237.6
    - _RefKeyIndex: -1
      _Value: -237.12
    - _RefKeyIndex: -1
      _Value: -236.64
    - _RefKeyIndex: -1
      _Value: -236.16
    - _RefKeyIndex: -1
      _Value: -235.68
    - _RefKeyIndex: -1
      _Value: -235.2
    - _RefKeyIndex: -1
      _Value: -234.72
    - _RefKeyIndex: -1
      _Value: -234.24
    - _RefKeyIndex: -1
      _Value: -233.76
    - _RefKeyIndex: -1
      _Value: -233.28
    - _RefKeyIndex: -1
      _Value: -232.8
    - _RefKeyIndex: -1
      _Value: -232.32
    - _RefKeyIndex: -1
      _Value: -231.84
    - _RefKeyIndex: -1
      _Value: -231.36
    - _RefKeyIndex: -1
      _Value: -230.88
    - _RefKeyIndex: -1
      _Value: -230.4
    - _RefKeyIndex: -1
      _Value: -229.92
    - _RefKeyIndex: -1
      _Value: -229.44
    - _RefKeyIndex: -1
      _Value: -228.96
    - _RefKeyIndex: -1
      _Value: -228.48
    - _RefKeyIndex: 2
      _Value: 0
    AngleValues:
    - _RefKeyIndex: -1
      _Value: 0
    ScaleXValues: []
    ScaleYValues: []
    TransValues: []
    PrioValues: []
    FlipHValues: []
    FlipVValues: []
    HideValues:
    - _RefKeyIndex: 0
      _Value: 0
    - _RefKeyIndex: 0
      _Value: 0
    - _RefKeyIndex: 0
      _Value: 0
    - _RefKeyIndex: 0
      _Value: 0
    - _RefKeyIndex: 0
      _Value: 0
    - _RefKeyIndex: 0
      _Value: 0
    - _RefKeyIndex: 0
      _Value: 0
    - _RefKeyIndex: 0
      _Value: 0
    - _RefKeyIndex: 0
      _Value: 0
    - _RefKeyIndex: 0
      _Value: 0
    - _RefKeyIndex: 0
      _Value: 0
    - _RefKeyIndex: 0
      _Value: 0
    - _RefKeyIndex: 0
      _Value: 0
    - _RefKeyIndex: 0
      _Value: 0
    - _RefKeyIndex: 0
      _Value: 0
    - _RefKeyIndex: 0
      _Value: 0
    - _RefKeyIndex: 0
      _Value: 0
    - _RefKeyIndex: 0
      _Value: 0
    - _RefKeyIndex: 0
      _Value: 0
    - _RefKeyIndex: 0
      _Value: 0
    - _RefKeyIndex: 0
      _Value: 0
    - _RefKeyIndex: 0
      _Value: 0
    - _RefKeyIndex: 0
      _Value: 0
    - _RefKeyIndex: 0
      _Value: 0
    - _RefKeyIndex: 0
      _Value: 0
    - _RefKeyIndex: 0
      _Value: 0
    - _RefKeyIndex: 0
      _Value: 0
    - _RefKeyIndex: 0
      _Value: 0
    - _RefKeyIndex: 0
      _Value: 0
    - _RefKeyIndex: 0
      _Value: 0
    - _RefKeyIndex: 0
      _Value: 0
    - _RefKeyIndex: 0
      _Value: 0
    - _RefKeyIndex: 0
      _Value: 0
    - _RefKeyIndex: 0
      _Value: 0
    - _RefKeyIndex: 0
      _Value: 0
    - _RefKeyIndex: 0
      _Value: 0
    - _RefKeyIndex: 0
      _Value: 0
    - _RefKeyIndex: 0
      _Value: 0
    - _RefKeyIndex: 0
      _Value: 0
    - _RefKeyIndex: 0
      _Value: 0
    - _RefKeyIndex: 0
      _Value: 0
    - _RefKeyIndex: 0
      _Value: 0
    - _RefKeyIndex: 0
      _Value: 0
    - _RefKeyIndex: 0
      _Value: 0
    - _RefKeyIndex: 0
      _Value: 0
    - _RefKeyIndex: 0
      _Value: 0
    - _RefKeyIndex: 0
      _Value: 0
    - _RefKeyIndex: 0
      _Value: 0
    - _RefKeyIndex: 0
      _Value: 0
    - _RefKeyIndex: 0
      _Value: 0
    - _RefKeyIndex: 0
      _Value: 0
    - _RefKeyIndex: 0
      _Value: 0
    - _RefKeyIndex: 0
      _Value: 0
    - _RefKeyIndex: 0
      _Value: 0
    - _RefKeyIndex: 0
      _Value: 0
    - _RefKeyIndex: 0
      _Value: 0
    - _RefKeyIndex: 0
      _Value: 0
    - _RefKeyIndex: 0
      _Value: 0
    - _RefKeyIndex: 0
      _Value: 0
    - _RefKeyIndex: 0
      _Value: 0
    - _RefKeyIndex: 0
      _Value: 0
    PartsColValues: []
    PartsPalValues: []
    VertexValues: []
    UserValues: []
    SoundValues: []
    ImageOffsetXValues: []
    ImageOffsetYValues: []
    ImageOffsetWValues: []
    ImageOffsetHValues: []
    OriginOffsetXValues: []
    OriginOffsetYValues: []
    _hasAttrFlags: 519
    HasTrancparency: 0
    FrameNum: 61
    imageFile:
      path: Assets/Resources/Atlas/SS_Map01/SS_Map01.png
      texture: {fileID: 2800000, guid: bc9a51c6428c8204c817775406391f67, type: 3}
      materials:
      - {fileID: 0}
      - {fileID: 0}
      - {fileID: 0}
      - {fileID: 0}
      - {fileID: 0}
      - {fileID: 2100000, guid: dd91cce9a5028504d83b734706fa5a80, type: 2}
      - {fileID: 0}
      - {fileID: 0}
      - {fileID: 0}
      - {fileID: 0}
      - {fileID: 0}
      - {fileID: 0}
      - {fileID: 0}
      - {fileID: 0}
      - {fileID: 0}
      - {fileID: 0}
      - {fileID: 0}
      - {fileID: 0}
      - {fileID: 0}
      - {fileID: 0}
      - {fileID: 0}
      - {fileID: 0}
      - {fileID: 0}
      - {fileID: 0}
      - {fileID: 0}
      - {fileID: 0}
      - {fileID: 0}
      - {fileID: 0}
      - {fileID: 0}
      - {fileID: 0}
      - {fileID: 0}
      - {fileID: 0}
      - {fileID: 0}
      - {fileID: 0}
      - {fileID: 0}
      - {fileID: 0}
      - {fileID: 0}
      - {fileID: 0}
      - {fileID: 0}
      - {fileID: 0}
      - {fileID: 0}
      - {fileID: 0}
      - {fileID: 0}
      - {fileID: 0}
      - {fileID: 0}
      - {fileID: 0}
      - {fileID: 0}
      - {fileID: 0}
      - {fileID: 0}
      - {fileID: 0}
      width: 2048
      height: 2048
      bpp: 0
    UVs:
    - {x: 0.6855469, y: 0.060546875}
    - {x: 0.7011719, y: 0.060546875}
    - {x: 0.7011719, y: 0.03125}
    - {x: 0.6855469, y: 0.03125}
    OrgVertices:
    - {x: -16, y: 30, z: 0}
    - {x: 16, y: 30, z: 0}
    - {x: 16, y: -30, z: 0}
    - {x: -16, y: -30, z: 0}
  - AnimeRes: {fileID: 11400000}
    Name: SSst04
    Type: 0
    PicArea:
      Left: 678
      Top: 1981
      Right: 706
      Bottom: 2033
    OriginX: 14
    OriginY: 26
    MyId: 6
    ParentId: 0
    ChildNum: 0
    SrcObjId: 0
    SrcObjType: 0
    AlphaBlendType: 1
    InheritState:
      Type: 0
      Values:
      - Use: 1
        Rate: 1
      - Use: 1
        Rate: 1
      - Use: 1
        Rate: 1
      - Use: 1
        Rate: 1
      - Use: 1
        Rate: 1
      - Use: 1
        Rate: 1
      - Use: 1
        Rate: 1
      - Use: 0
        Rate: 0
      - Use: 0
        Rate: 0
      - Use: 0
        Rate: 0
      - Use: 1
        Rate: 1
      - Use: 1
        Rate: 1
      - Use: 1
        Rate: 1
      - Use: 1
        Rate: 1
      - Use: 1
        Rate: 1
      - Use: 1
        Rate: 1
      - Use: 1
        Rate: 1
      - Use: 1
        Rate: 1
      - Use: 1
        Rate: 1
      - Use: 1
        Rate: 1
      - Use: 1
        Rate: 1
    PosXKeys:
    - Value: 28
      _Time: 0
      _ValueType: 0
      _Curve:
        Type: 1
        StartT: 0
        StartV: 0
        EndT: 0
        EndV: 0
    - Value: 28
      _Time: 26
      _ValueType: 0
      _Curve:
        Type: 1
        StartT: 0
        StartV: 0
        EndT: 0
        EndV: 0
    - Value: 28
      _Time: 60
      _ValueType: 0
      _Curve:
        Type: 1
        StartT: 0
        StartV: 0
        EndT: 0
        EndV: 0
    PosYKeys:
    - Value: -248
      _Time: 0
      _ValueType: 0
      _Curve:
        Type: 1
        StartT: 0
        StartV: 0
        EndT: 0
        EndV: 0
    - Value: -280
      _Time: 26
      _ValueType: 0
      _Curve:
        Type: 1
        StartT: 0
        StartV: 0
        EndT: 0
        EndV: 0
    - Value: -248
      _Time: 60
      _ValueType: 0
      _Curve:
        Type: 1
        StartT: 0
        StartV: 0
        EndT: 0
        EndV: 0
    AngleKeys:
    - Value: 0
      _Time: 0
      _ValueType: 0
      _Curve:
        Type: 1
        StartT: 0
        StartV: 0
        EndT: 0
        EndV: 0
    - Value: 0
      _Time: 60
      _ValueType: 0
      _Curve:
        Type: 1
        StartT: 0
        StartV: 0
        EndT: 0
        EndV: 0
    ScaleXKeys: []
    ScaleYKeys: []
    TransKeys: []
    PrioKeys: []
    FlipHKeys: []
    FlipVKeys: []
    HideKeys:
    - Value: 0
      _Time: 0
      _ValueType: 1
      _Curve:
        Type: 0
        StartT: 0
        StartV: 0
        EndT: 0
        EndV: 0
    - Value: 0
      _Time: 60
      _ValueType: 1
      _Curve:
        Type: 0
        StartT: 0
        StartV: 0
        EndT: 0
        EndV: 0
    PartsColKeys: []
    PartsPalKeys: []
    VertexKeys: []
    UserKeys: []
    SoundKeys: []
    ImageOffsetXKeys: []
    ImageOffsetYKeys: []
    ImageOffsetWKeys: []
    ImageOffsetHKeys: []
    OriginOffsetXKeys: []
    OriginOffsetYKeys: []
    PosXValues:
    - _RefKeyIndex: -1
      _Value: 28
    PosYValues:
    - _RefKeyIndex: -1
      _Value: -248
    - _RefKeyIndex: -1
      _Value: -249.23077
    - _RefKeyIndex: -1
      _Value: -250.46153
    - _RefKeyIndex: -1
      _Value: -251.6923
    - _RefKeyIndex: -1
      _Value: -252.92308
    - _RefKeyIndex: -1
      _Value: -254.15384
    - _RefKeyIndex: -1
      _Value: -255.38461
    - _RefKeyIndex: -1
      _Value: -256.6154
    - _RefKeyIndex: -1
      _Value: -257.84616
    - _RefKeyIndex: -1
      _Value: -259.07693
    - _RefKeyIndex: -1
      _Value: -260.30768
    - _RefKeyIndex: -1
      _Value: -261.53845
    - _RefKeyIndex: -1
      _Value: -262.76923
    - _RefKeyIndex: -1
      _Value: -264
    - _RefKeyIndex: -1
      _Value: -265.23077
    - _RefKeyIndex: -1
      _Value: -266.46155
    - _RefKeyIndex: -1
      _Value: -267.69232
    - _RefKeyIndex: -1
      _Value: -268.92307
    - _RefKeyIndex: -1
      _Value: -270.15384
    - _RefKeyIndex: -1
      _Value: -271.3846
    - _RefKeyIndex: -1
      _Value: -272.6154
    - _RefKeyIndex: -1
      _Value: -273.84616
    - _RefKeyIndex: -1
      _Value: -275.07693
    - _RefKeyIndex: -1
      _Value: -276.30768
    - _RefKeyIndex: -1
      _Value: -277.53845
    - _RefKeyIndex: -1
      _Value: -278.76923
    - _RefKeyIndex: -1
      _Value: -280
    - _RefKeyIndex: -1
      _Value: -279.05884
    - _RefKeyIndex: -1
      _Value: -278.11765
    - _RefKeyIndex: -1
      _Value: -277.17648
    - _RefKeyIndex: -1
      _Value: -276.2353
    - _RefKeyIndex: -1
      _Value: -275.29413
    - _RefKeyIndex: -1
      _Value: -274.35294
    - _RefKeyIndex: -1
      _Value: -273.41177
    - _RefKeyIndex: -1
      _Value: -272.47058
    - _RefKeyIndex: -1
      _Value: -271.52942
    - _RefKeyIndex: -1
      _Value: -270.58823
    - _RefKeyIndex: -1
      _Value: -269.64706
    - _RefKeyIndex: -1
      _Value: -268.70587
    - _RefKeyIndex: -1
      _Value: -267.7647
    - _RefKeyIndex: -1
      _Value: -266.82352
    - _RefKeyIndex: -1
      _Value: -265.88235
    - _RefKeyIndex: -1
      _Value: -264.94116
    - _RefKeyIndex: -1
      _Value: -264
    - _RefKeyIndex: -1
      _Value: -263.05884
    - _RefKeyIndex: -1
      _Value: -262.11765
    - _RefKeyIndex: -1
      _Value: -261.17648
    - _RefKeyIndex: -1
      _Value: -260.2353
    - _RefKeyIndex: -1
      _Value: -259.29413
    - _RefKeyIndex: -1
      _Value: -258.35294
    - _RefKeyIndex: -1
      _Value: -257.41177
    - _RefKeyIndex: -1
      _Value: -256.47058
    - _RefKeyIndex: -1
      _Value: -255.52942
    - _RefKeyIndex: -1
      _Value: -254.58824
    - _RefKeyIndex: -1
      _Value: -253.64706
    - _RefKeyIndex: -1
      _Value: -252.70589
    - _RefKeyIndex: -1
      _Value: -251.76471
    - _RefKeyIndex: -1
      _Value: -250.82353
    - _RefKeyIndex: -1
      _Value: -249.88235
    - _RefKeyIndex: -1
      _Value: -248.94118
    - _RefKeyIndex: 2
      _Value: 0
    AngleValues:
    - _RefKeyIndex: -1
      _Value: 0
    ScaleXValues: []
    ScaleYValues: []
    TransValues: []
    PrioValues: []
    FlipHValues: []
    FlipVValues: []
    HideValues:
    - _RefKeyIndex: 0
      _Value: 0
    PartsColValues: []
    PartsPalValues: []
    VertexValues: []
    UserValues: []
    SoundValues: []
    ImageOffsetXValues: []
    ImageOffsetYValues: []
    ImageOffsetWValues: []
    ImageOffsetHValues: []
    OriginOffsetXValues: []
    OriginOffsetYValues: []
    _hasAttrFlags: 519
    HasTrancparency: 0
    FrameNum: 61
    imageFile:
      path: Assets/Resources/Atlas/SS_Map01/SS_Map01.png
      texture: {fileID: 2800000, guid: bc9a51c6428c8204c817775406391f67, type: 3}
      materials:
      - {fileID: 0}
      - {fileID: 0}
      - {fileID: 0}
      - {fileID: 0}
      - {fileID: 0}
      - {fileID: 2100000, guid: dd91cce9a5028504d83b734706fa5a80, type: 2}
      - {fileID: 0}
      - {fileID: 0}
      - {fileID: 0}
      - {fileID: 0}
      - {fileID: 0}
      - {fileID: 0}
      - {fileID: 0}
      - {fileID: 0}
      - {fileID: 0}
      - {fileID: 0}
      - {fileID: 0}
      - {fileID: 0}
      - {fileID: 0}
      - {fileID: 0}
      - {fileID: 0}
      - {fileID: 0}
      - {fileID: 0}
      - {fileID: 0}
      - {fileID: 0}
      - {fileID: 0}
      - {fileID: 0}
      - {fileID: 0}
      - {fileID: 0}
      - {fileID: 0}
      - {fileID: 0}
      - {fileID: 0}
      - {fileID: 0}
      - {fileID: 0}
      - {fileID: 0}
      - {fileID: 0}
      - {fileID: 0}
      - {fileID: 0}
      - {fileID: 0}
      - {fileID: 0}
      - {fileID: 0}
      - {fileID: 0}
      - {fileID: 0}
      - {fileID: 0}
      - {fileID: 0}
      - {fileID: 0}
      - {fileID: 0}
      - {fileID: 0}
      - {fileID: 0}
      - {fileID: 0}
      width: 2048
      height: 2048
      bpp: 0
    UVs:
    - {x: 0.3310547, y: 0.032714844}
    - {x: 0.34472656, y: 0.032714844}
    - {x: 0.34472656, y: 0.0073242188}
    - {x: 0.3310547, y: 0.0073242188}
    OrgVertices:
    - {x: -14, y: 26, z: 0}
    - {x: 14, y: 26, z: 0}
    - {x: 14, y: -26, z: 0}
    - {x: -14, y: -26, z: 0}
  - AnimeRes: {fileID: 11400000}
    Name: SSst05
    Type: 0
    PicArea:
      Left: 1985
      Top: 208
      Right: 2033
      Bottom: 276
    OriginX: 24
    OriginY: 34
    MyId: 7
    ParentId: 0
    ChildNum: 0
    SrcObjId: 0
    SrcObjType: 0
    AlphaBlendType: 1
    InheritState:
      Type: 0
      Values:
      - Use: 1
        Rate: 1
      - Use: 1
        Rate: 1
      - Use: 1
        Rate: 1
      - Use: 1
        Rate: 1
      - Use: 1
        Rate: 1
      - Use: 1
        Rate: 1
      - Use: 1
        Rate: 1
      - Use: 0
        Rate: 0
      - Use: 0
        Rate: 0
      - Use: 0
        Rate: 0
      - Use: 1
        Rate: 1
      - Use: 1
        Rate: 1
      - Use: 1
        Rate: 1
      - Use: 1
        Rate: 1
      - Use: 1
        Rate: 1
      - Use: 1
        Rate: 1
      - Use: 1
        Rate: 1
      - Use: 1
        Rate: 1
      - Use: 1
        Rate: 1
      - Use: 1
        Rate: 1
      - Use: 1
        Rate: 1
    PosXKeys:
    - Value: -17
      _Time: 0
      _ValueType: 0
      _Curve:
        Type: 1
        StartT: 0
        StartV: 0
        EndT: 0
        EndV: 0
    - Value: -17
      _Time: 31
      _ValueType: 0
      _Curve:
        Type: 1
        StartT: 0
        StartV: 0
        EndT: 0
        EndV: 0
    - Value: -17
      _Time: 60
      _ValueType: 0
      _Curve:
        Type: 1
        StartT: 0
        StartV: 0
        EndT: 0
        EndV: 0
    PosYKeys:
    - Value: -553
      _Time: 0
      _ValueType: 0
      _Curve:
        Type: 1
        StartT: 0
        StartV: 0
        EndT: 0
        EndV: 0
    - Value: -541
      _Time: 31
      _ValueType: 0
      _Curve:
        Type: 1
        StartT: 0
        StartV: 0
        EndT: 0
        EndV: 0
    - Value: -553
      _Time: 60
      _ValueType: 0
      _Curve:
        Type: 1
        StartT: 0
        StartV: 0
        EndT: 0
        EndV: 0
    AngleKeys:
    - Value: 0
      _Time: 0
      _ValueType: 0
      _Curve:
        Type: 1
        StartT: 0
        StartV: 0
        EndT: 0
        EndV: 0
    - Value: 0
      _Time: 60
      _ValueType: 0
      _Curve:
        Type: 1
        StartT: 0
        StartV: 0
        EndT: 0
        EndV: 0
    ScaleXKeys: []
    ScaleYKeys: []
    TransKeys: []
    PrioKeys: []
    FlipHKeys: []
    FlipVKeys: []
    HideKeys:
    - Value: 0
      _Time: 0
      _ValueType: 1
      _Curve:
        Type: 0
        StartT: 0
        StartV: 0
        EndT: 0
        EndV: 0
    - Value: 0
      _Time: 60
      _ValueType: 1
      _Curve:
        Type: 0
        StartT: 0
        StartV: 0
        EndT: 0
        EndV: 0
    PartsColKeys: []
    PartsPalKeys: []
    VertexKeys: []
    UserKeys: []
    SoundKeys: []
    ImageOffsetXKeys: []
    ImageOffsetYKeys: []
    ImageOffsetWKeys: []
    ImageOffsetHKeys: []
    OriginOffsetXKeys: []
    OriginOffsetYKeys: []
    PosXValues:
    - _RefKeyIndex: -1
      _Value: -17
    PosYValues:
    - _RefKeyIndex: -1
      _Value: -553
    - _RefKeyIndex: -1
      _Value: -552.6129
    - _RefKeyIndex: -1
      _Value: -552.2258
    - _RefKeyIndex: -1
      _Value: -551.8387
    - _RefKeyIndex: -1
      _Value: -551.4516
    - _RefKeyIndex: -1
      _Value: -551.0645
    - _RefKeyIndex: -1
      _Value: -550.6774
    - _RefKeyIndex: -1
      _Value: -550.29034
    - _RefKeyIndex: -1
      _Value: -549.9032
    - _RefKeyIndex: -1
      _Value: -549.5161
    - _RefKeyIndex: -1
      _Value: -549.129
    - _RefKeyIndex: -1
      _Value: -548.74194
    - _RefKeyIndex: -1
      _Value: -548.35486
    - _RefKeyIndex: -1
      _Value: -547.9677
    - _RefKeyIndex: -1
      _Value: -547.5806
    - _RefKeyIndex: -1
      _Value: -547.19354
    - _RefKeyIndex: -1
      _Value: -546.80646
    - _RefKeyIndex: -1
      _Value: -546.4194
    - _RefKeyIndex: -1
      _Value: -546.0323
    - _RefKeyIndex: -1
      _Value: -545.64514
    - _RefKeyIndex: -1
      _Value: -545.25806
    - _RefKeyIndex: -1
      _Value: -544.871
    - _RefKeyIndex: -1
      _Value: -544.4839
    - _RefKeyIndex: -1
      _Value: -544.0968
    - _RefKeyIndex: -1
      _Value: -543.70966
    - _RefKeyIndex: -1
      _Value: -543.3226
    - _RefKeyIndex: -1
      _Value: -542.9355
    - _RefKeyIndex: -1
      _Value: -542.5484
    - _RefKeyIndex: -1
      _Value: -542.1613
    - _RefKeyIndex: -1
      _Value: -541.7742
    - _RefKeyIndex: -1
      _Value: -541.3871
    - _RefKeyIndex: -1
      _Value: -541
    - _RefKeyIndex: -1
      _Value: -541.4138
    - _RefKeyIndex: -1
      _Value: -541.8276
    - _RefKeyIndex: -1
      _Value: -542.2414
    - _RefKeyIndex: -1
      _Value: -542.65515
    - _RefKeyIndex: -1
      _Value: -543.069
    - _RefKeyIndex: -1
      _Value: -543.4828
    - _RefKeyIndex: -1
      _Value: -543.89655
    - _RefKeyIndex: -1
      _Value: -544.31036
    - _RefKeyIndex: -1
      _Value: -544.7241
    - _RefKeyIndex: -1
      _Value: -545.13794
    - _RefKeyIndex: -1
      _Value: -545.5517
    - _RefKeyIndex: -1
      _Value: -545.9655
    - _RefKeyIndex: -1
      _Value: -546.37933
    - _RefKeyIndex: -1
      _Value: -546.7931
    - _RefKeyIndex: -1
      _Value: -547.2069
    - _RefKeyIndex: -1
      _Value: -547.62067
    - _RefKeyIndex: -1
      _Value: -548.0345
    - _RefKeyIndex: -1
      _Value: -548.4483
    - _RefKeyIndex: -1
      _Value: -548.86206
    - _RefKeyIndex: -1
      _Value: -549.2759
    - _RefKeyIndex: -1
      _Value: -549.68964
    - _RefKeyIndex: -1
      _Value: -550.10345
    - _RefKeyIndex: -1
      _Value: -550.5172
    - _RefKeyIndex: -1
      _Value: -550.931
    - _RefKeyIndex: -1
      _Value: -551.34485
    - _RefKeyIndex: -1
      _Value: -551.7586
    - _RefKeyIndex: -1
      _Value: -552.1724
    - _RefKeyIndex: -1
      _Value: -552.5862
    - _RefKeyIndex: 2
      _Value: 0
    AngleValues:
    - _RefKeyIndex: -1
      _Value: 0
    ScaleXValues: []
    ScaleYValues: []
    TransValues: []
    PrioValues: []
    FlipHValues: []
    FlipVValues: []
    HideValues:
    - _RefKeyIndex: 0
      _Value: 0
    PartsColValues: []
    PartsPalValues: []
    VertexValues: []
    UserValues: []
    SoundValues: []
    ImageOffsetXValues: []
    ImageOffsetYValues: []
    ImageOffsetWValues: []
    ImageOffsetHValues: []
    OriginOffsetXValues: []
    OriginOffsetYValues: []
    _hasAttrFlags: 519
    HasTrancparency: 0
    FrameNum: 61
    imageFile:
      path: Assets/Resources/Atlas/SS_Map01/SS_Map01.png
      texture: {fileID: 2800000, guid: bc9a51c6428c8204c817775406391f67, type: 3}
      materials:
      - {fileID: 0}
      - {fileID: 0}
      - {fileID: 0}
      - {fileID: 0}
      - {fileID: 0}
      - {fileID: 2100000, guid: dd91cce9a5028504d83b734706fa5a80, type: 2}
      - {fileID: 0}
      - {fileID: 0}
      - {fileID: 0}
      - {fileID: 0}
      - {fileID: 0}
      - {fileID: 0}
      - {fileID: 0}
      - {fileID: 0}
      - {fileID: 0}
      - {fileID: 0}
      - {fileID: 0}
      - {fileID: 0}
      - {fileID: 0}
      - {fileID: 0}
      - {fileID: 0}
      - {fileID: 0}
      - {fileID: 0}
      - {fileID: 0}
      - {fileID: 0}
      - {fileID: 0}
      - {fileID: 0}
      - {fileID: 0}
      - {fileID: 0}
      - {fileID: 0}
      - {fileID: 0}
      - {fileID: 0}
      - {fileID: 0}
      - {fileID: 0}
      - {fileID: 0}
      - {fileID: 0}
      - {fileID: 0}
      - {fileID: 0}
      - {fileID: 0}
      - {fileID: 0}
      - {fileID: 0}
      - {fileID: 0}
      - {fileID: 0}
      - {fileID: 0}
      - {fileID: 0}
      - {fileID: 0}
      - {fileID: 0}
      - {fileID: 0}
      - {fileID: 0}
      - {fileID: 0}
      width: 2048
      height: 2048
      bpp: 0
    UVs:
    - {x: 0.9692383, y: 0.8984375}
    - {x: 0.9926758, y: 0.8984375}
    - {x: 0.9926758, y: 0.8652344}
    - {x: 0.9692383, y: 0.8652344}
    OrgVertices:
    - {x: -24, y: 34, z: 0}
    - {x: 24, y: 34, z: 0}
    - {x: 24, y: -34, z: 0}
    - {x: -24, y: -34, z: 0}
  - AnimeRes: {fileID: 11400000}
    Name: SSst06
    Type: 0
    PicArea:
      Left: 1662
      Top: 1932
      Right: 1698
      Bottom: 1980
    OriginX: 18
    OriginY: 24
    MyId: 8
    ParentId: 0
    ChildNum: 0
    SrcObjId: 0
    SrcObjType: 0
    AlphaBlendType: 1
    InheritState:
      Type: 0
      Values:
      - Use: 1
        Rate: 1
      - Use: 1
        Rate: 1
      - Use: 1
        Rate: 1
      - Use: 1
        Rate: 1
      - Use: 1
        Rate: 1
      - Use: 1
        Rate: 1
      - Use: 1
        Rate: 1
      - Use: 0
        Rate: 0
      - Use: 0
        Rate: 0
      - Use: 0
        Rate: 0
      - Use: 1
        Rate: 1
      - Use: 1
        Rate: 1
      - Use: 1
        Rate: 1
      - Use: 1
        Rate: 1
      - Use: 1
        Rate: 1
      - Use: 1
        Rate: 1
      - Use: 1
        Rate: 1
      - Use: 1
        Rate: 1
      - Use: 1
        Rate: 1
      - Use: 1
        Rate: 1
      - Use: 1
        Rate: 1
    PosXKeys:
    - Value: -177
      _Time: 0
      _ValueType: 0
      _Curve:
        Type: 1
        StartT: 0
        StartV: 0
        EndT: 0
        EndV: 0
    - Value: -177
      _Time: 29
      _ValueType: 0
      _Curve:
        Type: 1
        StartT: 0
        StartV: 0
        EndT: 0
        EndV: 0
    - Value: -177
      _Time: 60
      _ValueType: 0
      _Curve:
        Type: 1
        StartT: 0
        StartV: 0
        EndT: 0
        EndV: 0
    PosYKeys:
    - Value: -636
      _Time: 0
      _ValueType: 0
      _Curve:
        Type: 1
        StartT: 0
        StartV: 0
        EndT: 0
        EndV: 0
    - Value: -651
      _Time: 29
      _ValueType: 0
      _Curve:
        Type: 1
        StartT: 0
        StartV: 0
        EndT: 0
        EndV: 0
    - Value: -636
      _Time: 60
      _ValueType: 0
      _Curve:
        Type: 1
        StartT: 0
        StartV: 0
        EndT: 0
        EndV: 0
    AngleKeys:
    - Value: 0
      _Time: 0
      _ValueType: 0
      _Curve:
        Type: 1
        StartT: 0
        StartV: 0
        EndT: 0
        EndV: 0
    - Value: 0
      _Time: 60
      _ValueType: 0
      _Curve:
        Type: 1
        StartT: 0
        StartV: 0
        EndT: 0
        EndV: 0
    ScaleXKeys: []
    ScaleYKeys: []
    TransKeys: []
    PrioKeys: []
    FlipHKeys: []
    FlipVKeys: []
    HideKeys:
    - Value: 0
      _Time: 0
      _ValueType: 1
      _Curve:
        Type: 0
        StartT: 0
        StartV: 0
        EndT: 0
        EndV: 0
    - Value: 0
      _Time: 60
      _ValueType: 1
      _Curve:
        Type: 0
        StartT: 0
        StartV: 0
        EndT: 0
        EndV: 0
    PartsColKeys: []
    PartsPalKeys: []
    VertexKeys: []
    UserKeys: []
    SoundKeys: []
    ImageOffsetXKeys: []
    ImageOffsetYKeys: []
    ImageOffsetWKeys: []
    ImageOffsetHKeys: []
    OriginOffsetXKeys: []
    OriginOffsetYKeys: []
    PosXValues:
    - _RefKeyIndex: -1
      _Value: -177
    PosYValues:
    - _RefKeyIndex: -1
      _Value: -636
    - _RefKeyIndex: -1
      _Value: -636.5172
    - _RefKeyIndex: -1
      _Value: -637.0345
    - _RefKeyIndex: -1
      _Value: -637.5517
    - _RefKeyIndex: -1
      _Value: -638.069
    - _RefKeyIndex: -1
      _Value: -638.5862
    - _RefKeyIndex: -1
      _Value: -639.10345
    - _RefKeyIndex: -1
      _Value: -639.62067
    - _RefKeyIndex: -1
      _Value: -640.13794
    - _RefKeyIndex: -1
      _Value: -640.65515
    - _RefKeyIndex: -1
      _Value: -641.1724
    - _RefKeyIndex: -1
      _Value: -641.68964
    - _RefKeyIndex: -1
      _Value: -642.2069
    - _RefKeyIndex: -1
      _Value: -642.7241
    - _RefKeyIndex: -1
      _Value: -643.2414
    - _RefKeyIndex: -1
      _Value: -643.7586
    - _RefKeyIndex: -1
      _Value: -644.2759
    - _RefKeyIndex: -1
      _Value: -644.7931
    - _RefKeyIndex: -1
      _Value: -645.31036
    - _RefKeyIndex: -1
      _Value: -645.8276
    - _RefKeyIndex: -1
      _Value: -646.34485
    - _RefKeyIndex: -1
      _Value: -646.86206
    - _RefKeyIndex: -1
      _Value: -647.37933
    - _RefKeyIndex: -1
      _Value: -647.89655
    - _RefKeyIndex: -1
      _Value: -648.4138
    - _RefKeyIndex: -1
      _Value: -648.931
    - _RefKeyIndex: -1
      _Value: -649.4483
    - _RefKeyIndex: -1
      _Value: -649.9655
    - _RefKeyIndex: -1
      _Value: -650.4828
    - _RefKeyIndex: -1
      _Value: -651
    - _RefKeyIndex: -1
      _Value: -650.5161
    - _RefKeyIndex: -1
      _Value: -650.0323
    - _RefKeyIndex: -1
      _Value: -649.5484
    - _RefKeyIndex: -1
      _Value: -649.0645
    - _RefKeyIndex: -1
      _Value: -648.5806
    - _RefKeyIndex: -1
      _Value: -648.0968
    - _RefKeyIndex: -1
      _Value: -647.6129
    - _RefKeyIndex: -1
      _Value: -647.129
    - _RefKeyIndex: -1
      _Value: -646.64514
    - _RefKeyIndex: -1
      _Value: -646.1613
    - _RefKeyIndex: -1
      _Value: -645.6774
    - _RefKeyIndex: -1
      _Value: -645.19354
    - _RefKeyIndex: -1
      _Value: -644.70966
    - _RefKeyIndex: -1
      _Value: -644.2258
    - _RefKeyIndex: -1
      _Value: -643.74194
    - _RefKeyIndex: -1
      _Value: -643.25806
    - _RefKeyIndex: -1
      _Value: -642.7742
    - _RefKeyIndex: -1
      _Value: -642.29034
    - _RefKeyIndex: -1
      _Value: -641.80646
    - _RefKeyIndex: -1
      _Value: -641.3226
    - _RefKeyIndex: -1
      _Value: -640.8387
    - _RefKeyIndex: -1
      _Value: -640.35486
    - _RefKeyIndex: -1
      _Value: -639.871
    - _RefKeyIndex: -1
      _Value: -639.3871
    - _RefKeyIndex: -1
      _Value: -638.9032
    - _RefKeyIndex: -1
      _Value: -638.4194
    - _RefKeyIndex: -1
      _Value: -637.9355
    - _RefKeyIndex: -1
      _Value: -637.4516
    - _RefKeyIndex: -1
      _Value: -636.9677
    - _RefKeyIndex: -1
      _Value: -636.4839
    - _RefKeyIndex: 2
      _Value: 0
    AngleValues:
    - _RefKeyIndex: -1
      _Value: 0
    ScaleXValues: []
    ScaleYValues: []
    TransValues: []
    PrioValues: []
    FlipHValues: []
    FlipVValues: []
    HideValues:
    - _RefKeyIndex: 0
      _Value: 0
    PartsColValues: []
    PartsPalValues: []
    VertexValues: []
    UserValues: []
    SoundValues: []
    ImageOffsetXValues: []
    ImageOffsetYValues: []
    ImageOffsetWValues: []
    ImageOffsetHValues: []
    OriginOffsetXValues: []
    OriginOffsetYValues: []
    _hasAttrFlags: 519
    HasTrancparency: 0
    FrameNum: 61
    imageFile:
      path: Assets/Resources/Atlas/SS_Map01/SS_Map01.png
      texture: {fileID: 2800000, guid: bc9a51c6428c8204c817775406391f67, type: 3}
      materials:
      - {fileID: 0}
      - {fileID: 0}
      - {fileID: 0}
      - {fileID: 0}
      - {fileID: 0}
      - {fileID: 2100000, guid: dd91cce9a5028504d83b734706fa5a80, type: 2}
      - {fileID: 0}
      - {fileID: 0}
      - {fileID: 0}
      - {fileID: 0}
      - {fileID: 0}
      - {fileID: 0}
      - {fileID: 0}
      - {fileID: 0}
      - {fileID: 0}
      - {fileID: 0}
      - {fileID: 0}
      - {fileID: 0}
      - {fileID: 0}
      - {fileID: 0}
      - {fileID: 0}
      - {fileID: 0}
      - {fileID: 0}
      - {fileID: 0}
      - {fileID: 0}
      - {fileID: 0}
      - {fileID: 0}
      - {fileID: 0}
      - {fileID: 0}
      - {fileID: 0}
      - {fileID: 0}
      - {fileID: 0}
      - {fileID: 0}
      - {fileID: 0}
      - {fileID: 0}
      - {fileID: 0}
      - {fileID: 0}
      - {fileID: 0}
      - {fileID: 0}
      - {fileID: 0}
      - {fileID: 0}
      - {fileID: 0}
      - {fileID: 0}
      - {fileID: 0}
      - {fileID: 0}
      - {fileID: 0}
      - {fileID: 0}
      - {fileID: 0}
      - {fileID: 0}
      - {fileID: 0}
      width: 2048
      height: 2048
      bpp: 0
    UVs:
    - {x: 0.81152344, y: 0.056640625}
    - {x: 0.82910156, y: 0.056640625}
    - {x: 0.82910156, y: 0.033203125}
    - {x: 0.81152344, y: 0.033203125}
    OrgVertices:
    - {x: -18, y: 24, z: 0}
    - {x: 18, y: 24, z: 0}
    - {x: 18, y: -24, z: 0}
    - {x: -18, y: -24, z: 0}
  - AnimeRes: {fileID: 11400000}
    Name: SSst07
    Type: 0
    PicArea:
      Left: 1404
      Top: 1993
      Right: 1436
      Bottom: 2037
    OriginX: 16
    OriginY: 22
    MyId: 9
    ParentId: 0
    ChildNum: 0
    SrcObjId: 0
    SrcObjType: 0
    AlphaBlendType: 1
    InheritState:
      Type: 0
      Values:
      - Use: 1
        Rate: 1
      - Use: 1
        Rate: 1
      - Use: 1
        Rate: 1
      - Use: 1
        Rate: 1
      - Use: 1
        Rate: 1
      - Use: 1
        Rate: 1
      - Use: 1
        Rate: 1
      - Use: 0
        Rate: 0
      - Use: 0
        Rate: 0
      - Use: 0
        Rate: 0
      - Use: 1
        Rate: 1
      - Use: 1
        Rate: 1
      - Use: 1
        Rate: 1
      - Use: 1
        Rate: 1
      - Use: 1
        Rate: 1
      - Use: 1
        Rate: 1
      - Use: 1
        Rate: 1
      - Use: 1
        Rate: 1
      - Use: 1
        Rate: 1
      - Use: 1
        Rate: 1
      - Use: 1
        Rate: 1
    PosXKeys:
    - Value: -249
      _Time: 0
      _ValueType: 0
      _Curve:
        Type: 1
        StartT: 0
        StartV: 0
        EndT: 0
        EndV: 0
    - Value: -249
      _Time: 27
      _ValueType: 0
      _Curve:
        Type: 1
        StartT: 0
        StartV: 0
        EndT: 0
        EndV: 0
    - Value: -249
      _Time: 60
      _ValueType: 0
      _Curve:
        Type: 1
        StartT: 0
        StartV: 0
        EndT: 0
        EndV: 0
    PosYKeys:
    - Value: -654
      _Time: 0
      _ValueType: 0
      _Curve:
        Type: 1
        StartT: 0
        StartV: 0
        EndT: 0
        EndV: 0
    - Value: -626
      _Time: 27
      _ValueType: 0
      _Curve:
        Type: 1
        StartT: 0
        StartV: 0
        EndT: 0
        EndV: 0
    - Value: -654
      _Time: 60
      _ValueType: 0
      _Curve:
        Type: 1
        StartT: 0
        StartV: 0
        EndT: 0
        EndV: 0
    AngleKeys:
    - Value: 0
      _Time: 0
      _ValueType: 0
      _Curve:
        Type: 1
        StartT: 0
        StartV: 0
        EndT: 0
        EndV: 0
    - Value: 0
      _Time: 60
      _ValueType: 0
      _Curve:
        Type: 1
        StartT: 0
        StartV: 0
        EndT: 0
        EndV: 0
    ScaleXKeys: []
    ScaleYKeys: []
    TransKeys: []
    PrioKeys: []
    FlipHKeys: []
    FlipVKeys: []
    HideKeys:
    - Value: 0
      _Time: 0
      _ValueType: 1
      _Curve:
        Type: 0
        StartT: 0
        StartV: 0
        EndT: 0
        EndV: 0
    - Value: 0
      _Time: 60
      _ValueType: 1
      _Curve:
        Type: 0
        StartT: 0
        StartV: 0
        EndT: 0
        EndV: 0
    PartsColKeys: []
    PartsPalKeys: []
    VertexKeys: []
    UserKeys: []
    SoundKeys: []
    ImageOffsetXKeys: []
    ImageOffsetYKeys: []
    ImageOffsetWKeys: []
    ImageOffsetHKeys: []
    OriginOffsetXKeys: []
    OriginOffsetYKeys: []
    PosXValues:
    - _RefKeyIndex: -1
      _Value: -249
    PosYValues:
    - _RefKeyIndex: -1
      _Value: -654
    - _RefKeyIndex: -1
      _Value: -652.96295
    - _RefKeyIndex: -1
      _Value: -651.9259
    - _RefKeyIndex: -1
      _Value: -650.8889
    - _RefKeyIndex: -1
      _Value: -649.85187
    - _RefKeyIndex: -1
      _Value: -648.8148
    - _RefKeyIndex: -1
      _Value: -647.7778
    - _RefKeyIndex: -1
      _Value: -646.7407
    - _RefKeyIndex: -1
      _Value: -645.7037
    - _RefKeyIndex: -1
      _Value: -644.6667
    - _RefKeyIndex: -1
      _Value: -643.62964
    - _RefKeyIndex: -1
      _Value: -642.5926
    - _RefKeyIndex: -1
      _Value: -641.55554
    - _RefKeyIndex: -1
      _Value: -640.5185
    - _RefKeyIndex: -1
      _Value: -639.4815
    - _RefKeyIndex: -1
      _Value: -638.44446
    - _RefKeyIndex: -1
      _Value: -637.4074
    - _RefKeyIndex: -1
      _Value: -636.37036
    - _RefKeyIndex: -1
      _Value: -635.3333
    - _RefKeyIndex: -1
      _Value: -634.2963
    - _RefKeyIndex: -1
      _Value: -633.2593
    - _RefKeyIndex: -1
      _Value: -632.2222
    - _RefKeyIndex: -1
      _Value: -631.1852
    - _RefKeyIndex: -1
      _Value: -630.14813
    - _RefKeyIndex: -1
      _Value: -629.1111
    - _RefKeyIndex: -1
      _Value: -628.0741
    - _RefKeyIndex: -1
      _Value: -627.03705
    - _RefKeyIndex: -1
      _Value: -626
    - _RefKeyIndex: -1
      _Value: -626.8485
    - _RefKeyIndex: -1
      _Value: -627.69696
    - _RefKeyIndex: -1
      _Value: -628.5455
    - _RefKeyIndex: -1
      _Value: -629.3939
    - _RefKeyIndex: -1
      _Value: -630.24243
    - _RefKeyIndex: -1
      _Value: -631.0909
    - _RefKeyIndex: -1
      _Value: -631.9394
    - _RefKeyIndex: -1
      _Value: -632.7879
    - _RefKeyIndex: -1
      _Value: -633.63635
    - _RefKeyIndex: -1
      _Value: -634.48486
    - _RefKeyIndex: -1
      _Value: -635.3333
    - _RefKeyIndex: -1
      _Value: -636.1818
    - _RefKeyIndex: -1
      _Value: -637.0303
    - _RefKeyIndex: -1
      _Value: -637.8788
    - _RefKeyIndex: -1
      _Value: -638.7273
    - _RefKeyIndex: -1
      _Value: -639.57574
    - _RefKeyIndex: -1
      _Value: -640.42426
    - _RefKeyIndex: -1
      _Value: -641.2727
    - _RefKeyIndex: -1
      _Value: -642.1212
    - _RefKeyIndex: -1
      _Value: -642.9697
    - _RefKeyIndex: -1
      _Value: -643.8182
    - _RefKeyIndex: -1
      _Value: -644.6667
    - _RefKeyIndex: -1
      _Value: -645.51514
    - _RefKeyIndex: -1
      _Value: -646.36365
    - _RefKeyIndex: -1
      _Value: -647.2121
    - _RefKeyIndex: -1
      _Value: -648.0606
    - _RefKeyIndex: -1
      _Value: -648.9091
    - _RefKeyIndex: -1
      _Value: -649.75757
    - _RefKeyIndex: -1
      _Value: -650.6061
    - _RefKeyIndex: -1
      _Value: -651.4545
    - _RefKeyIndex: -1
      _Value: -652.30304
    - _RefKeyIndex: -1
      _Value: -653.1515
    - _RefKeyIndex: 2
      _Value: 0
    AngleValues:
    - _RefKeyIndex: -1
      _Value: 0
    ScaleXValues: []
    ScaleYValues: []
    TransValues: []
    PrioValues: []
    FlipHValues: []
    FlipVValues: []
    HideValues:
    - _RefKeyIndex: 0
      _Value: 0
    PartsColValues: []
    PartsPalValues: []
    VertexValues: []
    UserValues: []
    SoundValues: []
    ImageOffsetXValues: []
    ImageOffsetYValues: []
    ImageOffsetWValues: []
    ImageOffsetHValues: []
    OriginOffsetXValues: []
    OriginOffsetYValues: []
    _hasAttrFlags: 519
    HasTrancparency: 0
    FrameNum: 61
    imageFile:
      path: Assets/Resources/Atlas/SS_Map01/SS_Map01.png
      texture: {fileID: 2800000, guid: bc9a51c6428c8204c817775406391f67, type: 3}
      materials:
      - {fileID: 0}
      - {fileID: 0}
      - {fileID: 0}
      - {fileID: 0}
      - {fileID: 0}
      - {fileID: 2100000, guid: dd91cce9a5028504d83b734706fa5a80, type: 2}
      - {fileID: 0}
      - {fileID: 0}
      - {fileID: 0}
      - {fileID: 0}
      - {fileID: 0}
      - {fileID: 0}
      - {fileID: 0}
      - {fileID: 0}
      - {fileID: 0}
      - {fileID: 0}
      - {fileID: 0}
      - {fileID: 0}
      - {fileID: 0}
      - {fileID: 0}
      - {fileID: 0}
      - {fileID: 0}
      - {fileID: 0}
      - {fileID: 0}
      - {fileID: 0}
      - {fileID: 0}
      - {fileID: 0}
      - {fileID: 0}
      - {fileID: 0}
      - {fileID: 0}
      - {fileID: 0}
      - {fileID: 0}
      - {fileID: 0}
      - {fileID: 0}
      - {fileID: 0}
      - {fileID: 0}
      - {fileID: 0}
      - {fileID: 0}
      - {fileID: 0}
      - {fileID: 0}
      - {fileID: 0}
      - {fileID: 0}
      - {fileID: 0}
      - {fileID: 0}
      - {fileID: 0}
      - {fileID: 0}
      - {fileID: 0}
      - {fileID: 0}
      - {fileID: 0}
      - {fileID: 0}
      width: 2048
      height: 2048
      bpp: 0
    UVs:
    - {x: 0.6855469, y: 0.026855469}
    - {x: 0.7011719, y: 0.026855469}
    - {x: 0.7011719, y: 0.0053710938}
    - {x: 0.6855469, y: 0.0053710938}
    OrgVertices:
    - {x: -16, y: 22, z: 0}
    - {x: 16, y: 22, z: 0}
    - {x: 16, y: -22, z: 0}
    - {x: -16, y: -22, z: 0}
  ImportedTime: -340483633
  ImportedTimeHigh: -1999323430
