%YAML 1.1
%TAG !u! tag:unity3d.com,2011:
--- !u!114 &11400000
MonoBehaviour:
  m_ObjectHideFlags: 0
  m_PrefabParentObject: {fileID: 0}
  m_PrefabInternal: {fileID: 0}
  m_GameObject: {fileID: 0}
  m_Enabled: 1
  m_EditorHideFlags: 0
  m_Script: {fileID: 11500000, guid: 0ae895f3348548989f1b4caf6cca149f, type: 3}
  m_Name: obj_Scrow_anim_ssa
  m_EditorClassIdentifier:
  OriginalPath: Assets/Resources/Atlas/S_Map01/obj_Scrow_anim.ssax
  UseScaleFactor: 0
  ScaleFactor: 1
  FPS: 30
  EndFrame: 40
  hvFlipForImageOnly: 1
  ImageList:
  - path: Assets/Resources/Atlas/S_Map01/S_Map01.png
    texture: {fileID: 2800000, guid: c4c99aa3607f20e4382406c67707dbca, type: 3}
    materials:
    - {fileID: 0}
    - {fileID: 0}
    - {fileID: 0}
    - {fileID: 0}
    - {fileID: 0}
    - {fileID: 2100000, guid: f5c21da67f595fc41bed3471f9b38bd7, type: 2}
    - {fileID: 0}
    - {fileID: 0}
    - {fileID: 0}
    - {fileID: 0}
    - {fileID: 0}
    - {fileID: 0}
    - {fileID: 0}
    - {fileID: 0}
    - {fileID: 0}
    - {fileID: 0}
    - {fileID: 0}
    - {fileID: 0}
    - {fileID: 0}
    - {fileID: 0}
    - {fileID: 0}
    - {fileID: 0}
    - {fileID: 0}
    - {fileID: 0}
    - {fileID: 0}
    - {fileID: 0}
    - {fileID: 0}
    - {fileID: 0}
    - {fileID: 0}
    - {fileID: 0}
    - {fileID: 0}
    - {fileID: 0}
    - {fileID: 0}
    - {fileID: 0}
    - {fileID: 0}
    - {fileID: 0}
    - {fileID: 0}
    - {fileID: 0}
    - {fileID: 0}
    - {fileID: 0}
    - {fileID: 0}
    - {fileID: 0}
    - {fileID: 0}
    - {fileID: 0}
    - {fileID: 0}
    - {fileID: 0}
    - {fileID: 0}
    - {fileID: 0}
    - {fileID: 0}
    - {fileID: 0}
    width: 2048
    height: 2048
    bpp: 0
  PartList:
  - AnimeRes: {fileID: 11400000}
    Name: root
    Type: 1
    PicArea:
      Left: 0
      Top: 0
      Right: 0
      Bottom: 0
    OriginX: 0
    OriginY: 0
    MyId: 0
    ParentId: -1
    ChildNum: 0
    SrcObjId: 0
    SrcObjType: 0
    AlphaBlendType: 0
    InheritState:
      Type: 0
      Values:
      - Use: 1
        Rate: 1
      - Use: 1
        Rate: 1
      - Use: 1
        Rate: 1
      - Use: 1
        Rate: 1
      - Use: 1
        Rate: 1
      - Use: 1
        Rate: 1
      - Use: 1
        Rate: 1
      - Use: 0
        Rate: 0
      - Use: 0
        Rate: 0
      - Use: 0
        Rate: 0
      - Use: 1
        Rate: 1
      - Use: 1
        Rate: 1
      - Use: 1
        Rate: 1
      - Use: 1
        Rate: 1
      - Use: 1
        Rate: 1
      - Use: 1
        Rate: 1
      - Use: 1
        Rate: 1
      - Use: 1
        Rate: 1
      - Use: 1
        Rate: 1
      - Use: 1
        Rate: 1
      - Use: 1
        Rate: 1
    PosXKeys: []
    PosYKeys: []
    AngleKeys: []
    ScaleXKeys: []
    ScaleYKeys: []
    TransKeys: []
    PrioKeys: []
    FlipHKeys: []
    FlipVKeys: []
    HideKeys:
    - Value: 0
      _Time: 0
      _ValueType: 1
      _Curve:
        Type: 0
        StartT: 0
        StartV: 0
        EndT: 0
        EndV: 0
    PartsColKeys: []
    PartsPalKeys: []
    VertexKeys: []
    UserKeys: []
    SoundKeys: []
    ImageOffsetXKeys: []
    ImageOffsetYKeys: []
    ImageOffsetWKeys: []
    ImageOffsetHKeys: []
    OriginOffsetXKeys: []
    OriginOffsetYKeys: []
    PosXValues: []
    PosYValues: []
    AngleValues: []
    ScaleXValues: []
    ScaleYValues: []
    TransValues: []
    PrioValues: []
    FlipHValues: []
    FlipVValues: []
    HideValues:
    - _RefKeyIndex: 0
      _Value: 0
    - _RefKeyIndex: 0
      _Value: 0
    - _RefKeyIndex: 0
      _Value: 0
    - _RefKeyIndex: 0
      _Value: 0
    - _RefKeyIndex: 0
      _Value: 0
    - _RefKeyIndex: 0
      _Value: 0
    - _RefKeyIndex: 0
      _Value: 0
    - _RefKeyIndex: 0
      _Value: 0
    - _RefKeyIndex: 0
      _Value: 0
    - _RefKeyIndex: 0
      _Value: 0
    - _RefKeyIndex: 0
      _Value: 0
    - _RefKeyIndex: 0
      _Value: 0
    - _RefKeyIndex: 0
      _Value: 0
    - _RefKeyIndex: 0
      _Value: 0
    - _RefKeyIndex: 0
      _Value: 0
    - _RefKeyIndex: 0
      _Value: 0
    - _RefKeyIndex: 0
      _Value: 0
    - _RefKeyIndex: 0
      _Value: 0
    - _RefKeyIndex: 0
      _Value: 0
    - _RefKeyIndex: 0
      _Value: 0
    - _RefKeyIndex: 0
      _Value: 0
    - _RefKeyIndex: 0
      _Value: 0
    - _RefKeyIndex: 0
      _Value: 0
    - _RefKeyIndex: 0
      _Value: 0
    - _RefKeyIndex: 0
      _Value: 0
    - _RefKeyIndex: 0
      _Value: 0
    - _RefKeyIndex: 0
      _Value: 0
    - _RefKeyIndex: 0
      _Value: 0
    - _RefKeyIndex: 0
      _Value: 0
    - _RefKeyIndex: 0
      _Value: 0
    - _RefKeyIndex: 0
      _Value: 0
    - _RefKeyIndex: 0
      _Value: 0
    - _RefKeyIndex: 0
      _Value: 0
    - _RefKeyIndex: 0
      _Value: 0
    - _RefKeyIndex: 0
      _Value: 0
    - _RefKeyIndex: 0
      _Value: 0
    - _RefKeyIndex: 0
      _Value: 0
    - _RefKeyIndex: 0
      _Value: 0
    - _RefKeyIndex: 0
      _Value: 0
    - _RefKeyIndex: 0
      _Value: 0
    - _RefKeyIndex: 0
      _Value: 0
    PartsColValues: []
    PartsPalValues: []
    VertexValues: []
    UserValues: []
    SoundValues: []
    ImageOffsetXValues: []
    ImageOffsetYValues: []
    ImageOffsetWValues: []
    ImageOffsetHValues: []
    OriginOffsetXValues: []
    OriginOffsetYValues: []
    _hasAttrFlags: 512
    HasTrancparency: 0
    FrameNum: 41
    imageFile:
      path:
      texture: {fileID: 0}
      materials: []
      width: 0
      height: 0
      bpp: 0
    UVs: []
    OrgVertices:
    - {x: -0, y: 0, z: 0}
    - {x: 0, y: 0, z: 0}
    - {x: 0, y: -0, z: 0}
    - {x: -0, y: -0, z: 0}
  - AnimeRes: {fileID: 11400000}
    Name: crowA
    Type: 0
    PicArea:
      Left: 550
      Top: 1766
      Right: 634
      Bottom: 1830
    OriginX: 42
    OriginY: 32
    MyId: 1
    ParentId: 0
    ChildNum: 0
    SrcObjId: 0
    SrcObjType: 0
    AlphaBlendType: 1
    InheritState:
      Type: 0
      Values:
      - Use: 1
        Rate: 1
      - Use: 1
        Rate: 1
      - Use: 1
        Rate: 1
      - Use: 1
        Rate: 1
      - Use: 1
        Rate: 1
      - Use: 1
        Rate: 1
      - Use: 1
        Rate: 1
      - Use: 0
        Rate: 0
      - Use: 0
        Rate: 0
      - Use: 0
        Rate: 0
      - Use: 1
        Rate: 1
      - Use: 1
        Rate: 1
      - Use: 1
        Rate: 1
      - Use: 1
        Rate: 1
      - Use: 1
        Rate: 1
      - Use: 1
        Rate: 1
      - Use: 1
        Rate: 1
      - Use: 1
        Rate: 1
      - Use: 1
        Rate: 1
      - Use: 1
        Rate: 1
      - Use: 1
        Rate: 1
    PosXKeys:
    - Value: 218
      _Time: 0
      _ValueType: 0
      _Curve:
        Type: 1
        StartT: 0
        StartV: 0
        EndT: 0
        EndV: 0
    - Value: 218
      _Time: 20
      _ValueType: 0
      _Curve:
        Type: 1
        StartT: 0
        StartV: 0
        EndT: 0
        EndV: 0
    - Value: 218
      _Time: 40
      _ValueType: 0
      _Curve:
        Type: 1
        StartT: 0
        StartV: 0
        EndT: 0
        EndV: 0
    PosYKeys:
    - Value: 0
      _Time: 0
      _ValueType: 0
      _Curve:
        Type: 1
        StartT: 0
        StartV: 0
        EndT: 0
        EndV: 0
    - Value: 0
      _Time: 20
      _ValueType: 0
      _Curve:
        Type: 1
        StartT: 0
        StartV: 0
        EndT: 0
        EndV: 0
    - Value: 0
      _Time: 40
      _ValueType: 0
      _Curve:
        Type: 1
        StartT: 0
        StartV: 0
        EndT: 0
        EndV: 0
    AngleKeys:
    - Value: 0
      _Time: 0
      _ValueType: 0
      _Curve:
        Type: 1
        StartT: 0
        StartV: 0
        EndT: 0
        EndV: 0
    - Value: 6
      _Time: 20
      _ValueType: 0
      _Curve:
        Type: 1
        StartT: 0
        StartV: 0
        EndT: 0
        EndV: 0
    - Value: 0
      _Time: 40
      _ValueType: 0
      _Curve:
        Type: 1
        StartT: 0
        StartV: 0
        EndT: 0
        EndV: 0
    ScaleXKeys:
    - Value: 0.7
      _Time: 0
      _ValueType: 0
      _Curve:
        Type: 1
        StartT: 0
        StartV: 0
        EndT: 0
        EndV: 0
    ScaleYKeys:
    - Value: 0.7
      _Time: 0
      _ValueType: 0
      _Curve:
        Type: 1
        StartT: 0
        StartV: 0
        EndT: 0
        EndV: 0
    TransKeys: []
    PrioKeys: []
    FlipHKeys: []
    FlipVKeys: []
    HideKeys:
    - Value: 0
      _Time: 0
      _ValueType: 1
      _Curve:
        Type: 0
        StartT: 0
        StartV: 0
        EndT: 0
        EndV: 0
    - Value: 0
      _Time: 40
      _ValueType: 1
      _Curve:
        Type: 0
        StartT: 0
        StartV: 0
        EndT: 0
        EndV: 0
    PartsColKeys: []
    PartsPalKeys: []
    VertexKeys: []
    UserKeys: []
    SoundKeys: []
    ImageOffsetXKeys: []
    ImageOffsetYKeys: []
    ImageOffsetWKeys: []
    ImageOffsetHKeys: []
    OriginOffsetXKeys: []
    OriginOffsetYKeys:
    - Value: 22
      _Time: 0
      _ValueType: 0
      _Curve:
        Type: 1
        StartT: 0
        StartV: 0
        EndT: 0
        EndV: 0
    - Value: 22
      _Time: 40
      _ValueType: 0
      _Curve:
        Type: 1
        StartT: 0
        StartV: 0
        EndT: 0
        EndV: 0
    PosXValues:
    - _RefKeyIndex: -1
      _Value: 218
    PosYValues:
    - _RefKeyIndex: -1
      _Value: 0
    AngleValues:
    - _RefKeyIndex: -1
      _Value: 0
    - _RefKeyIndex: -1
      _Value: 0.3
    - _RefKeyIndex: -1
      _Value: 0.6
    - _RefKeyIndex: -1
      _Value: 0.90000004
    - _RefKeyIndex: -1
      _Value: 1.2
    - _RefKeyIndex: -1
      _Value: 1.5
    - _RefKeyIndex: -1
      _Value: 1.8000001
    - _RefKeyIndex: -1
      _Value: 2.1
    - _RefKeyIndex: -1
      _Value: 2.4
    - _RefKeyIndex: -1
      _Value: 2.6999998
    - _RefKeyIndex: -1
      _Value: 3
    - _RefKeyIndex: -1
      _Value: 3.3000002
    - _RefKeyIndex: -1
      _Value: 3.6000001
    - _RefKeyIndex: -1
      _Value: 3.8999999
    - _RefKeyIndex: -1
      _Value: 4.2
    - _RefKeyIndex: -1
      _Value: 4.5
    - _RefKeyIndex: -1
      _Value: 4.8
    - _RefKeyIndex: -1
      _Value: 5.1000004
    - _RefKeyIndex: -1
      _Value: 5.3999996
    - _RefKeyIndex: -1
      _Value: 5.7
    - _RefKeyIndex: -1
      _Value: 6
    - _RefKeyIndex: -1
      _Value: 5.7
    - _RefKeyIndex: -1
      _Value: 5.4
    - _RefKeyIndex: -1
      _Value: 5.1
    - _RefKeyIndex: -1
      _Value: 4.8
    - _RefKeyIndex: -1
      _Value: 4.5
    - _RefKeyIndex: -1
      _Value: 4.2
    - _RefKeyIndex: -1
      _Value: 3.9
    - _RefKeyIndex: -1
      _Value: 3.6
    - _RefKeyIndex: -1
      _Value: 3.3000002
    - _RefKeyIndex: -1
      _Value: 3
    - _RefKeyIndex: -1
      _Value: 2.6999998
    - _RefKeyIndex: -1
      _Value: 2.3999999
    - _RefKeyIndex: -1
      _Value: 2.1000001
    - _RefKeyIndex: -1
      _Value: 1.8000001
    - _RefKeyIndex: -1
      _Value: 1.5
    - _RefKeyIndex: -1
      _Value: 1.1999999
    - _RefKeyIndex: -1
      _Value: 0.89999986
    - _RefKeyIndex: -1
      _Value: 0.60000014
    - _RefKeyIndex: -1
      _Value: 0.30000007
    - _RefKeyIndex: 2
      _Value: 0
    ScaleXValues:
    - _RefKeyIndex: 0
      _Value: 0
    ScaleYValues:
    - _RefKeyIndex: 0
      _Value: 0
    TransValues: []
    PrioValues: []
    FlipHValues: []
    FlipVValues: []
    HideValues:
    - _RefKeyIndex: 0
      _Value: 0
    PartsColValues: []
    PartsPalValues: []
    VertexValues: []
    UserValues: []
    SoundValues: []
    ImageOffsetXValues: []
    ImageOffsetYValues: []
    ImageOffsetWValues: []
    ImageOffsetHValues: []
    OriginOffsetXValues: []
    OriginOffsetYValues:
    - _RefKeyIndex: -1
      _Value: 22
    _hasAttrFlags: 1049119
    HasTrancparency: 0
    FrameNum: 41
    imageFile:
      path: Assets/Resources/Atlas/S_Map01/S_Map01.png
      texture: {fileID: 2800000, guid: c4c99aa3607f20e4382406c67707dbca, type: 3}
      materials:
      - {fileID: 0}
      - {fileID: 0}
      - {fileID: 0}
      - {fileID: 0}
      - {fileID: 0}
      - {fileID: 2100000, guid: f5c21da67f595fc41bed3471f9b38bd7, type: 2}
      - {fileID: 0}
      - {fileID: 0}
      - {fileID: 0}
      - {fileID: 0}
      - {fileID: 0}
      - {fileID: 0}
      - {fileID: 0}
      - {fileID: 0}
      - {fileID: 0}
      - {fileID: 0}
      - {fileID: 0}
      - {fileID: 0}
      - {fileID: 0}
      - {fileID: 0}
      - {fileID: 0}
      - {fileID: 0}
      - {fileID: 0}
      - {fileID: 0}
      - {fileID: 0}
      - {fileID: 0}
      - {fileID: 0}
      - {fileID: 0}
      - {fileID: 0}
      - {fileID: 0}
      - {fileID: 0}
      - {fileID: 0}
      - {fileID: 0}
      - {fileID: 0}
      - {fileID: 0}
      - {fileID: 0}
      - {fileID: 0}
      - {fileID: 0}
      - {fileID: 0}
      - {fileID: 0}
      - {fileID: 0}
      - {fileID: 0}
      - {fileID: 0}
      - {fileID: 0}
      - {fileID: 0}
      - {fileID: 0}
      - {fileID: 0}
      - {fileID: 0}
      - {fileID: 0}
      - {fileID: 0}
      width: 2048
      height: 2048
      bpp: 0
    UVs:
    - {x: 0.2685547, y: 0.13769531}
    - {x: 0.3095703, y: 0.13769531}
    - {x: 0.3095703, y: 0.10644531}
    - {x: 0.2685547, y: 0.10644531}
    OrgVertices:
    - {x: -42, y: 32, z: 0}
    - {x: 42, y: 32, z: 0}
    - {x: 42, y: -32, z: 0}
    - {x: -42, y: -32, z: 0}
  - AnimeRes: {fileID: 11400000}
    Name: crowB_body
    Type: 0
    PicArea:
      Left: 369
      Top: 1887
      Right: 449
      Bottom: 1971
    OriginX: 40
    OriginY: 42
    MyId: 2
    ParentId: 0
    ChildNum: 0
    SrcObjId: 0
    SrcObjType: 0
    AlphaBlendType: 1
    InheritState:
      Type: 0
      Values:
      - Use: 1
        Rate: 1
      - Use: 1
        Rate: 1
      - Use: 1
        Rate: 1
      - Use: 1
        Rate: 1
      - Use: 1
        Rate: 1
      - Use: 1
        Rate: 1
      - Use: 1
        Rate: 1
      - Use: 0
        Rate: 0
      - Use: 0
        Rate: 0
      - Use: 0
        Rate: 0
      - Use: 1
        Rate: 1
      - Use: 1
        Rate: 1
      - Use: 1
        Rate: 1
      - Use: 1
        Rate: 1
      - Use: 1
        Rate: 1
      - Use: 1
        Rate: 1
      - Use: 1
        Rate: 1
      - Use: 1
        Rate: 1
      - Use: 1
        Rate: 1
      - Use: 1
        Rate: 1
      - Use: 1
        Rate: 1
    PosXKeys:
    - Value: -110
      _Time: 0
      _ValueType: 0
      _Curve:
        Type: 1
        StartT: 0
        StartV: 0
        EndT: 0
        EndV: 0
    - Value: -110
      _Time: 30
      _ValueType: 0
      _Curve:
        Type: 1
        StartT: 0
        StartV: 0
        EndT: 0
        EndV: 0
    - Value: -110
      _Time: 40
      _ValueType: 0
      _Curve:
        Type: 1
        StartT: 0
        StartV: 0
        EndT: 0
        EndV: 0
    PosYKeys:
    - Value: 55
      _Time: 0
      _ValueType: 0
      _Curve:
        Type: 1
        StartT: 0
        StartV: 0
        EndT: 0
        EndV: 0
    - Value: 55
      _Time: 30
      _ValueType: 0
      _Curve:
        Type: 1
        StartT: 0
        StartV: 0
        EndT: 0
        EndV: 0
    - Value: 55
      _Time: 40
      _ValueType: 0
      _Curve:
        Type: 1
        StartT: 0
        StartV: 0
        EndT: 0
        EndV: 0
    AngleKeys:
    - Value: 0
      _Time: 0
      _ValueType: 0
      _Curve:
        Type: 1
        StartT: 0
        StartV: 0
        EndT: 0
        EndV: 0
    - Value: -8
      _Time: 30
      _ValueType: 0
      _Curve:
        Type: 1
        StartT: 0
        StartV: 0
        EndT: 0
        EndV: 0
    - Value: 0
      _Time: 40
      _ValueType: 0
      _Curve:
        Type: 1
        StartT: 0
        StartV: 0
        EndT: 0
        EndV: 0
    ScaleXKeys:
    - Value: 0.7
      _Time: 0
      _ValueType: 0
      _Curve:
        Type: 1
        StartT: 0
        StartV: 0
        EndT: 0
        EndV: 0
    ScaleYKeys:
    - Value: 0.7
      _Time: 0
      _ValueType: 0
      _Curve:
        Type: 1
        StartT: 0
        StartV: 0
        EndT: 0
        EndV: 0
    TransKeys: []
    PrioKeys:
    - Value: 2
      _Time: 0
      _ValueType: 0
      _Curve:
        Type: 1
        StartT: 0
        StartV: 0
        EndT: 0
        EndV: 0
    FlipHKeys: []
    FlipVKeys: []
    HideKeys:
    - Value: 0
      _Time: 0
      _ValueType: 1
      _Curve:
        Type: 0
        StartT: 0
        StartV: 0
        EndT: 0
        EndV: 0
    - Value: 0
      _Time: 40
      _ValueType: 1
      _Curve:
        Type: 0
        StartT: 0
        StartV: 0
        EndT: 0
        EndV: 0
    PartsColKeys: []
    PartsPalKeys: []
    VertexKeys: []
    UserKeys: []
    SoundKeys: []
    ImageOffsetXKeys: []
    ImageOffsetYKeys: []
    ImageOffsetWKeys: []
    ImageOffsetHKeys: []
    OriginOffsetXKeys:
    - Value: -12
      _Time: 0
      _ValueType: 0
      _Curve:
        Type: 1
        StartT: 0
        StartV: 0
        EndT: 0
        EndV: 0
    - Value: -12
      _Time: 40
      _ValueType: 0
      _Curve:
        Type: 1
        StartT: 0
        StartV: 0
        EndT: 0
        EndV: 0
    OriginOffsetYKeys:
    - Value: 29
      _Time: 0
      _ValueType: 0
      _Curve:
        Type: 1
        StartT: 0
        StartV: 0
        EndT: 0
        EndV: 0
    - Value: 29
      _Time: 40
      _ValueType: 0
      _Curve:
        Type: 1
        StartT: 0
        StartV: 0
        EndT: 0
        EndV: 0
    PosXValues:
    - _RefKeyIndex: -1
      _Value: -110
    PosYValues:
    - _RefKeyIndex: -1
      _Value: 55
    AngleValues:
    - _RefKeyIndex: -1
      _Value: 0
    - _RefKeyIndex: -1
      _Value: -0.26666668
    - _RefKeyIndex: -1
      _Value: -0.53333336
    - _RefKeyIndex: -1
      _Value: -0.8
    - _RefKeyIndex: -1
      _Value: -1.0666667
    - _RefKeyIndex: -1
      _Value: -1.3333334
    - _RefKeyIndex: -1
      _Value: -1.6
    - _RefKeyIndex: -1
      _Value: -1.8666667
    - _RefKeyIndex: -1
      _Value: -2.1333334
    - _RefKeyIndex: -1
      _Value: -2.4
    - _RefKeyIndex: -1
      _Value: -2.6666667
    - _RefKeyIndex: -1
      _Value: -2.9333334
    - _RefKeyIndex: -1
      _Value: -3.2
    - _RefKeyIndex: -1
      _Value: -3.4666667
    - _RefKeyIndex: -1
      _Value: -3.7333333
    - _RefKeyIndex: -1
      _Value: -4
    - _RefKeyIndex: -1
      _Value: -4.266667
    - _RefKeyIndex: -1
      _Value: -4.5333333
    - _RefKeyIndex: -1
      _Value: -4.8
    - _RefKeyIndex: -1
      _Value: -5.0666666
    - _RefKeyIndex: -1
      _Value: -5.3333335
    - _RefKeyIndex: -1
      _Value: -5.6
    - _RefKeyIndex: -1
      _Value: -5.866667
    - _RefKeyIndex: -1
      _Value: -6.133333
    - _RefKeyIndex: -1
      _Value: -6.4
    - _RefKeyIndex: -1
      _Value: -6.6666665
    - _RefKeyIndex: -1
      _Value: -6.9333334
    - _RefKeyIndex: -1
      _Value: -7.2
    - _RefKeyIndex: -1
      _Value: -7.4666667
    - _RefKeyIndex: -1
      _Value: -7.733333
    - _RefKeyIndex: -1
      _Value: -8
    - _RefKeyIndex: -1
      _Value: -7.2
    - _RefKeyIndex: -1
      _Value: -6.4
    - _RefKeyIndex: -1
      _Value: -5.6
    - _RefKeyIndex: -1
      _Value: -4.8
    - _RefKeyIndex: -1
      _Value: -4
    - _RefKeyIndex: -1
      _Value: -3.1999998
    - _RefKeyIndex: -1
      _Value: -2.4
    - _RefKeyIndex: -1
      _Value: -1.5999999
    - _RefKeyIndex: -1
      _Value: -0.8000002
    - _RefKeyIndex: 2
      _Value: 0
    ScaleXValues:
    - _RefKeyIndex: 0
      _Value: 0
    ScaleYValues:
    - _RefKeyIndex: 0
      _Value: 0
    TransValues: []
    PrioValues:
    - _RefKeyIndex: 0
      _Value: 0
    FlipHValues: []
    FlipVValues: []
    HideValues:
    - _RefKeyIndex: 0
      _Value: 0
    PartsColValues: []
    PartsPalValues: []
    VertexValues: []
    UserValues: []
    SoundValues: []
    ImageOffsetXValues: []
    ImageOffsetYValues: []
    ImageOffsetWValues: []
    ImageOffsetHValues: []
    OriginOffsetXValues:
    - _RefKeyIndex: -1
      _Value: -12
    OriginOffsetYValues:
    - _RefKeyIndex: -1
      _Value: 29
    _hasAttrFlags: 1573471
    HasTrancparency: 0
    FrameNum: 41
    imageFile:
      path: Assets/Resources/Atlas/S_Map01/S_Map01.png
      texture: {fileID: 2800000, guid: c4c99aa3607f20e4382406c67707dbca, type: 3}
      materials:
      - {fileID: 0}
      - {fileID: 0}
      - {fileID: 0}
      - {fileID: 0}
      - {fileID: 0}
      - {fileID: 2100000, guid: f5c21da67f595fc41bed3471f9b38bd7, type: 2}
      - {fileID: 0}
      - {fileID: 0}
      - {fileID: 0}
      - {fileID: 0}
      - {fileID: 0}
      - {fileID: 0}
      - {fileID: 0}
      - {fileID: 0}
      - {fileID: 0}
      - {fileID: 0}
      - {fileID: 0}
      - {fileID: 0}
      - {fileID: 0}
      - {fileID: 0}
      - {fileID: 0}
      - {fileID: 0}
      - {fileID: 0}
      - {fileID: 0}
      - {fileID: 0}
      - {fileID: 0}
      - {fileID: 0}
      - {fileID: 0}
      - {fileID: 0}
      - {fileID: 0}
      - {fileID: 0}
      - {fileID: 0}
      - {fileID: 0}
      - {fileID: 0}
      - {fileID: 0}
      - {fileID: 0}
      - {fileID: 0}
      - {fileID: 0}
      - {fileID: 0}
      - {fileID: 0}
      - {fileID: 0}
      - {fileID: 0}
      - {fileID: 0}
      - {fileID: 0}
      - {fileID: 0}
      - {fileID: 0}
      - {fileID: 0}
      - {fileID: 0}
      - {fileID: 0}
      - {fileID: 0}
      width: 2048
      height: 2048
      bpp: 0
    UVs:
    - {x: 0.18017578, y: 0.07861328}
    - {x: 0.21923828, y: 0.07861328}
    - {x: 0.21923828, y: 0.037597656}
    - {x: 0.18017578, y: 0.037597656}
    OrgVertices:
    - {x: -40, y: 42, z: 0}
    - {x: 40, y: 42, z: 0}
    - {x: 40, y: -42, z: 0}
    - {x: -40, y: -42, z: 0}
  - AnimeRes: {fileID: 11400000}
    Name: crowB_wingR
    Type: 0
    PicArea:
      Left: 432
      Top: 1979
      Right: 484
      Bottom: 2031
    OriginX: 26
    OriginY: 26
    MyId: 3
    ParentId: 2
    ChildNum: 0
    SrcObjId: 0
    SrcObjType: 0
    AlphaBlendType: 1
    InheritState:
      Type: 0
      Values:
      - Use: 1
        Rate: 1
      - Use: 1
        Rate: 1
      - Use: 1
        Rate: 1
      - Use: 1
        Rate: 1
      - Use: 1
        Rate: 1
      - Use: 1
        Rate: 1
      - Use: 1
        Rate: 1
      - Use: 0
        Rate: 0
      - Use: 0
        Rate: 0
      - Use: 0
        Rate: 0
      - Use: 1
        Rate: 1
      - Use: 1
        Rate: 1
      - Use: 1
        Rate: 1
      - Use: 1
        Rate: 1
      - Use: 1
        Rate: 1
      - Use: 1
        Rate: 1
      - Use: 1
        Rate: 1
      - Use: 1
        Rate: 1
      - Use: 1
        Rate: 1
      - Use: 1
        Rate: 1
      - Use: 1
        Rate: 1
    PosXKeys:
    - Value: 58
      _Time: 0
      _ValueType: 0
      _Curve:
        Type: 1
        StartT: 0
        StartV: 0
        EndT: 0
        EndV: 0
    - Value: 44
      _Time: 7
      _ValueType: 0
      _Curve:
        Type: 1
        StartT: 0
        StartV: 0
        EndT: 0
        EndV: 0
    - Value: 58
      _Time: 13
      _ValueType: 0
      _Curve:
        Type: 1
        StartT: 0
        StartV: 0
        EndT: 0
        EndV: 0
    - Value: 44
      _Time: 20
      _ValueType: 0
      _Curve:
        Type: 1
        StartT: 0
        StartV: 0
        EndT: 0
        EndV: 0
    - Value: 58
      _Time: 27
      _ValueType: 0
      _Curve:
        Type: 1
        StartT: 0
        StartV: 0
        EndT: 0
        EndV: 0
    - Value: 44
      _Time: 34
      _ValueType: 0
      _Curve:
        Type: 1
        StartT: 0
        StartV: 0
        EndT: 0
        EndV: 0
    - Value: 58
      _Time: 40
      _ValueType: 0
      _Curve:
        Type: 1
        StartT: 0
        StartV: 0
        EndT: 0
        EndV: 0
    PosYKeys:
    - Value: -22
      _Time: 0
      _ValueType: 0
      _Curve:
        Type: 1
        StartT: 0
        StartV: 0
        EndT: 0
        EndV: 0
    - Value: -30
      _Time: 7
      _ValueType: 0
      _Curve:
        Type: 1
        StartT: 0
        StartV: 0
        EndT: 0
        EndV: 0
    - Value: -22
      _Time: 13
      _ValueType: 0
      _Curve:
        Type: 1
        StartT: 0
        StartV: 0
        EndT: 0
        EndV: 0
    - Value: -30
      _Time: 20
      _ValueType: 0
      _Curve:
        Type: 1
        StartT: 0
        StartV: 0
        EndT: 0
        EndV: 0
    - Value: -22
      _Time: 27
      _ValueType: 0
      _Curve:
        Type: 1
        StartT: 0
        StartV: 0
        EndT: 0
        EndV: 0
    - Value: -30
      _Time: 34
      _ValueType: 0
      _Curve:
        Type: 1
        StartT: 0
        StartV: 0
        EndT: 0
        EndV: 0
    - Value: -22
      _Time: 40
      _ValueType: 0
      _Curve:
        Type: 1
        StartT: 0
        StartV: 0
        EndT: 0
        EndV: 0
    AngleKeys:
    - Value: -10.913
      _Time: 0
      _ValueType: 0
      _Curve:
        Type: 1
        StartT: 0
        StartV: 0
        EndT: 0
        EndV: 0
    - Value: -2.673
      _Time: 7
      _ValueType: 0
      _Curve:
        Type: 1
        StartT: 0
        StartV: 0
        EndT: 0
        EndV: 0
    - Value: -10.913
      _Time: 13
      _ValueType: 0
      _Curve:
        Type: 1
        StartT: 0
        StartV: 0
        EndT: 0
        EndV: 0
    - Value: -2.673
      _Time: 20
      _ValueType: 0
      _Curve:
        Type: 1
        StartT: 0
        StartV: 0
        EndT: 0
        EndV: 0
    - Value: -10.913
      _Time: 27
      _ValueType: 0
      _Curve:
        Type: 1
        StartT: 0
        StartV: 0
        EndT: 0
        EndV: 0
    - Value: -2.673
      _Time: 34
      _ValueType: 0
      _Curve:
        Type: 1
        StartT: 0
        StartV: 0
        EndT: 0
        EndV: 0
    - Value: -10.913
      _Time: 40
      _ValueType: 0
      _Curve:
        Type: 1
        StartT: 0
        StartV: 0
        EndT: 0
        EndV: 0
    ScaleXKeys:
    - Value: 1
      _Time: 0
      _ValueType: 0
      _Curve:
        Type: 1
        StartT: 0
        StartV: 0
        EndT: 0
        EndV: 0
    - Value: 0.637
      _Time: 7
      _ValueType: 0
      _Curve:
        Type: 1
        StartT: 0
        StartV: 0
        EndT: 0
        EndV: 0
    - Value: 1
      _Time: 13
      _ValueType: 0
      _Curve:
        Type: 1
        StartT: 0
        StartV: 0
        EndT: 0
        EndV: 0
    - Value: 0.637
      _Time: 20
      _ValueType: 0
      _Curve:
        Type: 1
        StartT: 0
        StartV: 0
        EndT: 0
        EndV: 0
    - Value: 1
      _Time: 27
      _ValueType: 0
      _Curve:
        Type: 1
        StartT: 0
        StartV: 0
        EndT: 0
        EndV: 0
    - Value: 0.637
      _Time: 34
      _ValueType: 0
      _Curve:
        Type: 1
        StartT: 0
        StartV: 0
        EndT: 0
        EndV: 0
    - Value: 1
      _Time: 40
      _ValueType: 0
      _Curve:
        Type: 1
        StartT: 0
        StartV: 0
        EndT: 0
        EndV: 0
    ScaleYKeys:
    - Value: 1
      _Time: 0
      _ValueType: 0
      _Curve:
        Type: 1
        StartT: 0
        StartV: 0
        EndT: 0
        EndV: 0
    - Value: 1.309
      _Time: 7
      _ValueType: 0
      _Curve:
        Type: 1
        StartT: 0
        StartV: 0
        EndT: 0
        EndV: 0
    - Value: 1
      _Time: 13
      _ValueType: 0
      _Curve:
        Type: 1
        StartT: 0
        StartV: 0
        EndT: 0
        EndV: 0
    - Value: 1.309
      _Time: 20
      _ValueType: 0
      _Curve:
        Type: 1
        StartT: 0
        StartV: 0
        EndT: 0
        EndV: 0
    - Value: 1
      _Time: 27
      _ValueType: 0
      _Curve:
        Type: 1
        StartT: 0
        StartV: 0
        EndT: 0
        EndV: 0
    - Value: 1.309
      _Time: 34
      _ValueType: 0
      _Curve:
        Type: 1
        StartT: 0
        StartV: 0
        EndT: 0
        EndV: 0
    - Value: 1
      _Time: 40
      _ValueType: 0
      _Curve:
        Type: 1
        StartT: 0
        StartV: 0
        EndT: 0
        EndV: 0
    TransKeys: []
    PrioKeys:
    - Value: 1
      _Time: 0
      _ValueType: 0
      _Curve:
        Type: 1
        StartT: 0
        StartV: 0
        EndT: 0
        EndV: 0
    - Value: 1
      _Time: 13
      _ValueType: 0
      _Curve:
        Type: 1
        StartT: 0
        StartV: 0
        EndT: 0
        EndV: 0
    - Value: 1
      _Time: 27
      _ValueType: 0
      _Curve:
        Type: 1
        StartT: 0
        StartV: 0
        EndT: 0
        EndV: 0
    - Value: 1
      _Time: 40
      _ValueType: 0
      _Curve:
        Type: 1
        StartT: 0
        StartV: 0
        EndT: 0
        EndV: 0
    FlipHKeys: []
    FlipVKeys: []
    HideKeys:
    - Value: 0
      _Time: 0
      _ValueType: 1
      _Curve:
        Type: 0
        StartT: 0
        StartV: 0
        EndT: 0
        EndV: 0
    - Value: 0
      _Time: 13
      _ValueType: 1
      _Curve:
        Type: 0
        StartT: 0
        StartV: 0
        EndT: 0
        EndV: 0
    - Value: 0
      _Time: 27
      _ValueType: 1
      _Curve:
        Type: 0
        StartT: 0
        StartV: 0
        EndT: 0
        EndV: 0
    - Value: 0
      _Time: 40
      _ValueType: 1
      _Curve:
        Type: 0
        StartT: 0
        StartV: 0
        EndT: 0
        EndV: 0
    PartsColKeys: []
    PartsPalKeys: []
    VertexKeys: []
    UserKeys: []
    SoundKeys: []
    ImageOffsetXKeys: []
    ImageOffsetYKeys: []
    ImageOffsetWKeys: []
    ImageOffsetHKeys: []
    OriginOffsetXKeys:
    - Value: 20
      _Time: 0
      _ValueType: 0
      _Curve:
        Type: 1
        StartT: 0
        StartV: 0
        EndT: 0
        EndV: 0
    - Value: 20
      _Time: 13
      _ValueType: 0
      _Curve:
        Type: 1
        StartT: 0
        StartV: 0
        EndT: 0
        EndV: 0
    - Value: 20
      _Time: 27
      _ValueType: 0
      _Curve:
        Type: 1
        StartT: 0
        StartV: 0
        EndT: 0
        EndV: 0
    - Value: 20
      _Time: 40
      _ValueType: 0
      _Curve:
        Type: 1
        StartT: 0
        StartV: 0
        EndT: 0
        EndV: 0
    OriginOffsetYKeys:
    - Value: 15
      _Time: 0
      _ValueType: 0
      _Curve:
        Type: 1
        StartT: 0
        StartV: 0
        EndT: 0
        EndV: 0
    - Value: 15
      _Time: 13
      _ValueType: 0
      _Curve:
        Type: 1
        StartT: 0
        StartV: 0
        EndT: 0
        EndV: 0
    - Value: 15
      _Time: 27
      _ValueType: 0
      _Curve:
        Type: 1
        StartT: 0
        StartV: 0
        EndT: 0
        EndV: 0
    - Value: 15
      _Time: 40
      _ValueType: 0
      _Curve:
        Type: 1
        StartT: 0
        StartV: 0
        EndT: 0
        EndV: 0
    PosXValues:
    - _RefKeyIndex: -1
      _Value: 58
    - _RefKeyIndex: -1
      _Value: 56
    - _RefKeyIndex: -1
      _Value: 54
    - _RefKeyIndex: -1
      _Value: 52
    - _RefKeyIndex: -1
      _Value: 50
    - _RefKeyIndex: -1
      _Value: 48
    - _RefKeyIndex: -1
      _Value: 46
    - _RefKeyIndex: -1
      _Value: 44
    - _RefKeyIndex: -1
      _Value: 46.333332
    - _RefKeyIndex: -1
      _Value: 48.666668
    - _RefKeyIndex: -1
      _Value: 51
    - _RefKeyIndex: -1
      _Value: 53.333332
    - _RefKeyIndex: -1
      _Value: 55.666668
    - _RefKeyIndex: -1
      _Value: 58
    - _RefKeyIndex: -1
      _Value: 56
    - _RefKeyIndex: -1
      _Value: 54
    - _RefKeyIndex: -1
      _Value: 52
    - _RefKeyIndex: -1
      _Value: 50
    - _RefKeyIndex: -1
      _Value: 48
    - _RefKeyIndex: -1
      _Value: 46
    - _RefKeyIndex: -1
      _Value: 44
    - _RefKeyIndex: -1
      _Value: 46
    - _RefKeyIndex: -1
      _Value: 48
    - _RefKeyIndex: -1
      _Value: 50
    - _RefKeyIndex: -1
      _Value: 52
    - _RefKeyIndex: -1
      _Value: 54
    - _RefKeyIndex: -1
      _Value: 56
    - _RefKeyIndex: -1
      _Value: 58
    - _RefKeyIndex: -1
      _Value: 56
    - _RefKeyIndex: -1
      _Value: 54
    - _RefKeyIndex: -1
      _Value: 52
    - _RefKeyIndex: -1
      _Value: 50
    - _RefKeyIndex: -1
      _Value: 48
    - _RefKeyIndex: -1
      _Value: 46
    - _RefKeyIndex: -1
      _Value: 44
    - _RefKeyIndex: -1
      _Value: 46.333332
    - _RefKeyIndex: -1
      _Value: 48.666668
    - _RefKeyIndex: -1
      _Value: 51
    - _RefKeyIndex: -1
      _Value: 53.333332
    - _RefKeyIndex: -1
      _Value: 55.666668
    - _RefKeyIndex: 6
      _Value: 0
    PosYValues:
    - _RefKeyIndex: -1
      _Value: -22
    - _RefKeyIndex: -1
      _Value: -23.142857
    - _RefKeyIndex: -1
      _Value: -24.285715
    - _RefKeyIndex: -1
      _Value: -25.428572
    - _RefKeyIndex: -1
      _Value: -26.571428
    - _RefKeyIndex: -1
      _Value: -27.714287
    - _RefKeyIndex: -1
      _Value: -28.857143
    - _RefKeyIndex: -1
      _Value: -30
    - _RefKeyIndex: -1
      _Value: -28.666666
    - _RefKeyIndex: -1
      _Value: -27.333334
    - _RefKeyIndex: -1
      _Value: -26
    - _RefKeyIndex: -1
      _Value: -24.666666
    - _RefKeyIndex: -1
      _Value: -23.333334
    - _RefKeyIndex: -1
      _Value: -22
    - _RefKeyIndex: -1
      _Value: -23.142857
    - _RefKeyIndex: -1
      _Value: -24.285715
    - _RefKeyIndex: -1
      _Value: -25.428572
    - _RefKeyIndex: -1
      _Value: -26.571428
    - _RefKeyIndex: -1
      _Value: -27.714287
    - _RefKeyIndex: -1
      _Value: -28.857143
    - _RefKeyIndex: -1
      _Value: -30
    - _RefKeyIndex: -1
      _Value: -28.857143
    - _RefKeyIndex: -1
      _Value: -27.714285
    - _RefKeyIndex: -1
      _Value: -26.571428
    - _RefKeyIndex: -1
      _Value: -25.428572
    - _RefKeyIndex: -1
      _Value: -24.285713
    - _RefKeyIndex: -1
      _Value: -23.142857
    - _RefKeyIndex: -1
      _Value: -22
    - _RefKeyIndex: -1
      _Value: -23.142857
    - _RefKeyIndex: -1
      _Value: -24.285715
    - _RefKeyIndex: -1
      _Value: -25.428572
    - _RefKeyIndex: -1
      _Value: -26.571428
    - _RefKeyIndex: -1
      _Value: -27.714287
    - _RefKeyIndex: -1
      _Value: -28.857143
    - _RefKeyIndex: -1
      _Value: -30
    - _RefKeyIndex: -1
      _Value: -28.666666
    - _RefKeyIndex: -1
      _Value: -27.333334
    - _RefKeyIndex: -1
      _Value: -26
    - _RefKeyIndex: -1
      _Value: -24.666666
    - _RefKeyIndex: -1
      _Value: -23.333334
    - _RefKeyIndex: 6
      _Value: 0
    AngleValues:
    - _RefKeyIndex: -1
      _Value: -10.913
    - _RefKeyIndex: -1
      _Value: -9.735857
    - _RefKeyIndex: -1
      _Value: -8.558714
    - _RefKeyIndex: -1
      _Value: -7.3815713
    - _RefKeyIndex: -1
      _Value: -6.2044287
    - _RefKeyIndex: -1
      _Value: -5.0272856
    - _RefKeyIndex: -1
      _Value: -3.850143
    - _RefKeyIndex: -1
      _Value: -2.673
    - _RefKeyIndex: -1
      _Value: -4.0463333
    - _RefKeyIndex: -1
      _Value: -5.419667
    - _RefKeyIndex: -1
      _Value: -6.793
    - _RefKeyIndex: -1
      _Value: -8.166333
    - _RefKeyIndex: -1
      _Value: -9.539666
    - _RefKeyIndex: -1
      _Value: -10.913
    - _RefKeyIndex: -1
      _Value: -9.735857
    - _RefKeyIndex: -1
      _Value: -8.558714
    - _RefKeyIndex: -1
      _Value: -7.3815713
    - _RefKeyIndex: -1
      _Value: -6.2044287
    - _RefKeyIndex: -1
      _Value: -5.0272856
    - _RefKeyIndex: -1
      _Value: -3.850143
    - _RefKeyIndex: -1
      _Value: -2.673
    - _RefKeyIndex: -1
      _Value: -3.850143
    - _RefKeyIndex: -1
      _Value: -5.027286
    - _RefKeyIndex: -1
      _Value: -6.2044287
    - _RefKeyIndex: -1
      _Value: -7.381572
    - _RefKeyIndex: -1
      _Value: -8.558715
    - _RefKeyIndex: -1
      _Value: -9.735857
    - _RefKeyIndex: -1
      _Value: -10.913
    - _RefKeyIndex: -1
      _Value: -9.735857
    - _RefKeyIndex: -1
      _Value: -8.558714
    - _RefKeyIndex: -1
      _Value: -7.3815713
    - _RefKeyIndex: -1
      _Value: -6.2044287
    - _RefKeyIndex: -1
      _Value: -5.0272856
    - _RefKeyIndex: -1
      _Value: -3.850143
    - _RefKeyIndex: -1
      _Value: -2.673
    - _RefKeyIndex: -1
      _Value: -4.0463333
    - _RefKeyIndex: -1
      _Value: -5.419667
    - _RefKeyIndex: -1
      _Value: -6.793
    - _RefKeyIndex: -1
      _Value: -8.166333
    - _RefKeyIndex: -1
      _Value: -9.539666
    - _RefKeyIndex: 6
      _Value: 0
    ScaleXValues:
    - _RefKeyIndex: -1
      _Value: 1
    - _RefKeyIndex: -1
      _Value: 0.9481429
    - _RefKeyIndex: -1
      _Value: 0.8962857
    - _RefKeyIndex: -1
      _Value: 0.8444286
    - _RefKeyIndex: -1
      _Value: 0.7925714
    - _RefKeyIndex: -1
      _Value: 0.7407143
    - _RefKeyIndex: -1
      _Value: 0.68885714
    - _RefKeyIndex: -1
      _Value: 0.637
    - _RefKeyIndex: -1
      _Value: 0.69750005
    - _RefKeyIndex: -1
      _Value: 0.758
    - _RefKeyIndex: -1
      _Value: 0.81850004
    - _RefKeyIndex: -1
      _Value: 0.879
    - _RefKeyIndex: -1
      _Value: 0.9395
    - _RefKeyIndex: -1
      _Value: 1
    - _RefKeyIndex: -1
      _Value: 0.9481429
    - _RefKeyIndex: -1
      _Value: 0.8962857
    - _RefKeyIndex: -1
      _Value: 0.8444286
    - _RefKeyIndex: -1
      _Value: 0.7925714
    - _RefKeyIndex: -1
      _Value: 0.7407143
    - _RefKeyIndex: -1
      _Value: 0.68885714
    - _RefKeyIndex: -1
      _Value: 0.637
    - _RefKeyIndex: -1
      _Value: 0.68885714
    - _RefKeyIndex: -1
      _Value: 0.7407143
    - _RefKeyIndex: -1
      _Value: 0.7925714
    - _RefKeyIndex: -1
      _Value: 0.8444286
    - _RefKeyIndex: -1
      _Value: 0.8962857
    - _RefKeyIndex: -1
      _Value: 0.9481429
    - _RefKeyIndex: -1
      _Value: 1
    - _RefKeyIndex: -1
      _Value: 0.9481429
    - _RefKeyIndex: -1
      _Value: 0.8962857
    - _RefKeyIndex: -1
      _Value: 0.8444286
    - _RefKeyIndex: -1
      _Value: 0.7925714
    - _RefKeyIndex: -1
      _Value: 0.7407143
    - _RefKeyIndex: -1
      _Value: 0.68885714
    - _RefKeyIndex: -1
      _Value: 0.637
    - _RefKeyIndex: -1
      _Value: 0.69750005
    - _RefKeyIndex: -1
      _Value: 0.758
    - _RefKeyIndex: -1
      _Value: 0.81850004
    - _RefKeyIndex: -1
      _Value: 0.879
    - _RefKeyIndex: -1
      _Value: 0.9395
    - _RefKeyIndex: 6
      _Value: 0
    ScaleYValues:
    - _RefKeyIndex: -1
      _Value: 1
    - _RefKeyIndex: -1
      _Value: 1.0441428
    - _RefKeyIndex: -1
      _Value: 1.0882857
    - _RefKeyIndex: -1
      _Value: 1.1324285
    - _RefKeyIndex: -1
      _Value: 1.1765715
    - _RefKeyIndex: -1
      _Value: 1.2207143
    - _RefKeyIndex: -1
      _Value: 1.2648572
    - _RefKeyIndex: -1
      _Value: 1.309
    - _RefKeyIndex: -1
      _Value: 1.2575
    - _RefKeyIndex: -1
      _Value: 1.206
    - _RefKeyIndex: -1
      _Value: 1.1545
    - _RefKeyIndex: -1
      _Value: 1.103
    - _RefKeyIndex: -1
      _Value: 1.0515
    - _RefKeyIndex: -1
      _Value: 1
    - _RefKeyIndex: -1
      _Value: 1.0441428
    - _RefKeyIndex: -1
      _Value: 1.0882857
    - _RefKeyIndex: -1
      _Value: 1.1324285
    - _RefKeyIndex: -1
      _Value: 1.1765715
    - _RefKeyIndex: -1
      _Value: 1.2207143
    - _RefKeyIndex: -1
      _Value: 1.2648572
    - _RefKeyIndex: -1
      _Value: 1.309
    - _RefKeyIndex: -1
      _Value: 1.2648572
    - _RefKeyIndex: -1
      _Value: 1.2207143
    - _RefKeyIndex: -1
      _Value: 1.1765715
    - _RefKeyIndex: -1
      _Value: 1.1324285
    - _RefKeyIndex: -1
      _Value: 1.0882857
    - _RefKeyIndex: -1
      _Value: 1.0441428
    - _RefKeyIndex: -1
      _Value: 1
    - _RefKeyIndex: -1
      _Value: 1.0441428
    - _RefKeyIndex: -1
      _Value: 1.0882857
    - _RefKeyIndex: -1
      _Value: 1.1324285
    - _RefKeyIndex: -1
      _Value: 1.1765715
    - _RefKeyIndex: -1
      _Value: 1.2207143
    - _RefKeyIndex: -1
      _Value: 1.2648572
    - _RefKeyIndex: -1
      _Value: 1.309
    - _RefKeyIndex: -1
      _Value: 1.2575
    - _RefKeyIndex: -1
      _Value: 1.206
    - _RefKeyIndex: -1
      _Value: 1.1545
    - _RefKeyIndex: -1
      _Value: 1.103
    - _RefKeyIndex: -1
      _Value: 1.0515
    - _RefKeyIndex: 6
      _Value: 0
    TransValues: []
    PrioValues:
    - _RefKeyIndex: -1
      _Value: 1
    FlipHValues: []
    FlipVValues: []
    HideValues:
    - _RefKeyIndex: 0
      _Value: 0
    PartsColValues: []
    PartsPalValues: []
    VertexValues: []
    UserValues: []
    SoundValues: []
    ImageOffsetXValues: []
    ImageOffsetYValues: []
    ImageOffsetWValues: []
    ImageOffsetHValues: []
    OriginOffsetXValues:
    - _RefKeyIndex: -1
      _Value: 20
    OriginOffsetYValues:
    - _RefKeyIndex: -1
      _Value: 15
    _hasAttrFlags: 1573471
    HasTrancparency: 0
    FrameNum: 41
    imageFile:
      path: Assets/Resources/Atlas/S_Map01/S_Map01.png
      texture: {fileID: 2800000, guid: c4c99aa3607f20e4382406c67707dbca, type: 3}
      materials:
      - {fileID: 0}
      - {fileID: 0}
      - {fileID: 0}
      - {fileID: 0}
      - {fileID: 0}
      - {fileID: 2100000, guid: f5c21da67f595fc41bed3471f9b38bd7, type: 2}
      - {fileID: 0}
      - {fileID: 0}
      - {fileID: 0}
      - {fileID: 0}
      - {fileID: 0}
      - {fileID: 0}
      - {fileID: 0}
      - {fileID: 0}
      - {fileID: 0}
      - {fileID: 0}
      - {fileID: 0}
      - {fileID: 0}
      - {fileID: 0}
      - {fileID: 0}
      - {fileID: 0}
      - {fileID: 0}
      - {fileID: 0}
      - {fileID: 0}
      - {fileID: 0}
      - {fileID: 0}
      - {fileID: 0}
      - {fileID: 0}
      - {fileID: 0}
      - {fileID: 0}
      - {fileID: 0}
      - {fileID: 0}
      - {fileID: 0}
      - {fileID: 0}
      - {fileID: 0}
      - {fileID: 0}
      - {fileID: 0}
      - {fileID: 0}
      - {fileID: 0}
      - {fileID: 0}
      - {fileID: 0}
      - {fileID: 0}
      - {fileID: 0}
      - {fileID: 0}
      - {fileID: 0}
      - {fileID: 0}
      - {fileID: 0}
      - {fileID: 0}
      - {fileID: 0}
      - {fileID: 0}
      width: 2048
      height: 2048
      bpp: 0
    UVs:
    - {x: 0.2109375, y: 0.033691406}
    - {x: 0.23632812, y: 0.033691406}
    - {x: 0.23632812, y: 0.008300781}
    - {x: 0.2109375, y: 0.008300781}
    OrgVertices:
    - {x: -26, y: 26, z: 0}
    - {x: 26, y: 26, z: 0}
    - {x: 26, y: -26, z: 0}
    - {x: -26, y: -26, z: 0}
  - AnimeRes: {fileID: 11400000}
    Name: crowB_wingL
    Type: 0
    PicArea:
      Left: 267
      Top: 1988
      Right: 337
      Bottom: 2034
    OriginX: 35
    OriginY: 23
    MyId: 4
    ParentId: 2
    ChildNum: 0
    SrcObjId: 0
    SrcObjType: 0
    AlphaBlendType: 1
    InheritState:
      Type: 0
      Values:
      - Use: 1
        Rate: 1
      - Use: 1
        Rate: 1
      - Use: 1
        Rate: 1
      - Use: 1
        Rate: 1
      - Use: 1
        Rate: 1
      - Use: 1
        Rate: 1
      - Use: 1
        Rate: 1
      - Use: 0
        Rate: 0
      - Use: 0
        Rate: 0
      - Use: 0
        Rate: 0
      - Use: 1
        Rate: 1
      - Use: 1
        Rate: 1
      - Use: 1
        Rate: 1
      - Use: 1
        Rate: 1
      - Use: 1
        Rate: 1
      - Use: 1
        Rate: 1
      - Use: 1
        Rate: 1
      - Use: 1
        Rate: 1
      - Use: 1
        Rate: 1
      - Use: 1
        Rate: 1
      - Use: 1
        Rate: 1
    PosXKeys:
    - Value: -46
      _Time: 0
      _ValueType: 0
      _Curve:
        Type: 1
        StartT: 0
        StartV: 0
        EndT: 0
        EndV: 0
    - Value: -46
      _Time: 7
      _ValueType: 0
      _Curve:
        Type: 1
        StartT: 0
        StartV: 0
        EndT: 0
        EndV: 0
    - Value: -46
      _Time: 13
      _ValueType: 0
      _Curve:
        Type: 1
        StartT: 0
        StartV: 0
        EndT: 0
        EndV: 0
    - Value: -46
      _Time: 20
      _ValueType: 0
      _Curve:
        Type: 1
        StartT: 0
        StartV: 0
        EndT: 0
        EndV: 0
    - Value: -46
      _Time: 27
      _ValueType: 0
      _Curve:
        Type: 1
        StartT: 0
        StartV: 0
        EndT: 0
        EndV: 0
    - Value: -46
      _Time: 34
      _ValueType: 0
      _Curve:
        Type: 1
        StartT: 0
        StartV: 0
        EndT: 0
        EndV: 0
    - Value: -46
      _Time: 40
      _ValueType: 0
      _Curve:
        Type: 1
        StartT: 0
        StartV: 0
        EndT: 0
        EndV: 0
    PosYKeys:
    - Value: -15
      _Time: 0
      _ValueType: 0
      _Curve:
        Type: 1
        StartT: 0
        StartV: 0
        EndT: 0
        EndV: 0
    - Value: -31
      _Time: 7
      _ValueType: 0
      _Curve:
        Type: 1
        StartT: 0
        StartV: 0
        EndT: 0
        EndV: 0
    - Value: -15
      _Time: 13
      _ValueType: 0
      _Curve:
        Type: 1
        StartT: 0
        StartV: 0
        EndT: 0
        EndV: 0
    - Value: -31
      _Time: 20
      _ValueType: 0
      _Curve:
        Type: 1
        StartT: 0
        StartV: 0
        EndT: 0
        EndV: 0
    - Value: -15
      _Time: 27
      _ValueType: 0
      _Curve:
        Type: 1
        StartT: 0
        StartV: 0
        EndT: 0
        EndV: 0
    - Value: -31
      _Time: 34
      _ValueType: 0
      _Curve:
        Type: 1
        StartT: 0
        StartV: 0
        EndT: 0
        EndV: 0
    - Value: -15
      _Time: 40
      _ValueType: 0
      _Curve:
        Type: 1
        StartT: 0
        StartV: 0
        EndT: 0
        EndV: 0
    AngleKeys:
    - Value: 13.098
      _Time: 0
      _ValueType: 0
      _Curve:
        Type: 1
        StartT: 0
        StartV: 0
        EndT: 0
        EndV: 0
    - Value: -1.705
      _Time: 7
      _ValueType: 0
      _Curve:
        Type: 1
        StartT: 0
        StartV: 0
        EndT: 0
        EndV: 0
    - Value: 13.098
      _Time: 13
      _ValueType: 0
      _Curve:
        Type: 1
        StartT: 0
        StartV: 0
        EndT: 0
        EndV: 0
    - Value: -1.705
      _Time: 20
      _ValueType: 0
      _Curve:
        Type: 1
        StartT: 0
        StartV: 0
        EndT: 0
        EndV: 0
    - Value: 13.098
      _Time: 27
      _ValueType: 0
      _Curve:
        Type: 1
        StartT: 0
        StartV: 0
        EndT: 0
        EndV: 0
    - Value: -1.705
      _Time: 34
      _ValueType: 0
      _Curve:
        Type: 1
        StartT: 0
        StartV: 0
        EndT: 0
        EndV: 0
    - Value: 13.098
      _Time: 40
      _ValueType: 0
      _Curve:
        Type: 1
        StartT: 0
        StartV: 0
        EndT: 0
        EndV: 0
    ScaleXKeys:
    - Value: 1
      _Time: 0
      _ValueType: 0
      _Curve:
        Type: 1
        StartT: 0
        StartV: 0
        EndT: 0
        EndV: 0
    - Value: 1
      _Time: 7
      _ValueType: 0
      _Curve:
        Type: 1
        StartT: 0
        StartV: 0
        EndT: 0
        EndV: 0
    - Value: 1
      _Time: 13
      _ValueType: 0
      _Curve:
        Type: 1
        StartT: 0
        StartV: 0
        EndT: 0
        EndV: 0
    - Value: 1
      _Time: 20
      _ValueType: 0
      _Curve:
        Type: 1
        StartT: 0
        StartV: 0
        EndT: 0
        EndV: 0
    - Value: 1
      _Time: 27
      _ValueType: 0
      _Curve:
        Type: 1
        StartT: 0
        StartV: 0
        EndT: 0
        EndV: 0
    - Value: 1
      _Time: 34
      _ValueType: 0
      _Curve:
        Type: 1
        StartT: 0
        StartV: 0
        EndT: 0
        EndV: 0
    - Value: 1
      _Time: 40
      _ValueType: 0
      _Curve:
        Type: 1
        StartT: 0
        StartV: 0
        EndT: 0
        EndV: 0
    ScaleYKeys:
    - Value: 1.1
      _Time: 0
      _ValueType: 0
      _Curve:
        Type: 1
        StartT: 0
        StartV: 0
        EndT: 0
        EndV: 0
    - Value: 1.1
      _Time: 7
      _ValueType: 0
      _Curve:
        Type: 1
        StartT: 0
        StartV: 0
        EndT: 0
        EndV: 0
    - Value: 1.1
      _Time: 13
      _ValueType: 0
      _Curve:
        Type: 1
        StartT: 0
        StartV: 0
        EndT: 0
        EndV: 0
    - Value: 1.1
      _Time: 20
      _ValueType: 0
      _Curve:
        Type: 1
        StartT: 0
        StartV: 0
        EndT: 0
        EndV: 0
    - Value: 1.1
      _Time: 27
      _ValueType: 0
      _Curve:
        Type: 1
        StartT: 0
        StartV: 0
        EndT: 0
        EndV: 0
    - Value: 1.1
      _Time: 34
      _ValueType: 0
      _Curve:
        Type: 1
        StartT: 0
        StartV: 0
        EndT: 0
        EndV: 0
    - Value: 1.1
      _Time: 40
      _ValueType: 0
      _Curve:
        Type: 1
        StartT: 0
        StartV: 0
        EndT: 0
        EndV: 0
    TransKeys: []
    PrioKeys:
    - Value: 3
      _Time: 0
      _ValueType: 0
      _Curve:
        Type: 1
        StartT: 0
        StartV: 0
        EndT: 0
        EndV: 0
    - Value: 3
      _Time: 7
      _ValueType: 0
      _Curve:
        Type: 1
        StartT: 0
        StartV: 0
        EndT: 0
        EndV: 0
    - Value: 3
      _Time: 13
      _ValueType: 0
      _Curve:
        Type: 1
        StartT: 0
        StartV: 0
        EndT: 0
        EndV: 0
    - Value: 3
      _Time: 20
      _ValueType: 0
      _Curve:
        Type: 1
        StartT: 0
        StartV: 0
        EndT: 0
        EndV: 0
    - Value: 3
      _Time: 27
      _ValueType: 0
      _Curve:
        Type: 1
        StartT: 0
        StartV: 0
        EndT: 0
        EndV: 0
    - Value: 3
      _Time: 34
      _ValueType: 0
      _Curve:
        Type: 1
        StartT: 0
        StartV: 0
        EndT: 0
        EndV: 0
    - Value: 3
      _Time: 40
      _ValueType: 0
      _Curve:
        Type: 1
        StartT: 0
        StartV: 0
        EndT: 0
        EndV: 0
    FlipHKeys: []
    FlipVKeys: []
    HideKeys:
    - Value: 0
      _Time: 0
      _ValueType: 1
      _Curve:
        Type: 0
        StartT: 0
        StartV: 0
        EndT: 0
        EndV: 0
    - Value: 0
      _Time: 7
      _ValueType: 1
      _Curve:
        Type: 0
        StartT: 0
        StartV: 0
        EndT: 0
        EndV: 0
    - Value: 0
      _Time: 13
      _ValueType: 1
      _Curve:
        Type: 0
        StartT: 0
        StartV: 0
        EndT: 0
        EndV: 0
    - Value: 0
      _Time: 20
      _ValueType: 1
      _Curve:
        Type: 0
        StartT: 0
        StartV: 0
        EndT: 0
        EndV: 0
    - Value: 0
      _Time: 27
      _ValueType: 1
      _Curve:
        Type: 0
        StartT: 0
        StartV: 0
        EndT: 0
        EndV: 0
    - Value: 0
      _Time: 34
      _ValueType: 1
      _Curve:
        Type: 0
        StartT: 0
        StartV: 0
        EndT: 0
        EndV: 0
    - Value: 0
      _Time: 40
      _ValueType: 1
      _Curve:
        Type: 0
        StartT: 0
        StartV: 0
        EndT: 0
        EndV: 0
    PartsColKeys: []
    PartsPalKeys: []
    VertexKeys: []
    UserKeys: []
    SoundKeys: []
    ImageOffsetXKeys: []
    ImageOffsetYKeys: []
    ImageOffsetWKeys: []
    ImageOffsetHKeys: []
    OriginOffsetXKeys:
    - Value: -35
      _Time: 0
      _ValueType: 0
      _Curve:
        Type: 1
        StartT: 0
        StartV: 0
        EndT: 0
        EndV: 0
    - Value: -35
      _Time: 7
      _ValueType: 0
      _Curve:
        Type: 1
        StartT: 0
        StartV: 0
        EndT: 0
        EndV: 0
    - Value: -35
      _Time: 13
      _ValueType: 0
      _Curve:
        Type: 1
        StartT: 0
        StartV: 0
        EndT: 0
        EndV: 0
    - Value: -35
      _Time: 20
      _ValueType: 0
      _Curve:
        Type: 1
        StartT: 0
        StartV: 0
        EndT: 0
        EndV: 0
    - Value: -35
      _Time: 27
      _ValueType: 0
      _Curve:
        Type: 1
        StartT: 0
        StartV: 0
        EndT: 0
        EndV: 0
    - Value: -35
      _Time: 34
      _ValueType: 0
      _Curve:
        Type: 1
        StartT: 0
        StartV: 0
        EndT: 0
        EndV: 0
    - Value: -35
      _Time: 40
      _ValueType: 0
      _Curve:
        Type: 1
        StartT: 0
        StartV: 0
        EndT: 0
        EndV: 0
    OriginOffsetYKeys: []
    PosXValues:
    - _RefKeyIndex: -1
      _Value: -46
    PosYValues:
    - _RefKeyIndex: -1
      _Value: -15
    - _RefKeyIndex: -1
      _Value: -17.285715
    - _RefKeyIndex: -1
      _Value: -19.571428
    - _RefKeyIndex: -1
      _Value: -21.857143
    - _RefKeyIndex: -1
      _Value: -24.142857
    - _RefKeyIndex: -1
      _Value: -26.428572
    - _RefKeyIndex: -1
      _Value: -28.714287
    - _RefKeyIndex: -1
      _Value: -31
    - _RefKeyIndex: -1
      _Value: -28.333334
    - _RefKeyIndex: -1
      _Value: -25.666666
    - _RefKeyIndex: -1
      _Value: -23
    - _RefKeyIndex: -1
      _Value: -20.333332
    - _RefKeyIndex: -1
      _Value: -17.666668
    - _RefKeyIndex: -1
      _Value: -15
    - _RefKeyIndex: -1
      _Value: -17.285715
    - _RefKeyIndex: -1
      _Value: -19.571428
    - _RefKeyIndex: -1
      _Value: -21.857143
    - _RefKeyIndex: -1
      _Value: -24.142857
    - _RefKeyIndex: -1
      _Value: -26.428572
    - _RefKeyIndex: -1
      _Value: -28.714287
    - _RefKeyIndex: -1
      _Value: -31
    - _RefKeyIndex: -1
      _Value: -28.714285
    - _RefKeyIndex: -1
      _Value: -26.428572
    - _RefKeyIndex: -1
      _Value: -24.142857
    - _RefKeyIndex: -1
      _Value: -21.857143
    - _RefKeyIndex: -1
      _Value: -19.571428
    - _RefKeyIndex: -1
      _Value: -17.285713
    - _RefKeyIndex: -1
      _Value: -15
    - _RefKeyIndex: -1
      _Value: -17.285715
    - _RefKeyIndex: -1
      _Value: -19.571428
    - _RefKeyIndex: -1
      _Value: -21.857143
    - _RefKeyIndex: -1
      _Value: -24.142857
    - _RefKeyIndex: -1
      _Value: -26.428572
    - _RefKeyIndex: -1
      _Value: -28.714287
    - _RefKeyIndex: -1
      _Value: -31
    - _RefKeyIndex: -1
      _Value: -28.333334
    - _RefKeyIndex: -1
      _Value: -25.666666
    - _RefKeyIndex: -1
      _Value: -23
    - _RefKeyIndex: -1
      _Value: -20.333332
    - _RefKeyIndex: -1
      _Value: -17.666668
    - _RefKeyIndex: 6
      _Value: 0
    AngleValues:
    - _RefKeyIndex: -1
      _Value: 13.098
    - _RefKeyIndex: -1
      _Value: 10.983285
    - _RefKeyIndex: -1
      _Value: 8.868571
    - _RefKeyIndex: -1
      _Value: 6.7538567
    - _RefKeyIndex: -1
      _Value: 4.639142
    - _RefKeyIndex: -1
      _Value: 2.5244281
    - _RefKeyIndex: -1
      _Value: 0.40971407
    - _RefKeyIndex: -1
      _Value: -1.705
    - _RefKeyIndex: -1
      _Value: 0.7621666
    - _RefKeyIndex: -1
      _Value: 3.2293334
    - _RefKeyIndex: -1
      _Value: 5.6965
    - _RefKeyIndex: -1
      _Value: 8.163667
    - _RefKeyIndex: -1
      _Value: 10.630833
    - _RefKeyIndex: -1
      _Value: 13.098
    - _RefKeyIndex: -1
      _Value: 10.983285
    - _RefKeyIndex: -1
      _Value: 8.868571
    - _RefKeyIndex: -1
      _Value: 6.7538567
    - _RefKeyIndex: -1
      _Value: 4.639142
    - _RefKeyIndex: -1
      _Value: 2.5244281
    - _RefKeyIndex: -1
      _Value: 0.40971407
    - _RefKeyIndex: -1
      _Value: -1.705
    - _RefKeyIndex: -1
      _Value: 0.40971428
    - _RefKeyIndex: -1
      _Value: 2.5244286
    - _RefKeyIndex: -1
      _Value: 4.6391425
    - _RefKeyIndex: -1
      _Value: 6.753857
    - _RefKeyIndex: -1
      _Value: 8.868571
    - _RefKeyIndex: -1
      _Value: 10.983286
    - _RefKeyIndex: -1
      _Value: 13.098
    - _RefKeyIndex: -1
      _Value: 10.983285
    - _RefKeyIndex: -1
      _Value: 8.868571
    - _RefKeyIndex: -1
      _Value: 6.7538567
    - _RefKeyIndex: -1
      _Value: 4.639142
    - _RefKeyIndex: -1
      _Value: 2.5244281
    - _RefKeyIndex: -1
      _Value: 0.40971407
    - _RefKeyIndex: -1
      _Value: -1.705
    - _RefKeyIndex: -1
      _Value: 0.7621666
    - _RefKeyIndex: -1
      _Value: 3.2293334
    - _RefKeyIndex: -1
      _Value: 5.6965
    - _RefKeyIndex: -1
      _Value: 8.163667
    - _RefKeyIndex: -1
      _Value: 10.630833
    - _RefKeyIndex: 6
      _Value: 0
    ScaleXValues:
    - _RefKeyIndex: -1
      _Value: 1
    ScaleYValues:
    - _RefKeyIndex: -1
      _Value: 1.1
    TransValues: []
    PrioValues:
    - _RefKeyIndex: -1
      _Value: 3
    FlipHValues: []
    FlipVValues: []
    HideValues:
    - _RefKeyIndex: 0
      _Value: 0
    PartsColValues: []
    PartsPalValues: []
    VertexValues: []
    UserValues: []
    SoundValues: []
    ImageOffsetXValues: []
    ImageOffsetYValues: []
    ImageOffsetWValues: []
    ImageOffsetHValues: []
    OriginOffsetXValues:
    - _RefKeyIndex: -1
      _Value: -35
    OriginOffsetYValues: []
    _hasAttrFlags: 524895
    HasTrancparency: 0
    FrameNum: 41
    imageFile:
      path: Assets/Resources/Atlas/S_Map01/S_Map01.png
      texture: {fileID: 2800000, guid: c4c99aa3607f20e4382406c67707dbca, type: 3}
      materials:
      - {fileID: 0}
      - {fileID: 0}
      - {fileID: 0}
      - {fileID: 0}
      - {fileID: 0}
      - {fileID: 2100000, guid: f5c21da67f595fc41bed3471f9b38bd7, type: 2}
      - {fileID: 0}
      - {fileID: 0}
      - {fileID: 0}
      - {fileID: 0}
      - {fileID: 0}
      - {fileID: 0}
      - {fileID: 0}
      - {fileID: 0}
      - {fileID: 0}
      - {fileID: 0}
      - {fileID: 0}
      - {fileID: 0}
      - {fileID: 0}
      - {fileID: 0}
      - {fileID: 0}
      - {fileID: 0}
      - {fileID: 0}
      - {fileID: 0}
      - {fileID: 0}
      - {fileID: 0}
      - {fileID: 0}
      - {fileID: 0}
      - {fileID: 0}
      - {fileID: 0}
      - {fileID: 0}
      - {fileID: 0}
      - {fileID: 0}
      - {fileID: 0}
      - {fileID: 0}
      - {fileID: 0}
      - {fileID: 0}
      - {fileID: 0}
      - {fileID: 0}
      - {fileID: 0}
      - {fileID: 0}
      - {fileID: 0}
      - {fileID: 0}
      - {fileID: 0}
      - {fileID: 0}
      - {fileID: 0}
      - {fileID: 0}
      - {fileID: 0}
      - {fileID: 0}
      - {fileID: 0}
      width: 2048
      height: 2048
      bpp: 0
    UVs:
    - {x: 0.1303711, y: 0.029296875}
    - {x: 0.16455078, y: 0.029296875}
    - {x: 0.16455078, y: 0.0068359375}
    - {x: 0.1303711, y: 0.0068359375}
    OrgVertices:
    - {x: -35, y: 23, z: 0}
    - {x: 35, y: 23, z: 0}
    - {x: 35, y: -23, z: 0}
    - {x: -35, y: -23, z: 0}
  ImportedTime: -1450944668
  ImportedTimeHigh: -1999323430
