%YAML 1.1
%TAG !u! tag:unity3d.com,2011:
--- !u!21 &2100000
Material:
  serializedVersion: 6
  m_ObjectHideFlags: 0
  m_PrefabParentObject: {fileID: 0}
  m_PrefabInternal: {fileID: 0}
  m_Name: shooting_star_line
  m_Shader: {fileID: 4800000, guid: 24bd9b092fcb6334f8afd1158066a47a, type: 3}
  m_ShaderKeywords:
  m_LightmapFlags: 5
  m_CustomRenderQueue: -1
  stringTagMap: {}
  m_SavedProperties:
    serializedVersion: 2
    m_TexEnvs:
    - first:
        name: _MainTex
      second:
        m_Texture: {fileID: 2800000, guid: 0de143c528d7f964dbefc34f9a04c55d, type: 3}
        m_Scale: {x: 1, y: 1}
        m_Offset: {x: 0, y: 0}
    m_Floats:
    - first:
        name: _InvFade
      second: 1
    m_Colors:
    - first:
        name: _TintColor
      second: {r: 0.5, g: 0.5, b: 0.5, a: 0.5}
