%YAML 1.1
%TAG !u! tag:unity3d.com,2011:
--- !u!114 &11400000
MonoBehaviour:
  m_ObjectHideFlags: 0
  m_PrefabParentObject: {fileID: 0}
  m_PrefabInternal: {fileID: 0}
  m_GameObject: {fileID: 0}
  m_Enabled: 1
  m_EditorHideFlags: 0
  m_Script: {fileID: 11500000, guid: 0ae895f3348548989f1b4caf6cca149f, type: 3}
  m_Name: efc_demo_rose_anim_ssa
  m_EditorClassIdentifier:
  OriginalPath: Assets/Resources/Atlas/Skill/SkillTuxedo/efc_demo_rose_anim.ssax
  UseScaleFactor: 0
  ScaleFactor: 1
  FPS: 30
  EndFrame: 59
  hvFlipForImageOnly: 1
  ImageList:
  - path: Assets/Resources/Atlas/Skill/SkillTuxedo/SkillTuxedo.png
    texture: {fileID: 2800000, guid: 658e681c304c8a24bb55f34b4f8210db, type: 3}
    materials:
    - {fileID: 0}
    - {fileID: 0}
    - {fileID: 0}
    - {fileID: 0}
    - {fileID: 0}
    - {fileID: 2100000, guid: 6c7f1d67904ae9a48b774dc068f417d2, type: 2}
    - {fileID: 0}
    - {fileID: 0}
    - {fileID: 0}
    - {fileID: 0}
    - {fileID: 0}
    - {fileID: 0}
    - {fileID: 0}
    - {fileID: 0}
    - {fileID: 0}
    - {fileID: 0}
    - {fileID: 0}
    - {fileID: 0}
    - {fileID: 0}
    - {fileID: 0}
    - {fileID: 0}
    - {fileID: 0}
    - {fileID: 0}
    - {fileID: 0}
    - {fileID: 0}
    - {fileID: 0}
    - {fileID: 0}
    - {fileID: 0}
    - {fileID: 0}
    - {fileID: 0}
    - {fileID: 0}
    - {fileID: 0}
    - {fileID: 0}
    - {fileID: 0}
    - {fileID: 0}
    - {fileID: 0}
    - {fileID: 0}
    - {fileID: 0}
    - {fileID: 0}
    - {fileID: 0}
    - {fileID: 0}
    - {fileID: 0}
    - {fileID: 0}
    - {fileID: 0}
    - {fileID: 0}
    - {fileID: 0}
    - {fileID: 0}
    - {fileID: 0}
    - {fileID: 0}
    - {fileID: 0}
    width: 512
    height: 512
    bpp: 0
  PartList:
  - AnimeRes: {fileID: 11400000}
    Name: root
    Type: 1
    PicArea:
      Left: 0
      Top: 0
      Right: 0
      Bottom: 0
    OriginX: 0
    OriginY: 0
    MyId: 0
    ParentId: -1
    ChildNum: 0
    SrcObjId: 0
    SrcObjType: 0
    AlphaBlendType: 0
    InheritState:
      Type: 0
      Values:
      - Use: 1
        Rate: 1
      - Use: 1
        Rate: 1
      - Use: 1
        Rate: 1
      - Use: 1
        Rate: 1
      - Use: 1
        Rate: 1
      - Use: 1
        Rate: 1
      - Use: 1
        Rate: 1
      - Use: 0
        Rate: 0
      - Use: 0
        Rate: 0
      - Use: 0
        Rate: 0
      - Use: 1
        Rate: 1
      - Use: 1
        Rate: 1
      - Use: 1
        Rate: 1
      - Use: 1
        Rate: 1
      - Use: 1
        Rate: 1
      - Use: 1
        Rate: 1
      - Use: 1
        Rate: 1
      - Use: 1
        Rate: 1
      - Use: 1
        Rate: 1
      - Use: 1
        Rate: 1
      - Use: 1
        Rate: 1
    PosXKeys: []
    PosYKeys: []
    AngleKeys: []
    ScaleXKeys: []
    ScaleYKeys: []
    TransKeys: []
    PrioKeys: []
    FlipHKeys: []
    FlipVKeys: []
    HideKeys:
    - Value: 0
      _Time: 0
      _ValueType: 1
      _Curve:
        Type: 0
        StartT: 0
        StartV: 0
        EndT: 0
        EndV: 0
    PartsColKeys: []
    PartsPalKeys: []
    VertexKeys: []
    UserKeys: []
    SoundKeys: []
    ImageOffsetXKeys: []
    ImageOffsetYKeys: []
    ImageOffsetWKeys: []
    ImageOffsetHKeys: []
    OriginOffsetXKeys: []
    OriginOffsetYKeys: []
    PosXValues: []
    PosYValues: []
    AngleValues: []
    ScaleXValues: []
    ScaleYValues: []
    TransValues: []
    PrioValues: []
    FlipHValues: []
    FlipVValues: []
    HideValues:
    - _RefKeyIndex: 0
      _Value: 0
    - _RefKeyIndex: 0
      _Value: 0
    - _RefKeyIndex: 0
      _Value: 0
    - _RefKeyIndex: 0
      _Value: 0
    - _RefKeyIndex: 0
      _Value: 0
    - _RefKeyIndex: 0
      _Value: 0
    - _RefKeyIndex: 0
      _Value: 0
    - _RefKeyIndex: 0
      _Value: 0
    - _RefKeyIndex: 0
      _Value: 0
    - _RefKeyIndex: 0
      _Value: 0
    - _RefKeyIndex: 0
      _Value: 0
    - _RefKeyIndex: 0
      _Value: 0
    - _RefKeyIndex: 0
      _Value: 0
    - _RefKeyIndex: 0
      _Value: 0
    - _RefKeyIndex: 0
      _Value: 0
    - _RefKeyIndex: 0
      _Value: 0
    - _RefKeyIndex: 0
      _Value: 0
    - _RefKeyIndex: 0
      _Value: 0
    - _RefKeyIndex: 0
      _Value: 0
    - _RefKeyIndex: 0
      _Value: 0
    - _RefKeyIndex: 0
      _Value: 0
    - _RefKeyIndex: 0
      _Value: 0
    - _RefKeyIndex: 0
      _Value: 0
    - _RefKeyIndex: 0
      _Value: 0
    - _RefKeyIndex: 0
      _Value: 0
    - _RefKeyIndex: 0
      _Value: 0
    - _RefKeyIndex: 0
      _Value: 0
    - _RefKeyIndex: 0
      _Value: 0
    - _RefKeyIndex: 0
      _Value: 0
    - _RefKeyIndex: 0
      _Value: 0
    - _RefKeyIndex: 0
      _Value: 0
    - _RefKeyIndex: 0
      _Value: 0
    - _RefKeyIndex: 0
      _Value: 0
    - _RefKeyIndex: 0
      _Value: 0
    - _RefKeyIndex: 0
      _Value: 0
    - _RefKeyIndex: 0
      _Value: 0
    - _RefKeyIndex: 0
      _Value: 0
    - _RefKeyIndex: 0
      _Value: 0
    - _RefKeyIndex: 0
      _Value: 0
    - _RefKeyIndex: 0
      _Value: 0
    - _RefKeyIndex: 0
      _Value: 0
    - _RefKeyIndex: 0
      _Value: 0
    - _RefKeyIndex: 0
      _Value: 0
    - _RefKeyIndex: 0
      _Value: 0
    - _RefKeyIndex: 0
      _Value: 0
    - _RefKeyIndex: 0
      _Value: 0
    - _RefKeyIndex: 0
      _Value: 0
    - _RefKeyIndex: 0
      _Value: 0
    - _RefKeyIndex: 0
      _Value: 0
    - _RefKeyIndex: 0
      _Value: 0
    - _RefKeyIndex: 0
      _Value: 0
    - _RefKeyIndex: 0
      _Value: 0
    - _RefKeyIndex: 0
      _Value: 0
    - _RefKeyIndex: 0
      _Value: 0
    - _RefKeyIndex: 0
      _Value: 0
    - _RefKeyIndex: 0
      _Value: 0
    - _RefKeyIndex: 0
      _Value: 0
    - _RefKeyIndex: 0
      _Value: 0
    - _RefKeyIndex: 0
      _Value: 0
    - _RefKeyIndex: 0
      _Value: 0
    PartsColValues: []
    PartsPalValues: []
    VertexValues: []
    UserValues: []
    SoundValues: []
    ImageOffsetXValues: []
    ImageOffsetYValues: []
    ImageOffsetWValues: []
    ImageOffsetHValues: []
    OriginOffsetXValues: []
    OriginOffsetYValues: []
    _hasAttrFlags: 512
    HasTrancparency: 0
    FrameNum: 60
    imageFile:
      path:
      texture: {fileID: 0}
      materials: []
      width: 0
      height: 0
      bpp: 0
    UVs: []
    OrgVertices:
    - {x: -0, y: 0, z: 0}
    - {x: 0, y: 0, z: 0}
    - {x: 0, y: -0, z: 0}
    - {x: -0, y: -0, z: 0}
  - AnimeRes: {fileID: 11400000}
    Name: kuki
    Type: 0
    PicArea:
      Left: 1
      Top: 258
      Right: 46
      Bottom: 482
    OriginX: 22
    OriginY: 112
    MyId: 1
    ParentId: 0
    ChildNum: 0
    SrcObjId: 0
    SrcObjType: 0
    AlphaBlendType: 1
    InheritState:
      Type: 0
      Values:
      - Use: 1
        Rate: 1
      - Use: 1
        Rate: 1
      - Use: 1
        Rate: 1
      - Use: 1
        Rate: 1
      - Use: 1
        Rate: 1
      - Use: 1
        Rate: 1
      - Use: 1
        Rate: 1
      - Use: 0
        Rate: 0
      - Use: 0
        Rate: 0
      - Use: 0
        Rate: 0
      - Use: 1
        Rate: 1
      - Use: 1
        Rate: 1
      - Use: 1
        Rate: 1
      - Use: 1
        Rate: 1
      - Use: 1
        Rate: 1
      - Use: 1
        Rate: 1
      - Use: 1
        Rate: 1
      - Use: 1
        Rate: 1
      - Use: 1
        Rate: 1
      - Use: 1
        Rate: 1
      - Use: 1
        Rate: 1
    PosXKeys:
    - Value: -400
      _Time: 0
      _ValueType: 0
      _Curve:
        Type: 1
        StartT: 0
        StartV: 0
        EndT: 0
        EndV: 0
    - Value: 100
      _Time: 5
      _ValueType: 0
      _Curve:
        Type: 1
        StartT: 0
        StartV: 0
        EndT: 0
        EndV: 0
    - Value: 100
      _Time: 40
      _ValueType: 0
      _Curve:
        Type: 1
        StartT: 0
        StartV: 0
        EndT: 0
        EndV: 0
    - Value: 154
      _Time: 59
      _ValueType: 0
      _Curve:
        Type: 1
        StartT: 0
        StartV: 0
        EndT: 0
        EndV: 0
    PosYKeys:
    - Value: -464
      _Time: 0
      _ValueType: 0
      _Curve:
        Type: 1
        StartT: 0
        StartV: 0
        EndT: 0
        EndV: 0
    - Value: 0
      _Time: 5
      _ValueType: 0
      _Curve:
        Type: 1
        StartT: 0
        StartV: 0
        EndT: 0
        EndV: 0
    - Value: 0
      _Time: 40
      _ValueType: 0
      _Curve:
        Type: 1
        StartT: 0
        StartV: 0
        EndT: 0
        EndV: 0
    - Value: 82
      _Time: 59
      _ValueType: 0
      _Curve:
        Type: 1
        StartT: 0
        StartV: 0
        EndT: 0
        EndV: 0
    AngleKeys:
    - Value: 34.709
      _Time: 0
      _ValueType: 0
      _Curve:
        Type: 1
        StartT: 0
        StartV: 0
        EndT: 0
        EndV: 0
    - Value: 34.709
      _Time: 5
      _ValueType: 0
      _Curve:
        Type: 1
        StartT: 0
        StartV: 0
        EndT: 0
        EndV: 0
    - Value: 34.71
      _Time: 40
      _ValueType: 0
      _Curve:
        Type: 1
        StartT: 0
        StartV: 0
        EndT: 0
        EndV: 0
    - Value: 34.71
      _Time: 59
      _ValueType: 0
      _Curve:
        Type: 1
        StartT: 0
        StartV: 0
        EndT: 0
        EndV: 0
    ScaleXKeys:
    - Value: 0.7
      _Time: 0
      _ValueType: 0
      _Curve:
        Type: 1
        StartT: 0
        StartV: 0
        EndT: 0
        EndV: 0
    - Value: 0.6
      _Time: 5
      _ValueType: 0
      _Curve:
        Type: 1
        StartT: 0
        StartV: 0
        EndT: 0
        EndV: 0
    - Value: 0.8
      _Time: 7
      _ValueType: 0
      _Curve:
        Type: 1
        StartT: 0
        StartV: 0
        EndT: 0
        EndV: 0
    - Value: 0.7
      _Time: 9
      _ValueType: 0
      _Curve:
        Type: 1
        StartT: 0
        StartV: 0
        EndT: 0
        EndV: 0
    - Value: 0.7
      _Time: 40
      _ValueType: 0
      _Curve:
        Type: 1
        StartT: 0
        StartV: 0
        EndT: 0
        EndV: 0
    - Value: 1.6
      _Time: 59
      _ValueType: 0
      _Curve:
        Type: 1
        StartT: 0
        StartV: 0
        EndT: 0
        EndV: 0
    ScaleYKeys:
    - Value: 0.7
      _Time: 0
      _ValueType: 0
      _Curve:
        Type: 1
        StartT: 0
        StartV: 0
        EndT: 0
        EndV: 0
    - Value: 0.8
      _Time: 5
      _ValueType: 0
      _Curve:
        Type: 1
        StartT: 0
        StartV: 0
        EndT: 0
        EndV: 0
    - Value: 0.6
      _Time: 7
      _ValueType: 0
      _Curve:
        Type: 1
        StartT: 0
        StartV: 0
        EndT: 0
        EndV: 0
    - Value: 0.7
      _Time: 9
      _ValueType: 0
      _Curve:
        Type: 1
        StartT: 0
        StartV: 0
        EndT: 0
        EndV: 0
    - Value: 0.7
      _Time: 40
      _ValueType: 0
      _Curve:
        Type: 1
        StartT: 0
        StartV: 0
        EndT: 0
        EndV: 0
    - Value: 1.6
      _Time: 59
      _ValueType: 0
      _Curve:
        Type: 1
        StartT: 0
        StartV: 0
        EndT: 0
        EndV: 0
    TransKeys:
    - Value: 1
      _Time: 0
      _ValueType: 0
      _Curve:
        Type: 1
        StartT: 0
        StartV: 0
        EndT: 0
        EndV: 0
    - Value: 1
      _Time: 40
      _ValueType: 0
      _Curve:
        Type: 1
        StartT: 0
        StartV: 0
        EndT: 0
        EndV: 0
    - Value: 0
      _Time: 59
      _ValueType: 0
      _Curve:
        Type: 1
        StartT: 0
        StartV: 0
        EndT: 0
        EndV: 0
    PrioKeys: []
    FlipHKeys: []
    FlipVKeys: []
    HideKeys:
    - Value: 0
      _Time: 0
      _ValueType: 1
      _Curve:
        Type: 0
        StartT: 0
        StartV: 0
        EndT: 0
        EndV: 0
    - Value: 0
      _Time: 5
      _ValueType: 1
      _Curve:
        Type: 0
        StartT: 0
        StartV: 0
        EndT: 0
        EndV: 0
    PartsColKeys: []
    PartsPalKeys: []
    VertexKeys: []
    UserKeys: []
    SoundKeys: []
    ImageOffsetXKeys: []
    ImageOffsetYKeys: []
    ImageOffsetWKeys: []
    ImageOffsetHKeys: []
    OriginOffsetXKeys:
    - Value: -4
      _Time: 0
      _ValueType: 0
      _Curve:
        Type: 1
        StartT: 0
        StartV: 0
        EndT: 0
        EndV: 0
    - Value: -4
      _Time: 5
      _ValueType: 0
      _Curve:
        Type: 1
        StartT: 0
        StartV: 0
        EndT: 0
        EndV: 0
    OriginOffsetYKeys:
    - Value: 112
      _Time: 0
      _ValueType: 0
      _Curve:
        Type: 1
        StartT: 0
        StartV: 0
        EndT: 0
        EndV: 0
    - Value: 112
      _Time: 5
      _ValueType: 0
      _Curve:
        Type: 1
        StartT: 0
        StartV: 0
        EndT: 0
        EndV: 0
    PosXValues:
    - _RefKeyIndex: -1
      _Value: -400
    - _RefKeyIndex: -1
      _Value: -300
    - _RefKeyIndex: -1
      _Value: -200
    - _RefKeyIndex: -1
      _Value: -99.999985
    - _RefKeyIndex: -1
      _Value: 5.9604645E-06
    - _RefKeyIndex: -1
      _Value: 100
    - _RefKeyIndex: -1
      _Value: 100
    - _RefKeyIndex: -1
      _Value: 100
    - _RefKeyIndex: -1
      _Value: 100
    - _RefKeyIndex: -1
      _Value: 100
    - _RefKeyIndex: -1
      _Value: 100
    - _RefKeyIndex: -1
      _Value: 100
    - _RefKeyIndex: -1
      _Value: 100
    - _RefKeyIndex: -1
      _Value: 100
    - _RefKeyIndex: -1
      _Value: 100
    - _RefKeyIndex: -1
      _Value: 100
    - _RefKeyIndex: -1
      _Value: 100
    - _RefKeyIndex: -1
      _Value: 100
    - _RefKeyIndex: -1
      _Value: 100
    - _RefKeyIndex: -1
      _Value: 100
    - _RefKeyIndex: -1
      _Value: 100
    - _RefKeyIndex: -1
      _Value: 100
    - _RefKeyIndex: -1
      _Value: 100
    - _RefKeyIndex: -1
      _Value: 100
    - _RefKeyIndex: -1
      _Value: 100
    - _RefKeyIndex: -1
      _Value: 100
    - _RefKeyIndex: -1
      _Value: 100
    - _RefKeyIndex: -1
      _Value: 100
    - _RefKeyIndex: -1
      _Value: 100
    - _RefKeyIndex: -1
      _Value: 100
    - _RefKeyIndex: -1
      _Value: 100
    - _RefKeyIndex: -1
      _Value: 100
    - _RefKeyIndex: -1
      _Value: 100
    - _RefKeyIndex: -1
      _Value: 100
    - _RefKeyIndex: -1
      _Value: 100
    - _RefKeyIndex: -1
      _Value: 100
    - _RefKeyIndex: -1
      _Value: 100
    - _RefKeyIndex: -1
      _Value: 100
    - _RefKeyIndex: -1
      _Value: 100
    - _RefKeyIndex: -1
      _Value: 100
    - _RefKeyIndex: -1
      _Value: 100
    - _RefKeyIndex: -1
      _Value: 102.8421
    - _RefKeyIndex: -1
      _Value: 105.68421
    - _RefKeyIndex: -1
      _Value: 108.52631
    - _RefKeyIndex: -1
      _Value: 111.36842
    - _RefKeyIndex: -1
      _Value: 114.210526
    - _RefKeyIndex: -1
      _Value: 117.05263
    - _RefKeyIndex: -1
      _Value: 119.89474
    - _RefKeyIndex: -1
      _Value: 122.73684
    - _RefKeyIndex: -1
      _Value: 125.57895
    - _RefKeyIndex: -1
      _Value: 128.42105
    - _RefKeyIndex: -1
      _Value: 131.26315
    - _RefKeyIndex: -1
      _Value: 134.10526
    - _RefKeyIndex: -1
      _Value: 136.94737
    - _RefKeyIndex: -1
      _Value: 139.78947
    - _RefKeyIndex: -1
      _Value: 142.63158
    - _RefKeyIndex: -1
      _Value: 145.47368
    - _RefKeyIndex: -1
      _Value: 148.3158
    - _RefKeyIndex: -1
      _Value: 151.1579
    - _RefKeyIndex: 3
      _Value: 0
    PosYValues:
    - _RefKeyIndex: -1
      _Value: -464
    - _RefKeyIndex: -1
      _Value: -371.2
    - _RefKeyIndex: -1
      _Value: -278.4
    - _RefKeyIndex: -1
      _Value: -185.59999
    - _RefKeyIndex: -1
      _Value: -92.799995
    - _RefKeyIndex: -1
      _Value: 0
    - _RefKeyIndex: -1
      _Value: 0
    - _RefKeyIndex: -1
      _Value: 0
    - _RefKeyIndex: -1
      _Value: 0
    - _RefKeyIndex: -1
      _Value: 0
    - _RefKeyIndex: -1
      _Value: 0
    - _RefKeyIndex: -1
      _Value: 0
    - _RefKeyIndex: -1
      _Value: 0
    - _RefKeyIndex: -1
      _Value: 0
    - _RefKeyIndex: -1
      _Value: 0
    - _RefKeyIndex: -1
      _Value: 0
    - _RefKeyIndex: -1
      _Value: 0
    - _RefKeyIndex: -1
      _Value: 0
    - _RefKeyIndex: -1
      _Value: 0
    - _RefKeyIndex: -1
      _Value: 0
    - _RefKeyIndex: -1
      _Value: 0
    - _RefKeyIndex: -1
      _Value: 0
    - _RefKeyIndex: -1
      _Value: 0
    - _RefKeyIndex: -1
      _Value: 0
    - _RefKeyIndex: -1
      _Value: 0
    - _RefKeyIndex: -1
      _Value: 0
    - _RefKeyIndex: -1
      _Value: 0
    - _RefKeyIndex: -1
      _Value: 0
    - _RefKeyIndex: -1
      _Value: 0
    - _RefKeyIndex: -1
      _Value: 0
    - _RefKeyIndex: -1
      _Value: 0
    - _RefKeyIndex: -1
      _Value: 0
    - _RefKeyIndex: -1
      _Value: 0
    - _RefKeyIndex: -1
      _Value: 0
    - _RefKeyIndex: -1
      _Value: 0
    - _RefKeyIndex: -1
      _Value: 0
    - _RefKeyIndex: -1
      _Value: 0
    - _RefKeyIndex: -1
      _Value: 0
    - _RefKeyIndex: -1
      _Value: 0
    - _RefKeyIndex: -1
      _Value: 0
    - _RefKeyIndex: -1
      _Value: 0
    - _RefKeyIndex: -1
      _Value: 4.3157897
    - _RefKeyIndex: -1
      _Value: 8.631579
    - _RefKeyIndex: -1
      _Value: 12.947368
    - _RefKeyIndex: -1
      _Value: 17.263159
    - _RefKeyIndex: -1
      _Value: 21.578949
    - _RefKeyIndex: -1
      _Value: 25.894735
    - _RefKeyIndex: -1
      _Value: 30.210526
    - _RefKeyIndex: -1
      _Value: 34.526318
    - _RefKeyIndex: -1
      _Value: 38.842106
    - _RefKeyIndex: -1
      _Value: 43.157898
    - _RefKeyIndex: -1
      _Value: 47.473682
    - _RefKeyIndex: -1
      _Value: 51.78947
    - _RefKeyIndex: -1
      _Value: 56.105263
    - _RefKeyIndex: -1
      _Value: 60.42105
    - _RefKeyIndex: -1
      _Value: 64.73685
    - _RefKeyIndex: -1
      _Value: 69.052635
    - _RefKeyIndex: -1
      _Value: 73.36842
    - _RefKeyIndex: -1
      _Value: 77.68421
    - _RefKeyIndex: 3
      _Value: 0
    AngleValues:
    - _RefKeyIndex: -1
      _Value: 34.709
    - _RefKeyIndex: -1
      _Value: 34.709
    - _RefKeyIndex: -1
      _Value: 34.709
    - _RefKeyIndex: -1
      _Value: 34.709
    - _RefKeyIndex: -1
      _Value: 34.709
    - _RefKeyIndex: -1
      _Value: 34.709
    - _RefKeyIndex: -1
      _Value: 34.709026
    - _RefKeyIndex: -1
      _Value: 34.709057
    - _RefKeyIndex: -1
      _Value: 34.709084
    - _RefKeyIndex: -1
      _Value: 34.709114
    - _RefKeyIndex: -1
      _Value: 34.70914
    - _RefKeyIndex: -1
      _Value: 34.70917
    - _RefKeyIndex: -1
      _Value: 34.709198
    - _RefKeyIndex: -1
      _Value: 34.70923
    - _RefKeyIndex: -1
      _Value: 34.709255
    - _RefKeyIndex: -1
      _Value: 34.709286
    - _RefKeyIndex: -1
      _Value: 34.709312
    - _RefKeyIndex: -1
      _Value: 34.709343
    - _RefKeyIndex: -1
      _Value: 34.70937
    - _RefKeyIndex: -1
      _Value: 34.7094
    - _RefKeyIndex: -1
      _Value: 34.709427
    - _RefKeyIndex: -1
      _Value: 34.709457
    - _RefKeyIndex: -1
      _Value: 34.709484
    - _RefKeyIndex: -1
      _Value: 34.709515
    - _RefKeyIndex: -1
      _Value: 34.70954
    - _RefKeyIndex: -1
      _Value: 34.70957
    - _RefKeyIndex: -1
      _Value: 34.7096
    - _RefKeyIndex: -1
      _Value: 34.70963
    - _RefKeyIndex: -1
      _Value: 34.709656
    - _RefKeyIndex: -1
      _Value: 34.709686
    - _RefKeyIndex: -1
      _Value: 34.709713
    - _RefKeyIndex: -1
      _Value: 34.709743
    - _RefKeyIndex: -1
      _Value: 34.70977
    - _RefKeyIndex: -1
      _Value: 34.7098
    - _RefKeyIndex: -1
      _Value: 34.709827
    - _RefKeyIndex: -1
      _Value: 34.709858
    - _RefKeyIndex: -1
      _Value: 34.709885
    - _RefKeyIndex: -1
      _Value: 34.709915
    - _RefKeyIndex: -1
      _Value: 34.70994
    - _RefKeyIndex: -1
      _Value: 34.709972
    - _RefKeyIndex: -1
      _Value: 34.71
    - _RefKeyIndex: -1
      _Value: 34.71
    - _RefKeyIndex: -1
      _Value: 34.71
    - _RefKeyIndex: -1
      _Value: 34.71
    - _RefKeyIndex: -1
      _Value: 34.71
    - _RefKeyIndex: -1
      _Value: 34.71
    - _RefKeyIndex: -1
      _Value: 34.71
    - _RefKeyIndex: -1
      _Value: 34.71
    - _RefKeyIndex: -1
      _Value: 34.71
    - _RefKeyIndex: -1
      _Value: 34.71
    - _RefKeyIndex: -1
      _Value: 34.71
    - _RefKeyIndex: -1
      _Value: 34.71
    - _RefKeyIndex: -1
      _Value: 34.71
    - _RefKeyIndex: -1
      _Value: 34.71
    - _RefKeyIndex: -1
      _Value: 34.71
    - _RefKeyIndex: -1
      _Value: 34.71
    - _RefKeyIndex: -1
      _Value: 34.71
    - _RefKeyIndex: -1
      _Value: 34.71
    - _RefKeyIndex: -1
      _Value: 34.71
    - _RefKeyIndex: 3
      _Value: 0
    ScaleXValues:
    - _RefKeyIndex: -1
      _Value: 0.7
    - _RefKeyIndex: -1
      _Value: 0.68
    - _RefKeyIndex: -1
      _Value: 0.66
    - _RefKeyIndex: -1
      _Value: 0.64
    - _RefKeyIndex: -1
      _Value: 0.62
    - _RefKeyIndex: -1
      _Value: 0.6
    - _RefKeyIndex: -1
      _Value: 0.70000005
    - _RefKeyIndex: -1
      _Value: 0.8
    - _RefKeyIndex: -1
      _Value: 0.75
    - _RefKeyIndex: -1
      _Value: 0.7
    - _RefKeyIndex: -1
      _Value: 0.7
    - _RefKeyIndex: -1
      _Value: 0.7
    - _RefKeyIndex: -1
      _Value: 0.7
    - _RefKeyIndex: -1
      _Value: 0.7
    - _RefKeyIndex: -1
      _Value: 0.7
    - _RefKeyIndex: -1
      _Value: 0.7
    - _RefKeyIndex: -1
      _Value: 0.7
    - _RefKeyIndex: -1
      _Value: 0.7
    - _RefKeyIndex: -1
      _Value: 0.7
    - _RefKeyIndex: -1
      _Value: 0.7
    - _RefKeyIndex: -1
      _Value: 0.7
    - _RefKeyIndex: -1
      _Value: 0.7
    - _RefKeyIndex: -1
      _Value: 0.7
    - _RefKeyIndex: -1
      _Value: 0.7
    - _RefKeyIndex: -1
      _Value: 0.7
    - _RefKeyIndex: -1
      _Value: 0.7
    - _RefKeyIndex: -1
      _Value: 0.7
    - _RefKeyIndex: -1
      _Value: 0.7
    - _RefKeyIndex: -1
      _Value: 0.7
    - _RefKeyIndex: -1
      _Value: 0.7
    - _RefKeyIndex: -1
      _Value: 0.7
    - _RefKeyIndex: -1
      _Value: 0.7
    - _RefKeyIndex: -1
      _Value: 0.7
    - _RefKeyIndex: -1
      _Value: 0.7
    - _RefKeyIndex: -1
      _Value: 0.7
    - _RefKeyIndex: -1
      _Value: 0.7
    - _RefKeyIndex: -1
      _Value: 0.7
    - _RefKeyIndex: -1
      _Value: 0.7
    - _RefKeyIndex: -1
      _Value: 0.7
    - _RefKeyIndex: -1
      _Value: 0.7
    - _RefKeyIndex: -1
      _Value: 0.7
    - _RefKeyIndex: -1
      _Value: 0.7473684
    - _RefKeyIndex: -1
      _Value: 0.79473686
    - _RefKeyIndex: -1
      _Value: 0.84210527
    - _RefKeyIndex: -1
      _Value: 0.8894737
    - _RefKeyIndex: -1
      _Value: 0.9368421
    - _RefKeyIndex: -1
      _Value: 0.9842105
    - _RefKeyIndex: -1
      _Value: 1.0315789
    - _RefKeyIndex: -1
      _Value: 1.0789474
    - _RefKeyIndex: -1
      _Value: 1.1263158
    - _RefKeyIndex: -1
      _Value: 1.1736842
    - _RefKeyIndex: -1
      _Value: 1.2210526
    - _RefKeyIndex: -1
      _Value: 1.268421
    - _RefKeyIndex: -1
      _Value: 1.3157895
    - _RefKeyIndex: -1
      _Value: 1.3631579
    - _RefKeyIndex: -1
      _Value: 1.4105264
    - _RefKeyIndex: -1
      _Value: 1.4578948
    - _RefKeyIndex: -1
      _Value: 1.5052632
    - _RefKeyIndex: -1
      _Value: 1.5526316
    - _RefKeyIndex: 5
      _Value: 0
    ScaleYValues:
    - _RefKeyIndex: -1
      _Value: 0.7
    - _RefKeyIndex: -1
      _Value: 0.71999997
    - _RefKeyIndex: -1
      _Value: 0.74
    - _RefKeyIndex: -1
      _Value: 0.76
    - _RefKeyIndex: -1
      _Value: 0.78000003
    - _RefKeyIndex: -1
      _Value: 0.8
    - _RefKeyIndex: -1
      _Value: 0.70000005
    - _RefKeyIndex: -1
      _Value: 0.6
    - _RefKeyIndex: -1
      _Value: 0.65
    - _RefKeyIndex: -1
      _Value: 0.7
    - _RefKeyIndex: -1
      _Value: 0.7
    - _RefKeyIndex: -1
      _Value: 0.7
    - _RefKeyIndex: -1
      _Value: 0.7
    - _RefKeyIndex: -1
      _Value: 0.7
    - _RefKeyIndex: -1
      _Value: 0.7
    - _RefKeyIndex: -1
      _Value: 0.7
    - _RefKeyIndex: -1
      _Value: 0.7
    - _RefKeyIndex: -1
      _Value: 0.7
    - _RefKeyIndex: -1
      _Value: 0.7
    - _RefKeyIndex: -1
      _Value: 0.7
    - _RefKeyIndex: -1
      _Value: 0.7
    - _RefKeyIndex: -1
      _Value: 0.7
    - _RefKeyIndex: -1
      _Value: 0.7
    - _RefKeyIndex: -1
      _Value: 0.7
    - _RefKeyIndex: -1
      _Value: 0.7
    - _RefKeyIndex: -1
      _Value: 0.7
    - _RefKeyIndex: -1
      _Value: 0.7
    - _RefKeyIndex: -1
      _Value: 0.7
    - _RefKeyIndex: -1
      _Value: 0.7
    - _RefKeyIndex: -1
      _Value: 0.7
    - _RefKeyIndex: -1
      _Value: 0.7
    - _RefKeyIndex: -1
      _Value: 0.7
    - _RefKeyIndex: -1
      _Value: 0.7
    - _RefKeyIndex: -1
      _Value: 0.7
    - _RefKeyIndex: -1
      _Value: 0.7
    - _RefKeyIndex: -1
      _Value: 0.7
    - _RefKeyIndex: -1
      _Value: 0.7
    - _RefKeyIndex: -1
      _Value: 0.7
    - _RefKeyIndex: -1
      _Value: 0.7
    - _RefKeyIndex: -1
      _Value: 0.7
    - _RefKeyIndex: -1
      _Value: 0.7
    - _RefKeyIndex: -1
      _Value: 0.7473684
    - _RefKeyIndex: -1
      _Value: 0.79473686
    - _RefKeyIndex: -1
      _Value: 0.84210527
    - _RefKeyIndex: -1
      _Value: 0.8894737
    - _RefKeyIndex: -1
      _Value: 0.9368421
    - _RefKeyIndex: -1
      _Value: 0.9842105
    - _RefKeyIndex: -1
      _Value: 1.0315789
    - _RefKeyIndex: -1
      _Value: 1.0789474
    - _RefKeyIndex: -1
      _Value: 1.1263158
    - _RefKeyIndex: -1
      _Value: 1.1736842
    - _RefKeyIndex: -1
      _Value: 1.2210526
    - _RefKeyIndex: -1
      _Value: 1.268421
    - _RefKeyIndex: -1
      _Value: 1.3157895
    - _RefKeyIndex: -1
      _Value: 1.3631579
    - _RefKeyIndex: -1
      _Value: 1.4105264
    - _RefKeyIndex: -1
      _Value: 1.4578948
    - _RefKeyIndex: -1
      _Value: 1.5052632
    - _RefKeyIndex: -1
      _Value: 1.5526316
    - _RefKeyIndex: 5
      _Value: 0
    TransValues:
    - _RefKeyIndex: -1
      _Value: 1
    - _RefKeyIndex: -1
      _Value: 1
    - _RefKeyIndex: -1
      _Value: 1
    - _RefKeyIndex: -1
      _Value: 1
    - _RefKeyIndex: -1
      _Value: 1
    - _RefKeyIndex: -1
      _Value: 1
    - _RefKeyIndex: -1
      _Value: 1
    - _RefKeyIndex: -1
      _Value: 1
    - _RefKeyIndex: -1
      _Value: 1
    - _RefKeyIndex: -1
      _Value: 1
    - _RefKeyIndex: -1
      _Value: 1
    - _RefKeyIndex: -1
      _Value: 1
    - _RefKeyIndex: -1
      _Value: 1
    - _RefKeyIndex: -1
      _Value: 1
    - _RefKeyIndex: -1
      _Value: 1
    - _RefKeyIndex: -1
      _Value: 1
    - _RefKeyIndex: -1
      _Value: 1
    - _RefKeyIndex: -1
      _Value: 1
    - _RefKeyIndex: -1
      _Value: 1
    - _RefKeyIndex: -1
      _Value: 1
    - _RefKeyIndex: -1
      _Value: 1
    - _RefKeyIndex: -1
      _Value: 1
    - _RefKeyIndex: -1
      _Value: 1
    - _RefKeyIndex: -1
      _Value: 1
    - _RefKeyIndex: -1
      _Value: 1
    - _RefKeyIndex: -1
      _Value: 1
    - _RefKeyIndex: -1
      _Value: 1
    - _RefKeyIndex: -1
      _Value: 1
    - _RefKeyIndex: -1
      _Value: 1
    - _RefKeyIndex: -1
      _Value: 1
    - _RefKeyIndex: -1
      _Value: 1
    - _RefKeyIndex: -1
      _Value: 1
    - _RefKeyIndex: -1
      _Value: 1
    - _RefKeyIndex: -1
      _Value: 1
    - _RefKeyIndex: -1
      _Value: 1
    - _RefKeyIndex: -1
      _Value: 1
    - _RefKeyIndex: -1
      _Value: 1
    - _RefKeyIndex: -1
      _Value: 1
    - _RefKeyIndex: -1
      _Value: 1
    - _RefKeyIndex: -1
      _Value: 1
    - _RefKeyIndex: -1
      _Value: 1
    - _RefKeyIndex: -1
      _Value: 0.94736844
    - _RefKeyIndex: -1
      _Value: 0.8947368
    - _RefKeyIndex: -1
      _Value: 0.84210527
    - _RefKeyIndex: -1
      _Value: 0.78947365
    - _RefKeyIndex: -1
      _Value: 0.7368421
    - _RefKeyIndex: -1
      _Value: 0.68421054
    - _RefKeyIndex: -1
      _Value: 0.6315789
    - _RefKeyIndex: -1
      _Value: 0.57894737
    - _RefKeyIndex: -1
      _Value: 0.5263158
    - _RefKeyIndex: -1
      _Value: 0.4736842
    - _RefKeyIndex: -1
      _Value: 0.42105263
    - _RefKeyIndex: -1
      _Value: 0.36842108
    - _RefKeyIndex: -1
      _Value: 0.31578946
    - _RefKeyIndex: -1
      _Value: 0.2631579
    - _RefKeyIndex: -1
      _Value: 0.21052629
    - _RefKeyIndex: -1
      _Value: 0.15789473
    - _RefKeyIndex: -1
      _Value: 0.10526317
    - _RefKeyIndex: -1
      _Value: 0.052631557
    - _RefKeyIndex: 2
      _Value: 0
    PrioValues: []
    FlipHValues: []
    FlipVValues: []
    HideValues:
    - _RefKeyIndex: 0
      _Value: 0
    PartsColValues: []
    PartsPalValues: []
    VertexValues: []
    UserValues: []
    SoundValues: []
    ImageOffsetXValues: []
    ImageOffsetYValues: []
    ImageOffsetWValues: []
    ImageOffsetHValues: []
    OriginOffsetXValues:
    - _RefKeyIndex: -1
      _Value: -4
    OriginOffsetYValues:
    - _RefKeyIndex: -1
      _Value: 112
    _hasAttrFlags: 1573439
    HasTrancparency: 1
    FrameNum: 60
    imageFile:
      path: Assets/Resources/Atlas/Skill/SkillTuxedo/SkillTuxedo.png
      texture: {fileID: 2800000, guid: 658e681c304c8a24bb55f34b4f8210db, type: 3}
      materials:
      - {fileID: 0}
      - {fileID: 0}
      - {fileID: 0}
      - {fileID: 0}
      - {fileID: 0}
      - {fileID: 2100000, guid: 6c7f1d67904ae9a48b774dc068f417d2, type: 2}
      - {fileID: 0}
      - {fileID: 0}
      - {fileID: 0}
      - {fileID: 0}
      - {fileID: 0}
      - {fileID: 0}
      - {fileID: 0}
      - {fileID: 0}
      - {fileID: 0}
      - {fileID: 0}
      - {fileID: 0}
      - {fileID: 0}
      - {fileID: 0}
      - {fileID: 0}
      - {fileID: 0}
      - {fileID: 0}
      - {fileID: 0}
      - {fileID: 0}
      - {fileID: 0}
      - {fileID: 0}
      - {fileID: 0}
      - {fileID: 0}
      - {fileID: 0}
      - {fileID: 0}
      - {fileID: 0}
      - {fileID: 0}
      - {fileID: 0}
      - {fileID: 0}
      - {fileID: 0}
      - {fileID: 0}
      - {fileID: 0}
      - {fileID: 0}
      - {fileID: 0}
      - {fileID: 0}
      - {fileID: 0}
      - {fileID: 0}
      - {fileID: 0}
      - {fileID: 0}
      - {fileID: 0}
      - {fileID: 0}
      - {fileID: 0}
      - {fileID: 0}
      - {fileID: 0}
      - {fileID: 0}
      width: 512
      height: 512
      bpp: 0
    UVs:
    - {x: 0.001953125, y: 0.49609375}
    - {x: 0.08984375, y: 0.49609375}
    - {x: 0.08984375, y: 0.05859375}
    - {x: 0.001953125, y: 0.05859375}
    OrgVertices:
    - {x: -22, y: 112, z: 0}
    - {x: 23, y: 112, z: 0}
    - {x: 23, y: -112, z: 0}
    - {x: -22, y: -112, z: 0}
  - AnimeRes: {fileID: 11400000}
    Name: rose
    Type: 0
    PicArea:
      Left: 258
      Top: 1
      Right: 418
      Bottom: 146
    OriginX: 80
    OriginY: 101
    MyId: 2
    ParentId: 1
    ChildNum: 0
    SrcObjId: 0
    SrcObjType: 0
    AlphaBlendType: 1
    InheritState:
      Type: 0
      Values:
      - Use: 1
        Rate: 1
      - Use: 1
        Rate: 1
      - Use: 1
        Rate: 1
      - Use: 1
        Rate: 1
      - Use: 1
        Rate: 1
      - Use: 1
        Rate: 1
      - Use: 1
        Rate: 1
      - Use: 0
        Rate: 0
      - Use: 0
        Rate: 0
      - Use: 0
        Rate: 0
      - Use: 1
        Rate: 1
      - Use: 1
        Rate: 1
      - Use: 1
        Rate: 1
      - Use: 1
        Rate: 1
      - Use: 1
        Rate: 1
      - Use: 1
        Rate: 1
      - Use: 1
        Rate: 1
      - Use: 1
        Rate: 1
      - Use: 1
        Rate: 1
      - Use: 1
        Rate: 1
      - Use: 1
        Rate: 1
    PosXKeys:
    - Value: 0
      _Time: 0
      _ValueType: 0
      _Curve:
        Type: 1
        StartT: 0
        StartV: 0
        EndT: 0
        EndV: 0
    PosYKeys:
    - Value: -225
      _Time: 0
      _ValueType: 0
      _Curve:
        Type: 1
        StartT: 0
        StartV: 0
        EndT: 0
        EndV: 0
    AngleKeys:
    - Value: 0
      _Time: 0
      _ValueType: 0
      _Curve:
        Type: 1
        StartT: 0
        StartV: 0
        EndT: 0
        EndV: 0
    ScaleXKeys:
    - Value: 0.6
      _Time: 0
      _ValueType: 0
      _Curve:
        Type: 1
        StartT: 0
        StartV: 0
        EndT: 0
        EndV: 0
    - Value: 0.6
      _Time: 5
      _ValueType: 0
      _Curve:
        Type: 1
        StartT: 0
        StartV: 0
        EndT: 0
        EndV: 0
    - Value: 1.2
      _Time: 7
      _ValueType: 0
      _Curve:
        Type: 1
        StartT: 0
        StartV: 0
        EndT: 0
        EndV: 0
    - Value: 1
      _Time: 9
      _ValueType: 0
      _Curve:
        Type: 1
        StartT: 0
        StartV: 0
        EndT: 0
        EndV: 0
    - Value: 1
      _Time: 40
      _ValueType: 0
      _Curve:
        Type: 1
        StartT: 0
        StartV: 0
        EndT: 0
        EndV: 0
    ScaleYKeys:
    - Value: 1.4
      _Time: 0
      _ValueType: 0
      _Curve:
        Type: 1
        StartT: 0
        StartV: 0
        EndT: 0
        EndV: 0
    - Value: 1.4
      _Time: 5
      _ValueType: 0
      _Curve:
        Type: 1
        StartT: 0
        StartV: 0
        EndT: 0
        EndV: 0
    - Value: 0.8
      _Time: 7
      _ValueType: 0
      _Curve:
        Type: 1
        StartT: 0
        StartV: 0
        EndT: 0
        EndV: 0
    - Value: 1
      _Time: 9
      _ValueType: 0
      _Curve:
        Type: 1
        StartT: 0
        StartV: 0
        EndT: 0
        EndV: 0
    - Value: 1
      _Time: 40
      _ValueType: 0
      _Curve:
        Type: 1
        StartT: 0
        StartV: 0
        EndT: 0
        EndV: 0
    TransKeys: []
    PrioKeys:
    - Value: 1
      _Time: 0
      _ValueType: 0
      _Curve:
        Type: 1
        StartT: 0
        StartV: 0
        EndT: 0
        EndV: 0
    FlipHKeys: []
    FlipVKeys: []
    HideKeys:
    - Value: 0
      _Time: 0
      _ValueType: 1
      _Curve:
        Type: 0
        StartT: 0
        StartV: 0
        EndT: 0
        EndV: 0
    PartsColKeys: []
    PartsPalKeys: []
    VertexKeys: []
    UserKeys: []
    SoundKeys: []
    ImageOffsetXKeys: []
    ImageOffsetYKeys: []
    ImageOffsetWKeys: []
    ImageOffsetHKeys: []
    OriginOffsetXKeys: []
    OriginOffsetYKeys: []
    PosXValues:
    - _RefKeyIndex: 0
      _Value: 0
    PosYValues:
    - _RefKeyIndex: 0
      _Value: 0
    AngleValues:
    - _RefKeyIndex: 0
      _Value: 0
    ScaleXValues:
    - _RefKeyIndex: -1
      _Value: 0.6
    - _RefKeyIndex: -1
      _Value: 0.6
    - _RefKeyIndex: -1
      _Value: 0.6
    - _RefKeyIndex: -1
      _Value: 0.6
    - _RefKeyIndex: -1
      _Value: 0.6
    - _RefKeyIndex: -1
      _Value: 0.6
    - _RefKeyIndex: -1
      _Value: 0.90000004
    - _RefKeyIndex: -1
      _Value: 1.2
    - _RefKeyIndex: -1
      _Value: 1.1
    - _RefKeyIndex: -1
      _Value: 1
    - _RefKeyIndex: -1
      _Value: 1
    - _RefKeyIndex: -1
      _Value: 1
    - _RefKeyIndex: -1
      _Value: 1
    - _RefKeyIndex: -1
      _Value: 1
    - _RefKeyIndex: -1
      _Value: 1
    - _RefKeyIndex: -1
      _Value: 1
    - _RefKeyIndex: -1
      _Value: 1
    - _RefKeyIndex: -1
      _Value: 1
    - _RefKeyIndex: -1
      _Value: 1
    - _RefKeyIndex: -1
      _Value: 1
    - _RefKeyIndex: -1
      _Value: 1
    - _RefKeyIndex: -1
      _Value: 1
    - _RefKeyIndex: -1
      _Value: 1
    - _RefKeyIndex: -1
      _Value: 1
    - _RefKeyIndex: -1
      _Value: 1
    - _RefKeyIndex: -1
      _Value: 1
    - _RefKeyIndex: -1
      _Value: 1
    - _RefKeyIndex: -1
      _Value: 1
    - _RefKeyIndex: -1
      _Value: 1
    - _RefKeyIndex: -1
      _Value: 1
    - _RefKeyIndex: -1
      _Value: 1
    - _RefKeyIndex: -1
      _Value: 1
    - _RefKeyIndex: -1
      _Value: 1
    - _RefKeyIndex: -1
      _Value: 1
    - _RefKeyIndex: -1
      _Value: 1
    - _RefKeyIndex: -1
      _Value: 1
    - _RefKeyIndex: -1
      _Value: 1
    - _RefKeyIndex: -1
      _Value: 1
    - _RefKeyIndex: -1
      _Value: 1
    - _RefKeyIndex: -1
      _Value: 1
    - _RefKeyIndex: 4
      _Value: 0
    - _RefKeyIndex: 4
      _Value: 0
    - _RefKeyIndex: 4
      _Value: 0
    - _RefKeyIndex: 4
      _Value: 0
    - _RefKeyIndex: 4
      _Value: 0
    - _RefKeyIndex: 4
      _Value: 0
    - _RefKeyIndex: 4
      _Value: 0
    - _RefKeyIndex: 4
      _Value: 0
    - _RefKeyIndex: 4
      _Value: 0
    - _RefKeyIndex: 4
      _Value: 0
    - _RefKeyIndex: 4
      _Value: 0
    - _RefKeyIndex: 4
      _Value: 0
    - _RefKeyIndex: 4
      _Value: 0
    - _RefKeyIndex: 4
      _Value: 0
    - _RefKeyIndex: 4
      _Value: 0
    - _RefKeyIndex: 4
      _Value: 0
    - _RefKeyIndex: 4
      _Value: 0
    - _RefKeyIndex: 4
      _Value: 0
    - _RefKeyIndex: 4
      _Value: 0
    - _RefKeyIndex: 4
      _Value: 0
    ScaleYValues:
    - _RefKeyIndex: -1
      _Value: 1.4
    - _RefKeyIndex: -1
      _Value: 1.4
    - _RefKeyIndex: -1
      _Value: 1.4
    - _RefKeyIndex: -1
      _Value: 1.4
    - _RefKeyIndex: -1
      _Value: 1.4
    - _RefKeyIndex: -1
      _Value: 1.4
    - _RefKeyIndex: -1
      _Value: 1.1
    - _RefKeyIndex: -1
      _Value: 0.8
    - _RefKeyIndex: -1
      _Value: 0.9
    - _RefKeyIndex: -1
      _Value: 1
    - _RefKeyIndex: -1
      _Value: 1
    - _RefKeyIndex: -1
      _Value: 1
    - _RefKeyIndex: -1
      _Value: 1
    - _RefKeyIndex: -1
      _Value: 1
    - _RefKeyIndex: -1
      _Value: 1
    - _RefKeyIndex: -1
      _Value: 1
    - _RefKeyIndex: -1
      _Value: 1
    - _RefKeyIndex: -1
      _Value: 1
    - _RefKeyIndex: -1
      _Value: 1
    - _RefKeyIndex: -1
      _Value: 1
    - _RefKeyIndex: -1
      _Value: 1
    - _RefKeyIndex: -1
      _Value: 1
    - _RefKeyIndex: -1
      _Value: 1
    - _RefKeyIndex: -1
      _Value: 1
    - _RefKeyIndex: -1
      _Value: 1
    - _RefKeyIndex: -1
      _Value: 1
    - _RefKeyIndex: -1
      _Value: 1
    - _RefKeyIndex: -1
      _Value: 1
    - _RefKeyIndex: -1
      _Value: 1
    - _RefKeyIndex: -1
      _Value: 1
    - _RefKeyIndex: -1
      _Value: 1
    - _RefKeyIndex: -1
      _Value: 1
    - _RefKeyIndex: -1
      _Value: 1
    - _RefKeyIndex: -1
      _Value: 1
    - _RefKeyIndex: -1
      _Value: 1
    - _RefKeyIndex: -1
      _Value: 1
    - _RefKeyIndex: -1
      _Value: 1
    - _RefKeyIndex: -1
      _Value: 1
    - _RefKeyIndex: -1
      _Value: 1
    - _RefKeyIndex: -1
      _Value: 1
    - _RefKeyIndex: 4
      _Value: 0
    - _RefKeyIndex: 4
      _Value: 0
    - _RefKeyIndex: 4
      _Value: 0
    - _RefKeyIndex: 4
      _Value: 0
    - _RefKeyIndex: 4
      _Value: 0
    - _RefKeyIndex: 4
      _Value: 0
    - _RefKeyIndex: 4
      _Value: 0
    - _RefKeyIndex: 4
      _Value: 0
    - _RefKeyIndex: 4
      _Value: 0
    - _RefKeyIndex: 4
      _Value: 0
    - _RefKeyIndex: 4
      _Value: 0
    - _RefKeyIndex: 4
      _Value: 0
    - _RefKeyIndex: 4
      _Value: 0
    - _RefKeyIndex: 4
      _Value: 0
    - _RefKeyIndex: 4
      _Value: 0
    - _RefKeyIndex: 4
      _Value: 0
    - _RefKeyIndex: 4
      _Value: 0
    - _RefKeyIndex: 4
      _Value: 0
    - _RefKeyIndex: 4
      _Value: 0
    - _RefKeyIndex: 4
      _Value: 0
    TransValues: []
    PrioValues:
    - _RefKeyIndex: 0
      _Value: 0
    FlipHValues: []
    FlipVValues: []
    HideValues:
    - _RefKeyIndex: 0
      _Value: 0
    - _RefKeyIndex: 0
      _Value: 0
    - _RefKeyIndex: 0
      _Value: 0
    - _RefKeyIndex: 0
      _Value: 0
    - _RefKeyIndex: 0
      _Value: 0
    - _RefKeyIndex: 0
      _Value: 0
    - _RefKeyIndex: 0
      _Value: 0
    - _RefKeyIndex: 0
      _Value: 0
    - _RefKeyIndex: 0
      _Value: 0
    - _RefKeyIndex: 0
      _Value: 0
    - _RefKeyIndex: 0
      _Value: 0
    - _RefKeyIndex: 0
      _Value: 0
    - _RefKeyIndex: 0
      _Value: 0
    - _RefKeyIndex: 0
      _Value: 0
    - _RefKeyIndex: 0
      _Value: 0
    - _RefKeyIndex: 0
      _Value: 0
    - _RefKeyIndex: 0
      _Value: 0
    - _RefKeyIndex: 0
      _Value: 0
    - _RefKeyIndex: 0
      _Value: 0
    - _RefKeyIndex: 0
      _Value: 0
    - _RefKeyIndex: 0
      _Value: 0
    - _RefKeyIndex: 0
      _Value: 0
    - _RefKeyIndex: 0
      _Value: 0
    - _RefKeyIndex: 0
      _Value: 0
    - _RefKeyIndex: 0
      _Value: 0
    - _RefKeyIndex: 0
      _Value: 0
    - _RefKeyIndex: 0
      _Value: 0
    - _RefKeyIndex: 0
      _Value: 0
    - _RefKeyIndex: 0
      _Value: 0
    - _RefKeyIndex: 0
      _Value: 0
    - _RefKeyIndex: 0
      _Value: 0
    - _RefKeyIndex: 0
      _Value: 0
    - _RefKeyIndex: 0
      _Value: 0
    - _RefKeyIndex: 0
      _Value: 0
    - _RefKeyIndex: 0
      _Value: 0
    - _RefKeyIndex: 0
      _Value: 0
    - _RefKeyIndex: 0
      _Value: 0
    - _RefKeyIndex: 0
      _Value: 0
    - _RefKeyIndex: 0
      _Value: 0
    - _RefKeyIndex: 0
      _Value: 0
    - _RefKeyIndex: 0
      _Value: 0
    - _RefKeyIndex: 0
      _Value: 0
    - _RefKeyIndex: 0
      _Value: 0
    - _RefKeyIndex: 0
      _Value: 0
    - _RefKeyIndex: 0
      _Value: 0
    - _RefKeyIndex: 0
      _Value: 0
    - _RefKeyIndex: 0
      _Value: 0
    - _RefKeyIndex: 0
      _Value: 0
    - _RefKeyIndex: 0
      _Value: 0
    - _RefKeyIndex: 0
      _Value: 0
    - _RefKeyIndex: 0
      _Value: 0
    - _RefKeyIndex: 0
      _Value: 0
    - _RefKeyIndex: 0
      _Value: 0
    - _RefKeyIndex: 0
      _Value: 0
    - _RefKeyIndex: 0
      _Value: 0
    - _RefKeyIndex: 0
      _Value: 0
    - _RefKeyIndex: 0
      _Value: 0
    - _RefKeyIndex: 0
      _Value: 0
    - _RefKeyIndex: 0
      _Value: 0
    - _RefKeyIndex: 0
      _Value: 0
    PartsColValues: []
    PartsPalValues: []
    VertexValues: []
    UserValues: []
    SoundValues: []
    ImageOffsetXValues: []
    ImageOffsetYValues: []
    ImageOffsetWValues: []
    ImageOffsetHValues: []
    OriginOffsetXValues: []
    OriginOffsetYValues: []
    _hasAttrFlags: 607
    HasTrancparency: 0
    FrameNum: 60
    imageFile:
      path: Assets/Resources/Atlas/Skill/SkillTuxedo/SkillTuxedo.png
      texture: {fileID: 2800000, guid: 658e681c304c8a24bb55f34b4f8210db, type: 3}
      materials:
      - {fileID: 0}
      - {fileID: 0}
      - {fileID: 0}
      - {fileID: 0}
      - {fileID: 0}
      - {fileID: 2100000, guid: 6c7f1d67904ae9a48b774dc068f417d2, type: 2}
      - {fileID: 0}
      - {fileID: 0}
      - {fileID: 0}
      - {fileID: 0}
      - {fileID: 0}
      - {fileID: 0}
      - {fileID: 0}
      - {fileID: 0}
      - {fileID: 0}
      - {fileID: 0}
      - {fileID: 0}
      - {fileID: 0}
      - {fileID: 0}
      - {fileID: 0}
      - {fileID: 0}
      - {fileID: 0}
      - {fileID: 0}
      - {fileID: 0}
      - {fileID: 0}
      - {fileID: 0}
      - {fileID: 0}
      - {fileID: 0}
      - {fileID: 0}
      - {fileID: 0}
      - {fileID: 0}
      - {fileID: 0}
      - {fileID: 0}
      - {fileID: 0}
      - {fileID: 0}
      - {fileID: 0}
      - {fileID: 0}
      - {fileID: 0}
      - {fileID: 0}
      - {fileID: 0}
      - {fileID: 0}
      - {fileID: 0}
      - {fileID: 0}
      - {fileID: 0}
      - {fileID: 0}
      - {fileID: 0}
      - {fileID: 0}
      - {fileID: 0}
      - {fileID: 0}
      - {fileID: 0}
      width: 512
      height: 512
      bpp: 0
    UVs:
    - {x: 0.50390625, y: 0.9980469}
    - {x: 0.81640625, y: 0.9980469}
    - {x: 0.81640625, y: 0.71484375}
    - {x: 0.50390625, y: 0.71484375}
    OrgVertices:
    - {x: -80, y: 101, z: 0}
    - {x: 80, y: 101, z: 0}
    - {x: 80, y: -44, z: 0}
    - {x: -80, y: -44, z: 0}
  - AnimeRes: {fileID: 11400000}
    Name: ha
    Type: 0
    PicArea:
      Left: 258
      Top: 147
      Right: 360
      Bottom: 195
    OriginX: 102
    OriginY: 43
    MyId: 3
    ParentId: 1
    ChildNum: 0
    SrcObjId: 0
    SrcObjType: 0
    AlphaBlendType: 1
    InheritState:
      Type: 0
      Values:
      - Use: 1
        Rate: 1
      - Use: 1
        Rate: 1
      - Use: 1
        Rate: 1
      - Use: 1
        Rate: 1
      - Use: 1
        Rate: 1
      - Use: 1
        Rate: 1
      - Use: 1
        Rate: 1
      - Use: 0
        Rate: 0
      - Use: 0
        Rate: 0
      - Use: 0
        Rate: 0
      - Use: 1
        Rate: 1
      - Use: 1
        Rate: 1
      - Use: 1
        Rate: 1
      - Use: 1
        Rate: 1
      - Use: 1
        Rate: 1
      - Use: 1
        Rate: 1
      - Use: 1
        Rate: 1
      - Use: 1
        Rate: 1
      - Use: 1
        Rate: 1
      - Use: 1
        Rate: 1
      - Use: 1
        Rate: 1
    PosXKeys:
    - Value: -7
      _Time: 0
      _ValueType: 0
      _Curve:
        Type: 1
        StartT: 0
        StartV: 0
        EndT: 0
        EndV: 0
    PosYKeys:
    - Value: -97
      _Time: 0
      _ValueType: 0
      _Curve:
        Type: 1
        StartT: 0
        StartV: 0
        EndT: 0
        EndV: 0
    AngleKeys:
    - Value: -40
      _Time: 0
      _ValueType: 0
      _Curve:
        Type: 1
        StartT: 0
        StartV: 0
        EndT: 0
        EndV: 0
    - Value: -40
      _Time: 5
      _ValueType: 0
      _Curve:
        Type: 1
        StartT: 0
        StartV: 0
        EndT: 0
        EndV: 0
    - Value: 20
      _Time: 7
      _ValueType: 0
      _Curve:
        Type: 1
        StartT: 0
        StartV: 0
        EndT: 0
        EndV: 0
    - Value: 0
      _Time: 9
      _ValueType: 0
      _Curve:
        Type: 1
        StartT: 0
        StartV: 0
        EndT: 0
        EndV: 0
    - Value: 0
      _Time: 40
      _ValueType: 0
      _Curve:
        Type: 1
        StartT: 0
        StartV: 0
        EndT: 0
        EndV: 0
    ScaleXKeys: []
    ScaleYKeys: []
    TransKeys: []
    PrioKeys: []
    FlipHKeys: []
    FlipVKeys: []
    HideKeys:
    - Value: 0
      _Time: 0
      _ValueType: 1
      _Curve:
        Type: 0
        StartT: 0
        StartV: 0
        EndT: 0
        EndV: 0
    PartsColKeys: []
    PartsPalKeys: []
    VertexKeys: []
    UserKeys: []
    SoundKeys: []
    ImageOffsetXKeys: []
    ImageOffsetYKeys: []
    ImageOffsetWKeys: []
    ImageOffsetHKeys: []
    OriginOffsetXKeys: []
    OriginOffsetYKeys: []
    PosXValues:
    - _RefKeyIndex: 0
      _Value: 0
    PosYValues:
    - _RefKeyIndex: 0
      _Value: 0
    AngleValues:
    - _RefKeyIndex: -1
      _Value: -40
    - _RefKeyIndex: -1
      _Value: -40
    - _RefKeyIndex: -1
      _Value: -40
    - _RefKeyIndex: -1
      _Value: -40
    - _RefKeyIndex: -1
      _Value: -40
    - _RefKeyIndex: -1
      _Value: -40
    - _RefKeyIndex: -1
      _Value: -10
    - _RefKeyIndex: -1
      _Value: 20
    - _RefKeyIndex: -1
      _Value: 10
    - _RefKeyIndex: -1
      _Value: 0
    - _RefKeyIndex: -1
      _Value: 0
    - _RefKeyIndex: -1
      _Value: 0
    - _RefKeyIndex: -1
      _Value: 0
    - _RefKeyIndex: -1
      _Value: 0
    - _RefKeyIndex: -1
      _Value: 0
    - _RefKeyIndex: -1
      _Value: 0
    - _RefKeyIndex: -1
      _Value: 0
    - _RefKeyIndex: -1
      _Value: 0
    - _RefKeyIndex: -1
      _Value: 0
    - _RefKeyIndex: -1
      _Value: 0
    - _RefKeyIndex: -1
      _Value: 0
    - _RefKeyIndex: -1
      _Value: 0
    - _RefKeyIndex: -1
      _Value: 0
    - _RefKeyIndex: -1
      _Value: 0
    - _RefKeyIndex: -1
      _Value: 0
    - _RefKeyIndex: -1
      _Value: 0
    - _RefKeyIndex: -1
      _Value: 0
    - _RefKeyIndex: -1
      _Value: 0
    - _RefKeyIndex: -1
      _Value: 0
    - _RefKeyIndex: -1
      _Value: 0
    - _RefKeyIndex: -1
      _Value: 0
    - _RefKeyIndex: -1
      _Value: 0
    - _RefKeyIndex: -1
      _Value: 0
    - _RefKeyIndex: -1
      _Value: 0
    - _RefKeyIndex: -1
      _Value: 0
    - _RefKeyIndex: -1
      _Value: 0
    - _RefKeyIndex: -1
      _Value: 0
    - _RefKeyIndex: -1
      _Value: 0
    - _RefKeyIndex: -1
      _Value: 0
    - _RefKeyIndex: -1
      _Value: 0
    - _RefKeyIndex: 4
      _Value: 0
    - _RefKeyIndex: 4
      _Value: 0
    - _RefKeyIndex: 4
      _Value: 0
    - _RefKeyIndex: 4
      _Value: 0
    - _RefKeyIndex: 4
      _Value: 0
    - _RefKeyIndex: 4
      _Value: 0
    - _RefKeyIndex: 4
      _Value: 0
    - _RefKeyIndex: 4
      _Value: 0
    - _RefKeyIndex: 4
      _Value: 0
    - _RefKeyIndex: 4
      _Value: 0
    - _RefKeyIndex: 4
      _Value: 0
    - _RefKeyIndex: 4
      _Value: 0
    - _RefKeyIndex: 4
      _Value: 0
    - _RefKeyIndex: 4
      _Value: 0
    - _RefKeyIndex: 4
      _Value: 0
    - _RefKeyIndex: 4
      _Value: 0
    - _RefKeyIndex: 4
      _Value: 0
    - _RefKeyIndex: 4
      _Value: 0
    - _RefKeyIndex: 4
      _Value: 0
    - _RefKeyIndex: 4
      _Value: 0
    ScaleXValues: []
    ScaleYValues: []
    TransValues: []
    PrioValues: []
    FlipHValues: []
    FlipVValues: []
    HideValues:
    - _RefKeyIndex: 0
      _Value: 0
    - _RefKeyIndex: 0
      _Value: 0
    - _RefKeyIndex: 0
      _Value: 0
    - _RefKeyIndex: 0
      _Value: 0
    - _RefKeyIndex: 0
      _Value: 0
    - _RefKeyIndex: 0
      _Value: 0
    - _RefKeyIndex: 0
      _Value: 0
    - _RefKeyIndex: 0
      _Value: 0
    - _RefKeyIndex: 0
      _Value: 0
    - _RefKeyIndex: 0
      _Value: 0
    - _RefKeyIndex: 0
      _Value: 0
    - _RefKeyIndex: 0
      _Value: 0
    - _RefKeyIndex: 0
      _Value: 0
    - _RefKeyIndex: 0
      _Value: 0
    - _RefKeyIndex: 0
      _Value: 0
    - _RefKeyIndex: 0
      _Value: 0
    - _RefKeyIndex: 0
      _Value: 0
    - _RefKeyIndex: 0
      _Value: 0
    - _RefKeyIndex: 0
      _Value: 0
    - _RefKeyIndex: 0
      _Value: 0
    - _RefKeyIndex: 0
      _Value: 0
    - _RefKeyIndex: 0
      _Value: 0
    - _RefKeyIndex: 0
      _Value: 0
    - _RefKeyIndex: 0
      _Value: 0
    - _RefKeyIndex: 0
      _Value: 0
    - _RefKeyIndex: 0
      _Value: 0
    - _RefKeyIndex: 0
      _Value: 0
    - _RefKeyIndex: 0
      _Value: 0
    - _RefKeyIndex: 0
      _Value: 0
    - _RefKeyIndex: 0
      _Value: 0
    - _RefKeyIndex: 0
      _Value: 0
    - _RefKeyIndex: 0
      _Value: 0
    - _RefKeyIndex: 0
      _Value: 0
    - _RefKeyIndex: 0
      _Value: 0
    - _RefKeyIndex: 0
      _Value: 0
    - _RefKeyIndex: 0
      _Value: 0
    - _RefKeyIndex: 0
      _Value: 0
    - _RefKeyIndex: 0
      _Value: 0
    - _RefKeyIndex: 0
      _Value: 0
    - _RefKeyIndex: 0
      _Value: 0
    - _RefKeyIndex: 0
      _Value: 0
    - _RefKeyIndex: 0
      _Value: 0
    - _RefKeyIndex: 0
      _Value: 0
    - _RefKeyIndex: 0
      _Value: 0
    - _RefKeyIndex: 0
      _Value: 0
    - _RefKeyIndex: 0
      _Value: 0
    - _RefKeyIndex: 0
      _Value: 0
    - _RefKeyIndex: 0
      _Value: 0
    - _RefKeyIndex: 0
      _Value: 0
    - _RefKeyIndex: 0
      _Value: 0
    - _RefKeyIndex: 0
      _Value: 0
    - _RefKeyIndex: 0
      _Value: 0
    - _RefKeyIndex: 0
      _Value: 0
    - _RefKeyIndex: 0
      _Value: 0
    - _RefKeyIndex: 0
      _Value: 0
    - _RefKeyIndex: 0
      _Value: 0
    - _RefKeyIndex: 0
      _Value: 0
    - _RefKeyIndex: 0
      _Value: 0
    - _RefKeyIndex: 0
      _Value: 0
    - _RefKeyIndex: 0
      _Value: 0
    PartsColValues: []
    PartsPalValues: []
    VertexValues: []
    UserValues: []
    SoundValues: []
    ImageOffsetXValues: []
    ImageOffsetYValues: []
    ImageOffsetWValues: []
    ImageOffsetHValues: []
    OriginOffsetXValues: []
    OriginOffsetYValues: []
    _hasAttrFlags: 519
    HasTrancparency: 0
    FrameNum: 60
    imageFile:
      path: Assets/Resources/Atlas/Skill/SkillTuxedo/SkillTuxedo.png
      texture: {fileID: 2800000, guid: 658e681c304c8a24bb55f34b4f8210db, type: 3}
      materials:
      - {fileID: 0}
      - {fileID: 0}
      - {fileID: 0}
      - {fileID: 0}
      - {fileID: 0}
      - {fileID: 2100000, guid: 6c7f1d67904ae9a48b774dc068f417d2, type: 2}
      - {fileID: 0}
      - {fileID: 0}
      - {fileID: 0}
      - {fileID: 0}
      - {fileID: 0}
      - {fileID: 0}
      - {fileID: 0}
      - {fileID: 0}
      - {fileID: 0}
      - {fileID: 0}
      - {fileID: 0}
      - {fileID: 0}
      - {fileID: 0}
      - {fileID: 0}
      - {fileID: 0}
      - {fileID: 0}
      - {fileID: 0}
      - {fileID: 0}
      - {fileID: 0}
      - {fileID: 0}
      - {fileID: 0}
      - {fileID: 0}
      - {fileID: 0}
      - {fileID: 0}
      - {fileID: 0}
      - {fileID: 0}
      - {fileID: 0}
      - {fileID: 0}
      - {fileID: 0}
      - {fileID: 0}
      - {fileID: 0}
      - {fileID: 0}
      - {fileID: 0}
      - {fileID: 0}
      - {fileID: 0}
      - {fileID: 0}
      - {fileID: 0}
      - {fileID: 0}
      - {fileID: 0}
      - {fileID: 0}
      - {fileID: 0}
      - {fileID: 0}
      - {fileID: 0}
      - {fileID: 0}
      width: 512
      height: 512
      bpp: 0
    UVs:
    - {x: 0.50390625, y: 0.7128906}
    - {x: 0.703125, y: 0.7128906}
    - {x: 0.703125, y: 0.6191406}
    - {x: 0.50390625, y: 0.6191406}
    OrgVertices:
    - {x: -102, y: 43, z: 0}
    - {x: 0, y: 43, z: 0}
    - {x: 0, y: -5, z: 0}
    - {x: -102, y: -5, z: 0}
  ImportedTime: -235810185
  ImportedTimeHigh: -1999403968
