Library/Bee/artifacts/mvdfrm/Unity.2D.PixelPerfect.ref.dll_CF433C05B6C4B5F5.mvfrm
Library/Bee/artifacts/mvdfrm/UnityEditor.TestRunner.ref.dll_2594DFF003AE8269.mvfrm
Library/Bee/artifacts/mvdfrm/UnityEditor.UI.ref.dll_452FB8EBD860BCAB.mvfrm
Library/Bee/artifacts/mvdfrm/UnityEngine.TestRunner.ref.dll_F1B32A9E2F71E054.mvfrm
Library/Bee/artifacts/mvdfrm/UnityEngine.UI.ref.dll_01958F46DE82E516.mvfrm
Library/Bee/artifacts/mvdfrm/Unity.Burst.Cecil.Mdb.dll_76EDEB673DB77394.mvfrm
Library/Bee/artifacts/mvdfrm/Unity.Burst.Cecil.Pdb.dll_8E4063D6BC6C7517.mvfrm
Library/Bee/artifacts/mvdfrm/Unity.Burst.Cecil.Rocks.dll_A6D0195C7C4D8E17.mvfrm
Library/Bee/artifacts/mvdfrm/Unity.Burst.Cecil.dll_74621AB045BDC297.mvfrm
Library/Bee/artifacts/mvdfrm/Unity.Burst.Unsafe.dll_FBBCF67F76C2FFCC.mvfrm
Library/Bee/artifacts/mvdfrm/Unity.Plastic.Antlr3.Runtime.dll_08AAF4A35FE41640.mvfrm
Library/Bee/artifacts/mvdfrm/Unity.Plastic.Newtonsoft.Json.dll_1ED22D08267322F5.mvfrm
Library/Bee/artifacts/mvdfrm/Unity.VisualScripting.IonicZip.dll_62740C622D0B69B1.mvfrm
Library/Bee/artifacts/mvdfrm/Unity.VisualScripting.YamlDotNet.dll_E7460C078E89DD1B.mvfrm
Library/Bee/artifacts/mvdfrm/Unity.VisualScripting.TextureAssets.dll_7E64355B4F573B13.mvfrm
Library/Bee/artifacts/mvdfrm/Unity.VisualScripting.Antlr3.Runtime.dll_98B332E8BF52ED3A.mvfrm
Library/Bee/artifacts/mvdfrm/UnityEditor.Graphs.dll_AD3E5EE7EDA5CBCC.mvfrm
Library/Bee/artifacts/mvdfrm/UnityEditor.CoreModule.dll_2C23E622FFFF5B9A.mvfrm
Library/Bee/artifacts/mvdfrm/UnityEditor.DeviceSimulatorModule.dll_59E3070EB7DE3B47.mvfrm
Library/Bee/artifacts/mvdfrm/UnityEditor.DiagnosticsModule.dll_E357A5CDB1FFC3D5.mvfrm
Library/Bee/artifacts/mvdfrm/UnityEditor.GraphViewModule.dll_23F0AE043FCB3F0C.mvfrm
Library/Bee/artifacts/mvdfrm/UnityEditor.PackageManagerUIModule.dll_74EF77BF1D3CAC76.mvfrm
Library/Bee/artifacts/mvdfrm/UnityEditor.QuickSearchModule.dll_6E6726DB0AD6C02E.mvfrm
Library/Bee/artifacts/mvdfrm/UnityEditor.SceneTemplateModule.dll_E9A4A458C8F3F06F.mvfrm
Library/Bee/artifacts/mvdfrm/UnityEditor.TextCoreFontEngineModule.dll_AFA65BD84EF617D8.mvfrm
Library/Bee/artifacts/mvdfrm/UnityEditor.TextCoreTextEngineModule.dll_F78E9249DE79D0F6.mvfrm
Library/Bee/artifacts/mvdfrm/UnityEditor.UIBuilderModule.dll_78795B20B283B840.mvfrm
Library/Bee/artifacts/mvdfrm/UnityEditor.UIElementsModule.dll_4501B3D4FBA56896.mvfrm
Library/Bee/artifacts/mvdfrm/UnityEditor.UIElementsSamplesModule.dll_59CD2A8E20E09437.mvfrm
Library/Bee/artifacts/mvdfrm/UnityEditor.UIServiceModule.dll_B16B6C839BBB085A.mvfrm
Library/Bee/artifacts/mvdfrm/UnityEditor.UnityConnectModule.dll_6DBA37F0D8E7D750.mvfrm
Library/Bee/artifacts/mvdfrm/UnityEditor.dll_EDB8604E2B02BADB.mvfrm
Library/Bee/artifacts/mvdfrm/UnityEngine.AIModule.dll_7D1F9AE29186BAAE.mvfrm
Library/Bee/artifacts/mvdfrm/UnityEngine.ARModule.dll_36925FE5EEA41977.mvfrm
Library/Bee/artifacts/mvdfrm/UnityEngine.AccessibilityModule.dll_1C4A0FEFC96A180C.mvfrm
Library/Bee/artifacts/mvdfrm/UnityEngine.AndroidJNIModule.dll_C34A9CA844C4D76C.mvfrm
Library/Bee/artifacts/mvdfrm/UnityEngine.AnimationModule.dll_F2762A2D1A2813B2.mvfrm
Library/Bee/artifacts/mvdfrm/UnityEngine.AssetBundleModule.dll_B25059CC6D3D7520.mvfrm
Library/Bee/artifacts/mvdfrm/UnityEngine.AudioModule.dll_95ED05C5E8B23824.mvfrm
Library/Bee/artifacts/mvdfrm/UnityEngine.ClothModule.dll_FCD562C0C2CF1708.mvfrm
Library/Bee/artifacts/mvdfrm/UnityEngine.ClusterInputModule.dll_ED56AD068A6FAA16.mvfrm
Library/Bee/artifacts/mvdfrm/UnityEngine.ClusterRendererModule.dll_5F8FC980279948CB.mvfrm
Library/Bee/artifacts/mvdfrm/UnityEngine.CoreModule.dll_4F44B975A804C6C5.mvfrm
Library/Bee/artifacts/mvdfrm/UnityEngine.CrashReportingModule.dll_E5ED985AD592C77D.mvfrm
Library/Bee/artifacts/mvdfrm/UnityEngine.DSPGraphModule.dll_13C5E248DCBEEF43.mvfrm
Library/Bee/artifacts/mvdfrm/UnityEngine.DirectorModule.dll_0E7480DF6A5E1E22.mvfrm
Library/Bee/artifacts/mvdfrm/UnityEngine.GIModule.dll_155BE3F02D35A2C8.mvfrm
Library/Bee/artifacts/mvdfrm/UnityEngine.GameCenterModule.dll_ED97E6C30B05C85D.mvfrm
Library/Bee/artifacts/mvdfrm/UnityEngine.GridModule.dll_2CB5D563C0595CBC.mvfrm
Library/Bee/artifacts/mvdfrm/UnityEngine.HotReloadModule.dll_73BEE832F55B2F34.mvfrm
Library/Bee/artifacts/mvdfrm/UnityEngine.IMGUIModule.dll_CE4CA52CAEE3CC05.mvfrm
Library/Bee/artifacts/mvdfrm/UnityEngine.ImageConversionModule.dll_CB81C730A9BE00BF.mvfrm
Library/Bee/artifacts/mvdfrm/UnityEngine.InputLegacyModule.dll_439574EB052F2B11.mvfrm
Library/Bee/artifacts/mvdfrm/UnityEngine.InputModule.dll_FC62CD765EEA5CC8.mvfrm
Library/Bee/artifacts/mvdfrm/UnityEngine.JSONSerializeModule.dll_7C61992BC8A57896.mvfrm
Library/Bee/artifacts/mvdfrm/UnityEngine.LocalizationModule.dll_2BA3775921EB9D0F.mvfrm
Library/Bee/artifacts/mvdfrm/UnityEngine.NVIDIAModule.dll_787142068843B5D1.mvfrm
Library/Bee/artifacts/mvdfrm/UnityEngine.ParticleSystemModule.dll_38FFE1A743A4530B.mvfrm
Library/Bee/artifacts/mvdfrm/UnityEngine.PerformanceReportingModule.dll_315632592ADA6084.mvfrm
Library/Bee/artifacts/mvdfrm/UnityEngine.Physics2DModule.dll_3F1C1A1DBB250B47.mvfrm
Library/Bee/artifacts/mvdfrm/UnityEngine.PhysicsModule.dll_A9DFC0BC31460F75.mvfrm
Library/Bee/artifacts/mvdfrm/UnityEngine.ProfilerModule.dll_40BABA1603B7A52F.mvfrm
Library/Bee/artifacts/mvdfrm/UnityEngine.RuntimeInitializeOnLoadManagerInitializerModule.dll_7B22A3424B3F8A10.mvfrm
Library/Bee/artifacts/mvdfrm/UnityEngine.ScreenCaptureModule.dll_964946B0DD11A4F8.mvfrm
Library/Bee/artifacts/mvdfrm/UnityEngine.SharedInternalsModule.dll_4F93060620EBFC0F.mvfrm
Library/Bee/artifacts/mvdfrm/UnityEngine.SpriteMaskModule.dll_D6C459532C755DD7.mvfrm
Library/Bee/artifacts/mvdfrm/UnityEngine.SpriteShapeModule.dll_CBB1872722DFAD2A.mvfrm
Library/Bee/artifacts/mvdfrm/UnityEngine.StreamingModule.dll_A70B177D69AFCAF0.mvfrm
Library/Bee/artifacts/mvdfrm/UnityEngine.SubstanceModule.dll_83B62BC6B502C8FE.mvfrm
Library/Bee/artifacts/mvdfrm/UnityEngine.SubsystemsModule.dll_4171BFB4FABD45EA.mvfrm
Library/Bee/artifacts/mvdfrm/UnityEngine.TLSModule.dll_ACF2D1C16353FB09.mvfrm
Library/Bee/artifacts/mvdfrm/UnityEngine.TerrainModule.dll_C4263C2B07045863.mvfrm
Library/Bee/artifacts/mvdfrm/UnityEngine.TerrainPhysicsModule.dll_397A8A7A5CE74D98.mvfrm
Library/Bee/artifacts/mvdfrm/UnityEngine.TextCoreFontEngineModule.dll_2E05D72B61F3D6A3.mvfrm
Library/Bee/artifacts/mvdfrm/UnityEngine.TextCoreTextEngineModule.dll_75EE0D9CF1778FC1.mvfrm
Library/Bee/artifacts/mvdfrm/UnityEngine.TextRenderingModule.dll_BF88B8BB944924ED.mvfrm
Library/Bee/artifacts/mvdfrm/UnityEngine.TilemapModule.dll_6322A3AC1EC1396C.mvfrm
Library/Bee/artifacts/mvdfrm/UnityEngine.UIElementsModule.dll_45B0211CFDE981E1.mvfrm
Library/Bee/artifacts/mvdfrm/UnityEngine.UIElementsNativeModule.dll_BF692C548EB51C98.mvfrm
Library/Bee/artifacts/mvdfrm/UnityEngine.UIModule.dll_7893390FEDCDC05A.mvfrm
Library/Bee/artifacts/mvdfrm/UnityEngine.UNETModule.dll_E1EB015EF513BC3E.mvfrm
Library/Bee/artifacts/mvdfrm/UnityEngine.UmbraModule.dll_10C1B1DE75D8E397.mvfrm
Library/Bee/artifacts/mvdfrm/UnityEngine.UnityAnalyticsCommonModule.dll_CC94EF9D44C2FEE2.mvfrm
Library/Bee/artifacts/mvdfrm/UnityEngine.UnityAnalyticsModule.dll_589F5270EFCBA507.mvfrm
Library/Bee/artifacts/mvdfrm/UnityEngine.UnityConnectModule.dll_5B19BBFFD36FD7FB.mvfrm
Library/Bee/artifacts/mvdfrm/UnityEngine.UnityCurlModule.dll_2592CB5E8A3C059F.mvfrm
Library/Bee/artifacts/mvdfrm/UnityEngine.UnityTestProtocolModule.dll_158FE0807ADBE98D.mvfrm
Library/Bee/artifacts/mvdfrm/UnityEngine.UnityWebRequestAssetBundleModule.dll_AEE1CBD9BD55B518.mvfrm
Library/Bee/artifacts/mvdfrm/UnityEngine.UnityWebRequestAudioModule.dll_A9528637B1452B1C.mvfrm
Library/Bee/artifacts/mvdfrm/UnityEngine.UnityWebRequestModule.dll_DD20CEDAB4B29B3E.mvfrm
Library/Bee/artifacts/mvdfrm/UnityEngine.UnityWebRequestTextureModule.dll_83B969734B547C71.mvfrm
Library/Bee/artifacts/mvdfrm/UnityEngine.UnityWebRequestWWWModule.dll_40B052F8E1374C2D.mvfrm
Library/Bee/artifacts/mvdfrm/UnityEngine.VFXModule.dll_2DD16A3039C16476.mvfrm
Library/Bee/artifacts/mvdfrm/UnityEngine.VRModule.dll_CB655F958F8845D2.mvfrm
Library/Bee/artifacts/mvdfrm/UnityEngine.VehiclesModule.dll_86377A5EE487EDBD.mvfrm
Library/Bee/artifacts/mvdfrm/UnityEngine.VideoModule.dll_BAF68A30AB4453C9.mvfrm
Library/Bee/artifacts/mvdfrm/UnityEngine.VirtualTexturingModule.dll_E3F5E0C367639D23.mvfrm
Library/Bee/artifacts/mvdfrm/UnityEngine.WindModule.dll_C593949E393B452E.mvfrm
Library/Bee/artifacts/mvdfrm/UnityEngine.XRModule.dll_FE24229A18C29330.mvfrm
Library/Bee/artifacts/mvdfrm/UnityEngine.dll_205CA726897647C0.mvfrm
Library/Bee/artifacts/mvdfrm/UnityEditor.LinuxStandalone.Extensions.dll_AF3076BD7D690956.mvfrm