%YAML 1.1
%TAG !u! tag:unity3d.com,2011:
--- !u!114 &11400000
MonoBehaviour:
  m_ObjectHideFlags: 0
  m_PrefabParentObject: {fileID: 0}
  m_PrefabInternal: {fileID: 0}
  m_GameObject: {fileID: 0}
  m_Enabled: 1
  m_EditorHideFlags: 0
  m_Script: {fileID: 11500000, guid: 0ae895f3348548989f1b4caf6cca149f, type: 3}
  m_Name: obj_StarS_airplane_anim_ssa
  m_EditorClassIdentifier:
  OriginalPath: Assets/Resources/Atlas/StarS_Map01/obj_StarS_airplane_anim.ssax
  UseScaleFactor: 0
  ScaleFactor: 1
  FPS: 30
  EndFrame: 180
  hvFlipForImageOnly: 1
  ImageList:
  - path: Assets/Resources/Atlas/StarS_Map01/StarS_Map01.png
    texture: {fileID: 2800000, guid: 3b25a7a61699d5843869a2e13bd85106, type: 3}
    materials:
    - {fileID: 0}
    - {fileID: 0}
    - {fileID: 0}
    - {fileID: 0}
    - {fileID: 0}
    - {fileID: 2100000, guid: cfa3dddd5460b5d4a992db2edb67ac8b, type: 2}
    - {fileID: 0}
    - {fileID: 0}
    - {fileID: 0}
    - {fileID: 0}
    - {fileID: 0}
    - {fileID: 0}
    - {fileID: 0}
    - {fileID: 0}
    - {fileID: 0}
    - {fileID: 0}
    - {fileID: 0}
    - {fileID: 0}
    - {fileID: 0}
    - {fileID: 0}
    - {fileID: 0}
    - {fileID: 0}
    - {fileID: 0}
    - {fileID: 0}
    - {fileID: 0}
    - {fileID: 0}
    - {fileID: 0}
    - {fileID: 0}
    - {fileID: 0}
    - {fileID: 0}
    - {fileID: 0}
    - {fileID: 0}
    - {fileID: 0}
    - {fileID: 0}
    - {fileID: 0}
    - {fileID: 0}
    - {fileID: 0}
    - {fileID: 0}
    - {fileID: 0}
    - {fileID: 0}
    - {fileID: 0}
    - {fileID: 0}
    - {fileID: 0}
    - {fileID: 0}
    - {fileID: 0}
    - {fileID: 0}
    - {fileID: 0}
    - {fileID: 0}
    - {fileID: 0}
    - {fileID: 0}
    width: 2048
    height: 2048
    bpp: 0
  PartList:
  - AnimeRes: {fileID: 11400000}
    Name: root
    Type: 1
    PicArea:
      Left: 0
      Top: 0
      Right: 0
      Bottom: 0
    OriginX: 0
    OriginY: 0
    MyId: 0
    ParentId: -1
    ChildNum: 0
    SrcObjId: 0
    SrcObjType: 0
    AlphaBlendType: 0
    InheritState:
      Type: 0
      Values:
      - Use: 1
        Rate: 1
      - Use: 1
        Rate: 1
      - Use: 1
        Rate: 1
      - Use: 1
        Rate: 1
      - Use: 1
        Rate: 1
      - Use: 1
        Rate: 1
      - Use: 1
        Rate: 1
      - Use: 0
        Rate: 0
      - Use: 0
        Rate: 0
      - Use: 0
        Rate: 0
      - Use: 1
        Rate: 1
      - Use: 1
        Rate: 1
      - Use: 1
        Rate: 1
      - Use: 1
        Rate: 1
      - Use: 1
        Rate: 1
      - Use: 1
        Rate: 1
      - Use: 1
        Rate: 1
      - Use: 1
        Rate: 1
      - Use: 1
        Rate: 1
      - Use: 1
        Rate: 1
      - Use: 1
        Rate: 1
    PosXKeys: []
    PosYKeys: []
    AngleKeys: []
    ScaleXKeys: []
    ScaleYKeys: []
    TransKeys: []
    PrioKeys: []
    FlipHKeys: []
    FlipVKeys: []
    HideKeys:
    - Value: 0
      _Time: 0
      _ValueType: 1
      _Curve:
        Type: 0
        StartT: 0
        StartV: 0
        EndT: 0
        EndV: 0
    PartsColKeys: []
    PartsPalKeys: []
    VertexKeys: []
    UserKeys: []
    SoundKeys: []
    ImageOffsetXKeys: []
    ImageOffsetYKeys: []
    ImageOffsetWKeys: []
    ImageOffsetHKeys: []
    OriginOffsetXKeys: []
    OriginOffsetYKeys: []
    PosXValues: []
    PosYValues: []
    AngleValues: []
    ScaleXValues: []
    ScaleYValues: []
    TransValues: []
    PrioValues: []
    FlipHValues: []
    FlipVValues: []
    HideValues:
    - _RefKeyIndex: 0
      _Value: 0
    - _RefKeyIndex: 0
      _Value: 0
    - _RefKeyIndex: 0
      _Value: 0
    - _RefKeyIndex: 0
      _Value: 0
    - _RefKeyIndex: 0
      _Value: 0
    - _RefKeyIndex: 0
      _Value: 0
    - _RefKeyIndex: 0
      _Value: 0
    - _RefKeyIndex: 0
      _Value: 0
    - _RefKeyIndex: 0
      _Value: 0
    - _RefKeyIndex: 0
      _Value: 0
    - _RefKeyIndex: 0
      _Value: 0
    - _RefKeyIndex: 0
      _Value: 0
    - _RefKeyIndex: 0
      _Value: 0
    - _RefKeyIndex: 0
      _Value: 0
    - _RefKeyIndex: 0
      _Value: 0
    - _RefKeyIndex: 0
      _Value: 0
    - _RefKeyIndex: 0
      _Value: 0
    - _RefKeyIndex: 0
      _Value: 0
    - _RefKeyIndex: 0
      _Value: 0
    - _RefKeyIndex: 0
      _Value: 0
    - _RefKeyIndex: 0
      _Value: 0
    - _RefKeyIndex: 0
      _Value: 0
    - _RefKeyIndex: 0
      _Value: 0
    - _RefKeyIndex: 0
      _Value: 0
    - _RefKeyIndex: 0
      _Value: 0
    - _RefKeyIndex: 0
      _Value: 0
    - _RefKeyIndex: 0
      _Value: 0
    - _RefKeyIndex: 0
      _Value: 0
    - _RefKeyIndex: 0
      _Value: 0
    - _RefKeyIndex: 0
      _Value: 0
    - _RefKeyIndex: 0
      _Value: 0
    - _RefKeyIndex: 0
      _Value: 0
    - _RefKeyIndex: 0
      _Value: 0
    - _RefKeyIndex: 0
      _Value: 0
    - _RefKeyIndex: 0
      _Value: 0
    - _RefKeyIndex: 0
      _Value: 0
    - _RefKeyIndex: 0
      _Value: 0
    - _RefKeyIndex: 0
      _Value: 0
    - _RefKeyIndex: 0
      _Value: 0
    - _RefKeyIndex: 0
      _Value: 0
    - _RefKeyIndex: 0
      _Value: 0
    - _RefKeyIndex: 0
      _Value: 0
    - _RefKeyIndex: 0
      _Value: 0
    - _RefKeyIndex: 0
      _Value: 0
    - _RefKeyIndex: 0
      _Value: 0
    - _RefKeyIndex: 0
      _Value: 0
    - _RefKeyIndex: 0
      _Value: 0
    - _RefKeyIndex: 0
      _Value: 0
    - _RefKeyIndex: 0
      _Value: 0
    - _RefKeyIndex: 0
      _Value: 0
    - _RefKeyIndex: 0
      _Value: 0
    - _RefKeyIndex: 0
      _Value: 0
    - _RefKeyIndex: 0
      _Value: 0
    - _RefKeyIndex: 0
      _Value: 0
    - _RefKeyIndex: 0
      _Value: 0
    - _RefKeyIndex: 0
      _Value: 0
    - _RefKeyIndex: 0
      _Value: 0
    - _RefKeyIndex: 0
      _Value: 0
    - _RefKeyIndex: 0
      _Value: 0
    - _RefKeyIndex: 0
      _Value: 0
    - _RefKeyIndex: 0
      _Value: 0
    - _RefKeyIndex: 0
      _Value: 0
    - _RefKeyIndex: 0
      _Value: 0
    - _RefKeyIndex: 0
      _Value: 0
    - _RefKeyIndex: 0
      _Value: 0
    - _RefKeyIndex: 0
      _Value: 0
    - _RefKeyIndex: 0
      _Value: 0
    - _RefKeyIndex: 0
      _Value: 0
    - _RefKeyIndex: 0
      _Value: 0
    - _RefKeyIndex: 0
      _Value: 0
    - _RefKeyIndex: 0
      _Value: 0
    - _RefKeyIndex: 0
      _Value: 0
    - _RefKeyIndex: 0
      _Value: 0
    - _RefKeyIndex: 0
      _Value: 0
    - _RefKeyIndex: 0
      _Value: 0
    - _RefKeyIndex: 0
      _Value: 0
    - _RefKeyIndex: 0
      _Value: 0
    - _RefKeyIndex: 0
      _Value: 0
    - _RefKeyIndex: 0
      _Value: 0
    - _RefKeyIndex: 0
      _Value: 0
    - _RefKeyIndex: 0
      _Value: 0
    - _RefKeyIndex: 0
      _Value: 0
    - _RefKeyIndex: 0
      _Value: 0
    - _RefKeyIndex: 0
      _Value: 0
    - _RefKeyIndex: 0
      _Value: 0
    - _RefKeyIndex: 0
      _Value: 0
    - _RefKeyIndex: 0
      _Value: 0
    - _RefKeyIndex: 0
      _Value: 0
    - _RefKeyIndex: 0
      _Value: 0
    - _RefKeyIndex: 0
      _Value: 0
    - _RefKeyIndex: 0
      _Value: 0
    - _RefKeyIndex: 0
      _Value: 0
    - _RefKeyIndex: 0
      _Value: 0
    - _RefKeyIndex: 0
      _Value: 0
    - _RefKeyIndex: 0
      _Value: 0
    - _RefKeyIndex: 0
      _Value: 0
    - _RefKeyIndex: 0
      _Value: 0
    - _RefKeyIndex: 0
      _Value: 0
    - _RefKeyIndex: 0
      _Value: 0
    - _RefKeyIndex: 0
      _Value: 0
    - _RefKeyIndex: 0
      _Value: 0
    - _RefKeyIndex: 0
      _Value: 0
    - _RefKeyIndex: 0
      _Value: 0
    - _RefKeyIndex: 0
      _Value: 0
    - _RefKeyIndex: 0
      _Value: 0
    - _RefKeyIndex: 0
      _Value: 0
    - _RefKeyIndex: 0
      _Value: 0
    - _RefKeyIndex: 0
      _Value: 0
    - _RefKeyIndex: 0
      _Value: 0
    - _RefKeyIndex: 0
      _Value: 0
    - _RefKeyIndex: 0
      _Value: 0
    - _RefKeyIndex: 0
      _Value: 0
    - _RefKeyIndex: 0
      _Value: 0
    - _RefKeyIndex: 0
      _Value: 0
    - _RefKeyIndex: 0
      _Value: 0
    - _RefKeyIndex: 0
      _Value: 0
    - _RefKeyIndex: 0
      _Value: 0
    - _RefKeyIndex: 0
      _Value: 0
    - _RefKeyIndex: 0
      _Value: 0
    - _RefKeyIndex: 0
      _Value: 0
    - _RefKeyIndex: 0
      _Value: 0
    - _RefKeyIndex: 0
      _Value: 0
    - _RefKeyIndex: 0
      _Value: 0
    - _RefKeyIndex: 0
      _Value: 0
    - _RefKeyIndex: 0
      _Value: 0
    - _RefKeyIndex: 0
      _Value: 0
    - _RefKeyIndex: 0
      _Value: 0
    - _RefKeyIndex: 0
      _Value: 0
    - _RefKeyIndex: 0
      _Value: 0
    - _RefKeyIndex: 0
      _Value: 0
    - _RefKeyIndex: 0
      _Value: 0
    - _RefKeyIndex: 0
      _Value: 0
    - _RefKeyIndex: 0
      _Value: 0
    - _RefKeyIndex: 0
      _Value: 0
    - _RefKeyIndex: 0
      _Value: 0
    - _RefKeyIndex: 0
      _Value: 0
    - _RefKeyIndex: 0
      _Value: 0
    - _RefKeyIndex: 0
      _Value: 0
    - _RefKeyIndex: 0
      _Value: 0
    - _RefKeyIndex: 0
      _Value: 0
    - _RefKeyIndex: 0
      _Value: 0
    - _RefKeyIndex: 0
      _Value: 0
    - _RefKeyIndex: 0
      _Value: 0
    - _RefKeyIndex: 0
      _Value: 0
    - _RefKeyIndex: 0
      _Value: 0
    - _RefKeyIndex: 0
      _Value: 0
    - _RefKeyIndex: 0
      _Value: 0
    - _RefKeyIndex: 0
      _Value: 0
    - _RefKeyIndex: 0
      _Value: 0
    - _RefKeyIndex: 0
      _Value: 0
    - _RefKeyIndex: 0
      _Value: 0
    - _RefKeyIndex: 0
      _Value: 0
    - _RefKeyIndex: 0
      _Value: 0
    - _RefKeyIndex: 0
      _Value: 0
    - _RefKeyIndex: 0
      _Value: 0
    - _RefKeyIndex: 0
      _Value: 0
    - _RefKeyIndex: 0
      _Value: 0
    - _RefKeyIndex: 0
      _Value: 0
    - _RefKeyIndex: 0
      _Value: 0
    - _RefKeyIndex: 0
      _Value: 0
    - _RefKeyIndex: 0
      _Value: 0
    - _RefKeyIndex: 0
      _Value: 0
    - _RefKeyIndex: 0
      _Value: 0
    - _RefKeyIndex: 0
      _Value: 0
    - _RefKeyIndex: 0
      _Value: 0
    - _RefKeyIndex: 0
      _Value: 0
    - _RefKeyIndex: 0
      _Value: 0
    - _RefKeyIndex: 0
      _Value: 0
    - _RefKeyIndex: 0
      _Value: 0
    - _RefKeyIndex: 0
      _Value: 0
    - _RefKeyIndex: 0
      _Value: 0
    - _RefKeyIndex: 0
      _Value: 0
    - _RefKeyIndex: 0
      _Value: 0
    - _RefKeyIndex: 0
      _Value: 0
    - _RefKeyIndex: 0
      _Value: 0
    - _RefKeyIndex: 0
      _Value: 0
    - _RefKeyIndex: 0
      _Value: 0
    - _RefKeyIndex: 0
      _Value: 0
    - _RefKeyIndex: 0
      _Value: 0
    - _RefKeyIndex: 0
      _Value: 0
    - _RefKeyIndex: 0
      _Value: 0
    PartsColValues: []
    PartsPalValues: []
    VertexValues: []
    UserValues: []
    SoundValues: []
    ImageOffsetXValues: []
    ImageOffsetYValues: []
    ImageOffsetWValues: []
    ImageOffsetHValues: []
    OriginOffsetXValues: []
    OriginOffsetYValues: []
    _hasAttrFlags: 512
    HasTrancparency: 0
    FrameNum: 181
    imageFile:
      path:
      texture: {fileID: 0}
      materials: []
      width: 0
      height: 0
      bpp: 0
    UVs: []
    OrgVertices:
    - {x: -0, y: 0, z: 0}
    - {x: 0, y: 0, z: 0}
    - {x: 0, y: -0, z: 0}
    - {x: -0, y: -0, z: 0}
  - AnimeRes: {fileID: 11400000}
    Name: airplane
    Type: 0
    PicArea:
      Left: 8
      Top: 1766
      Right: 188
      Bottom: 1899
    OriginX: 90
    OriginY: 66
    MyId: 1
    ParentId: 0
    ChildNum: 0
    SrcObjId: 0
    SrcObjType: 0
    AlphaBlendType: 1
    InheritState:
      Type: 0
      Values:
      - Use: 1
        Rate: 1
      - Use: 1
        Rate: 1
      - Use: 1
        Rate: 1
      - Use: 1
        Rate: 1
      - Use: 1
        Rate: 1
      - Use: 1
        Rate: 1
      - Use: 1
        Rate: 1
      - Use: 0
        Rate: 0
      - Use: 0
        Rate: 0
      - Use: 0
        Rate: 0
      - Use: 1
        Rate: 1
      - Use: 1
        Rate: 1
      - Use: 1
        Rate: 1
      - Use: 1
        Rate: 1
      - Use: 1
        Rate: 1
      - Use: 1
        Rate: 1
      - Use: 1
        Rate: 1
      - Use: 1
        Rate: 1
      - Use: 1
        Rate: 1
      - Use: 1
        Rate: 1
      - Use: 1
        Rate: 1
    PosXKeys:
    - Value: 790
      _Time: 0
      _ValueType: 0
      _Curve:
        Type: 1
        StartT: 0
        StartV: 0
        EndT: 0
        EndV: 0
    - Value: -721
      _Time: 120
      _ValueType: 0
      _Curve:
        Type: 1
        StartT: 0
        StartV: 0
        EndT: 0
        EndV: 0
    PosYKeys:
    - Value: 178
      _Time: 0
      _ValueType: 0
      _Curve:
        Type: 1
        StartT: 0
        StartV: 0
        EndT: 0
        EndV: 0
    - Value: -1066
      _Time: 120
      _ValueType: 0
      _Curve:
        Type: 1
        StartT: 0
        StartV: 0
        EndT: 0
        EndV: 0
    AngleKeys:
    - Value: 0
      _Time: 0
      _ValueType: 0
      _Curve:
        Type: 1
        StartT: 0
        StartV: 0
        EndT: 0
        EndV: 0
    ScaleXKeys:
    - Value: 1.4
      _Time: 0
      _ValueType: 0
      _Curve:
        Type: 1
        StartT: 0
        StartV: 0
        EndT: 0
        EndV: 0
    ScaleYKeys:
    - Value: 1.4
      _Time: 0
      _ValueType: 0
      _Curve:
        Type: 1
        StartT: 0
        StartV: 0
        EndT: 0
        EndV: 0
    TransKeys: []
    PrioKeys: []
    FlipHKeys: []
    FlipVKeys: []
    HideKeys:
    - Value: 0
      _Time: 0
      _ValueType: 1
      _Curve:
        Type: 0
        StartT: 0
        StartV: 0
        EndT: 0
        EndV: 0
    PartsColKeys: []
    PartsPalKeys: []
    VertexKeys: []
    UserKeys: []
    SoundKeys: []
    ImageOffsetXKeys: []
    ImageOffsetYKeys: []
    ImageOffsetWKeys: []
    ImageOffsetHKeys: []
    OriginOffsetXKeys: []
    OriginOffsetYKeys: []
    PosXValues:
    - _RefKeyIndex: -1
      _Value: 790
    - _RefKeyIndex: -1
      _Value: 777.4083
    - _RefKeyIndex: -1
      _Value: 764.81665
    - _RefKeyIndex: -1
      _Value: 752.225
    - _RefKeyIndex: -1
      _Value: 739.6333
    - _RefKeyIndex: -1
      _Value: 727.0417
    - _RefKeyIndex: -1
      _Value: 714.45
    - _RefKeyIndex: -1
      _Value: 701.85834
    - _RefKeyIndex: -1
      _Value: 689.26666
    - _RefKeyIndex: -1
      _Value: 676.675
    - _RefKeyIndex: -1
      _Value: 664.0833
    - _RefKeyIndex: -1
      _Value: 651.49164
    - _RefKeyIndex: -1
      _Value: 638.9
    - _RefKeyIndex: -1
      _Value: 626.30835
    - _RefKeyIndex: -1
      _Value: 613.7167
    - _RefKeyIndex: -1
      _Value: 601.125
    - _RefKeyIndex: -1
      _Value: 588.5333
    - _RefKeyIndex: -1
      _Value: 575.94165
    - _RefKeyIndex: -1
      _Value: 563.35
    - _RefKeyIndex: -1
      _Value: 550.75836
    - _RefKeyIndex: -1
      _Value: 538.1667
    - _RefKeyIndex: -1
      _Value: 525.575
    - _RefKeyIndex: -1
      _Value: 512.98334
    - _RefKeyIndex: -1
      _Value: 500.39166
    - _RefKeyIndex: -1
      _Value: 487.8
    - _RefKeyIndex: -1
      _Value: 475.20834
    - _RefKeyIndex: -1
      _Value: 462.61667
    - _RefKeyIndex: -1
      _Value: 450.025
    - _RefKeyIndex: -1
      _Value: 437.43332
    - _RefKeyIndex: -1
      _Value: 424.84167
    - _RefKeyIndex: -1
      _Value: 412.25
    - _RefKeyIndex: -1
      _Value: 399.65836
    - _RefKeyIndex: -1
      _Value: 387.06665
    - _RefKeyIndex: -1
      _Value: 374.475
    - _RefKeyIndex: -1
      _Value: 361.88333
    - _RefKeyIndex: -1
      _Value: 349.2917
    - _RefKeyIndex: -1
      _Value: 336.69998
    - _RefKeyIndex: -1
      _Value: 324.10834
    - _RefKeyIndex: -1
      _Value: 311.51666
    - _RefKeyIndex: -1
      _Value: 298.92502
    - _RefKeyIndex: -1
      _Value: 286.3333
    - _RefKeyIndex: -1
      _Value: 273.74167
    - _RefKeyIndex: -1
      _Value: 261.15
    - _RefKeyIndex: -1
      _Value: 248.55835
    - _RefKeyIndex: -1
      _Value: 235.96666
    - _RefKeyIndex: -1
      _Value: 223.375
    - _RefKeyIndex: -1
      _Value: 210.78334
    - _RefKeyIndex: -1
      _Value: 198.19165
    - _RefKeyIndex: -1
      _Value: 185.59999
    - _RefKeyIndex: -1
      _Value: 173.00833
    - _RefKeyIndex: -1
      _Value: 160.41669
    - _RefKeyIndex: -1
      _Value: 147.82498
    - _RefKeyIndex: -1
      _Value: 135.23332
    - _RefKeyIndex: -1
      _Value: 122.64167
    - _RefKeyIndex: -1
      _Value: 110.05002
    - _RefKeyIndex: -1
      _Value: 97.45832
    - _RefKeyIndex: -1
      _Value: 84.86666
    - _RefKeyIndex: -1
      _Value: 72.27501
    - _RefKeyIndex: -1
      _Value: 59.683353
    - _RefKeyIndex: -1
      _Value: 47.091656
    - _RefKeyIndex: -1
      _Value: 34.5
    - _RefKeyIndex: -1
      _Value: 21.908346
    - _RefKeyIndex: -1
      _Value: 9.31669
    - _RefKeyIndex: -1
      _Value: -3.2749639
    - _RefKeyIndex: -1
      _Value: -15.866709
    - _RefKeyIndex: -1
      _Value: -28.458363
    - _RefKeyIndex: -1
      _Value: -41.05002
    - _RefKeyIndex: -1
      _Value: -53.641674
    - _RefKeyIndex: -1
      _Value: -66.23333
    - _RefKeyIndex: -1
      _Value: -78.82498
    - _RefKeyIndex: -1
      _Value: -91.41663
    - _RefKeyIndex: -1
      _Value: -104.00829
    - _RefKeyIndex: -1
      _Value: -116.60004
    - _RefKeyIndex: -1
      _Value: -129.1917
    - _RefKeyIndex: -1
      _Value: -141.78334
    - _RefKeyIndex: -1
      _Value: -154.375
    - _RefKeyIndex: -1
      _Value: -166.96666
    - _RefKeyIndex: -1
      _Value: -179.5583
    - _RefKeyIndex: -1
      _Value: -192.14996
    - _RefKeyIndex: -1
      _Value: -204.74171
    - _RefKeyIndex: -1
      _Value: -217.33336
    - _RefKeyIndex: -1
      _Value: -229.92502
    - _RefKeyIndex: -1
      _Value: -242.51668
    - _RefKeyIndex: -1
      _Value: -255.10832
    - _RefKeyIndex: -1
      _Value: -267.69998
    - _RefKeyIndex: -1
      _Value: -280.29163
    - _RefKeyIndex: -1
      _Value: -292.8833
    - _RefKeyIndex: -1
      _Value: -305.47504
    - _RefKeyIndex: -1
      _Value: -318.06668
    - _RefKeyIndex: -1
      _Value: -330.65836
    - _RefKeyIndex: -1
      _Value: -343.25
    - _RefKeyIndex: -1
      _Value: -355.84164
    - _RefKeyIndex: -1
      _Value: -368.43332
    - _RefKeyIndex: -1
      _Value: -381.02496
    - _RefKeyIndex: -1
      _Value: -393.6167
    - _RefKeyIndex: -1
      _Value: -406.20837
    - _RefKeyIndex: -1
      _Value: -418.80002
    - _RefKeyIndex: -1
      _Value: -431.39166
    - _RefKeyIndex: -1
      _Value: -443.98334
    - _RefKeyIndex: -1
      _Value: -456.57498
    - _RefKeyIndex: -1
      _Value: -469.16663
    - _RefKeyIndex: -1
      _Value: -481.7583
    - _RefKeyIndex: -1
      _Value: -494.35004
    - _RefKeyIndex: -1
      _Value: -506.94168
    - _RefKeyIndex: -1
      _Value: -519.5333
    - _RefKeyIndex: -1
      _Value: -532.125
    - _RefKeyIndex: -1
      _Value: -544.7167
    - _RefKeyIndex: -1
      _Value: -557.3083
    - _RefKeyIndex: -1
      _Value: -569.89996
    - _RefKeyIndex: -1
      _Value: -582.4917
    - _RefKeyIndex: -1
      _Value: -595.0834
    - _RefKeyIndex: -1
      _Value: -607.675
    - _RefKeyIndex: -1
      _Value: -620.26666
    - _RefKeyIndex: -1
      _Value: -632.85834
    - _RefKeyIndex: -1
      _Value: -645.45
    - _RefKeyIndex: -1
      _Value: -658.0416
    - _RefKeyIndex: -1
      _Value: -670.6333
    - _RefKeyIndex: -1
      _Value: -683.22504
    - _RefKeyIndex: -1
      _Value: -695.8167
    - _RefKeyIndex: -1
      _Value: -708.4083
    - _RefKeyIndex: 1
      _Value: 0
    - _RefKeyIndex: 1
      _Value: 0
    - _RefKeyIndex: 1
      _Value: 0
    - _RefKeyIndex: 1
      _Value: 0
    - _RefKeyIndex: 1
      _Value: 0
    - _RefKeyIndex: 1
      _Value: 0
    - _RefKeyIndex: 1
      _Value: 0
    - _RefKeyIndex: 1
      _Value: 0
    - _RefKeyIndex: 1
      _Value: 0
    - _RefKeyIndex: 1
      _Value: 0
    - _RefKeyIndex: 1
      _Value: 0
    - _RefKeyIndex: 1
      _Value: 0
    - _RefKeyIndex: 1
      _Value: 0
    - _RefKeyIndex: 1
      _Value: 0
    - _RefKeyIndex: 1
      _Value: 0
    - _RefKeyIndex: 1
      _Value: 0
    - _RefKeyIndex: 1
      _Value: 0
    - _RefKeyIndex: 1
      _Value: 0
    - _RefKeyIndex: 1
      _Value: 0
    - _RefKeyIndex: 1
      _Value: 0
    - _RefKeyIndex: 1
      _Value: 0
    - _RefKeyIndex: 1
      _Value: 0
    - _RefKeyIndex: 1
      _Value: 0
    - _RefKeyIndex: 1
      _Value: 0
    - _RefKeyIndex: 1
      _Value: 0
    - _RefKeyIndex: 1
      _Value: 0
    - _RefKeyIndex: 1
      _Value: 0
    - _RefKeyIndex: 1
      _Value: 0
    - _RefKeyIndex: 1
      _Value: 0
    - _RefKeyIndex: 1
      _Value: 0
    - _RefKeyIndex: 1
      _Value: 0
    - _RefKeyIndex: 1
      _Value: 0
    - _RefKeyIndex: 1
      _Value: 0
    - _RefKeyIndex: 1
      _Value: 0
    - _RefKeyIndex: 1
      _Value: 0
    - _RefKeyIndex: 1
      _Value: 0
    - _RefKeyIndex: 1
      _Value: 0
    - _RefKeyIndex: 1
      _Value: 0
    - _RefKeyIndex: 1
      _Value: 0
    - _RefKeyIndex: 1
      _Value: 0
    - _RefKeyIndex: 1
      _Value: 0
    - _RefKeyIndex: 1
      _Value: 0
    - _RefKeyIndex: 1
      _Value: 0
    - _RefKeyIndex: 1
      _Value: 0
    - _RefKeyIndex: 1
      _Value: 0
    - _RefKeyIndex: 1
      _Value: 0
    - _RefKeyIndex: 1
      _Value: 0
    - _RefKeyIndex: 1
      _Value: 0
    - _RefKeyIndex: 1
      _Value: 0
    - _RefKeyIndex: 1
      _Value: 0
    - _RefKeyIndex: 1
      _Value: 0
    - _RefKeyIndex: 1
      _Value: 0
    - _RefKeyIndex: 1
      _Value: 0
    - _RefKeyIndex: 1
      _Value: 0
    - _RefKeyIndex: 1
      _Value: 0
    - _RefKeyIndex: 1
      _Value: 0
    - _RefKeyIndex: 1
      _Value: 0
    - _RefKeyIndex: 1
      _Value: 0
    - _RefKeyIndex: 1
      _Value: 0
    - _RefKeyIndex: 1
      _Value: 0
    - _RefKeyIndex: 1
      _Value: 0
    PosYValues:
    - _RefKeyIndex: -1
      _Value: 178
    - _RefKeyIndex: -1
      _Value: 167.63333
    - _RefKeyIndex: -1
      _Value: 157.26666
    - _RefKeyIndex: -1
      _Value: 146.9
    - _RefKeyIndex: -1
      _Value: 136.53333
    - _RefKeyIndex: -1
      _Value: 126.166664
    - _RefKeyIndex: -1
      _Value: 115.799995
    - _RefKeyIndex: -1
      _Value: 105.433334
    - _RefKeyIndex: -1
      _Value: 95.066666
    - _RefKeyIndex: -1
      _Value: 84.7
    - _RefKeyIndex: -1
      _Value: 74.33333
    - _RefKeyIndex: -1
      _Value: 63.966663
    - _RefKeyIndex: -1
      _Value: 53.6
    - _RefKeyIndex: -1
      _Value: 43.233334
    - _RefKeyIndex: -1
      _Value: 32.866665
    - _RefKeyIndex: -1
      _Value: 22.5
    - _RefKeyIndex: -1
      _Value: 12.133325
    - _RefKeyIndex: -1
      _Value: 1.7666678
    - _RefKeyIndex: -1
      _Value: -8.600007
    - _RefKeyIndex: -1
      _Value: -18.966663
    - _RefKeyIndex: -1
      _Value: -29.33334
    - _RefKeyIndex: -1
      _Value: -39.699997
    - _RefKeyIndex: -1
      _Value: -50.066673
    - _RefKeyIndex: -1
      _Value: -60.433327
    - _RefKeyIndex: -1
      _Value: -70.8
    - _RefKeyIndex: -1
      _Value: -81.166664
    - _RefKeyIndex: -1
      _Value: -91.53333
    - _RefKeyIndex: -1
      _Value: -101.899994
    - _RefKeyIndex: -1
      _Value: -112.26667
    - _RefKeyIndex: -1
      _Value: -122.63332
    - _RefKeyIndex: -1
      _Value: -133
    - _RefKeyIndex: -1
      _Value: -143.36665
    - _RefKeyIndex: -1
      _Value: -153.73335
    - _RefKeyIndex: -1
      _Value: -164.1
    - _RefKeyIndex: -1
      _Value: -174.46666
    - _RefKeyIndex: -1
      _Value: -184.83333
    - _RefKeyIndex: -1
      _Value: -195.20001
    - _RefKeyIndex: -1
      _Value: -205.56667
    - _RefKeyIndex: -1
      _Value: -215.93333
    - _RefKeyIndex: -1
      _Value: -226.29999
    - _RefKeyIndex: -1
      _Value: -236.66667
    - _RefKeyIndex: -1
      _Value: -247.03334
    - _RefKeyIndex: -1
      _Value: -257.4
    - _RefKeyIndex: -1
      _Value: -267.76666
    - _RefKeyIndex: -1
      _Value: -278.13333
    - _RefKeyIndex: -1
      _Value: -288.5
    - _RefKeyIndex: -1
      _Value: -298.86667
    - _RefKeyIndex: -1
      _Value: -309.23334
    - _RefKeyIndex: -1
      _Value: -319.6
    - _RefKeyIndex: -1
      _Value: -329.96667
    - _RefKeyIndex: -1
      _Value: -340.3333
    - _RefKeyIndex: -1
      _Value: -350.7
    - _RefKeyIndex: -1
      _Value: -361.06668
    - _RefKeyIndex: -1
      _Value: -371.43332
    - _RefKeyIndex: -1
      _Value: -381.8
    - _RefKeyIndex: -1
      _Value: -392.1667
    - _RefKeyIndex: -1
      _Value: -402.53333
    - _RefKeyIndex: -1
      _Value: -412.9
    - _RefKeyIndex: -1
      _Value: -423.26666
    - _RefKeyIndex: -1
      _Value: -433.63333
    - _RefKeyIndex: -1
      _Value: -444
    - _RefKeyIndex: -1
      _Value: -454.36667
    - _RefKeyIndex: -1
      _Value: -464.7333
    - _RefKeyIndex: -1
      _Value: -475.09998
    - _RefKeyIndex: -1
      _Value: -485.4667
    - _RefKeyIndex: -1
      _Value: -495.83334
    - _RefKeyIndex: -1
      _Value: -506.2
    - _RefKeyIndex: -1
      _Value: -516.56665
    - _RefKeyIndex: -1
      _Value: -526.93335
    - _RefKeyIndex: -1
      _Value: -537.3
    - _RefKeyIndex: -1
      _Value: -547.6666
    - _RefKeyIndex: -1
      _Value: -558.0333
    - _RefKeyIndex: -1
      _Value: -568.4
    - _RefKeyIndex: -1
      _Value: -578.76666
    - _RefKeyIndex: -1
      _Value: -589.13336
    - _RefKeyIndex: -1
      _Value: -599.5
    - _RefKeyIndex: -1
      _Value: -609.86664
    - _RefKeyIndex: -1
      _Value: -620.23334
    - _RefKeyIndex: -1
      _Value: -630.6
    - _RefKeyIndex: -1
      _Value: -640.9667
    - _RefKeyIndex: -1
      _Value: -651.3334
    - _RefKeyIndex: -1
      _Value: -661.7
    - _RefKeyIndex: -1
      _Value: -672.06665
    - _RefKeyIndex: -1
      _Value: -682.43335
    - _RefKeyIndex: -1
      _Value: -692.8
    - _RefKeyIndex: -1
      _Value: -703.1666
    - _RefKeyIndex: -1
      _Value: -713.5333
    - _RefKeyIndex: -1
      _Value: -723.9
    - _RefKeyIndex: -1
      _Value: -734.26666
    - _RefKeyIndex: -1
      _Value: -744.63336
    - _RefKeyIndex: -1
      _Value: -755
    - _RefKeyIndex: -1
      _Value: -765.36664
    - _RefKeyIndex: -1
      _Value: -775.73334
    - _RefKeyIndex: -1
      _Value: -786.1
    - _RefKeyIndex: -1
      _Value: -796.4667
    - _RefKeyIndex: -1
      _Value: -806.8334
    - _RefKeyIndex: -1
      _Value: -817.2
    - _RefKeyIndex: -1
      _Value: -827.56665
    - _RefKeyIndex: -1
      _Value: -837.93335
    - _RefKeyIndex: -1
      _Value: -848.3
    - _RefKeyIndex: -1
      _Value: -858.6666
    - _RefKeyIndex: -1
      _Value: -869.0333
    - _RefKeyIndex: -1
      _Value: -879.4
    - _RefKeyIndex: -1
      _Value: -889.76666
    - _RefKeyIndex: -1
      _Value: -900.13336
    - _RefKeyIndex: -1
      _Value: -910.5
    - _RefKeyIndex: -1
      _Value: -920.86664
    - _RefKeyIndex: -1
      _Value: -931.23334
    - _RefKeyIndex: -1
      _Value: -941.6
    - _RefKeyIndex: -1
      _Value: -951.9667
    - _RefKeyIndex: -1
      _Value: -962.3334
    - _RefKeyIndex: -1
      _Value: -972.7
    - _RefKeyIndex: -1
      _Value: -983.06665
    - _RefKeyIndex: -1
      _Value: -993.43335
    - _RefKeyIndex: -1
      _Value: -1003.8
    - _RefKeyIndex: -1
      _Value: -1014.1666
    - _RefKeyIndex: -1
      _Value: -1024.5333
    - _RefKeyIndex: -1
      _Value: -1034.9
    - _RefKeyIndex: -1
      _Value: -1045.2667
    - _RefKeyIndex: -1
      _Value: -1055.6333
    - _RefKeyIndex: 1
      _Value: 0
    - _RefKeyIndex: 1
      _Value: 0
    - _RefKeyIndex: 1
      _Value: 0
    - _RefKeyIndex: 1
      _Value: 0
    - _RefKeyIndex: 1
      _Value: 0
    - _RefKeyIndex: 1
      _Value: 0
    - _RefKeyIndex: 1
      _Value: 0
    - _RefKeyIndex: 1
      _Value: 0
    - _RefKeyIndex: 1
      _Value: 0
    - _RefKeyIndex: 1
      _Value: 0
    - _RefKeyIndex: 1
      _Value: 0
    - _RefKeyIndex: 1
      _Value: 0
    - _RefKeyIndex: 1
      _Value: 0
    - _RefKeyIndex: 1
      _Value: 0
    - _RefKeyIndex: 1
      _Value: 0
    - _RefKeyIndex: 1
      _Value: 0
    - _RefKeyIndex: 1
      _Value: 0
    - _RefKeyIndex: 1
      _Value: 0
    - _RefKeyIndex: 1
      _Value: 0
    - _RefKeyIndex: 1
      _Value: 0
    - _RefKeyIndex: 1
      _Value: 0
    - _RefKeyIndex: 1
      _Value: 0
    - _RefKeyIndex: 1
      _Value: 0
    - _RefKeyIndex: 1
      _Value: 0
    - _RefKeyIndex: 1
      _Value: 0
    - _RefKeyIndex: 1
      _Value: 0
    - _RefKeyIndex: 1
      _Value: 0
    - _RefKeyIndex: 1
      _Value: 0
    - _RefKeyIndex: 1
      _Value: 0
    - _RefKeyIndex: 1
      _Value: 0
    - _RefKeyIndex: 1
      _Value: 0
    - _RefKeyIndex: 1
      _Value: 0
    - _RefKeyIndex: 1
      _Value: 0
    - _RefKeyIndex: 1
      _Value: 0
    - _RefKeyIndex: 1
      _Value: 0
    - _RefKeyIndex: 1
      _Value: 0
    - _RefKeyIndex: 1
      _Value: 0
    - _RefKeyIndex: 1
      _Value: 0
    - _RefKeyIndex: 1
      _Value: 0
    - _RefKeyIndex: 1
      _Value: 0
    - _RefKeyIndex: 1
      _Value: 0
    - _RefKeyIndex: 1
      _Value: 0
    - _RefKeyIndex: 1
      _Value: 0
    - _RefKeyIndex: 1
      _Value: 0
    - _RefKeyIndex: 1
      _Value: 0
    - _RefKeyIndex: 1
      _Value: 0
    - _RefKeyIndex: 1
      _Value: 0
    - _RefKeyIndex: 1
      _Value: 0
    - _RefKeyIndex: 1
      _Value: 0
    - _RefKeyIndex: 1
      _Value: 0
    - _RefKeyIndex: 1
      _Value: 0
    - _RefKeyIndex: 1
      _Value: 0
    - _RefKeyIndex: 1
      _Value: 0
    - _RefKeyIndex: 1
      _Value: 0
    - _RefKeyIndex: 1
      _Value: 0
    - _RefKeyIndex: 1
      _Value: 0
    - _RefKeyIndex: 1
      _Value: 0
    - _RefKeyIndex: 1
      _Value: 0
    - _RefKeyIndex: 1
      _Value: 0
    - _RefKeyIndex: 1
      _Value: 0
    - _RefKeyIndex: 1
      _Value: 0
    AngleValues:
    - _RefKeyIndex: 0
      _Value: 0
    ScaleXValues:
    - _RefKeyIndex: 0
      _Value: 0
    ScaleYValues:
    - _RefKeyIndex: 0
      _Value: 0
    TransValues: []
    PrioValues: []
    FlipHValues: []
    FlipVValues: []
    HideValues:
    - _RefKeyIndex: 0
      _Value: 0
    - _RefKeyIndex: 0
      _Value: 0
    - _RefKeyIndex: 0
      _Value: 0
    - _RefKeyIndex: 0
      _Value: 0
    - _RefKeyIndex: 0
      _Value: 0
    - _RefKeyIndex: 0
      _Value: 0
    - _RefKeyIndex: 0
      _Value: 0
    - _RefKeyIndex: 0
      _Value: 0
    - _RefKeyIndex: 0
      _Value: 0
    - _RefKeyIndex: 0
      _Value: 0
    - _RefKeyIndex: 0
      _Value: 0
    - _RefKeyIndex: 0
      _Value: 0
    - _RefKeyIndex: 0
      _Value: 0
    - _RefKeyIndex: 0
      _Value: 0
    - _RefKeyIndex: 0
      _Value: 0
    - _RefKeyIndex: 0
      _Value: 0
    - _RefKeyIndex: 0
      _Value: 0
    - _RefKeyIndex: 0
      _Value: 0
    - _RefKeyIndex: 0
      _Value: 0
    - _RefKeyIndex: 0
      _Value: 0
    - _RefKeyIndex: 0
      _Value: 0
    - _RefKeyIndex: 0
      _Value: 0
    - _RefKeyIndex: 0
      _Value: 0
    - _RefKeyIndex: 0
      _Value: 0
    - _RefKeyIndex: 0
      _Value: 0
    - _RefKeyIndex: 0
      _Value: 0
    - _RefKeyIndex: 0
      _Value: 0
    - _RefKeyIndex: 0
      _Value: 0
    - _RefKeyIndex: 0
      _Value: 0
    - _RefKeyIndex: 0
      _Value: 0
    - _RefKeyIndex: 0
      _Value: 0
    - _RefKeyIndex: 0
      _Value: 0
    - _RefKeyIndex: 0
      _Value: 0
    - _RefKeyIndex: 0
      _Value: 0
    - _RefKeyIndex: 0
      _Value: 0
    - _RefKeyIndex: 0
      _Value: 0
    - _RefKeyIndex: 0
      _Value: 0
    - _RefKeyIndex: 0
      _Value: 0
    - _RefKeyIndex: 0
      _Value: 0
    - _RefKeyIndex: 0
      _Value: 0
    - _RefKeyIndex: 0
      _Value: 0
    - _RefKeyIndex: 0
      _Value: 0
    - _RefKeyIndex: 0
      _Value: 0
    - _RefKeyIndex: 0
      _Value: 0
    - _RefKeyIndex: 0
      _Value: 0
    - _RefKeyIndex: 0
      _Value: 0
    - _RefKeyIndex: 0
      _Value: 0
    - _RefKeyIndex: 0
      _Value: 0
    - _RefKeyIndex: 0
      _Value: 0
    - _RefKeyIndex: 0
      _Value: 0
    - _RefKeyIndex: 0
      _Value: 0
    - _RefKeyIndex: 0
      _Value: 0
    - _RefKeyIndex: 0
      _Value: 0
    - _RefKeyIndex: 0
      _Value: 0
    - _RefKeyIndex: 0
      _Value: 0
    - _RefKeyIndex: 0
      _Value: 0
    - _RefKeyIndex: 0
      _Value: 0
    - _RefKeyIndex: 0
      _Value: 0
    - _RefKeyIndex: 0
      _Value: 0
    - _RefKeyIndex: 0
      _Value: 0
    - _RefKeyIndex: 0
      _Value: 0
    - _RefKeyIndex: 0
      _Value: 0
    - _RefKeyIndex: 0
      _Value: 0
    - _RefKeyIndex: 0
      _Value: 0
    - _RefKeyIndex: 0
      _Value: 0
    - _RefKeyIndex: 0
      _Value: 0
    - _RefKeyIndex: 0
      _Value: 0
    - _RefKeyIndex: 0
      _Value: 0
    - _RefKeyIndex: 0
      _Value: 0
    - _RefKeyIndex: 0
      _Value: 0
    - _RefKeyIndex: 0
      _Value: 0
    - _RefKeyIndex: 0
      _Value: 0
    - _RefKeyIndex: 0
      _Value: 0
    - _RefKeyIndex: 0
      _Value: 0
    - _RefKeyIndex: 0
      _Value: 0
    - _RefKeyIndex: 0
      _Value: 0
    - _RefKeyIndex: 0
      _Value: 0
    - _RefKeyIndex: 0
      _Value: 0
    - _RefKeyIndex: 0
      _Value: 0
    - _RefKeyIndex: 0
      _Value: 0
    - _RefKeyIndex: 0
      _Value: 0
    - _RefKeyIndex: 0
      _Value: 0
    - _RefKeyIndex: 0
      _Value: 0
    - _RefKeyIndex: 0
      _Value: 0
    - _RefKeyIndex: 0
      _Value: 0
    - _RefKeyIndex: 0
      _Value: 0
    - _RefKeyIndex: 0
      _Value: 0
    - _RefKeyIndex: 0
      _Value: 0
    - _RefKeyIndex: 0
      _Value: 0
    - _RefKeyIndex: 0
      _Value: 0
    - _RefKeyIndex: 0
      _Value: 0
    - _RefKeyIndex: 0
      _Value: 0
    - _RefKeyIndex: 0
      _Value: 0
    - _RefKeyIndex: 0
      _Value: 0
    - _RefKeyIndex: 0
      _Value: 0
    - _RefKeyIndex: 0
      _Value: 0
    - _RefKeyIndex: 0
      _Value: 0
    - _RefKeyIndex: 0
      _Value: 0
    - _RefKeyIndex: 0
      _Value: 0
    - _RefKeyIndex: 0
      _Value: 0
    - _RefKeyIndex: 0
      _Value: 0
    - _RefKeyIndex: 0
      _Value: 0
    - _RefKeyIndex: 0
      _Value: 0
    - _RefKeyIndex: 0
      _Value: 0
    - _RefKeyIndex: 0
      _Value: 0
    - _RefKeyIndex: 0
      _Value: 0
    - _RefKeyIndex: 0
      _Value: 0
    - _RefKeyIndex: 0
      _Value: 0
    - _RefKeyIndex: 0
      _Value: 0
    - _RefKeyIndex: 0
      _Value: 0
    - _RefKeyIndex: 0
      _Value: 0
    - _RefKeyIndex: 0
      _Value: 0
    - _RefKeyIndex: 0
      _Value: 0
    - _RefKeyIndex: 0
      _Value: 0
    - _RefKeyIndex: 0
      _Value: 0
    - _RefKeyIndex: 0
      _Value: 0
    - _RefKeyIndex: 0
      _Value: 0
    - _RefKeyIndex: 0
      _Value: 0
    - _RefKeyIndex: 0
      _Value: 0
    - _RefKeyIndex: 0
      _Value: 0
    - _RefKeyIndex: 0
      _Value: 0
    - _RefKeyIndex: 0
      _Value: 0
    - _RefKeyIndex: 0
      _Value: 0
    - _RefKeyIndex: 0
      _Value: 0
    - _RefKeyIndex: 0
      _Value: 0
    - _RefKeyIndex: 0
      _Value: 0
    - _RefKeyIndex: 0
      _Value: 0
    - _RefKeyIndex: 0
      _Value: 0
    - _RefKeyIndex: 0
      _Value: 0
    - _RefKeyIndex: 0
      _Value: 0
    - _RefKeyIndex: 0
      _Value: 0
    - _RefKeyIndex: 0
      _Value: 0
    - _RefKeyIndex: 0
      _Value: 0
    - _RefKeyIndex: 0
      _Value: 0
    - _RefKeyIndex: 0
      _Value: 0
    - _RefKeyIndex: 0
      _Value: 0
    - _RefKeyIndex: 0
      _Value: 0
    - _RefKeyIndex: 0
      _Value: 0
    - _RefKeyIndex: 0
      _Value: 0
    - _RefKeyIndex: 0
      _Value: 0
    - _RefKeyIndex: 0
      _Value: 0
    - _RefKeyIndex: 0
      _Value: 0
    - _RefKeyIndex: 0
      _Value: 0
    - _RefKeyIndex: 0
      _Value: 0
    - _RefKeyIndex: 0
      _Value: 0
    - _RefKeyIndex: 0
      _Value: 0
    - _RefKeyIndex: 0
      _Value: 0
    - _RefKeyIndex: 0
      _Value: 0
    - _RefKeyIndex: 0
      _Value: 0
    - _RefKeyIndex: 0
      _Value: 0
    - _RefKeyIndex: 0
      _Value: 0
    - _RefKeyIndex: 0
      _Value: 0
    - _RefKeyIndex: 0
      _Value: 0
    - _RefKeyIndex: 0
      _Value: 0
    - _RefKeyIndex: 0
      _Value: 0
    - _RefKeyIndex: 0
      _Value: 0
    - _RefKeyIndex: 0
      _Value: 0
    - _RefKeyIndex: 0
      _Value: 0
    - _RefKeyIndex: 0
      _Value: 0
    - _RefKeyIndex: 0
      _Value: 0
    - _RefKeyIndex: 0
      _Value: 0
    - _RefKeyIndex: 0
      _Value: 0
    - _RefKeyIndex: 0
      _Value: 0
    - _RefKeyIndex: 0
      _Value: 0
    - _RefKeyIndex: 0
      _Value: 0
    - _RefKeyIndex: 0
      _Value: 0
    - _RefKeyIndex: 0
      _Value: 0
    - _RefKeyIndex: 0
      _Value: 0
    - _RefKeyIndex: 0
      _Value: 0
    - _RefKeyIndex: 0
      _Value: 0
    - _RefKeyIndex: 0
      _Value: 0
    - _RefKeyIndex: 0
      _Value: 0
    - _RefKeyIndex: 0
      _Value: 0
    - _RefKeyIndex: 0
      _Value: 0
    - _RefKeyIndex: 0
      _Value: 0
    - _RefKeyIndex: 0
      _Value: 0
    - _RefKeyIndex: 0
      _Value: 0
    - _RefKeyIndex: 0
      _Value: 0
    - _RefKeyIndex: 0
      _Value: 0
    - _RefKeyIndex: 0
      _Value: 0
    - _RefKeyIndex: 0
      _Value: 0
    PartsColValues: []
    PartsPalValues: []
    VertexValues: []
    UserValues: []
    SoundValues: []
    ImageOffsetXValues: []
    ImageOffsetYValues: []
    ImageOffsetWValues: []
    ImageOffsetHValues: []
    OriginOffsetXValues: []
    OriginOffsetYValues: []
    _hasAttrFlags: 543
    HasTrancparency: 0
    FrameNum: 181
    imageFile:
      path: Assets/Resources/Atlas/StarS_Map01/StarS_Map01.png
      texture: {fileID: 2800000, guid: 3b25a7a61699d5843869a2e13bd85106, type: 3}
      materials:
      - {fileID: 0}
      - {fileID: 0}
      - {fileID: 0}
      - {fileID: 0}
      - {fileID: 0}
      - {fileID: 2100000, guid: cfa3dddd5460b5d4a992db2edb67ac8b, type: 2}
      - {fileID: 0}
      - {fileID: 0}
      - {fileID: 0}
      - {fileID: 0}
      - {fileID: 0}
      - {fileID: 0}
      - {fileID: 0}
      - {fileID: 0}
      - {fileID: 0}
      - {fileID: 0}
      - {fileID: 0}
      - {fileID: 0}
      - {fileID: 0}
      - {fileID: 0}
      - {fileID: 0}
      - {fileID: 0}
      - {fileID: 0}
      - {fileID: 0}
      - {fileID: 0}
      - {fileID: 0}
      - {fileID: 0}
      - {fileID: 0}
      - {fileID: 0}
      - {fileID: 0}
      - {fileID: 0}
      - {fileID: 0}
      - {fileID: 0}
      - {fileID: 0}
      - {fileID: 0}
      - {fileID: 0}
      - {fileID: 0}
      - {fileID: 0}
      - {fileID: 0}
      - {fileID: 0}
      - {fileID: 0}
      - {fileID: 0}
      - {fileID: 0}
      - {fileID: 0}
      - {fileID: 0}
      - {fileID: 0}
      - {fileID: 0}
      - {fileID: 0}
      - {fileID: 0}
      - {fileID: 0}
      width: 2048
      height: 2048
      bpp: 0
    UVs:
    - {x: 0.00390625, y: 0.13769531}
    - {x: 0.091796875, y: 0.13769531}
    - {x: 0.091796875, y: 0.072753906}
    - {x: 0.00390625, y: 0.072753906}
    OrgVertices:
    - {x: -90, y: 66, z: 0}
    - {x: 90, y: 66, z: 0}
    - {x: 90, y: -67, z: 0}
    - {x: -90, y: -67, z: 0}
  ImportedTime: -636359982
  ImportedTimeHigh: -1999271742
